<?xml version="1.0" encoding="UTF-8" standalone="no"?>
<!DOCTYPE svg PUBLIC "-//W3C//DTD SVG 1.1//EN"
 "http://www.w3.org/Graphics/SVG/1.1/DTD/svg11.dtd">
<!-- Generated by graphviz version 2.38.0 (20140413.2041)
 -->
<!-- Title: %3 Pages: 1 -->
<svg width="371pt" height="764pt"
 viewBox="0.00 0.00 370.70 764.00" xmlns="http://www.w3.org/2000/svg" xmlns:xlink="http://www.w3.org/1999/xlink">
<g id="graph0" class="graph" transform="scale(1 1) rotate(0) translate(4 760)">
<title>%3</title>
<!-- All -->
<g id="node1" class="node"><title>All</title>
<ellipse fill="lightgreen" stroke="black" cx="223.345" cy="-738" rx="27" ry="18"/>
<text text-anchor="middle" x="223.345" y="-734.3" font-family="Times,serif" font-size="14.00">All</text>
</g>
<!-- Msol -->
<g id="node2" class="node"><title>Msol</title>
<ellipse fill="#000000" stroke="black" cx="186.345" cy="-666" rx="29.4969" ry="18"/>
<text text-anchor="middle" x="186.345" y="-662.3" font-family="Times,serif" font-size="14.00">Msol</text>
</g>
<!-- All&#45;&gt;Msol -->
<g id="edge1" class="edge"><title>All&#45;&gt;Msol</title>
<path fill="none" stroke="black" d="M214.764,-720.765C210.345,-712.404 204.854,-702.016 199.88,-692.606"/>
<polygon fill="black" stroke="black" points="202.905,-690.839 195.137,-683.633 196.716,-694.11 202.905,-690.839"/>
</g>
<!-- W -->
<g id="node18" class="node"><title>W</title>
<ellipse fill="#000000" stroke="black" cx="260.345" cy="-666" rx="27" ry="18"/>
<text text-anchor="middle" x="260.345" y="-662.3" font-family="Times,serif" font-size="14.00">W</text>
</g>
<!-- All&#45;&gt;W -->
<g id="edge23" class="edge"><title>All&#45;&gt;W</title>
<path fill="none" stroke="black" d="M231.927,-720.765C236.41,-712.283 241.996,-701.714 247.027,-692.197"/>
<polygon fill="black" stroke="black" points="250.232,-693.624 251.81,-683.147 244.043,-690.353 250.232,-693.624"/>
</g>
<!-- Ap -->
<g id="node3" class="node"><title>Ap</title>
<ellipse fill="lightgreen" stroke="black" cx="112.345" cy="-594" rx="27" ry="18"/>
<text text-anchor="middle" x="112.345" y="-590.3" font-family="Times,serif" font-size="14.00">Ap</text>
</g>
<!-- Msol&#45;&gt;Ap -->
<g id="edge2" class="edge"><title>Msol&#45;&gt;Ap</title>
<path fill="none" stroke="black" d="M171.013,-650.496C160.525,-640.575 146.451,-627.262 134.717,-616.163"/>
<polygon fill="black" stroke="black" points="137.075,-613.575 127.405,-609.246 132.265,-618.661 137.075,-613.575"/>
</g>
<!-- Gsol -->
<g id="node15" class="node"><title>Gsol</title>
<ellipse fill="lightgrey" stroke="black" cx="316.345" cy="-450" rx="27.0966" ry="18"/>
<text text-anchor="middle" x="316.345" y="-446.3" font-family="Times,serif" font-size="14.00">Gsol</text>
</g>
<!-- Msol&#45;&gt;Gsol -->
<g id="edge17" class="edge"><title>Msol&#45;&gt;Gsol</title>
<path fill="none" stroke="black" d="M209.028,-654.147C237.009,-640.6 281.606,-618.423 287.345,-612 320.444,-574.957 321.852,-513.377 319.423,-478.08"/>
<polygon fill="black" stroke="black" points="322.903,-477.697 318.577,-468.026 315.928,-478.284 322.903,-477.697"/>
</g>
<!-- Com -->
<g id="node17" class="node"><title>Com</title>
<ellipse fill="lightgrey" stroke="black" cx="224.345" cy="-450" rx="28.6953" ry="18"/>
<text text-anchor="middle" x="224.345" y="-446.3" font-family="Times,serif" font-size="14.00">Com</text>
</g>
<!-- Msol&#45;&gt;Com -->
<g id="edge20" class="edge"><title>Msol&#45;&gt;Com</title>
<path fill="none" stroke="black" d="M189.391,-647.849C195.98,-610.74 211.605,-522.747 219.541,-478.054"/>
<polygon fill="black" stroke="black" points="223.036,-478.393 221.338,-467.935 216.144,-477.169 223.036,-478.393"/>
</g>
<!-- Σ3 -->
<g id="node4" class="node"><title>Σ3</title>
<ellipse fill="lightgreen" stroke="black" cx="93.3454" cy="-522" rx="27" ry="18"/>
<text text-anchor="middle" x="93.3454" y="-518.3" font-family="Times,serif" font-size="14.00">Σ3</text>
</g>
<!-- Ap&#45;&gt;Σ3 -->
<g id="edge3" class="edge"><title>Ap&#45;&gt;Σ3</title>
<path fill="none" stroke="black" d="M107.746,-576.055C105.599,-568.145 102.992,-558.54 100.589,-549.688"/>
<polygon fill="black" stroke="black" points="103.9,-548.523 97.9025,-539.789 97.1443,-550.357 103.9,-548.523"/>
</g>
<!-- Σ2 -->
<g id="node5" class="node"><title>Σ2</title>
<ellipse fill="lightgrey" stroke="black" cx="93.3454" cy="-450" rx="27" ry="18"/>
<text text-anchor="middle" x="93.3454" y="-446.3" font-family="Times,serif" font-size="14.00">Σ2</text>
</g>
<!-- Σ3&#45;&gt;Σ2 -->
<g id="edge4" class="edge"><title>Σ3&#45;&gt;Σ2</title>
<path fill="none" stroke="black" d="M93.3454,-503.697C93.3454,-495.983 93.3454,-486.712 93.3454,-478.112"/>
<polygon fill="black" stroke="black" points="96.8455,-478.104 93.3454,-468.104 89.8455,-478.104 96.8455,-478.104"/>
</g>
<!-- DA -->
<g id="node6" class="node"><title>DA</title>
<ellipse fill="lightgrey" stroke="black" cx="97.3454" cy="-378" rx="27" ry="18"/>
<text text-anchor="middle" x="97.3454" y="-374.3" font-family="Times,serif" font-size="14.00">DA</text>
</g>
<!-- Σ2&#45;&gt;DA -->
<g id="edge5" class="edge"><title>Σ2&#45;&gt;DA</title>
<path fill="none" stroke="black" d="M94.3342,-431.697C94.775,-423.983 95.3047,-414.712 95.7962,-406.112"/>
<polygon fill="black" stroke="black" points="99.2918,-406.288 96.3681,-396.104 92.3032,-405.888 99.2918,-406.288"/>
</g>
<!-- Idempotent -->
<g id="node7" class="node"><title>Idempotent</title>
<ellipse fill="lightgrey" stroke="black" cx="51.3454" cy="-234" rx="51.1914" ry="18"/>
<text text-anchor="middle" x="51.3454" y="-230.3" font-family="Times,serif" font-size="14.00">Idempotent</text>
</g>
<!-- DA&#45;&gt;Idempotent -->
<g id="edge6" class="edge"><title>DA&#45;&gt;Idempotent</title>
<path fill="none" stroke="black" d="M84.1332,-361.887C76.1374,-351.846 66.5162,-337.98 61.3454,-324 54.0301,-304.222 51.6591,-280.422 51.0468,-262.411"/>
<polygon fill="black" stroke="black" points="54.5441,-262.227 50.8648,-252.292 47.5453,-262.353 54.5441,-262.227"/>
</g>
<!-- R -->
<g id="node10" class="node"><title>R</title>
<ellipse fill="#000000" stroke="black" cx="97.3454" cy="-306" rx="27" ry="18"/>
<text text-anchor="middle" x="97.3454" y="-302.3" font-family="Times,serif" font-size="14.00">R</text>
</g>
<!-- DA&#45;&gt;R -->
<g id="edge9" class="edge"><title>DA&#45;&gt;R</title>
<path fill="none" stroke="black" d="M97.3454,-359.697C97.3454,-351.983 97.3454,-342.712 97.3454,-334.112"/>
<polygon fill="black" stroke="black" points="100.846,-334.104 97.3454,-324.104 93.8455,-334.104 100.846,-334.104"/>
</g>
<!-- L -->
<g id="node14" class="node"><title>L</title>
<ellipse fill="#000000" stroke="black" cx="169.345" cy="-306" rx="27" ry="18"/>
<text text-anchor="middle" x="169.345" y="-302.3" font-family="Times,serif" font-size="14.00">L</text>
</g>
<!-- DA&#45;&gt;L -->
<g id="edge15" class="edge"><title>DA&#45;&gt;L</title>
<path fill="none" stroke="black" d="M111.916,-362.834C122.095,-352.938 135.869,-339.546 147.376,-328.359"/>
<polygon fill="black" stroke="black" points="149.82,-330.865 154.55,-321.385 144.94,-325.846 149.82,-330.865"/>
</g>
<!-- SemiLattice -->
<g id="node8" class="node"><title>SemiLattice</title>
<ellipse fill="lightgrey" stroke="black" cx="170.345" cy="-90" rx="53.8905" ry="18"/>
<text text-anchor="middle" x="170.345" y="-86.3" font-family="Times,serif" font-size="14.00">SemiLattice</text>
</g>
<!-- Idempotent&#45;&gt;SemiLattice -->
<g id="edge7" class="edge"><title>Idempotent&#45;&gt;SemiLattice</title>
<path fill="none" stroke="black" d="M59.3732,-216.126C68.7932,-197.336 85.6522,-166.633 105.345,-144 115.344,-132.509 128.024,-121.559 139.526,-112.627"/>
<polygon fill="black" stroke="black" points="141.767,-115.321 147.637,-106.501 137.548,-109.735 141.767,-115.321"/>
</g>
<!-- Trivial -->
<g id="node9" class="node"><title>Trivial</title>
<ellipse fill="lightgrey" stroke="black" cx="240.345" cy="-18" rx="34.394" ry="18"/>
<text text-anchor="middle" x="240.345" y="-14.3" font-family="Times,serif" font-size="14.00">Trivial</text>
</g>
<!-- SemiLattice&#45;&gt;Trivial -->
<g id="edge8" class="edge"><title>SemiLattice&#45;&gt;Trivial</title>
<path fill="none" stroke="black" d="M186.581,-72.7646C195.941,-63.4047 207.843,-51.5028 218.068,-41.2777"/>
<polygon fill="black" stroke="black" points="220.56,-43.7349 225.156,-34.189 215.611,-38.7852 220.56,-43.7349"/>
</g>
<!-- J -->
<g id="node11" class="node"><title>J</title>
<ellipse fill="#000000" stroke="black" cx="155.345" cy="-234" rx="27" ry="18"/>
<text text-anchor="middle" x="155.345" y="-230.3" font-family="Times,serif" font-size="14.00">J</text>
</g>
<!-- R&#45;&gt;J -->
<g id="edge10" class="edge"><title>R&#45;&gt;J</title>
<path fill="none" stroke="black" d="M109.931,-289.811C117.607,-280.546 127.571,-268.52 136.21,-258.094"/>
<polygon fill="black" stroke="black" points="139.1,-260.093 142.785,-250.159 133.71,-255.626 139.1,-260.093"/>
</g>
<!-- ACom -->
<g id="node12" class="node"><title>ACom</title>
<ellipse fill="lightgrey" stroke="black" cx="220.345" cy="-162" rx="34.394" ry="18"/>
<text text-anchor="middle" x="220.345" y="-158.3" font-family="Times,serif" font-size="14.00">ACom</text>
</g>
<!-- J&#45;&gt;ACom -->
<g id="edge11" class="edge"><title>J&#45;&gt;ACom</title>
<path fill="none" stroke="black" d="M169.13,-218.155C177.683,-208.944 188.858,-196.909 198.587,-186.432"/>
<polygon fill="black" stroke="black" points="201.437,-188.506 205.677,-178.797 196.308,-183.743 201.437,-188.506"/>
</g>
<!-- Nil -->
<g id="node13" class="node"><title>Nil</title>
<ellipse fill="#000000" stroke="black" cx="141.345" cy="-162" rx="27" ry="18"/>
<text text-anchor="middle" x="141.345" y="-158.3" font-family="Times,serif" font-size="14.00">Nil</text>
</g>
<!-- J&#45;&gt;Nil -->
<g id="edge13" class="edge"><title>J&#45;&gt;Nil</title>
<path fill="none" stroke="black" d="M151.956,-216.055C150.415,-208.346 148.551,-199.027 146.818,-190.364"/>
<polygon fill="black" stroke="black" points="150.194,-189.395 144.801,-180.275 143.33,-190.768 150.194,-189.395"/>
</g>
<!-- ACom&#45;&gt;SemiLattice -->
<g id="edge12" class="edge"><title>ACom&#45;&gt;SemiLattice</title>
<path fill="none" stroke="black" d="M208.749,-144.765C202.653,-136.23 195.047,-125.582 188.216,-116.019"/>
<polygon fill="black" stroke="black" points="190.887,-113.736 182.226,-107.633 185.191,-117.805 190.887,-113.736"/>
</g>
<!-- Nil&#45;&gt;SemiLattice -->
<g id="edge14" class="edge"><title>Nil&#45;&gt;SemiLattice</title>
<path fill="none" stroke="black" d="M148.218,-144.411C151.564,-136.335 155.667,-126.431 159.427,-117.355"/>
<polygon fill="black" stroke="black" points="162.727,-118.534 163.321,-107.956 156.26,-115.855 162.727,-118.534"/>
</g>
<!-- L&#45;&gt;J -->
<g id="edge16" class="edge"><title>L&#45;&gt;J</title>
<path fill="none" stroke="black" d="M165.956,-288.055C164.415,-280.346 162.551,-271.027 160.818,-262.364"/>
<polygon fill="black" stroke="black" points="164.194,-261.395 158.801,-252.275 157.33,-262.768 164.194,-261.395"/>
</g>
<!-- Ab -->
<g id="node16" class="node"><title>Ab</title>
<ellipse fill="lightgrey" stroke="black" cx="282.345" cy="-378" rx="27" ry="18"/>
<text text-anchor="middle" x="282.345" y="-374.3" font-family="Times,serif" font-size="14.00">Ab</text>
</g>
<!-- Gsol&#45;&gt;Ab -->
<g id="edge18" class="edge"><title>Gsol&#45;&gt;Ab</title>
<path fill="none" stroke="black" d="M308.46,-432.765C304.441,-424.491 299.458,-414.232 294.926,-404.9"/>
<polygon fill="black" stroke="black" points="297.942,-403.099 290.425,-395.633 291.645,-406.158 297.942,-403.099"/>
</g>
<!-- Ab&#45;&gt;Trivial -->
<g id="edge19" class="edge"><title>Ab&#45;&gt;Trivial</title>
<path fill="none" stroke="black" d="M282.345,-359.951C282.345,-333.292 282.345,-280.115 282.345,-235 282.345,-235 282.345,-235 282.345,-161 282.345,-119.099 265.321,-72.994 252.95,-45.0218"/>
<polygon fill="black" stroke="black" points="255.977,-43.224 248.643,-35.578 249.608,-46.1288 255.977,-43.224"/>
</g>
<!-- Com&#45;&gt;ACom -->
<g id="edge22" class="edge"><title>Com&#45;&gt;ACom</title>
<path fill="none" stroke="black" d="M224.107,-431.966C223.44,-384.291 221.551,-249.185 220.732,-190.63"/>
<polygon fill="black" stroke="black" points="224.227,-190.256 220.587,-180.306 217.228,-190.354 224.227,-190.256"/>
</g>
<!-- Com&#45;&gt;Ab -->
<g id="edge21" class="edge"><title>Com&#45;&gt;Ab</title>
<path fill="none" stroke="black" d="M236.931,-433.811C244.607,-424.546 254.571,-412.52 263.21,-402.094"/>
<polygon fill="black" stroke="black" points="266.1,-404.093 269.785,-394.159 260.71,-399.626 266.1,-404.093"/>
</g>
<!-- W&#45;&gt;Gsol -->
<g id="edge24" class="edge"><title>W&#45;&gt;Gsol</title>
<path fill="none" stroke="black" d="M284.688,-657.851C305.733,-650.234 334.833,-635.912 348.345,-612 371.96,-570.211 361.222,-550.241 348.345,-504 345.478,-493.702 340.009,-483.407 334.392,-474.666"/>
<polygon fill="black" stroke="black" points="337.124,-472.461 328.589,-466.185 331.347,-476.414 337.124,-472.461"/>
</g>
<!-- DS -->
<g id="node19" class="node"><title>DS</title>
<ellipse fill="lightgrey" stroke="black" cx="251.345" cy="-594" rx="27" ry="18"/>
<text text-anchor="middle" x="251.345" y="-590.3" font-family="Times,serif" font-size="14.00">DS</text>
</g>
<!-- W&#45;&gt;DS -->
<g id="edge25" class="edge"><title>W&#45;&gt;DS</title>
<path fill="none" stroke="black" d="M258.167,-648.055C257.176,-640.346 255.977,-631.027 254.864,-622.364"/>
<polygon fill="black" stroke="black" points="258.313,-621.747 253.567,-612.275 251.37,-622.64 258.313,-621.747"/>
</g>
<!-- DS&#45;&gt;DA -->
<g id="edge28" class="edge"><title>DS&#45;&gt;DA</title>
<path fill="none" stroke="black" d="M240.021,-577.264C213.313,-540.149 146.252,-446.961 114.511,-402.853"/>
<polygon fill="black" stroke="black" points="117.16,-400.543 108.478,-394.47 111.479,-404.632 117.16,-400.543"/>
</g>
<!-- DS&#45;&gt;Com -->
<g id="edge29" class="edge"><title>DS&#45;&gt;Com</title>
<path fill="none" stroke="black" d="M248.089,-575.871C243.487,-551.67 235.033,-507.211 229.554,-478.393"/>
<polygon fill="black" stroke="black" points="232.92,-477.359 227.614,-468.189 226.043,-478.667 232.92,-477.359"/>
</g>
<!-- G -->
<g id="node20" class="node"><title>G</title>
<ellipse fill="lightgrey" stroke="black" cx="279.345" cy="-522" rx="27" ry="18"/>
<text text-anchor="middle" x="279.345" y="-518.3" font-family="Times,serif" font-size="14.00">G</text>
</g>
<!-- DS&#45;&gt;G -->
<g id="edge26" class="edge"><title>DS&#45;&gt;G</title>
<path fill="none" stroke="black" d="M257.981,-576.411C261.259,-568.216 265.29,-558.14 268.964,-548.955"/>
<polygon fill="black" stroke="black" points="272.293,-550.055 272.757,-539.47 265.794,-547.455 272.293,-550.055"/>
</g>
<!-- G&#45;&gt;Gsol -->
<g id="edge27" class="edge"><title>G&#45;&gt;Gsol</title>
<path fill="none" stroke="black" d="M287.927,-504.765C292.41,-496.283 297.996,-485.714 303.027,-476.197"/>
<polygon fill="black" stroke="black" points="306.232,-477.624 307.81,-467.147 300.043,-474.353 306.232,-477.624"/>
</g>
</g>
</svg>
