<?xml version="1.0" encoding="UTF-8" standalone="no"?>
<!DOCTYPE svg PUBLIC "-//W3C//DTD SVG 1.1//EN"
 "http://www.w3.org/Graphics/SVG/1.1/DTD/svg11.dtd">
<!-- Generated by graphviz version 2.38.0 (20140413.2041)
 -->
<!-- Title: %3 Pages: 1 -->
<svg width="141pt" height="313pt"
 viewBox="0.00 0.00 141.00 313.00" xmlns="http://www.w3.org/2000/svg" xmlns:xlink="http://www.w3.org/1999/xlink">
<g id="graph0" class="graph" transform="scale(1 1) rotate(0) translate(4 309)">
<title>%3</title>
<!-- 0 -->
<g id="node1" class="node"><title>0</title>
<ellipse fill="lightblue" stroke="black" cx="22" cy="-109" rx="18" ry="18"/>
<ellipse fill="none" stroke="black" cx="22" cy="-109" rx="22" ry="22"/>
<text text-anchor="middle" x="22" y="-105.3" font-family="Times,serif" font-size="14.00">0</text>
</g>
<!-- 3 -->
<g id="node4" class="node"><title>3</title>
<ellipse fill="lightblue" stroke="black" cx="80" cy="-18" rx="18" ry="18"/>
<text text-anchor="middle" x="80" y="-14.3" font-family="Times,serif" font-size="14.00">3</text>
</g>
<!-- 0&#45;&gt;3 -->
<g id="edge1" class="edge"><title>0&#45;&gt;3</title>
<path fill="none" stroke="black" d="M30.2118,-88.5789C35.0551,-77.9849 41.6643,-64.8558 49,-54 52.4938,-48.8297 56.6847,-43.6085 60.839,-38.8331"/>
<polygon fill="black" stroke="black" points="63.5409,-41.0639 67.6663,-31.3052 58.3557,-36.3613 63.5409,-41.0639"/>
<text text-anchor="middle" x="57.5" y="-57.8" font-family="Times,serif" font-size="14.00">b,a</text>
</g>
<!-- 1 -->
<g id="node2" class="node"><title>1</title>
<ellipse fill="lightblue" stroke="black" cx="69" cy="-200" rx="18" ry="18"/>
<text text-anchor="middle" x="69" y="-196.3" font-family="Times,serif" font-size="14.00">1</text>
</g>
<!-- 1&#45;&gt;0 -->
<g id="edge2" class="edge"><title>1&#45;&gt;0</title>
<path fill="none" stroke="black" d="M60.8132,-183.497C54.1485,-170.877 44.5733,-152.745 36.6012,-137.649"/>
<polygon fill="black" stroke="black" points="39.6497,-135.927 31.885,-128.718 33.4598,-139.195 39.6497,-135.927"/>
<text text-anchor="middle" x="53.5" y="-152.8" font-family="Times,serif" font-size="14.00">b</text>
</g>
<!-- 1&#45;&gt;3 -->
<g id="edge3" class="edge"><title>1&#45;&gt;3</title>
<path fill="none" stroke="black" d="M70.0547,-181.741C71.9684,-150.427 76.0265,-84.0213 78.3235,-46.434"/>
<polygon fill="black" stroke="black" points="81.8319,-46.4018 78.9485,-36.2069 74.8449,-45.9748 81.8319,-46.4018"/>
<text text-anchor="middle" x="79.5" y="-105.3" font-family="Times,serif" font-size="14.00">a</text>
</g>
<!-- 2 -->
<g id="node3" class="node"><title>2</title>
<ellipse fill="#aaff80" stroke="black" cx="98" cy="-287" rx="18" ry="18"/>
<text text-anchor="middle" x="98" y="-283.3" font-family="Times,serif" font-size="14.00">2</text>
</g>
<!-- 2&#45;&gt;1 -->
<g id="edge4" class="edge"><title>2&#45;&gt;1</title>
<path fill="none" stroke="black" d="M92.4085,-269.611C88.2762,-257.499 82.568,-240.768 77.8229,-226.86"/>
<polygon fill="black" stroke="black" points="81.1159,-225.673 74.5743,-217.339 74.4909,-227.933 81.1159,-225.673"/>
<text text-anchor="middle" x="88.5" y="-239.8" font-family="Times,serif" font-size="14.00">a</text>
</g>
<!-- 2&#45;&gt;3 -->
<g id="edge5" class="edge"><title>2&#45;&gt;3</title>
<path fill="none" stroke="black" d="M99.344,-268.932C102,-230.282 106.488,-133.269 92,-54 91.4406,-50.9393 90.6633,-47.7838 89.7706,-44.6789"/>
<polygon fill="black" stroke="black" points="93.0785,-43.5335 86.6508,-35.1112 86.4234,-45.7036 93.0785,-43.5335"/>
<text text-anchor="middle" x="104.5" y="-152.8" font-family="Times,serif" font-size="14.00">b</text>
</g>
<!-- 3&#45;&gt;3 -->
<g id="edge6" class="edge"><title>3&#45;&gt;3</title>
<path fill="none" stroke="black" d="M96.6641,-25.3828C106.625,-27.0234 116,-24.5625 116,-18 116,-13.7959 112.152,-11.2751 106.768,-10.4375"/>
<polygon fill="black" stroke="black" points="106.6,-6.93988 96.6641,-10.6172 106.725,-13.9388 106.6,-6.93988"/>
<text text-anchor="middle" x="124.5" y="-14.3" font-family="Times,serif" font-size="14.00">b,a</text>
</g>
</g>
</svg>
