<?xml version="1.0" encoding="UTF-8" standalone="no"?>
<!DOCTYPE svg PUBLIC "-//W3C//DTD SVG 1.1//EN"
 "http://www.w3.org/Graphics/SVG/1.1/DTD/svg11.dtd">
<!-- Generated by graphviz version 2.38.0 (20140413.2041)
 -->
<!-- Title: %3 Pages: 1 -->
<svg width="1205pt" height="1745pt"
 viewBox="0.00 0.00 1205.00 1745.00" xmlns="http://www.w3.org/2000/svg" xmlns:xlink="http://www.w3.org/1999/xlink">
<g id="graph0" class="graph" transform="scale(1 1) rotate(0) translate(4 1741)">
<title>%3</title>
<!-- 0 -->
<g id="node1" class="node"><title>0</title>
<ellipse fill="lightblue" stroke="black" cx="425" cy="-1715" rx="18" ry="18"/>
<ellipse fill="none" stroke="black" cx="425" cy="-1715" rx="22" ry="22"/>
<text text-anchor="middle" x="425" y="-1711.3" font-family="Times,serif" font-size="14.00">0</text>
</g>
<!-- 3 -->
<g id="node4" class="node"><title>3</title>
<ellipse fill="lightblue" stroke="black" cx="623" cy="-1624" rx="18" ry="18"/>
<text text-anchor="middle" x="623" y="-1620.3" font-family="Times,serif" font-size="14.00">3</text>
</g>
<!-- 0&#45;&gt;3 -->
<g id="edge1" class="edge"><title>0&#45;&gt;3</title>
<path fill="none" stroke="black" d="M446.725,-1710.54C474.438,-1705.51 523.288,-1694.58 561,-1675 576.555,-1666.92 591.905,-1654.59 603.441,-1644.19"/>
<polygon fill="black" stroke="black" points="605.829,-1646.75 610.773,-1637.38 601.065,-1641.62 605.829,-1646.75"/>
<text text-anchor="middle" x="587.5" y="-1663.8" font-family="Times,serif" font-size="14.00">a</text>
</g>
<!-- 19 -->
<g id="node20" class="node"><title>19</title>
<ellipse fill="lightblue" stroke="black" cx="241" cy="-734" rx="18" ry="18"/>
<ellipse fill="none" stroke="black" cx="241" cy="-734" rx="22" ry="22"/>
<text text-anchor="middle" x="241" y="-730.3" font-family="Times,serif" font-size="14.00">19</text>
</g>
<!-- 0&#45;&gt;19 -->
<g id="edge2" class="edge"><title>0&#45;&gt;19</title>
<path fill="none" stroke="black" d="M402.749,-1714.13C315.302,-1714.08 0,-1708.11 0,-1625 0,-1625 0,-1625 0,-824 0,-794.103 19.0133,-788.782 45,-774 97.0445,-744.395 167.992,-736.981 208.705,-735.294"/>
<polygon fill="black" stroke="black" points="208.978,-738.787 218.86,-734.967 208.753,-731.791 208.978,-738.787"/>
<text text-anchor="middle" x="3.5" y="-1228.8" font-family="Times,serif" font-size="14.00">d</text>
</g>
<!-- 20 -->
<g id="node21" class="node"><title>20</title>
<ellipse fill="lightblue" stroke="black" cx="636" cy="-825" rx="18" ry="18"/>
<text text-anchor="middle" x="636" y="-821.3" font-family="Times,serif" font-size="14.00">20</text>
</g>
<!-- 0&#45;&gt;20 -->
<g id="edge3" class="edge"><title>0&#45;&gt;20</title>
<path fill="none" stroke="black" d="M446.251,-1708.93C481.205,-1699.18 547,-1674.29 547,-1625 547,-1625 547,-1625 547,-1049.5 547,-971.202 594.728,-887.723 620.281,-848.641"/>
<polygon fill="black" stroke="black" points="623.326,-850.384 625.964,-840.123 617.503,-846.499 623.326,-850.384"/>
<text text-anchor="middle" x="550.5" y="-1272.3" font-family="Times,serif" font-size="14.00">c</text>
</g>
<!-- 21 -->
<g id="node22" class="node"><title>21</title>
<ellipse fill="lightblue" stroke="black" cx="370" cy="-1450" rx="18" ry="18"/>
<text text-anchor="middle" x="370" y="-1446.3" font-family="Times,serif" font-size="14.00">21</text>
</g>
<!-- 0&#45;&gt;21 -->
<g id="edge4" class="edge"><title>0&#45;&gt;21</title>
<path fill="none" stroke="black" d="M417.242,-1694.36C415.011,-1688.23 412.72,-1681.39 411,-1675 392.195,-1605.11 379.319,-1520.63 373.509,-1478.17"/>
<polygon fill="black" stroke="black" points="376.952,-1477.52 372.152,-1468.07 370.015,-1478.45 376.952,-1477.52"/>
<text text-anchor="middle" x="394.5" y="-1576.8" font-family="Times,serif" font-size="14.00">b</text>
</g>
<!-- 1 -->
<g id="node2" class="node"><title>1</title>
<ellipse fill="lightblue" stroke="black" cx="962" cy="-734" rx="18" ry="18"/>
<text text-anchor="middle" x="962" y="-730.3" font-family="Times,serif" font-size="14.00">1</text>
</g>
<!-- 14 -->
<g id="node15" class="node"><title>14</title>
<ellipse fill="lightblue" stroke="black" cx="859" cy="-643" rx="18" ry="18"/>
<text text-anchor="middle" x="859" y="-639.3" font-family="Times,serif" font-size="14.00">14</text>
</g>
<!-- 1&#45;&gt;14 -->
<g id="edge5" class="edge"><title>1&#45;&gt;14</title>
<path fill="none" stroke="black" d="M947.285,-723.374C936.131,-715.843 920.623,-704.861 908,-694 897.347,-684.834 886.321,-673.749 877.433,-664.347"/>
<polygon fill="black" stroke="black" points="879.899,-661.859 870.524,-656.924 874.775,-666.629 879.899,-661.859"/>
<text text-anchor="middle" x="911.5" y="-682.8" font-family="Times,serif" font-size="14.00">b</text>
</g>
<!-- 15 -->
<g id="node16" class="node"><title>15</title>
<ellipse fill="lightblue" stroke="black" cx="1014" cy="-825" rx="18" ry="18"/>
<text text-anchor="middle" x="1014" y="-821.3" font-family="Times,serif" font-size="14.00">15</text>
</g>
<!-- 1&#45;&gt;15 -->
<g id="edge6" class="edge"><title>1&#45;&gt;15</title>
<path fill="none" stroke="black" d="M959.302,-752.097C958.382,-763.271 958.844,-777.812 965,-789 970.367,-798.755 979.749,-806.45 988.877,-812.112"/>
<polygon fill="black" stroke="black" points="987.327,-815.256 997.761,-817.097 990.752,-809.152 987.327,-815.256"/>
<text text-anchor="middle" x="968.5" y="-777.8" font-family="Times,serif" font-size="14.00">a</text>
</g>
<!-- 16 -->
<g id="node17" class="node"><title>16</title>
<ellipse fill="lightblue" stroke="black" cx="1055" cy="-18" rx="18" ry="18"/>
<text text-anchor="middle" x="1055" y="-14.3" font-family="Times,serif" font-size="14.00">16</text>
</g>
<!-- 1&#45;&gt;16 -->
<g id="edge7" class="edge"><title>1&#45;&gt;16</title>
<path fill="none" stroke="black" d="M963.833,-715.961C965.597,-698.064 968,-669.088 968,-644 968,-644 968,-644 968,-511.5 968,-402.668 980.87,-375.761 1002,-269 1018.15,-187.407 1039.07,-91.2477 1049.11,-45.6124"/>
<polygon fill="black" stroke="black" points="1052.57,-46.1636 1051.31,-35.6445 1045.74,-44.6565 1052.57,-46.1636"/>
<text text-anchor="middle" x="992.5" y="-374.3" font-family="Times,serif" font-size="14.00">d,c</text>
</g>
<!-- 2 -->
<g id="node3" class="node"><title>2</title>
<ellipse fill="lightblue" stroke="black" cx="673" cy="-109" rx="18" ry="18"/>
<ellipse fill="none" stroke="black" cx="673" cy="-109" rx="22" ry="22"/>
<text text-anchor="middle" x="673" y="-105.3" font-family="Times,serif" font-size="14.00">2</text>
</g>
<!-- 2&#45;&gt;15 -->
<g id="edge8" class="edge"><title>2&#45;&gt;15</title>
<path fill="none" stroke="black" d="M652.28,-117.609C622.989,-129.861 573,-156.933 573,-199 573,-735 573,-735 573,-735 573,-819.515 888.146,-824.741 985.621,-824.337"/>
<polygon fill="black" stroke="black" points="985.913,-827.835 995.89,-824.269 985.867,-820.835 985.913,-827.835"/>
<text text-anchor="middle" x="576.5" y="-465.3" font-family="Times,serif" font-size="14.00">a</text>
</g>
<!-- 2&#45;&gt;16 -->
<g id="edge9" class="edge"><title>2&#45;&gt;16</title>
<path fill="none" stroke="black" d="M694.357,-103.024C759.368,-87.8777 954.828,-42.3384 1027.44,-25.4203"/>
<polygon fill="black" stroke="black" points="1028.68,-28.727 1037.62,-23.0491 1027.09,-21.9096 1028.68,-28.727"/>
<text text-anchor="middle" x="913" y="-57.8" font-family="Times,serif" font-size="14.00">d,b,c</text>
</g>
<!-- 3&#45;&gt;3 -->
<g id="edge10" class="edge"><title>3&#45;&gt;3</title>
<path fill="none" stroke="black" d="M639.664,-1631.38C649.625,-1633.02 659,-1630.56 659,-1624 659,-1619.8 655.152,-1617.28 649.768,-1616.44"/>
<polygon fill="black" stroke="black" points="649.6,-1612.94 639.664,-1616.62 649.725,-1619.94 649.6,-1612.94"/>
<text text-anchor="middle" x="662.5" y="-1620.3" font-family="Times,serif" font-size="14.00">a</text>
</g>
<!-- 3&#45;&gt;19 -->
<g id="edge11" class="edge"><title>3&#45;&gt;19</title>
<path fill="none" stroke="black" d="M605.703,-1618.41C538.689,-1600.14 291.192,-1527.93 116,-1414 -22.1553,-1324.16 38,-1216.3 38,-1051.5 38,-1051.5 38,-1051.5 38,-824 38,-750.432 151.213,-737.109 208.545,-735.078"/>
<polygon fill="black" stroke="black" points="208.982,-738.569 218.889,-734.814 208.803,-731.571 208.982,-738.569"/>
<text text-anchor="middle" x="34.5" y="-1181.3" font-family="Times,serif" font-size="14.00">d</text>
</g>
<!-- 3&#45;&gt;20 -->
<g id="edge12" class="edge"><title>3&#45;&gt;20</title>
<path fill="none" stroke="black" d="M640.996,-1623.01C669.242,-1622.1 724.333,-1616.47 759,-1588 778.049,-1572.36 783,-1562.65 783,-1538 783,-1538 783,-1538 783,-915 783,-888.736 778.833,-878.217 759,-861 732.358,-837.872 691.399,-829.971 664.161,-827.304"/>
<polygon fill="black" stroke="black" points="664.354,-823.809 654.106,-826.496 663.793,-830.786 664.354,-823.809"/>
<text text-anchor="middle" x="786.5" y="-1228.8" font-family="Times,serif" font-size="14.00">c</text>
</g>
<!-- 24 -->
<g id="node25" class="node"><title>24</title>
<ellipse fill="lightblue" stroke="black" cx="623" cy="-1537" rx="18" ry="18"/>
<text text-anchor="middle" x="623" y="-1533.3" font-family="Times,serif" font-size="14.00">24</text>
</g>
<!-- 3&#45;&gt;24 -->
<g id="edge13" class="edge"><title>3&#45;&gt;24</title>
<path fill="none" stroke="black" d="M623,-1605.8C623,-1594.16 623,-1578.55 623,-1565.24"/>
<polygon fill="black" stroke="black" points="626.5,-1565.18 623,-1555.18 619.5,-1565.18 626.5,-1565.18"/>
<text text-anchor="middle" x="626.5" y="-1576.8" font-family="Times,serif" font-size="14.00">b</text>
</g>
<!-- 4 -->
<g id="node5" class="node"><title>4</title>
<ellipse fill="#aaff80" stroke="black" cx="1014" cy="-916" rx="18" ry="18"/>
<text text-anchor="middle" x="1014" y="-912.3" font-family="Times,serif" font-size="14.00">4</text>
</g>
<!-- 4&#45;&gt;15 -->
<g id="edge14" class="edge"><title>4&#45;&gt;15</title>
<path fill="none" stroke="black" d="M1014,-897.84C1014,-885.281 1014,-867.979 1014,-853.502"/>
<polygon fill="black" stroke="black" points="1017.5,-853.107 1014,-843.107 1010.5,-853.107 1017.5,-853.107"/>
<text text-anchor="middle" x="1017.5" y="-864.8" font-family="Times,serif" font-size="14.00">a</text>
</g>
<!-- 4&#45;&gt;16 -->
<g id="edge15" class="edge"><title>4&#45;&gt;16</title>
<path fill="none" stroke="black" d="M1031.97,-913.663C1074.74,-909.405 1179,-892.234 1179,-826 1179,-826 1179,-826 1179,-108 1179,-60.8491 1119.09,-36.2469 1082.56,-25.6271"/>
<polygon fill="black" stroke="black" points="1083.07,-22.139 1072.5,-22.8826 1081.23,-28.892 1083.07,-22.139"/>
<text text-anchor="middle" x="1188" y="-465.3" font-family="Times,serif" font-size="14.00">d,b</text>
</g>
<!-- 4&#45;&gt;20 -->
<g id="edge16" class="edge"><title>4&#45;&gt;20</title>
<path fill="none" stroke="black" d="M996.603,-910.484C959.835,-900.979 871.484,-878.36 797,-861 750.197,-850.092 695.482,-838.427 663.399,-831.696"/>
<polygon fill="black" stroke="black" points="663.935,-828.233 653.43,-829.611 662.502,-835.084 663.935,-828.233"/>
<text text-anchor="middle" x="860.5" y="-864.8" font-family="Times,serif" font-size="14.00">c</text>
</g>
<!-- 5 -->
<g id="node6" class="node"><title>5</title>
<ellipse fill="lightblue" stroke="black" cx="975" cy="-109" rx="18" ry="18"/>
<ellipse fill="none" stroke="black" cx="975" cy="-109" rx="22" ry="22"/>
<text text-anchor="middle" x="975" y="-105.3" font-family="Times,serif" font-size="14.00">5</text>
</g>
<!-- 5&#45;&gt;14 -->
<g id="edge17" class="edge"><title>5&#45;&gt;14</title>
<path fill="none" stroke="black" d="M961.129,-126.72C937.271,-156.172 891,-216.625 891,-242.5 891,-557 891,-557 891,-557 891,-578.749 881.711,-601.736 873.142,-618.315"/>
<polygon fill="black" stroke="black" points="869.97,-616.822 868.256,-627.277 876.115,-620.172 869.97,-616.822"/>
<text text-anchor="middle" x="894.5" y="-374.3" font-family="Times,serif" font-size="14.00">b</text>
</g>
<!-- 5&#45;&gt;15 -->
<g id="edge18" class="edge"><title>5&#45;&gt;15</title>
<path fill="none" stroke="black" d="M992.066,-122.901C1000.27,-129.859 1009.68,-139.05 1016,-149 1024.29,-162.048 1023.95,-166.843 1027,-182 1059.76,-344.985 1055,-388.756 1055,-555 1055,-735 1055,-735 1055,-735 1055,-759.628 1041.89,-784.862 1030.5,-802.142"/>
<polygon fill="black" stroke="black" points="1027.59,-800.194 1024.77,-810.408 1033.34,-804.179 1027.59,-800.194"/>
<text text-anchor="middle" x="1059.5" y="-465.3" font-family="Times,serif" font-size="14.00">a</text>
</g>
<!-- 5&#45;&gt;16 -->
<g id="edge19" class="edge"><title>5&#45;&gt;16</title>
<path fill="none" stroke="black" d="M989.302,-92.0886C1002.47,-77.442 1022.07,-55.6299 1036.44,-39.6462"/>
<polygon fill="black" stroke="black" points="1039.33,-41.6648 1043.42,-31.8879 1034.13,-36.9852 1039.33,-41.6648"/>
<text text-anchor="middle" x="1031.5" y="-57.8" font-family="Times,serif" font-size="14.00">d,c</text>
</g>
<!-- 6 -->
<g id="node7" class="node"><title>6</title>
<ellipse fill="lightblue" stroke="black" cx="348" cy="-1007" rx="18" ry="18"/>
<text text-anchor="middle" x="348" y="-1003.3" font-family="Times,serif" font-size="14.00">6</text>
</g>
<!-- 7 -->
<g id="node8" class="node"><title>7</title>
<ellipse fill="lightblue" stroke="black" cx="484" cy="-916" rx="18" ry="18"/>
<ellipse fill="none" stroke="black" cx="484" cy="-916" rx="22" ry="22"/>
<text text-anchor="middle" x="484" y="-912.3" font-family="Times,serif" font-size="14.00">7</text>
</g>
<!-- 6&#45;&gt;7 -->
<g id="edge20" class="edge"><title>6&#45;&gt;7</title>
<path fill="none" stroke="black" d="M362.714,-996.412C366.662,-993.929 370.959,-991.306 375,-989 390.193,-980.332 395.112,-980.183 410,-971 426.927,-960.559 444.973,-947.434 459.007,-936.738"/>
<polygon fill="black" stroke="black" points="461.397,-939.315 467.181,-930.438 457.124,-933.771 461.397,-939.315"/>
<text text-anchor="middle" x="435.5" y="-959.8" font-family="Times,serif" font-size="14.00">a</text>
</g>
<!-- 18 -->
<g id="node19" class="node"><title>18</title>
<ellipse fill="lightblue" stroke="black" cx="397" cy="-916" rx="18" ry="18"/>
<ellipse fill="none" stroke="black" cx="397" cy="-916" rx="22" ry="22"/>
<text text-anchor="middle" x="397" y="-912.3" font-family="Times,serif" font-size="14.00">18</text>
</g>
<!-- 6&#45;&gt;18 -->
<g id="edge21" class="edge"><title>6&#45;&gt;18</title>
<path fill="none" stroke="black" d="M356.312,-990.902C363.277,-978.253 373.4,-959.866 381.806,-944.597"/>
<polygon fill="black" stroke="black" points="385.018,-946.021 386.775,-935.573 378.886,-942.645 385.018,-946.021"/>
<text text-anchor="middle" x="384.5" y="-959.8" font-family="Times,serif" font-size="14.00">b,c</text>
</g>
<!-- 6&#45;&gt;19 -->
<g id="edge22" class="edge"><title>6&#45;&gt;19</title>
<path fill="none" stroke="black" d="M331.41,-999.735C318.876,-994.126 302.294,-984.663 293,-971 242.849,-897.27 278.578,-859.996 255,-774 254.125,-770.809 253.112,-767.505 252.04,-764.232"/>
<polygon fill="black" stroke="black" points="255.301,-762.954 248.721,-754.651 248.687,-765.246 255.301,-762.954"/>
<text text-anchor="middle" x="268.5" y="-864.8" font-family="Times,serif" font-size="14.00">d</text>
</g>
<!-- 7&#45;&gt;3 -->
<g id="edge23" class="edge"><title>7&#45;&gt;3</title>
<path fill="none" stroke="black" d="M504.183,-925.168C559.077,-948.866 707,-1023.24 707,-1136.5 707,-1538 707,-1538 707,-1538 707,-1571.85 672.88,-1597.08 648.132,-1610.93"/>
<polygon fill="black" stroke="black" points="646.387,-1607.89 639.196,-1615.67 649.67,-1614.07 646.387,-1607.89"/>
<text text-anchor="middle" x="710.5" y="-1272.3" font-family="Times,serif" font-size="14.00">a</text>
</g>
<!-- 7&#45;&gt;19 -->
<g id="edge24" class="edge"><title>7&#45;&gt;19</title>
<path fill="none" stroke="black" d="M473.47,-896.152C467.043,-885.369 458.293,-871.869 449,-861 411.367,-816.984 401.834,-803.5 352,-774 327.002,-759.202 295.522,-748.81 272.476,-742.495"/>
<polygon fill="black" stroke="black" points="273.096,-739.039 262.535,-739.879 271.315,-745.808 273.096,-739.039"/>
<text text-anchor="middle" x="437.5" y="-821.3" font-family="Times,serif" font-size="14.00">d</text>
</g>
<!-- 7&#45;&gt;20 -->
<g id="edge25" class="edge"><title>7&#45;&gt;20</title>
<path fill="none" stroke="black" d="M500.124,-900.647C513.794,-888.962 534.271,-872.566 554,-861 571.693,-850.628 593.038,-841.616 609.514,-835.336"/>
<polygon fill="black" stroke="black" points="610.911,-838.551 619.068,-831.79 608.475,-831.988 610.911,-838.551"/>
<text text-anchor="middle" x="557.5" y="-864.8" font-family="Times,serif" font-size="14.00">c</text>
</g>
<!-- 7&#45;&gt;24 -->
<g id="edge26" class="edge"><title>7&#45;&gt;24</title>
<path fill="none" stroke="black" d="M500.767,-930.725C537.736,-962.644 623,-1046.06 623,-1136.5 623,-1451 623,-1451 623,-1451 623,-1470.25 623,-1491.95 623,-1508.6"/>
<polygon fill="black" stroke="black" points="619.5,-1508.74 623,-1518.74 626.5,-1508.74 619.5,-1508.74"/>
<text text-anchor="middle" x="626.5" y="-1228.8" font-family="Times,serif" font-size="14.00">b</text>
</g>
<!-- 8 -->
<g id="node9" class="node"><title>8</title>
<ellipse fill="lightblue" stroke="black" cx="402" cy="-1007" rx="18" ry="18"/>
<text text-anchor="middle" x="402" y="-1003.3" font-family="Times,serif" font-size="14.00">8</text>
</g>
<!-- 8&#45;&gt;0 -->
<g id="edge27" class="edge"><title>8&#45;&gt;0</title>
<path fill="none" stroke="black" d="M408.901,-1023.64C415.676,-1040.43 425,-1068.08 425,-1093 425,-1625 425,-1625 425,-1625 425,-1644.01 425,-1665.31 425,-1682.3"/>
<polygon fill="black" stroke="black" points="421.5,-1682.78 425,-1692.78 428.5,-1682.78 421.5,-1682.78"/>
<text text-anchor="middle" x="428.5" y="-1359.3" font-family="Times,serif" font-size="14.00">b</text>
</g>
<!-- 8&#45;&gt;7 -->
<g id="edge28" class="edge"><title>8&#45;&gt;7</title>
<path fill="none" stroke="black" d="M415.453,-994.456C422.928,-987.837 432.255,-979.23 440,-971 448.503,-961.965 457.257,-951.499 464.696,-942.2"/>
<polygon fill="black" stroke="black" points="467.669,-944.082 471.113,-934.063 462.172,-939.748 467.669,-944.082"/>
<text text-anchor="middle" x="456.5" y="-959.8" font-family="Times,serif" font-size="14.00">a</text>
</g>
<!-- 8&#45;&gt;18 -->
<g id="edge29" class="edge"><title>8&#45;&gt;18</title>
<path fill="none" stroke="black" d="M401.036,-988.84C400.389,-977.328 399.519,-961.83 398.751,-948.176"/>
<polygon fill="black" stroke="black" points="402.246,-947.978 398.19,-938.191 395.257,-948.371 402.246,-947.978"/>
<text text-anchor="middle" x="403.5" y="-959.8" font-family="Times,serif" font-size="14.00">c</text>
</g>
<!-- 8&#45;&gt;19 -->
<g id="edge30" class="edge"><title>8&#45;&gt;19</title>
<path fill="none" stroke="black" d="M388.139,-995.058C380.622,-988.627 371.556,-980.008 365,-971 307.909,-892.565 321.744,-856.682 271,-774 268.04,-769.177 264.603,-764.238 261.133,-759.566"/>
<polygon fill="black" stroke="black" points="263.822,-757.321 254.951,-751.529 258.274,-761.589 263.822,-757.321"/>
<text text-anchor="middle" x="320.5" y="-864.8" font-family="Times,serif" font-size="14.00">d</text>
</g>
<!-- 9 -->
<g id="node10" class="node"><title>9</title>
<ellipse fill="lightblue" stroke="black" cx="283" cy="-1363" rx="18" ry="18"/>
<text text-anchor="middle" x="283" y="-1359.3" font-family="Times,serif" font-size="14.00">9</text>
</g>
<!-- 9&#45;&gt;6 -->
<g id="edge31" class="edge"><title>9&#45;&gt;6</title>
<path fill="none" stroke="black" d="M287.847,-1345.39C300.835,-1299.92 336.227,-1169.37 348,-1058 348.773,-1050.69 349.034,-1042.75 349.038,-1035.39"/>
<polygon fill="black" stroke="black" points="352.535,-1035.12 348.89,-1025.17 345.535,-1035.22 352.535,-1035.12"/>
<text text-anchor="middle" x="335.5" y="-1181.3" font-family="Times,serif" font-size="14.00">c</text>
</g>
<!-- 9&#45;&gt;8 -->
<g id="edge32" class="edge"><title>9&#45;&gt;8</title>
<path fill="none" stroke="black" d="M294.541,-1348.75C299.538,-1342.49 305.118,-1334.71 309,-1327 315.894,-1313.31 314.642,-1308.69 319,-1294 347.344,-1198.44 380.069,-1084.61 394.502,-1034.22"/>
<polygon fill="black" stroke="black" points="397.908,-1035.04 397.296,-1024.46 391.179,-1033.11 397.908,-1035.04"/>
<text text-anchor="middle" x="360.5" y="-1181.3" font-family="Times,serif" font-size="14.00">a</text>
</g>
<!-- 9&#45;&gt;19 -->
<g id="edge33" class="edge"><title>9&#45;&gt;19</title>
<path fill="none" stroke="black" d="M264.844,-1360.8C222.739,-1356.94 122,-1341.01 122,-1277 122,-1277 122,-1277 122,-824 122,-780.091 174.6,-755.228 209.858,-743.494"/>
<polygon fill="black" stroke="black" points="211.232,-746.731 219.725,-740.397 209.136,-740.052 211.232,-746.731"/>
<text text-anchor="middle" x="125.5" y="-1046.8" font-family="Times,serif" font-size="14.00">d</text>
</g>
<!-- 23 -->
<g id="node24" class="node"><title>23</title>
<ellipse fill="lightblue" stroke="black" cx="249" cy="-1276" rx="18" ry="18"/>
<text text-anchor="middle" x="249" y="-1272.3" font-family="Times,serif" font-size="14.00">23</text>
</g>
<!-- 9&#45;&gt;23 -->
<g id="edge34" class="edge"><title>9&#45;&gt;23</title>
<path fill="none" stroke="black" d="M276.605,-1346.01C271.713,-1333.78 264.872,-1316.68 259.223,-1302.56"/>
<polygon fill="black" stroke="black" points="262.33,-1300.9 255.366,-1292.92 255.831,-1303.5 262.33,-1300.9"/>
<text text-anchor="middle" x="272.5" y="-1315.8" font-family="Times,serif" font-size="14.00">b</text>
</g>
<!-- 10 -->
<g id="node11" class="node"><title>10</title>
<ellipse fill="lightblue" stroke="black" cx="172" cy="-1185" rx="18" ry="18"/>
<ellipse fill="none" stroke="black" cx="172" cy="-1185" rx="22" ry="22"/>
<text text-anchor="middle" x="172" y="-1181.3" font-family="Times,serif" font-size="14.00">10</text>
</g>
<!-- 10&#45;&gt;9 -->
<g id="edge35" class="edge"><title>10&#45;&gt;9</title>
<path fill="none" stroke="black" d="M178.14,-1206.2C181.399,-1216.42 185.627,-1228.98 190,-1240 199.752,-1264.58 199.86,-1272.31 215,-1294 228.182,-1312.88 246.9,-1331.16 261.361,-1344"/>
<polygon fill="black" stroke="black" points="259.462,-1346.98 269.309,-1350.89 264.05,-1341.7 259.462,-1346.98"/>
<text text-anchor="middle" x="218.5" y="-1272.3" font-family="Times,serif" font-size="14.00">a</text>
</g>
<!-- 10&#45;&gt;19 -->
<g id="edge36" class="edge"><title>10&#45;&gt;19</title>
<path fill="none" stroke="black" d="M167.6,-1163.25C164.175,-1145.28 160,-1118.54 160,-1095 160,-1095 160,-1095 160,-824 160,-791.58 189.761,-765.762 213.204,-750.455"/>
<polygon fill="black" stroke="black" points="215.158,-753.362 221.804,-745.111 211.463,-747.416 215.158,-753.362"/>
<text text-anchor="middle" x="163.5" y="-959.8" font-family="Times,serif" font-size="14.00">d</text>
</g>
<!-- 25 -->
<g id="node26" class="node"><title>25</title>
<ellipse fill="lightblue" stroke="black" cx="303" cy="-1094" rx="18" ry="18"/>
<text text-anchor="middle" x="303" y="-1090.3" font-family="Times,serif" font-size="14.00">25</text>
</g>
<!-- 10&#45;&gt;25 -->
<g id="edge37" class="edge"><title>10&#45;&gt;25</title>
<path fill="none" stroke="black" d="M189.94,-1171.81C213.384,-1155.88 254.463,-1127.98 280.121,-1110.54"/>
<polygon fill="black" stroke="black" points="282.194,-1113.37 288.499,-1104.85 278.26,-1107.58 282.194,-1113.37"/>
<text text-anchor="middle" x="258.5" y="-1133.8" font-family="Times,serif" font-size="14.00">b,c</text>
</g>
<!-- 11 -->
<g id="node12" class="node"><title>11</title>
<ellipse fill="lightblue" stroke="black" cx="845" cy="-200" rx="18" ry="18"/>
<text text-anchor="middle" x="845" y="-196.3" font-family="Times,serif" font-size="14.00">11</text>
</g>
<!-- 11&#45;&gt;2 -->
<g id="edge38" class="edge"><title>11&#45;&gt;2</title>
<path fill="none" stroke="black" d="M827.16,-196.738C802.65,-193.002 757.866,-183.881 725,-164 712.61,-156.505 701.168,-145.325 692.19,-135.079"/>
<polygon fill="black" stroke="black" points="694.652,-132.568 685.547,-127.151 689.286,-137.064 694.652,-132.568"/>
<text text-anchor="middle" x="733.5" y="-152.8" font-family="Times,serif" font-size="14.00">d,c</text>
</g>
<!-- 11&#45;&gt;5 -->
<g id="edge39" class="edge"><title>11&#45;&gt;5</title>
<path fill="none" stroke="black" d="M859.409,-189.135C880.909,-174.416 921.737,-146.465 948.661,-128.032"/>
<polygon fill="black" stroke="black" points="950.937,-130.715 957.211,-122.178 946.983,-124.939 950.937,-130.715"/>
<text text-anchor="middle" x="921.5" y="-152.8" font-family="Times,serif" font-size="14.00">b</text>
</g>
<!-- 26 -->
<g id="node27" class="node"><title>26</title>
<ellipse fill="lightblue" stroke="black" cx="887" cy="-109" rx="18" ry="18"/>
<ellipse fill="none" stroke="black" cx="887" cy="-109" rx="22" ry="22"/>
<text text-anchor="middle" x="887" y="-105.3" font-family="Times,serif" font-size="14.00">26</text>
</g>
<!-- 11&#45;&gt;26 -->
<g id="edge40" class="edge"><title>11&#45;&gt;26</title>
<path fill="none" stroke="black" d="M851.236,-183.064C855.226,-173.156 860.641,-160.213 866,-149 867.828,-145.175 869.842,-141.189 871.878,-137.289"/>
<polygon fill="black" stroke="black" points="874.969,-138.93 876.589,-128.459 868.794,-135.634 874.969,-138.93"/>
<text text-anchor="middle" x="869.5" y="-152.8" font-family="Times,serif" font-size="14.00">a</text>
</g>
<!-- 12 -->
<g id="node13" class="node"><title>12</title>
<ellipse fill="lightblue" stroke="black" cx="700" cy="-469" rx="18" ry="18"/>
<text text-anchor="middle" x="700" y="-465.3" font-family="Times,serif" font-size="14.00">12</text>
</g>
<!-- 12&#45;&gt;2 -->
<g id="edge41" class="edge"><title>12&#45;&gt;2</title>
<path fill="none" stroke="black" d="M692.114,-452.706C689.383,-446.715 686.607,-439.685 685,-433 657.001,-316.494 671.002,-283.756 667,-164 666.777,-157.337 666.492,-155.647 667,-149 667.197,-146.43 667.465,-143.773 667.78,-141.11"/>
<polygon fill="black" stroke="black" points="671.277,-141.365 669.171,-130.982 664.343,-140.413 671.277,-141.365"/>
<text text-anchor="middle" x="676.5" y="-283.3" font-family="Times,serif" font-size="14.00">d,c</text>
</g>
<!-- 17 -->
<g id="node18" class="node"><title>17</title>
<ellipse fill="lightblue" stroke="black" cx="752" cy="-378" rx="18" ry="18"/>
<ellipse fill="none" stroke="black" cx="752" cy="-378" rx="22" ry="22"/>
<text text-anchor="middle" x="752" y="-374.3" font-family="Times,serif" font-size="14.00">17</text>
</g>
<!-- 12&#45;&gt;17 -->
<g id="edge42" class="edge"><title>12&#45;&gt;17</title>
<path fill="none" stroke="black" d="M708.821,-452.902C716.26,-440.171 727.094,-421.627 736.049,-406.3"/>
<polygon fill="black" stroke="black" points="739.312,-407.654 741.335,-397.254 733.268,-404.122 739.312,-407.654"/>
<text text-anchor="middle" x="733.5" y="-421.8" font-family="Times,serif" font-size="14.00">b</text>
</g>
<!-- 12&#45;&gt;26 -->
<g id="edge43" class="edge"><title>12&#45;&gt;26</title>
<path fill="none" stroke="black" d="M699.831,-450.972C700.163,-410.741 705.344,-307.806 747,-236 774.897,-187.911 827.488,-148.123 859.67,-126.82"/>
<polygon fill="black" stroke="black" points="861.681,-129.687 868.168,-121.31 857.873,-123.813 861.681,-129.687"/>
<text text-anchor="middle" x="734.5" y="-283.3" font-family="Times,serif" font-size="14.00">a</text>
</g>
<!-- 13 -->
<g id="node14" class="node"><title>13</title>
<ellipse fill="lightblue" stroke="black" cx="792" cy="-287" rx="18" ry="18"/>
<text text-anchor="middle" x="792" y="-283.3" font-family="Times,serif" font-size="14.00">13</text>
</g>
<!-- 13&#45;&gt;11 -->
<g id="edge44" class="edge"><title>13&#45;&gt;11</title>
<path fill="none" stroke="black" d="M801.232,-271.194C809.288,-258.274 821.115,-239.307 830.444,-224.345"/>
<polygon fill="black" stroke="black" points="833.553,-225.974 835.874,-215.636 827.613,-222.27 833.553,-225.974"/>
<text text-anchor="middle" x="825.5" y="-239.8" font-family="Times,serif" font-size="14.00">a</text>
</g>
<!-- 22 -->
<g id="node23" class="node"><title>22</title>
<ellipse fill="lightblue" stroke="black" cx="700" cy="-200" rx="18" ry="18"/>
<text text-anchor="middle" x="700" y="-196.3" font-family="Times,serif" font-size="14.00">22</text>
</g>
<!-- 13&#45;&gt;22 -->
<g id="edge45" class="edge"><title>13&#45;&gt;22</title>
<path fill="none" stroke="black" d="M779.208,-274.181C764.051,-260.178 738.595,-236.658 720.639,-220.068"/>
<polygon fill="black" stroke="black" points="722.7,-217.208 712.98,-212.993 717.95,-222.349 722.7,-217.208"/>
<text text-anchor="middle" x="766" y="-239.8" font-family="Times,serif" font-size="14.00">d,b,c</text>
</g>
<!-- 14&#45;&gt;13 -->
<g id="edge46" class="edge"><title>14&#45;&gt;13</title>
<path fill="none" stroke="black" d="M855.768,-624.926C845,-568.03 810.277,-384.567 797.119,-315.045"/>
<polygon fill="black" stroke="black" points="800.498,-314.077 795.199,-304.903 793.62,-315.379 800.498,-314.077"/>
<text text-anchor="middle" x="844" y="-465.3" font-family="Times,serif" font-size="14.00">d,b,c</text>
</g>
<!-- 27 -->
<g id="node28" class="node"><title>27</title>
<ellipse fill="lightblue" stroke="black" cx="754" cy="-556" rx="18" ry="18"/>
<text text-anchor="middle" x="754" y="-552.3" font-family="Times,serif" font-size="14.00">27</text>
</g>
<!-- 14&#45;&gt;27 -->
<g id="edge47" class="edge"><title>14&#45;&gt;27</title>
<path fill="none" stroke="black" d="M845.119,-631.397C836.175,-624.517 824.33,-615.318 814,-607 800.912,-596.462 786.436,-584.41 774.982,-574.779"/>
<polygon fill="black" stroke="black" points="777.14,-572.021 767.239,-568.251 772.628,-577.372 777.14,-572.021"/>
<text text-anchor="middle" x="817.5" y="-595.8" font-family="Times,serif" font-size="14.00">a</text>
</g>
<!-- 15&#45;&gt;1 -->
<g id="edge48" class="edge"><title>15&#45;&gt;1</title>
<path fill="none" stroke="black" d="M1005.18,-808.902C997.137,-795.138 985.127,-774.582 975.813,-758.641"/>
<polygon fill="black" stroke="black" points="978.758,-756.743 970.691,-749.875 972.714,-760.275 978.758,-756.743"/>
<text text-anchor="middle" x="996.5" y="-777.8" font-family="Times,serif" font-size="14.00">b</text>
</g>
<!-- 15&#45;&gt;15 -->
<g id="edge49" class="edge"><title>15&#45;&gt;15</title>
<path fill="none" stroke="black" d="M1030.66,-832.383C1040.62,-834.023 1050,-831.562 1050,-825 1050,-820.796 1046.15,-818.275 1040.77,-817.438"/>
<polygon fill="black" stroke="black" points="1040.6,-813.94 1030.66,-817.617 1040.72,-820.939 1040.6,-813.94"/>
<text text-anchor="middle" x="1053.5" y="-821.3" font-family="Times,serif" font-size="14.00">a</text>
</g>
<!-- 15&#45;&gt;16 -->
<g id="edge50" class="edge"><title>15&#45;&gt;16</title>
<path fill="none" stroke="black" d="M1029.61,-815.64C1052.63,-802.042 1093,-772.809 1093,-735 1093,-735 1093,-735 1093,-108 1093,-84.043 1081.21,-59.1616 1070.76,-41.8184"/>
<polygon fill="black" stroke="black" points="1073.49,-39.5851 1065.18,-33.0126 1067.58,-43.3326 1073.49,-39.5851"/>
<text text-anchor="middle" x="1101.5" y="-421.8" font-family="Times,serif" font-size="14.00">d,c</text>
</g>
<!-- 16&#45;&gt;15 -->
<g id="edge51" class="edge"><title>16&#45;&gt;15</title>
<path fill="none" stroke="black" d="M1070.41,-27.4117C1093.14,-41.078 1133,-70.4015 1133,-108 1133,-735 1133,-735 1133,-735 1133,-780.67 1076.1,-805.736 1040.99,-816.855"/>
<polygon fill="black" stroke="black" points="1039.88,-813.532 1031.3,-819.746 1041.89,-820.239 1039.88,-813.532"/>
<text text-anchor="middle" x="1136.5" y="-421.8" font-family="Times,serif" font-size="14.00">a</text>
</g>
<!-- 16&#45;&gt;16 -->
<g id="edge52" class="edge"><title>16&#45;&gt;16</title>
<path fill="none" stroke="black" d="M1071.66,-25.3828C1081.62,-27.0234 1091,-24.5625 1091,-18 1091,-13.7959 1087.15,-11.2751 1081.77,-10.4375"/>
<polygon fill="black" stroke="black" points="1081.6,-6.93988 1071.66,-10.6172 1081.72,-13.9388 1081.6,-6.93988"/>
<text text-anchor="middle" x="1105" y="-14.3" font-family="Times,serif" font-size="14.00">d,b,c</text>
</g>
<!-- 17&#45;&gt;13 -->
<g id="edge53" class="edge"><title>17&#45;&gt;13</title>
<path fill="none" stroke="black" d="M752.26,-355.908C753.088,-345.57 755.157,-333.185 760,-323 762.831,-317.047 767.021,-311.394 771.443,-306.436"/>
<polygon fill="black" stroke="black" points="773.95,-308.878 778.421,-299.273 768.936,-303.994 773.95,-308.878"/>
<text text-anchor="middle" x="774" y="-326.8" font-family="Times,serif" font-size="14.00">d,b,c</text>
</g>
<!-- 17&#45;&gt;27 -->
<g id="edge54" class="edge"><title>17&#45;&gt;27</title>
<path fill="none" stroke="black" d="M752.239,-400.058C752.602,-431.957 753.29,-492.529 753.69,-527.748"/>
<polygon fill="black" stroke="black" points="750.191,-527.844 753.805,-537.804 757.191,-527.765 750.191,-527.844"/>
<text text-anchor="middle" x="757.5" y="-465.3" font-family="Times,serif" font-size="14.00">a</text>
</g>
<!-- 18&#45;&gt;3 -->
<g id="edge55" class="edge"><title>18&#45;&gt;3</title>
<path fill="none" stroke="black" d="M416.499,-926.293C430.445,-933.414 449.274,-944.029 464,-956 487.199,-974.859 509,-976.103 509,-1006 509,-1138.5 509,-1138.5 509,-1138.5 509,-1218.53 504,-1238.47 504,-1318.5 504,-1538 504,-1538 504,-1538 504,-1582.83 560.611,-1606.26 595.741,-1616.48"/>
<polygon fill="black" stroke="black" points="594.872,-1619.87 605.441,-1619.12 596.716,-1613.11 594.872,-1619.87"/>
<text text-anchor="middle" x="509.5" y="-1272.3" font-family="Times,serif" font-size="14.00">a</text>
</g>
<!-- 18&#45;&gt;19 -->
<g id="edge56" class="edge"><title>18&#45;&gt;19</title>
<path fill="none" stroke="black" d="M392.229,-894.061C384.348,-863.837 365.894,-807.901 331,-774 314.745,-758.208 291.069,-748.296 272.079,-742.417"/>
<polygon fill="black" stroke="black" points="272.943,-739.024 262.365,-739.628 271.011,-745.752 272.943,-739.024"/>
<text text-anchor="middle" x="378.5" y="-821.3" font-family="Times,serif" font-size="14.00">d</text>
</g>
<!-- 18&#45;&gt;20 -->
<g id="edge57" class="edge"><title>18&#45;&gt;20</title>
<path fill="none" stroke="black" d="M416.334,-904.601C438.667,-892.883 476.742,-873.805 511,-861 543.84,-848.726 582.927,-838.444 608.541,-832.267"/>
<polygon fill="black" stroke="black" points="609.386,-835.663 618.31,-829.952 607.773,-828.852 609.386,-835.663"/>
<text text-anchor="middle" x="519.5" y="-864.8" font-family="Times,serif" font-size="14.00">b,c</text>
</g>
<!-- 19&#45;&gt;19 -->
<g id="edge58" class="edge"><title>19&#45;&gt;19</title>
<path fill="none" stroke="black" d="M261.581,-742.37C271.845,-743.528 281,-740.738 281,-734 281,-729.683 277.243,-726.987 271.844,-725.911"/>
<polygon fill="black" stroke="black" points="271.673,-722.405 261.581,-725.63 271.481,-729.402 271.673,-722.405"/>
<text text-anchor="middle" x="299.5" y="-730.3" font-family="Times,serif" font-size="14.00">d,b,c,a</text>
</g>
<!-- 20&#45;&gt;3 -->
<g id="edge59" class="edge"><title>20&#45;&gt;3</title>
<path fill="none" stroke="black" d="M653.031,-831.111C683.688,-841.484 745,-868.093 745,-915 745,-1538 745,-1538 745,-1538 745,-1583.82 686.362,-1606.96 650.391,-1616.85"/>
<polygon fill="black" stroke="black" points="649.292,-1613.51 640.48,-1619.4 651.036,-1620.29 649.292,-1613.51"/>
<text text-anchor="middle" x="748.5" y="-1228.8" font-family="Times,serif" font-size="14.00">a</text>
</g>
<!-- 20&#45;&gt;19 -->
<g id="edge60" class="edge"><title>20&#45;&gt;19</title>
<path fill="none" stroke="black" d="M619.361,-817.675C602.575,-811.116 576.059,-800.258 554,-789 542.459,-783.109 541.227,-778.291 529,-774 439.955,-742.751 327.297,-736.346 273.058,-735.162"/>
<polygon fill="black" stroke="black" points="273.072,-731.662 263.013,-734.99 272.952,-738.661 273.072,-731.662"/>
<text text-anchor="middle" x="557.5" y="-777.8" font-family="Times,serif" font-size="14.00">d</text>
</g>
<!-- 20&#45;&gt;20 -->
<g id="edge61" class="edge"><title>20&#45;&gt;20</title>
<path fill="none" stroke="black" d="M652.664,-832.383C662.625,-834.023 672,-831.562 672,-825 672,-820.796 668.152,-818.275 662.768,-817.438"/>
<polygon fill="black" stroke="black" points="662.6,-813.94 652.664,-817.617 662.725,-820.939 662.6,-813.94"/>
<text text-anchor="middle" x="680.5" y="-821.3" font-family="Times,serif" font-size="14.00">b,c</text>
</g>
<!-- 21&#45;&gt;9 -->
<g id="edge62" class="edge"><title>21&#45;&gt;9</title>
<path fill="none" stroke="black" d="M357.535,-1436.82C343.193,-1422.81 319.459,-1399.62 302.63,-1383.18"/>
<polygon fill="black" stroke="black" points="305.041,-1380.64 295.442,-1376.16 300.149,-1385.65 305.041,-1380.64"/>
<text text-anchor="middle" x="335.5" y="-1402.8" font-family="Times,serif" font-size="14.00">a</text>
</g>
<!-- 21&#45;&gt;19 -->
<g id="edge63" class="edge"><title>21&#45;&gt;19</title>
<path fill="none" stroke="black" d="M352.109,-1447.6C289.497,-1442.2 84,-1420.2 84,-1364 84,-1364 84,-1364 84,-824 84,-767.027 163.21,-746.087 209.105,-738.736"/>
<polygon fill="black" stroke="black" points="209.786,-742.174 219.17,-737.255 208.767,-735.248 209.786,-742.174"/>
<text text-anchor="middle" x="87.5" y="-1090.3" font-family="Times,serif" font-size="14.00">d</text>
</g>
<!-- 21&#45;&gt;25 -->
<g id="edge64" class="edge"><title>21&#45;&gt;25</title>
<path fill="none" stroke="black" d="M368.582,-1432.02C364.615,-1387.4 352.015,-1263.36 327,-1163 323.416,-1148.62 318.016,-1133 313.245,-1120.36"/>
<polygon fill="black" stroke="black" points="316.474,-1119.01 309.601,-1110.95 309.946,-1121.54 316.474,-1119.01"/>
<text text-anchor="middle" x="361.5" y="-1272.3" font-family="Times,serif" font-size="14.00">b,c</text>
</g>
<!-- 22&#45;&gt;2 -->
<g id="edge65" class="edge"><title>22&#45;&gt;2</title>
<path fill="none" stroke="black" d="M687.721,-186.503C682.439,-180.276 676.835,-172.311 674,-164 671.544,-156.801 670.545,-148.741 670.325,-141.09"/>
<polygon fill="black" stroke="black" points="673.825,-141.07 670.445,-131.029 666.826,-140.986 673.825,-141.07"/>
<text text-anchor="middle" x="688" y="-152.8" font-family="Times,serif" font-size="14.00">d,b,c</text>
</g>
<!-- 22&#45;&gt;26 -->
<g id="edge66" class="edge"><title>22&#45;&gt;26</title>
<path fill="none" stroke="black" d="M712.985,-187.263C725.886,-176.117 746.635,-159.542 767,-149 795.427,-134.285 830.499,-123.662 855.369,-117.254"/>
<polygon fill="black" stroke="black" points="856.496,-120.58 865.353,-114.766 854.804,-113.787 856.496,-120.58"/>
<text text-anchor="middle" x="770.5" y="-152.8" font-family="Times,serif" font-size="14.00">a</text>
</g>
<!-- 23&#45;&gt;7 -->
<g id="edge67" class="edge"><title>23&#45;&gt;7</title>
<path fill="none" stroke="black" d="M266.792,-1271.85C319.472,-1262.01 471,-1229.91 471,-1186 471,-1186 471,-1186 471,-1049.5 471,-1014.61 475.521,-974.791 479.23,-947.992"/>
<polygon fill="black" stroke="black" points="482.701,-948.445 480.652,-938.05 475.772,-947.454 482.701,-948.445"/>
<text text-anchor="middle" x="474.5" y="-1090.3" font-family="Times,serif" font-size="14.00">a</text>
</g>
<!-- 23&#45;&gt;10 -->
<g id="edge68" class="edge"><title>23&#45;&gt;10</title>
<path fill="none" stroke="black" d="M234.055,-1265.51C224.687,-1259.07 212.769,-1249.95 204,-1240 197.155,-1232.23 190.984,-1222.79 185.929,-1213.99"/>
<polygon fill="black" stroke="black" points="188.958,-1212.24 181.083,-1205.15 182.819,-1215.6 188.958,-1212.24"/>
<text text-anchor="middle" x="207.5" y="-1228.8" font-family="Times,serif" font-size="14.00">b</text>
</g>
<!-- 23&#45;&gt;18 -->
<g id="edge69" class="edge"><title>23&#45;&gt;18</title>
<path fill="none" stroke="black" d="M248.259,-1257.98C247.258,-1222.94 247.627,-1140.61 269,-1076 283.147,-1033.23 292.83,-1024.15 321,-989 336.389,-969.796 356.76,-950.765 372.537,-937.096"/>
<polygon fill="black" stroke="black" points="374.978,-939.615 380.318,-930.465 370.437,-934.287 374.978,-939.615"/>
<text text-anchor="middle" x="272.5" y="-1090.3" font-family="Times,serif" font-size="14.00">c</text>
</g>
<!-- 23&#45;&gt;19 -->
<g id="edge70" class="edge"><title>23&#45;&gt;19</title>
<path fill="none" stroke="black" d="M246.125,-1257.96C245.282,-1252.26 244.463,-1245.87 244,-1240 228.238,-1040.15 238.556,-989.463 237,-789 236.948,-782.334 236.659,-780.658 237,-774 237.131,-771.442 237.31,-768.794 237.519,-766.137"/>
<polygon fill="black" stroke="black" points="241.019,-766.297 238.447,-756.02 234.048,-765.658 241.019,-766.297"/>
<text text-anchor="middle" x="239.5" y="-1003.3" font-family="Times,serif" font-size="14.00">d</text>
</g>
<!-- 24&#45;&gt;3 -->
<g id="edge71" class="edge"><title>24&#45;&gt;3</title>
<path fill="none" stroke="black" d="M616.8,-1554.14C614.856,-1559.99 612.966,-1566.7 612,-1573 610.795,-1580.85 611.772,-1589.32 613.555,-1597.01"/>
<polygon fill="black" stroke="black" points="610.261,-1598.22 616.355,-1606.89 616.995,-1596.31 610.261,-1598.22"/>
<text text-anchor="middle" x="615.5" y="-1576.8" font-family="Times,serif" font-size="14.00">a</text>
</g>
<!-- 24&#45;&gt;19 -->
<g id="edge72" class="edge"><title>24&#45;&gt;19</title>
<path fill="none" stroke="black" d="M612.415,-1522.11C601.171,-1505.94 585,-1477.99 585,-1451 585,-1451 585,-1451 585,-1136.5 585,-977.385 569.177,-906.488 445,-807 393.281,-765.564 315.941,-747.042 272.87,-739.533"/>
<polygon fill="black" stroke="black" points="273.385,-736.071 262.949,-737.893 272.244,-742.977 273.385,-736.071"/>
<text text-anchor="middle" x="588.5" y="-1133.8" font-family="Times,serif" font-size="14.00">d</text>
</g>
<!-- 24&#45;&gt;20 -->
<g id="edge73" class="edge"><title>24&#45;&gt;20</title>
<path fill="none" stroke="black" d="M633.585,-1522.11C644.829,-1505.94 661,-1477.99 661,-1451 661,-1451 661,-1451 661,-1318.5 661,-1140.98 644.598,-927.919 638.365,-853.36"/>
<polygon fill="black" stroke="black" points="641.819,-852.666 637.489,-842.996 634.844,-853.256 641.819,-852.666"/>
<text text-anchor="middle" x="663.5" y="-1181.3" font-family="Times,serif" font-size="14.00">c</text>
</g>
<!-- 24&#45;&gt;21 -->
<g id="edge74" class="edge"><title>24&#45;&gt;21</title>
<path fill="none" stroke="black" d="M606.007,-1530.29C562.798,-1515.77 448.48,-1477.37 396.454,-1459.89"/>
<polygon fill="black" stroke="black" points="397.513,-1456.55 386.919,-1456.68 395.284,-1463.19 397.513,-1456.55"/>
<text text-anchor="middle" x="515.5" y="-1489.8" font-family="Times,serif" font-size="14.00">b</text>
</g>
<!-- 25&#45;&gt;6 -->
<g id="edge75" class="edge"><title>25&#45;&gt;6</title>
<path fill="none" stroke="black" d="M298.425,-1076.38C296.547,-1066.22 295.854,-1053.25 301,-1043 305.744,-1033.55 314.379,-1026.01 322.966,-1020.38"/>
<polygon fill="black" stroke="black" points="324.899,-1023.3 331.732,-1015.21 321.341,-1017.27 324.899,-1023.3"/>
<text text-anchor="middle" x="309.5" y="-1046.8" font-family="Times,serif" font-size="14.00">b,c</text>
</g>
<!-- 25&#45;&gt;8 -->
<g id="edge76" class="edge"><title>25&#45;&gt;8</title>
<path fill="none" stroke="black" d="M316.352,-1081.54C332.885,-1067.34 361.247,-1042.99 380.776,-1026.22"/>
<polygon fill="black" stroke="black" points="383.237,-1028.72 388.544,-1019.55 378.677,-1023.41 383.237,-1028.72"/>
<text text-anchor="middle" x="362.5" y="-1046.8" font-family="Times,serif" font-size="14.00">a</text>
</g>
<!-- 25&#45;&gt;19 -->
<g id="edge77" class="edge"><title>25&#45;&gt;19</title>
<path fill="none" stroke="black" d="M296.531,-1077.04C285.613,-1049.3 263.763,-990.152 254,-938 242.779,-878.063 240.781,-806.628 240.669,-766.473"/>
<polygon fill="black" stroke="black" points="244.169,-766.254 240.68,-756.25 237.169,-766.246 244.169,-766.254"/>
<text text-anchor="middle" x="257.5" y="-912.3" font-family="Times,serif" font-size="14.00">d</text>
</g>
<!-- 26&#45;&gt;1 -->
<g id="edge78" class="edge"><title>26&#45;&gt;1</title>
<path fill="none" stroke="black" d="M898.201,-128.011C901.638,-134.407 905.031,-141.808 907,-149 949.622,-304.678 929,-350.092 929,-511.5 929,-644 929,-644 929,-644 929,-667.22 938.998,-691.842 947.987,-709.288"/>
<polygon fill="black" stroke="black" points="944.967,-711.061 952.808,-718.187 951.122,-707.727 944.967,-711.061"/>
<text text-anchor="middle" x="935.5" y="-421.8" font-family="Times,serif" font-size="14.00">b</text>
</g>
<!-- 26&#45;&gt;15 -->
<g id="edge79" class="edge"><title>26&#45;&gt;15</title>
<path fill="none" stroke="black" d="M902.821,-124.809C929.411,-150.908 982.107,-208.121 1002,-269 1035.52,-371.572 1014,-403.59 1014,-511.5 1014,-735 1014,-735 1014,-735 1014,-755.729 1014,-779.174 1014,-796.795"/>
<polygon fill="black" stroke="black" points="1010.5,-796.938 1014,-806.938 1017.5,-796.938 1010.5,-796.938"/>
<text text-anchor="middle" x="1020.5" y="-465.3" font-family="Times,serif" font-size="14.00">a</text>
</g>
<!-- 26&#45;&gt;16 -->
<g id="edge80" class="edge"><title>26&#45;&gt;16</title>
<path fill="none" stroke="black" d="M906.272,-97.7906C936.865,-81.5834 996.524,-49.9785 1030.24,-32.1157"/>
<polygon fill="black" stroke="black" points="1032.22,-35.0298 1039.42,-27.2556 1028.94,-28.8442 1032.22,-35.0298"/>
<text text-anchor="middle" x="995.5" y="-57.8" font-family="Times,serif" font-size="14.00">d,c</text>
</g>
<!-- 27&#45;&gt;11 -->
<g id="edge81" class="edge"><title>27&#45;&gt;11</title>
<path fill="none" stroke="black" d="M760.901,-539.146C763.337,-533.208 765.971,-526.36 768,-520 805.38,-402.821 804.204,-370.578 833,-251 834.839,-243.363 836.832,-235.068 838.655,-227.47"/>
<polygon fill="black" stroke="black" points="842.077,-228.209 841.006,-217.668 835.27,-226.576 842.077,-228.209"/>
<text text-anchor="middle" x="813.5" y="-374.3" font-family="Times,serif" font-size="14.00">a</text>
</g>
<!-- 27&#45;&gt;12 -->
<g id="edge82" class="edge"><title>27&#45;&gt;12</title>
<path fill="none" stroke="black" d="M744.594,-540.194C736.386,-527.274 724.336,-508.307 714.831,-493.345"/>
<polygon fill="black" stroke="black" points="717.615,-491.2 709.298,-484.636 711.706,-494.954 717.615,-491.2"/>
<text text-anchor="middle" x="734.5" y="-508.8" font-family="Times,serif" font-size="14.00">b</text>
</g>
<!-- 27&#45;&gt;22 -->
<g id="edge83" class="edge"><title>27&#45;&gt;22</title>
<path fill="none" stroke="black" d="M737.976,-547.036C718.536,-536.379 686.671,-515.468 673,-487 656.257,-452.135 671.444,-438.674 671,-400 670.775,-380.446 669.194,-375.472 671,-356 675.229,-310.401 686.313,-258.213 693.488,-227.517"/>
<polygon fill="black" stroke="black" points="696.938,-228.14 695.846,-217.601 690.128,-226.521 696.938,-228.14"/>
<text text-anchor="middle" x="679.5" y="-374.3" font-family="Times,serif" font-size="14.00">d,c</text>
</g>
</g>
</svg>
