<?xml version="1.0" encoding="UTF-8" standalone="no"?>
<!DOCTYPE svg PUBLIC "-//W3C//DTD SVG 1.1//EN"
 "http://www.w3.org/Graphics/SVG/1.1/DTD/svg11.dtd">
<!-- Generated by graphviz version 2.38.0 (20140413.2041)
 -->
<!-- Title: %3 Pages: 1 -->
<svg width="123pt" height="226pt"
 viewBox="0.00 0.00 123.00 226.00" xmlns="http://www.w3.org/2000/svg" xmlns:xlink="http://www.w3.org/1999/xlink">
<g id="graph0" class="graph" transform="scale(1 1) rotate(0) translate(4 222)">
<title>%3</title>
<!-- 1 -->
<g id="node1" class="node"><title>1</title>
<ellipse fill="lightblue" stroke="black" cx="72" cy="-200" rx="18" ry="18"/>
<text text-anchor="middle" x="72" y="-196.3" font-family="Times,serif" font-size="14.00">1</text>
</g>
<!-- 1&#45;&gt;1 -->
<g id="edge1" class="edge"><title>1&#45;&gt;1</title>
<path fill="none" stroke="black" d="M88.6641,-207.383C98.625,-209.023 108,-206.562 108,-200 108,-195.796 104.152,-193.275 98.7682,-192.438"/>
<polygon fill="black" stroke="black" points="98.6002,-188.94 88.6641,-192.617 98.7247,-195.939 98.6002,-188.94"/>
<text text-anchor="middle" x="111.5" y="-196.3" font-family="Times,serif" font-size="14.00">a</text>
</g>
<!-- 2 -->
<g id="node3" class="node"><title>2</title>
<ellipse fill="lightblue" stroke="black" cx="18" cy="-113" rx="18" ry="18"/>
<text text-anchor="middle" x="18" y="-109.3" font-family="Times,serif" font-size="14.00">2</text>
</g>
<!-- 1&#45;&gt;2 -->
<g id="edge2" class="edge"><title>1&#45;&gt;2</title>
<path fill="none" stroke="black" d="M62.5939,-184.194C54.3861,-171.274 42.3361,-152.307 32.8308,-137.345"/>
<polygon fill="black" stroke="black" points="35.6149,-135.2 27.2983,-128.636 29.7064,-138.954 35.6149,-135.2"/>
<text text-anchor="middle" x="51.5" y="-152.8" font-family="Times,serif" font-size="14.00">b</text>
</g>
<!-- 0 -->
<g id="node2" class="node"><title>0</title>
<ellipse fill="#aaff80" stroke="black" cx="48" cy="-22" rx="18" ry="18"/>
<ellipse fill="none" stroke="black" cx="48" cy="-22" rx="22" ry="22"/>
<text text-anchor="middle" x="48" y="-18.3" font-family="Times,serif" font-size="14.00">0</text>
</g>
<!-- 0&#45;&gt;1 -->
<g id="edge3" class="edge"><title>0&#45;&gt;1</title>
<path fill="none" stroke="black" d="M55.6854,-42.8211C60.813,-57.0899 67.1229,-76.9289 70,-95 74.1105,-120.818 74.2117,-150.693 73.5235,-171.781"/>
<polygon fill="black" stroke="black" points="70.0197,-171.805 73.1088,-181.94 77.0139,-172.091 70.0197,-171.805"/>
<text text-anchor="middle" x="76.5" y="-109.3" font-family="Times,serif" font-size="14.00">a</text>
</g>
<!-- 0&#45;&gt;2 -->
<g id="edge4" class="edge"><title>0&#45;&gt;2</title>
<path fill="none" stroke="black" d="M41.2721,-42.9595C37.0031,-55.6242 31.4334,-72.1476 26.8132,-85.8541"/>
<polygon fill="black" stroke="black" points="23.3801,-85.0819 23.5025,-95.676 30.0134,-87.3179 23.3801,-85.0819"/>
<text text-anchor="middle" x="38.5" y="-65.8" font-family="Times,serif" font-size="14.00">b</text>
</g>
<!-- 2&#45;&gt;0 -->
<g id="edge5" class="edge"><title>2&#45;&gt;0</title>
<path fill="none" stroke="black" d="M16.7732,-94.8904C16.6142,-85.0206 17.3642,-72.5206 21,-62 22.7375,-56.9724 25.3171,-51.999 28.2033,-47.3725"/>
<polygon fill="black" stroke="black" points="31.1949,-49.1995 33.9905,-38.9802 25.4322,-45.2257 31.1949,-49.1995"/>
<text text-anchor="middle" x="24.5" y="-65.8" font-family="Times,serif" font-size="14.00">a</text>
</g>
<!-- 2&#45;&gt;2 -->
<g id="edge6" class="edge"><title>2&#45;&gt;2</title>
<path fill="none" stroke="black" d="M34.6641,-120.383C44.625,-122.023 54,-119.562 54,-113 54,-108.796 50.1525,-106.275 44.7682,-105.438"/>
<polygon fill="black" stroke="black" points="44.6002,-101.94 34.6641,-105.617 44.7247,-108.939 44.6002,-101.94"/>
<text text-anchor="middle" x="57.5" y="-109.3" font-family="Times,serif" font-size="14.00">b</text>
</g>
</g>
</svg>
