<?xml version="1.0" encoding="UTF-8" standalone="no"?>
<!DOCTYPE svg PUBLIC "-//W3C//DTD SVG 1.1//EN"
 "http://www.w3.org/Graphics/SVG/1.1/DTD/svg11.dtd">
<!-- Generated by graphviz version 2.38.0 (20140413.2041)
 -->
<!-- Title: %3 Pages: 1 -->
<svg width="391pt" height="835pt"
 viewBox="0.00 0.00 391.00 835.00" xmlns="http://www.w3.org/2000/svg" xmlns:xlink="http://www.w3.org/1999/xlink">
<g id="graph0" class="graph" transform="scale(1 1) rotate(0) translate(4 831)">
<title>%3</title>
<!-- 0 -->
<g id="node1" class="node"><title>0</title>
<ellipse fill="#aaff80" stroke="black" cx="69" cy="-805" rx="18" ry="18"/>
<ellipse fill="none" stroke="black" cx="69" cy="-805" rx="22" ry="22"/>
<text text-anchor="middle" x="69" y="-801.3" font-family="Times,serif" font-size="14.00">0</text>
</g>
<!-- 8 -->
<g id="node9" class="node"><title>8</title>
<ellipse fill="lightblue" stroke="black" cx="165" cy="-18" rx="18" ry="18"/>
<text text-anchor="middle" x="165" y="-14.3" font-family="Times,serif" font-size="14.00">8</text>
</g>
<!-- 0&#45;&gt;8 -->
<g id="edge1" class="edge"><title>0&#45;&gt;8</title>
<path fill="none" stroke="black" d="M50.8711,-791.869C30.4276,-776.578 0,-748.237 0,-715 0,-715 0,-715 0,-104 0,-43.1641 89.7388,-25.8292 136.856,-20.9203"/>
<polygon fill="black" stroke="black" points="137.391,-24.386 147.028,-19.9847 136.749,-17.4154 137.391,-24.386"/>
<text text-anchor="middle" x="3.5" y="-405.8" font-family="Times,serif" font-size="14.00">b</text>
</g>
<!-- 9 -->
<g id="node10" class="node"><title>9</title>
<ellipse fill="lightblue" stroke="black" cx="69" cy="-714" rx="18" ry="18"/>
<text text-anchor="middle" x="69" y="-710.3" font-family="Times,serif" font-size="14.00">9</text>
</g>
<!-- 0&#45;&gt;9 -->
<g id="edge2" class="edge"><title>0&#45;&gt;9</title>
<path fill="none" stroke="black" d="M69,-782.908C69,-770.78 69,-755.409 69,-742.36"/>
<polygon fill="black" stroke="black" points="72.5001,-742.066 69,-732.066 65.5001,-742.066 72.5001,-742.066"/>
<text text-anchor="middle" x="72.5" y="-753.8" font-family="Times,serif" font-size="14.00">a</text>
</g>
<!-- 1 -->
<g id="node2" class="node"><title>1</title>
<ellipse fill="lightblue" stroke="black" cx="198" cy="-453" rx="18" ry="18"/>
<text text-anchor="middle" x="198" y="-449.3" font-family="Times,serif" font-size="14.00">1</text>
</g>
<!-- 5 -->
<g id="node6" class="node"><title>5</title>
<ellipse fill="lightblue" stroke="black" cx="198" cy="-366" rx="18" ry="18"/>
<text text-anchor="middle" x="198" y="-362.3" font-family="Times,serif" font-size="14.00">5</text>
</g>
<!-- 1&#45;&gt;5 -->
<g id="edge3" class="edge"><title>1&#45;&gt;5</title>
<path fill="none" stroke="black" d="M198,-434.799C198,-423.163 198,-407.548 198,-394.237"/>
<polygon fill="black" stroke="black" points="201.5,-394.175 198,-384.175 194.5,-394.175 201.5,-394.175"/>
<text text-anchor="middle" x="201.5" y="-405.8" font-family="Times,serif" font-size="14.00">a</text>
</g>
<!-- 1&#45;&gt;8 -->
<g id="edge4" class="edge"><title>1&#45;&gt;8</title>
<path fill="none" stroke="black" d="M215.731,-449.65C253.403,-443.56 338,-423.585 338,-367 338,-367 338,-367 338,-104 338,-40.2439 242.181,-24.3065 193.165,-20.3248"/>
<polygon fill="black" stroke="black" points="193.407,-16.8332 183.187,-19.6272 192.919,-23.8162 193.407,-16.8332"/>
<text text-anchor="middle" x="341.5" y="-231.8" font-family="Times,serif" font-size="14.00">b</text>
</g>
<!-- 2 -->
<g id="node3" class="node"><title>2</title>
<ellipse fill="lightblue" stroke="black" cx="130" cy="-540" rx="18" ry="18"/>
<text text-anchor="middle" x="130" y="-536.3" font-family="Times,serif" font-size="14.00">2</text>
</g>
<!-- 2&#45;&gt;1 -->
<g id="edge5" class="edge"><title>2&#45;&gt;1</title>
<path fill="none" stroke="black" d="M140.925,-525.343C151.632,-511.96 168.119,-491.351 180.625,-475.718"/>
<polygon fill="black" stroke="black" points="183.588,-477.618 187.102,-467.623 178.122,-473.245 183.588,-477.618"/>
<text text-anchor="middle" x="171.5" y="-492.8" font-family="Times,serif" font-size="14.00">a</text>
</g>
<!-- 2&#45;&gt;8 -->
<g id="edge6" class="edge"><title>2&#45;&gt;8</title>
<path fill="none" stroke="black" d="M130,-521.744C130,-504.57 130,-477.464 130,-454 130,-454 130,-454 130,-321.5 130,-219.117 150.029,-98.527 159.784,-45.8656"/>
<polygon fill="black" stroke="black" points="163.235,-46.4516 161.644,-35.9769 156.356,-45.1576 163.235,-46.4516"/>
<text text-anchor="middle" x="134.5" y="-275.3" font-family="Times,serif" font-size="14.00">b</text>
</g>
<!-- 3 -->
<g id="node4" class="node"><title>3</title>
<ellipse fill="lightblue" stroke="black" cx="292" cy="-105" rx="18" ry="18"/>
<text text-anchor="middle" x="292" y="-101.3" font-family="Times,serif" font-size="14.00">3</text>
</g>
<!-- 3&#45;&gt;0 -->
<g id="edge7" class="edge"><title>3&#45;&gt;0</title>
<path fill="none" stroke="black" d="M308.196,-113.33C332.605,-125.616 376,-152.825 376,-191 376,-715 376,-715 376,-715 376,-771.71 180.312,-794.598 101.405,-801.521"/>
<polygon fill="black" stroke="black" points="100.748,-798.064 91.0787,-802.394 101.338,-805.039 100.748,-798.064"/>
<text text-anchor="middle" x="379.5" y="-449.3" font-family="Times,serif" font-size="14.00">a</text>
</g>
<!-- 3&#45;&gt;8 -->
<g id="edge8" class="edge"><title>3&#45;&gt;8</title>
<path fill="none" stroke="black" d="M285.98,-87.5703C281.24,-76.6962 273.644,-62.8588 263,-54 242.805,-37.1924 213.929,-28.1858 192.751,-23.5412"/>
<polygon fill="black" stroke="black" points="193.248,-20.0713 182.756,-21.544 191.876,-26.9356 193.248,-20.0713"/>
<text text-anchor="middle" x="278.5" y="-57.8" font-family="Times,serif" font-size="14.00">b</text>
</g>
<!-- 4 -->
<g id="node5" class="node"><title>4</title>
<ellipse fill="lightblue" stroke="black" cx="249" cy="-192" rx="18" ry="18"/>
<text text-anchor="middle" x="249" y="-188.3" font-family="Times,serif" font-size="14.00">4</text>
</g>
<!-- 4&#45;&gt;3 -->
<g id="edge9" class="edge"><title>4&#45;&gt;3</title>
<path fill="none" stroke="black" d="M256.887,-175.41C263.251,-162.829 272.319,-144.903 279.646,-130.421"/>
<polygon fill="black" stroke="black" points="282.772,-131.995 284.163,-121.491 276.526,-128.835 282.772,-131.995"/>
<text text-anchor="middle" x="276.5" y="-144.8" font-family="Times,serif" font-size="14.00">b</text>
</g>
<!-- 4&#45;&gt;8 -->
<g id="edge10" class="edge"><title>4&#45;&gt;8</title>
<path fill="none" stroke="black" d="M248.902,-173.814C247.945,-146.177 242.66,-91.1935 217,-54 210.35,-44.361 200.103,-36.6413 190.457,-30.9304"/>
<polygon fill="black" stroke="black" points="191.988,-27.7786 181.531,-26.0734 188.642,-33.9273 191.988,-27.7786"/>
<text text-anchor="middle" x="246.5" y="-101.3" font-family="Times,serif" font-size="14.00">a</text>
</g>
<!-- 6 -->
<g id="node7" class="node"><title>6</title>
<ellipse fill="lightblue" stroke="black" cx="214" cy="-279" rx="18" ry="18"/>
<text text-anchor="middle" x="214" y="-275.3" font-family="Times,serif" font-size="14.00">6</text>
</g>
<!-- 5&#45;&gt;6 -->
<g id="edge11" class="edge"><title>5&#45;&gt;6</title>
<path fill="none" stroke="black" d="M201.161,-348.207C203.374,-336.448 206.379,-320.485 208.926,-306.958"/>
<polygon fill="black" stroke="black" points="212.435,-307.233 210.845,-296.758 205.556,-305.938 212.435,-307.233"/>
<text text-anchor="middle" x="209.5" y="-318.8" font-family="Times,serif" font-size="14.00">b</text>
</g>
<!-- 5&#45;&gt;8 -->
<g id="edge12" class="edge"><title>5&#45;&gt;8</title>
<path fill="none" stroke="black" d="M194.857,-348.007C192.414,-334.285 189.099,-314.454 187,-297 175.988,-205.42 169.181,-96.177 166.42,-46.2844"/>
<polygon fill="black" stroke="black" points="169.915,-46.0863 165.878,-36.2908 162.925,-46.4659 169.915,-46.0863"/>
<text text-anchor="middle" x="181.5" y="-188.3" font-family="Times,serif" font-size="14.00">a</text>
</g>
<!-- 6&#45;&gt;4 -->
<g id="edge13" class="edge"><title>6&#45;&gt;4</title>
<path fill="none" stroke="black" d="M220.583,-262.012C225.619,-249.784 232.661,-232.679 238.476,-218.559"/>
<polygon fill="black" stroke="black" points="241.875,-219.496 242.446,-208.916 235.402,-216.83 241.875,-219.496"/>
<text text-anchor="middle" x="236.5" y="-231.8" font-family="Times,serif" font-size="14.00">a</text>
</g>
<!-- 6&#45;&gt;8 -->
<g id="edge14" class="edge"><title>6&#45;&gt;8</title>
<path fill="none" stroke="black" d="M212.649,-260.865C209.377,-222.993 199.723,-129.537 179,-54 178.117,-50.7812 177.03,-47.4559 175.856,-44.1941"/>
<polygon fill="black" stroke="black" points="179.076,-42.8185 172.186,-34.7699 172.553,-45.3584 179.076,-42.8185"/>
<text text-anchor="middle" x="202.5" y="-144.8" font-family="Times,serif" font-size="14.00">b</text>
</g>
<!-- 7 -->
<g id="node8" class="node"><title>7</title>
<ellipse fill="lightblue" stroke="black" cx="92" cy="-627" rx="18" ry="18"/>
<text text-anchor="middle" x="92" y="-623.3" font-family="Times,serif" font-size="14.00">7</text>
</g>
<!-- 7&#45;&gt;2 -->
<g id="edge15" class="edge"><title>7&#45;&gt;2</title>
<path fill="none" stroke="black" d="M99.1475,-610.012C104.702,-597.587 112.508,-580.127 118.878,-565.879"/>
<polygon fill="black" stroke="black" points="122.127,-567.187 123.013,-556.629 115.736,-564.33 122.127,-567.187"/>
<text text-anchor="middle" x="116.5" y="-579.8" font-family="Times,serif" font-size="14.00">b</text>
</g>
<!-- 7&#45;&gt;8 -->
<g id="edge16" class="edge"><title>7&#45;&gt;8</title>
<path fill="none" stroke="black" d="M89.4688,-609.11C87.125,-591.99 84,-564.715 84,-541 84,-541 84,-541 84,-104 84,-71.0681 116.259,-45.8496 140.061,-31.7242"/>
<polygon fill="black" stroke="black" points="142,-34.649 148.997,-26.6934 138.566,-28.5492 142,-34.649"/>
<text text-anchor="middle" x="87.5" y="-318.8" font-family="Times,serif" font-size="14.00">a</text>
</g>
<!-- 8&#45;&gt;8 -->
<g id="edge17" class="edge"><title>8&#45;&gt;8</title>
<path fill="none" stroke="black" d="M181.664,-25.3828C191.625,-27.0234 201,-24.5625 201,-18 201,-13.7959 197.152,-11.2751 191.768,-10.4375"/>
<polygon fill="black" stroke="black" points="191.6,-6.93988 181.664,-10.6172 191.725,-13.9388 191.6,-6.93988"/>
<text text-anchor="middle" x="209.5" y="-14.3" font-family="Times,serif" font-size="14.00">b,a</text>
</g>
<!-- 9&#45;&gt;7 -->
<g id="edge18" class="edge"><title>9&#45;&gt;7</title>
<path fill="none" stroke="black" d="M73.5441,-696.207C76.7781,-684.255 81.1878,-667.958 84.8857,-654.292"/>
<polygon fill="black" stroke="black" points="88.3101,-655.036 87.5436,-644.469 81.5531,-653.208 88.3101,-655.036"/>
<text text-anchor="middle" x="84.5" y="-666.8" font-family="Times,serif" font-size="14.00">a</text>
</g>
<!-- 9&#45;&gt;8 -->
<g id="edge19" class="edge"><title>9&#45;&gt;8</title>
<path fill="none" stroke="black" d="M62.0992,-697.363C55.3244,-680.565 46,-652.919 46,-628 46,-628 46,-628 46,-104 46,-59.1709 102.611,-35.745 137.741,-25.5238"/>
<polygon fill="black" stroke="black" points="138.716,-28.8857 147.441,-22.875 136.872,-22.1329 138.716,-28.8857"/>
<text text-anchor="middle" x="49.5" y="-362.3" font-family="Times,serif" font-size="14.00">b</text>
</g>
</g>
</svg>
