<?xml version="1.0" encoding="UTF-8" standalone="no"?>
<!DOCTYPE svg PUBLIC "-//W3C//DTD SVG 1.1//EN"
 "http://www.w3.org/Graphics/SVG/1.1/DTD/svg11.dtd">
<!-- Generated by graphviz version 2.38.0 (20140413.2041)
 -->
<!-- Title: %3 Pages: 1 -->
<svg width="444pt" height="835pt"
 viewBox="0.00 0.00 444.00 835.00" xmlns="http://www.w3.org/2000/svg" xmlns:xlink="http://www.w3.org/1999/xlink">
<g id="graph0" class="graph" transform="scale(1 1) rotate(0) translate(4 831)">
<title>%3</title>
<!-- 0 -->
<g id="node1" class="node"><title>0</title>
<ellipse fill="#aaff80" stroke="black" cx="73" cy="-805" rx="18" ry="18"/>
<ellipse fill="none" stroke="black" cx="73" cy="-805" rx="22" ry="22"/>
<text text-anchor="middle" x="73" y="-801.3" font-family="Times,serif" font-size="14.00">0</text>
</g>
<!-- 8 -->
<g id="node9" class="node"><title>8</title>
<ellipse fill="lightblue" stroke="black" cx="193" cy="-18" rx="18" ry="18"/>
<text text-anchor="middle" x="193" y="-14.3" font-family="Times,serif" font-size="14.00">8</text>
</g>
<!-- 0&#45;&gt;8 -->
<g id="edge1" class="edge"><title>0&#45;&gt;8</title>
<path fill="none" stroke="black" d="M54.579,-792.644C32.9534,-777.733 0,-749.373 0,-715 0,-715 0,-715 0,-104 0,-32.9254 110.98,-20.766 164.627,-19.0402"/>
<polygon fill="black" stroke="black" points="164.922,-22.5347 174.843,-18.8162 164.769,-15.5363 164.922,-22.5347"/>
<text text-anchor="middle" x="14" y="-405.8" font-family="Times,serif" font-size="14.00">d,b,c</text>
</g>
<!-- 9 -->
<g id="node10" class="node"><title>9</title>
<ellipse fill="lightblue" stroke="black" cx="73" cy="-714" rx="18" ry="18"/>
<text text-anchor="middle" x="73" y="-710.3" font-family="Times,serif" font-size="14.00">9</text>
</g>
<!-- 0&#45;&gt;9 -->
<g id="edge2" class="edge"><title>0&#45;&gt;9</title>
<path fill="none" stroke="black" d="M73,-782.908C73,-770.78 73,-755.409 73,-742.36"/>
<polygon fill="black" stroke="black" points="76.5001,-742.066 73,-732.066 69.5001,-742.066 76.5001,-742.066"/>
<text text-anchor="middle" x="76.5" y="-753.8" font-family="Times,serif" font-size="14.00">a</text>
</g>
<!-- 1 -->
<g id="node2" class="node"><title>1</title>
<ellipse fill="lightblue" stroke="black" cx="222" cy="-453" rx="18" ry="18"/>
<text text-anchor="middle" x="222" y="-449.3" font-family="Times,serif" font-size="14.00">1</text>
</g>
<!-- 5 -->
<g id="node6" class="node"><title>5</title>
<ellipse fill="lightblue" stroke="black" cx="222" cy="-366" rx="18" ry="18"/>
<text text-anchor="middle" x="222" y="-362.3" font-family="Times,serif" font-size="14.00">5</text>
</g>
<!-- 1&#45;&gt;5 -->
<g id="edge3" class="edge"><title>1&#45;&gt;5</title>
<path fill="none" stroke="black" d="M222,-434.799C222,-423.163 222,-407.548 222,-394.237"/>
<polygon fill="black" stroke="black" points="225.5,-394.175 222,-384.175 218.5,-394.175 225.5,-394.175"/>
<text text-anchor="middle" x="225.5" y="-405.8" font-family="Times,serif" font-size="14.00">a</text>
</g>
<!-- 1&#45;&gt;8 -->
<g id="edge4" class="edge"><title>1&#45;&gt;8</title>
<path fill="none" stroke="black" d="M240.177,-450.95C282.877,-447.404 386,-432.101 386,-367 386,-367 386,-367 386,-104 386,-32.9254 275.02,-20.766 221.373,-19.0402"/>
<polygon fill="black" stroke="black" points="221.231,-15.5363 211.157,-18.8162 221.078,-22.5347 221.231,-15.5363"/>
<text text-anchor="middle" x="400" y="-231.8" font-family="Times,serif" font-size="14.00">d,b,c</text>
</g>
<!-- 2 -->
<g id="node3" class="node"><title>2</title>
<ellipse fill="lightblue" stroke="black" cx="147" cy="-540" rx="18" ry="18"/>
<text text-anchor="middle" x="147" y="-536.3" font-family="Times,serif" font-size="14.00">2</text>
</g>
<!-- 2&#45;&gt;1 -->
<g id="edge5" class="edge"><title>2&#45;&gt;1</title>
<path fill="none" stroke="black" d="M158.719,-525.719C170.717,-512.12 189.541,-490.787 203.543,-474.918"/>
<polygon fill="black" stroke="black" points="206.372,-477.002 210.364,-467.188 201.123,-472.371 206.372,-477.002"/>
<text text-anchor="middle" x="191.5" y="-492.8" font-family="Times,serif" font-size="14.00">d</text>
</g>
<!-- 2&#45;&gt;8 -->
<g id="edge6" class="edge"><title>2&#45;&gt;8</title>
<path fill="none" stroke="black" d="M147,-521.744C147,-504.57 147,-477.464 147,-454 147,-454 147,-454 147,-104 147,-79.7093 161.71,-55.7097 174.493,-39.4396"/>
<polygon fill="black" stroke="black" points="177.238,-41.6121 180.914,-31.6753 171.844,-37.151 177.238,-41.6121"/>
<text text-anchor="middle" x="160.5" y="-275.3" font-family="Times,serif" font-size="14.00">b,c,a</text>
</g>
<!-- 3 -->
<g id="node4" class="node"><title>3</title>
<ellipse fill="lightblue" stroke="black" cx="340" cy="-105" rx="18" ry="18"/>
<text text-anchor="middle" x="340" y="-101.3" font-family="Times,serif" font-size="14.00">3</text>
</g>
<!-- 3&#45;&gt;0 -->
<g id="edge7" class="edge"><title>3&#45;&gt;0</title>
<path fill="none" stroke="black" d="M356.324,-112.676C382.018,-124.396 429,-151.259 429,-191 429,-715 429,-715 429,-715 429,-781.432 192.736,-798.692 105.156,-802.807"/>
<polygon fill="black" stroke="black" points="104.836,-799.318 95.0007,-803.257 105.146,-806.311 104.836,-799.318"/>
<text text-anchor="middle" x="432.5" y="-449.3" font-family="Times,serif" font-size="14.00">a</text>
</g>
<!-- 3&#45;&gt;8 -->
<g id="edge8" class="edge"><title>3&#45;&gt;8</title>
<path fill="none" stroke="black" d="M329.285,-89.9886C320.161,-78.8922 306.151,-63.6957 291,-54 269.23,-40.0686 241.186,-30.7775 220.68,-25.2911"/>
<polygon fill="black" stroke="black" points="221.27,-21.8301 210.716,-22.7645 219.549,-28.6153 221.27,-21.8301"/>
<text text-anchor="middle" x="323" y="-57.8" font-family="Times,serif" font-size="14.00">d,b,c</text>
</g>
<!-- 4 -->
<g id="node5" class="node"><title>4</title>
<ellipse fill="lightblue" stroke="black" cx="294" cy="-192" rx="18" ry="18"/>
<text text-anchor="middle" x="294" y="-188.3" font-family="Times,serif" font-size="14.00">4</text>
</g>
<!-- 4&#45;&gt;3 -->
<g id="edge9" class="edge"><title>4&#45;&gt;3</title>
<path fill="none" stroke="black" d="M302.224,-175.804C309.092,-163.112 319.009,-144.787 326.959,-130.097"/>
<polygon fill="black" stroke="black" points="330.166,-131.525 331.847,-121.065 324.01,-128.194 330.166,-131.525"/>
<text text-anchor="middle" x="322.5" y="-144.8" font-family="Times,serif" font-size="14.00">b</text>
</g>
<!-- 4&#45;&gt;8 -->
<g id="edge10" class="edge"><title>4&#45;&gt;8</title>
<path fill="none" stroke="black" d="M291.403,-173.744C286.501,-146.009 273.686,-90.8909 245,-54 237.812,-44.7556 227.478,-37.0987 217.914,-31.3281"/>
<polygon fill="black" stroke="black" points="219.541,-28.2276 209.108,-26.3832 216.114,-34.3312 219.541,-28.2276"/>
<text text-anchor="middle" x="291.5" y="-101.3" font-family="Times,serif" font-size="14.00">d,c,a</text>
</g>
<!-- 6 -->
<g id="node7" class="node"><title>6</title>
<ellipse fill="lightblue" stroke="black" cx="248" cy="-279" rx="18" ry="18"/>
<text text-anchor="middle" x="248" y="-275.3" font-family="Times,serif" font-size="14.00">6</text>
</g>
<!-- 5&#45;&gt;6 -->
<g id="edge11" class="edge"><title>5&#45;&gt;6</title>
<path fill="none" stroke="black" d="M227.013,-348.611C230.682,-336.617 235.736,-320.093 239.966,-306.266"/>
<polygon fill="black" stroke="black" points="243.424,-306.925 243.002,-296.339 236.73,-304.877 243.424,-306.925"/>
<text text-anchor="middle" x="239.5" y="-318.8" font-family="Times,serif" font-size="14.00">b</text>
</g>
<!-- 5&#45;&gt;8 -->
<g id="edge12" class="edge"><title>5&#45;&gt;8</title>
<path fill="none" stroke="black" d="M219.323,-347.847C214.975,-319.317 206.421,-260.273 202,-210 196.879,-151.761 194.545,-83.2572 193.586,-46.1753"/>
<polygon fill="black" stroke="black" points="197.085,-46.0641 193.341,-36.1526 190.087,-46.2352 197.085,-46.0641"/>
<text text-anchor="middle" x="215.5" y="-188.3" font-family="Times,serif" font-size="14.00">d,c,a</text>
</g>
<!-- 6&#45;&gt;4 -->
<g id="edge13" class="edge"><title>6&#45;&gt;4</title>
<path fill="none" stroke="black" d="M256.224,-262.804C263.092,-250.112 273.009,-231.787 280.959,-217.097"/>
<polygon fill="black" stroke="black" points="284.166,-218.525 285.847,-208.065 278.01,-215.194 284.166,-218.525"/>
<text text-anchor="middle" x="276.5" y="-231.8" font-family="Times,serif" font-size="14.00">a</text>
</g>
<!-- 6&#45;&gt;8 -->
<g id="edge14" class="edge"><title>6&#45;&gt;8</title>
<path fill="none" stroke="black" d="M246.05,-260.873C241.483,-223.018 228.8,-129.594 207,-54 206.075,-50.793 204.963,-47.4747 203.775,-44.2168"/>
<polygon fill="black" stroke="black" points="206.994,-42.8367 200.095,-34.7955 200.474,-45.3836 206.994,-42.8367"/>
<text text-anchor="middle" x="243" y="-144.8" font-family="Times,serif" font-size="14.00">d,b,c</text>
</g>
<!-- 7 -->
<g id="node8" class="node"><title>7</title>
<ellipse fill="lightblue" stroke="black" cx="101" cy="-627" rx="18" ry="18"/>
<text text-anchor="middle" x="101" y="-623.3" font-family="Times,serif" font-size="14.00">7</text>
</g>
<!-- 7&#45;&gt;2 -->
<g id="edge15" class="edge"><title>7&#45;&gt;2</title>
<path fill="none" stroke="black" d="M109.224,-610.804C116.092,-598.112 126.009,-579.787 133.959,-565.097"/>
<polygon fill="black" stroke="black" points="137.166,-566.525 138.847,-556.065 131.01,-563.194 137.166,-566.525"/>
<text text-anchor="middle" x="129.5" y="-579.8" font-family="Times,serif" font-size="14.00">c</text>
</g>
<!-- 7&#45;&gt;8 -->
<g id="edge16" class="edge"><title>7&#45;&gt;8</title>
<path fill="none" stroke="black" d="M101,-608.744C101,-591.57 101,-564.464 101,-541 101,-541 101,-541 101,-104 101,-67.7831 139.939,-42.7138 167.151,-29.6161"/>
<polygon fill="black" stroke="black" points="168.903,-32.6642 176.552,-25.3338 166.001,-26.294 168.903,-32.6642"/>
<text text-anchor="middle" x="115" y="-318.8" font-family="Times,serif" font-size="14.00">d,b,a</text>
</g>
<!-- 8&#45;&gt;8 -->
<g id="edge17" class="edge"><title>8&#45;&gt;8</title>
<path fill="none" stroke="black" d="M209.664,-25.3828C219.625,-27.0234 229,-24.5625 229,-18 229,-13.7959 225.152,-11.2751 219.768,-10.4375"/>
<polygon fill="black" stroke="black" points="219.6,-6.93988 209.664,-10.6172 219.725,-13.9388 219.6,-6.93988"/>
<text text-anchor="middle" x="247.5" y="-14.3" font-family="Times,serif" font-size="14.00">d,b,c,a</text>
</g>
<!-- 9&#45;&gt;7 -->
<g id="edge18" class="edge"><title>9&#45;&gt;7</title>
<path fill="none" stroke="black" d="M78.3987,-696.611C82.3885,-684.499 87.8999,-667.768 92.4813,-653.86"/>
<polygon fill="black" stroke="black" points="95.8134,-654.932 95.6179,-644.339 89.1648,-652.741 95.8134,-654.932"/>
<text text-anchor="middle" x="91.5" y="-666.8" font-family="Times,serif" font-size="14.00">b</text>
</g>
<!-- 9&#45;&gt;8 -->
<g id="edge19" class="edge"><title>9&#45;&gt;8</title>
<path fill="none" stroke="black" d="M65.0451,-697.795C57.0808,-681.135 46,-653.393 46,-628 46,-628 46,-628 46,-104 46,-49.6459 122.25,-29.4948 164.918,-22.4736"/>
<polygon fill="black" stroke="black" points="165.608,-25.9092 174.975,-20.9586 164.565,-18.9873 165.608,-25.9092"/>
<text text-anchor="middle" x="59.5" y="-362.3" font-family="Times,serif" font-size="14.00">d,c,a</text>
</g>
</g>
</svg>
