<?xml version="1.0" encoding="UTF-8" standalone="no"?>
<!DOCTYPE svg PUBLIC "-//W3C//DTD SVG 1.1//EN"
 "http://www.w3.org/Graphics/SVG/1.1/DTD/svg11.dtd">
<!-- Generated by graphviz version 2.38.0 (20140413.2041)
 -->
<!-- Title: %3 Pages: 1 -->
<svg width="153pt" height="313pt"
 viewBox="0.00 0.00 153.00 313.00" xmlns="http://www.w3.org/2000/svg" xmlns:xlink="http://www.w3.org/1999/xlink">
<g id="graph0" class="graph" transform="scale(1 1) rotate(0) translate(4 309)">
<title>%3</title>
<!-- 0 -->
<g id="node1" class="node"><title>0</title>
<ellipse fill="lightblue" stroke="black" cx="88" cy="-283" rx="18" ry="18"/>
<ellipse fill="none" stroke="black" cx="88" cy="-283" rx="22" ry="22"/>
<text text-anchor="middle" x="88" y="-279.3" font-family="Times,serif" font-size="14.00">0</text>
</g>
<!-- 2 -->
<g id="node3" class="node"><title>2</title>
<ellipse fill="#aaff80" stroke="black" cx="58" cy="-192" rx="18" ry="18"/>
<text text-anchor="middle" x="58" y="-188.3" font-family="Times,serif" font-size="14.00">2</text>
</g>
<!-- 0&#45;&gt;2 -->
<g id="edge1" class="edge"><title>0&#45;&gt;2</title>
<path fill="none" stroke="black" d="M73.9905,-266.02C68.9704,-259.355 63.8512,-251.25 61,-243 58.5288,-235.849 57.3908,-227.784 56.9652,-220.252"/>
<polygon fill="black" stroke="black" points="60.4619,-220.041 56.7732,-210.11 53.4632,-220.174 60.4619,-220.041"/>
<text text-anchor="middle" x="64.5" y="-231.8" font-family="Times,serif" font-size="14.00">b</text>
</g>
<!-- 3 -->
<g id="node4" class="node"><title>3</title>
<ellipse fill="lightblue" stroke="black" cx="72" cy="-18" rx="18" ry="18"/>
<text text-anchor="middle" x="72" y="-14.3" font-family="Times,serif" font-size="14.00">3</text>
</g>
<!-- 0&#45;&gt;3 -->
<g id="edge2" class="edge"><title>0&#45;&gt;3</title>
<path fill="none" stroke="black" d="M89.2391,-260.879C91.0648,-225.038 93.6853,-150.051 88,-87 86.7322,-72.9394 83.3091,-57.6059 79.953,-45.0644"/>
<polygon fill="black" stroke="black" points="83.2764,-43.9535 77.1984,-35.2754 76.5381,-45.8497 83.2764,-43.9535"/>
<text text-anchor="middle" x="104.5" y="-144.8" font-family="Times,serif" font-size="14.00">d,c,a</text>
</g>
<!-- 1 -->
<g id="node2" class="node"><title>1</title>
<ellipse fill="lightblue" stroke="black" cx="18" cy="-105" rx="18" ry="18"/>
<text text-anchor="middle" x="18" y="-101.3" font-family="Times,serif" font-size="14.00">1</text>
</g>
<!-- 1&#45;&gt;2 -->
<g id="edge3" class="edge"><title>1&#45;&gt;2</title>
<path fill="none" stroke="black" d="M25.2901,-121.491C31.1411,-133.925 39.47,-151.624 46.2588,-166.05"/>
<polygon fill="black" stroke="black" points="43.2385,-167.852 50.6634,-175.41 49.5722,-164.871 43.2385,-167.852"/>
<text text-anchor="middle" x="44.5" y="-144.8" font-family="Times,serif" font-size="14.00">d</text>
</g>
<!-- 1&#45;&gt;3 -->
<g id="edge4" class="edge"><title>1&#45;&gt;3</title>
<path fill="none" stroke="black" d="M19.8517,-86.7686C21.5579,-76.6227 24.8136,-63.8834 31,-54 35.6087,-46.6372 42.2647,-40.0127 48.8778,-34.5589"/>
<polygon fill="black" stroke="black" points="51.2441,-37.1561 57.0741,-28.3095 46.9998,-31.5895 51.2441,-37.1561"/>
<text text-anchor="middle" x="44.5" y="-57.8" font-family="Times,serif" font-size="14.00">b,c,a</text>
</g>
<!-- 2&#45;&gt;0 -->
<g id="edge5" class="edge"><title>2&#45;&gt;0</title>
<path fill="none" stroke="black" d="M63.479,-209.254C67.5274,-221.265 73.153,-237.954 77.9948,-252.318"/>
<polygon fill="black" stroke="black" points="74.6816,-253.446 81.1925,-261.805 81.3149,-251.21 74.6816,-253.446"/>
<text text-anchor="middle" x="77.5" y="-231.8" font-family="Times,serif" font-size="14.00">a</text>
</g>
<!-- 2&#45;&gt;1 -->
<g id="edge6" class="edge"><title>2&#45;&gt;1</title>
<path fill="none" stroke="black" d="M44.3013,-180.126C37.364,-173.839 29.4815,-165.336 25,-156 21.6999,-149.125 19.8344,-141.149 18.8096,-133.613"/>
<polygon fill="black" stroke="black" points="22.272,-133.046 17.8585,-123.414 15.3022,-133.696 22.272,-133.046"/>
<text text-anchor="middle" x="28.5" y="-144.8" font-family="Times,serif" font-size="14.00">c</text>
</g>
<!-- 2&#45;&gt;3 -->
<g id="edge7" class="edge"><title>2&#45;&gt;3</title>
<path fill="none" stroke="black" d="M59.3936,-173.879C61.8255,-144.001 66.8629,-82.1129 69.7801,-46.2736"/>
<polygon fill="black" stroke="black" points="73.2892,-46.3026 70.6121,-36.0516 66.3123,-45.7347 73.2892,-46.3026"/>
<text text-anchor="middle" x="75" y="-101.3" font-family="Times,serif" font-size="14.00">d,b</text>
</g>
<!-- 3&#45;&gt;3 -->
<g id="edge8" class="edge"><title>3&#45;&gt;3</title>
<path fill="none" stroke="black" d="M88.6641,-25.3828C98.625,-27.0234 108,-24.5625 108,-18 108,-13.7959 104.152,-11.2751 98.7682,-10.4375"/>
<polygon fill="black" stroke="black" points="98.6002,-6.93988 88.6641,-10.6172 98.7247,-13.9388 98.6002,-6.93988"/>
<text text-anchor="middle" x="126.5" y="-14.3" font-family="Times,serif" font-size="14.00">d,b,c,a</text>
</g>
</g>
</svg>
