<?xml version="1.0" encoding="UTF-8" standalone="no"?>
<!DOCTYPE svg PUBLIC "-//W3C//DTD SVG 1.1//EN"
 "http://www.w3.org/Graphics/SVG/1.1/DTD/svg11.dtd">
<!-- Generated by graphviz version 2.38.0 (20140413.2041)
 -->
<!-- Title: %3 Pages: 1 -->
<svg width="204pt" height="487pt"
 viewBox="0.00 0.00 204.00 487.00" xmlns="http://www.w3.org/2000/svg" xmlns:xlink="http://www.w3.org/1999/xlink">
<g id="graph0" class="graph" transform="scale(1 1) rotate(0) translate(4 483)">
<title>%3</title>
<!-- 0 -->
<g id="node1" class="node"><title>0</title>
<ellipse fill="lightblue" stroke="black" cx="50" cy="-461" rx="18" ry="18"/>
<text text-anchor="middle" x="50" y="-457.3" font-family="Times,serif" font-size="14.00">0</text>
</g>
<!-- 2 -->
<g id="node3" class="node"><title>2</title>
<ellipse fill="lightblue" stroke="black" cx="126" cy="-374" rx="18" ry="18"/>
<text text-anchor="middle" x="126" y="-370.3" font-family="Times,serif" font-size="14.00">2</text>
</g>
<!-- 0&#45;&gt;2 -->
<g id="edge1" class="edge"><title>0&#45;&gt;2</title>
<path fill="none" stroke="black" d="M61.5428,-447.09C73.707,-433.486 93.0518,-411.85 107.379,-395.827"/>
<polygon fill="black" stroke="black" points="110.292,-397.819 114.349,-388.031 105.074,-393.153 110.292,-397.819"/>
<text text-anchor="middle" x="95.5" y="-413.8" font-family="Times,serif" font-size="14.00">a</text>
</g>
<!-- 4 -->
<g id="node5" class="node"><title>4</title>
<ellipse fill="lightblue" stroke="black" cx="108" cy="-18" rx="18" ry="18"/>
<text text-anchor="middle" x="108" y="-14.3" font-family="Times,serif" font-size="14.00">4</text>
</g>
<!-- 0&#45;&gt;4 -->
<g id="edge2" class="edge"><title>0&#45;&gt;4</title>
<path fill="none" stroke="black" d="M37.3829,-448.062C22.5708,-432.695 0,-404.448 0,-375 0,-375 0,-375 0,-108 0,-66.126 48.9502,-40.2953 80.9408,-27.8852"/>
<polygon fill="black" stroke="black" points="82.4651,-31.0542 90.6479,-24.3243 80.0543,-24.4825 82.4651,-31.0542"/>
<text text-anchor="middle" x="3.5" y="-239.8" font-family="Times,serif" font-size="14.00">b</text>
</g>
<!-- 1 -->
<g id="node2" class="node"><title>1</title>
<ellipse fill="lightblue" stroke="black" cx="126" cy="-287" rx="18" ry="18"/>
<text text-anchor="middle" x="126" y="-283.3" font-family="Times,serif" font-size="14.00">1</text>
</g>
<!-- 1&#45;&gt;4 -->
<g id="edge3" class="edge"><title>1&#45;&gt;4</title>
<path fill="none" stroke="black" d="M127.119,-268.951C129.299,-230.342 132.776,-133.406 119,-54 118.49,-51.0583 117.797,-48.0204 117.007,-45.0201"/>
<polygon fill="black" stroke="black" points="120.278,-43.7402 114.063,-35.1594 113.57,-45.7428 120.278,-43.7402"/>
<text text-anchor="middle" x="131.5" y="-152.8" font-family="Times,serif" font-size="14.00">b</text>
</g>
<!-- 5 -->
<g id="node6" class="node"><title>5</title>
<ellipse fill="lightblue" stroke="black" cx="97" cy="-200" rx="18" ry="18"/>
<text text-anchor="middle" x="97" y="-196.3" font-family="Times,serif" font-size="14.00">5</text>
</g>
<!-- 1&#45;&gt;5 -->
<g id="edge4" class="edge"><title>1&#45;&gt;5</title>
<path fill="none" stroke="black" d="M120.409,-269.611C116.276,-257.499 110.568,-240.768 105.823,-226.86"/>
<polygon fill="black" stroke="black" points="109.116,-225.673 102.574,-217.339 102.491,-227.933 109.116,-225.673"/>
<text text-anchor="middle" x="116.5" y="-239.8" font-family="Times,serif" font-size="14.00">a</text>
</g>
<!-- 2&#45;&gt;1 -->
<g id="edge5" class="edge"><title>2&#45;&gt;1</title>
<path fill="none" stroke="black" d="M126,-355.799C126,-344.163 126,-328.548 126,-315.237"/>
<polygon fill="black" stroke="black" points="129.5,-315.175 126,-305.175 122.5,-315.175 129.5,-315.175"/>
<text text-anchor="middle" x="129.5" y="-326.8" font-family="Times,serif" font-size="14.00">b</text>
</g>
<!-- 2&#45;&gt;4 -->
<g id="edge6" class="edge"><title>2&#45;&gt;4</title>
<path fill="none" stroke="black" d="M140.296,-363.001C158.883,-348.7 189,-320.512 189,-288 189,-288 189,-288 189,-108 189,-73.9125 156.099,-47.1241 132.234,-32.177"/>
<polygon fill="black" stroke="black" points="133.999,-29.1543 123.618,-27.0376 130.413,-35.1661 133.999,-29.1543"/>
<text text-anchor="middle" x="192.5" y="-196.3" font-family="Times,serif" font-size="14.00">a</text>
</g>
<!-- 3 -->
<g id="node4" class="node"><title>3</title>
<ellipse fill="#aaff80" stroke="black" cx="50" cy="-109" rx="18" ry="18"/>
<ellipse fill="none" stroke="black" cx="50" cy="-109" rx="22" ry="22"/>
<text text-anchor="middle" x="50" y="-105.3" font-family="Times,serif" font-size="14.00">3</text>
</g>
<!-- 3&#45;&gt;0 -->
<g id="edge7" class="edge"><title>3&#45;&gt;0</title>
<path fill="none" stroke="black" d="M50,-131.219C50,-149.251 50,-175.823 50,-199 50,-375 50,-375 50,-375 50,-394.247 50,-415.946 50,-432.603"/>
<polygon fill="black" stroke="black" points="46.5001,-432.744 50,-442.744 53.5001,-432.744 46.5001,-432.744"/>
<text text-anchor="middle" x="53.5" y="-283.3" font-family="Times,serif" font-size="14.00">a</text>
</g>
<!-- 3&#45;&gt;4 -->
<g id="edge8" class="edge"><title>3&#45;&gt;4</title>
<path fill="none" stroke="black" d="M61.7372,-89.9895C70.7283,-76.1928 83.2001,-57.055 92.929,-42.1262"/>
<polygon fill="black" stroke="black" points="96.0489,-43.7492 98.5765,-33.4603 90.1843,-39.9273 96.0489,-43.7492"/>
<text text-anchor="middle" x="87.5" y="-57.8" font-family="Times,serif" font-size="14.00">b</text>
</g>
<!-- 4&#45;&gt;4 -->
<g id="edge9" class="edge"><title>4&#45;&gt;4</title>
<path fill="none" stroke="black" d="M124.664,-25.3828C134.625,-27.0234 144,-24.5625 144,-18 144,-13.7959 140.152,-11.2751 134.768,-10.4375"/>
<polygon fill="black" stroke="black" points="134.6,-6.93988 124.664,-10.6172 134.725,-13.9388 134.6,-6.93988"/>
<text text-anchor="middle" x="152.5" y="-14.3" font-family="Times,serif" font-size="14.00">b,a</text>
</g>
<!-- 5&#45;&gt;3 -->
<g id="edge10" class="edge"><title>5&#45;&gt;3</title>
<path fill="none" stroke="black" d="M88.8132,-183.497C82.1485,-170.877 72.5733,-152.745 64.6012,-137.649"/>
<polygon fill="black" stroke="black" points="67.6497,-135.927 59.885,-128.718 61.4598,-139.195 67.6497,-135.927"/>
<text text-anchor="middle" x="80.5" y="-152.8" font-family="Times,serif" font-size="14.00">a</text>
</g>
<!-- 5&#45;&gt;4 -->
<g id="edge11" class="edge"><title>5&#45;&gt;4</title>
<path fill="none" stroke="black" d="M98.0547,-181.741C99.9684,-150.427 104.026,-84.0213 106.323,-46.434"/>
<polygon fill="black" stroke="black" points="109.832,-46.4018 106.948,-36.2069 102.845,-45.9748 109.832,-46.4018"/>
<text text-anchor="middle" x="106.5" y="-105.3" font-family="Times,serif" font-size="14.00">b</text>
</g>
</g>
</svg>
