<?xml version="1.0" encoding="UTF-8" standalone="no"?>
<!DOCTYPE svg PUBLIC "-//W3C//DTD SVG 1.1//EN"
 "http://www.w3.org/Graphics/SVG/1.1/DTD/svg11.dtd">
<!-- Generated by graphviz version 2.38.0 (20140413.2041)
 -->
<!-- Title: %3 Pages: 1 -->
<svg width="112pt" height="226pt"
 viewBox="0.00 0.00 112.24 226.00" xmlns="http://www.w3.org/2000/svg" xmlns:xlink="http://www.w3.org/1999/xlink">
<g id="graph0" class="graph" transform="scale(1 1) rotate(0) translate(4 222)">
<title>%3</title>
<!-- 0 -->
<g id="node1" class="node"><title>0</title>
<ellipse fill="lightblue" stroke="black" cx="41.241" cy="-200" rx="18" ry="18"/>
<text text-anchor="middle" x="41.241" y="-196.3" font-family="Times,serif" font-size="14.00">0</text>
</g>
<!-- 1 -->
<g id="node2" class="node"><title>1</title>
<ellipse fill="lightblue" stroke="black" cx="21.241" cy="-18" rx="18" ry="18"/>
<text text-anchor="middle" x="21.241" y="-14.3" font-family="Times,serif" font-size="14.00">1</text>
</g>
<!-- 0&#45;&gt;1 -->
<g id="edge1" class="edge"><title>0&#45;&gt;1</title>
<path fill="none" stroke="black" d="M30.8101,-185.324C21.5062,-172.201 8.55856,-151.416 3.24105,-131 -4.37804,-101.747 3.61027,-67.3097 11.2293,-44.421"/>
<polygon fill="black" stroke="black" points="14.6054,-45.3721 14.6465,-34.7774 8.00742,-43.0341 14.6054,-45.3721"/>
<text text-anchor="middle" x="21.741" y="-105.3" font-family="Times,serif" font-size="14.00">d,e,c,a</text>
</g>
<!-- 2 -->
<g id="node3" class="node"><title>2</title>
<ellipse fill="#aaff80" stroke="black" cx="71.241" cy="-109" rx="18" ry="18"/>
<ellipse fill="none" stroke="black" cx="71.241" cy="-109" rx="22" ry="22"/>
<text text-anchor="middle" x="71.241" y="-105.3" font-family="Times,serif" font-size="14.00">2</text>
</g>
<!-- 0&#45;&gt;2 -->
<g id="edge2" class="edge"><title>0&#45;&gt;2</title>
<path fill="none" stroke="black" d="M40.0142,-181.89C39.8553,-172.021 40.6053,-159.521 44.241,-149 45.9785,-143.972 48.5581,-138.999 51.4443,-134.372"/>
<polygon fill="black" stroke="black" points="54.4359,-136.2 57.2315,-125.98 48.6732,-132.226 54.4359,-136.2"/>
<text text-anchor="middle" x="47.741" y="-152.8" font-family="Times,serif" font-size="14.00">b</text>
</g>
<!-- 1&#45;&gt;1 -->
<g id="edge3" class="edge"><title>1&#45;&gt;1</title>
<path fill="none" stroke="black" d="M37.9051,-25.3828C47.866,-27.0234 57.241,-24.5625 57.241,-18 57.241,-13.7959 53.3935,-11.2751 48.0093,-10.4375"/>
<polygon fill="black" stroke="black" points="47.8413,-6.93988 37.9051,-10.6172 47.9658,-13.9388 47.8413,-6.93988"/>
<text text-anchor="middle" x="80.741" y="-14.3" font-family="Times,serif" font-size="14.00">d,e,b,c,a</text>
</g>
<!-- 2&#45;&gt;0 -->
<g id="edge4" class="edge"><title>2&#45;&gt;0</title>
<path fill="none" stroke="black" d="M64.5131,-129.959C60.2441,-142.624 54.6745,-159.148 50.0543,-172.854"/>
<polygon fill="black" stroke="black" points="46.6211,-172.082 46.7435,-182.676 53.2544,-174.318 46.6211,-172.082"/>
<text text-anchor="middle" x="60.741" y="-152.8" font-family="Times,serif" font-size="14.00">a</text>
</g>
<!-- 2&#45;&gt;1 -->
<g id="edge5" class="edge"><title>2&#45;&gt;1</title>
<path fill="none" stroke="black" d="M60.881,-89.5591C53.3255,-76.1103 43.0155,-57.7585 34.804,-43.142"/>
<polygon fill="black" stroke="black" points="37.7104,-41.1695 29.7609,-34.1654 31.6075,-44.5981 37.7104,-41.1695"/>
<text text-anchor="middle" x="66.741" y="-57.8" font-family="Times,serif" font-size="14.00">d,e,b,c</text>
</g>
</g>
</svg>
