<?xml version="1.0" encoding="UTF-8" standalone="no"?>
<!DOCTYPE svg PUBLIC "-//W3C//DTD SVG 1.1//EN"
 "http://www.w3.org/Graphics/SVG/1.1/DTD/svg11.dtd">
<!-- Generated by graphviz version 2.38.0 (20140413.2041)
 -->
<!-- Title: %3 Pages: 1 -->
<svg width="383pt" height="685pt"
 viewBox="0.00 0.00 383.00 685.00" xmlns="http://www.w3.org/2000/svg" xmlns:xlink="http://www.w3.org/1999/xlink">
<g id="graph0" class="graph" transform="scale(1 1) rotate(0) translate(4 681)">
<title>%3</title>
<!-- 0 -->
<g id="node1" class="node"><title>0</title>
<ellipse fill="#aaff80" stroke="black" cx="234" cy="-655" rx="18" ry="18"/>
<ellipse fill="none" stroke="black" cx="234" cy="-655" rx="22" ry="22"/>
<text text-anchor="middle" x="234" y="-651.3" font-family="Times,serif" font-size="14.00">0</text>
</g>
<!-- 1 -->
<g id="node2" class="node"><title>1</title>
<ellipse fill="lightblue" stroke="black" cx="94" cy="-564" rx="18" ry="18"/>
<text text-anchor="middle" x="94" y="-560.3" font-family="Times,serif" font-size="14.00">1</text>
</g>
<!-- 0&#45;&gt;1 -->
<g id="edge1" class="edge"><title>0&#45;&gt;1</title>
<path fill="none" stroke="black" d="M215.697,-642.365C190.526,-626.363 145.204,-597.551 117.538,-579.964"/>
<polygon fill="black" stroke="black" points="119.204,-576.875 108.887,-574.464 115.449,-582.783 119.204,-576.875"/>
<text text-anchor="middle" x="175.5" y="-603.8" font-family="Times,serif" font-size="14.00">a</text>
</g>
<!-- 3 -->
<g id="node4" class="node"><title>3</title>
<ellipse fill="lightblue" stroke="black" cx="264" cy="-564" rx="18" ry="18"/>
<text text-anchor="middle" x="264" y="-560.3" font-family="Times,serif" font-size="14.00">3</text>
</g>
<!-- 0&#45;&gt;3 -->
<g id="edge2" class="edge"><title>0&#45;&gt;3</title>
<path fill="none" stroke="black" d="M240.807,-633.805C245.078,-621.135 250.627,-604.674 255.226,-591.03"/>
<polygon fill="black" stroke="black" points="258.643,-591.849 258.521,-581.254 252.01,-589.613 258.643,-591.849"/>
<text text-anchor="middle" x="254.5" y="-603.8" font-family="Times,serif" font-size="14.00">c</text>
</g>
<!-- 8 -->
<g id="node9" class="node"><title>8</title>
<ellipse fill="lightblue" stroke="black" cx="191" cy="-18" rx="18" ry="18"/>
<text text-anchor="middle" x="191" y="-14.3" font-family="Times,serif" font-size="14.00">8</text>
</g>
<!-- 0&#45;&gt;8 -->
<g id="edge3" class="edge"><title>0&#45;&gt;8</title>
<path fill="none" stroke="black" d="M255.425,-648.986C290.665,-639.323 357,-614.553 357,-565 357,-565 357,-565 357,-108 357,-46.2639 266.717,-27.1811 219.315,-21.4165"/>
<polygon fill="black" stroke="black" points="219.402,-17.9052 209.081,-20.2979 218.641,-24.8638 219.402,-17.9052"/>
<text text-anchor="middle" x="366" y="-326.8" font-family="Times,serif" font-size="14.00">d,b</text>
</g>
<!-- 6 -->
<g id="node7" class="node"><title>6</title>
<ellipse fill="lightblue" stroke="black" cx="90" cy="-473" rx="18" ry="18"/>
<ellipse fill="none" stroke="black" cx="90" cy="-473" rx="22" ry="22"/>
<text text-anchor="middle" x="90" y="-469.3" font-family="Times,serif" font-size="14.00">6</text>
</g>
<!-- 1&#45;&gt;6 -->
<g id="edge4" class="edge"><title>1&#45;&gt;6</title>
<path fill="none" stroke="black" d="M87.3664,-547.258C85.201,-541.332 83.0772,-534.463 82,-528 80.7253,-520.352 81.0824,-512.077 82.1585,-504.357"/>
<polygon fill="black" stroke="black" points="85.6444,-504.749 83.9858,-494.285 78.7569,-503.5 85.6444,-504.749"/>
<text text-anchor="middle" x="85.5" y="-516.8" font-family="Times,serif" font-size="14.00">b</text>
</g>
<!-- 1&#45;&gt;8 -->
<g id="edge5" class="edge"><title>1&#45;&gt;8</title>
<path fill="none" stroke="black" d="M77.6264,-556.441C50.6948,-544.444 0,-516.251 0,-474 0,-474 0,-474 0,-108 0,-36.983 109.83,-22.4937 162.921,-19.6383"/>
<polygon fill="black" stroke="black" points="163.193,-23.1299 173.031,-19.1991 162.889,-16.1365 163.193,-23.1299"/>
<text text-anchor="middle" x="13.5" y="-283.3" font-family="Times,serif" font-size="14.00">d,c,a</text>
</g>
<!-- 2 -->
<g id="node3" class="node"><title>2</title>
<ellipse fill="lightblue" stroke="black" cx="198" cy="-378" rx="18" ry="18"/>
<ellipse fill="none" stroke="black" cx="198" cy="-378" rx="22" ry="22"/>
<text text-anchor="middle" x="198" y="-374.3" font-family="Times,serif" font-size="14.00">2</text>
</g>
<!-- 2&#45;&gt;0 -->
<g id="edge6" class="edge"><title>2&#45;&gt;0</title>
<path fill="none" stroke="black" d="M200.775,-400.194C207.079,-448.353 222.507,-566.208 229.909,-622.746"/>
<polygon fill="black" stroke="black" points="226.466,-623.417 231.235,-632.878 233.407,-622.508 226.466,-623.417"/>
<text text-anchor="middle" x="220.5" y="-516.8" font-family="Times,serif" font-size="14.00">d</text>
</g>
<!-- 4 -->
<g id="node5" class="node"><title>4</title>
<ellipse fill="lightblue" stroke="black" cx="170" cy="-287" rx="18" ry="18"/>
<text text-anchor="middle" x="170" y="-283.3" font-family="Times,serif" font-size="14.00">4</text>
</g>
<!-- 2&#45;&gt;4 -->
<g id="edge7" class="edge"><title>2&#45;&gt;4</title>
<path fill="none" stroke="black" d="M191.646,-356.805C187.686,-344.217 182.549,-327.887 178.272,-314.294"/>
<polygon fill="black" stroke="black" points="181.544,-313.03 175.204,-304.541 174.866,-315.131 181.544,-313.03"/>
<text text-anchor="middle" x="188.5" y="-326.8" font-family="Times,serif" font-size="14.00">a</text>
</g>
<!-- 2&#45;&gt;8 -->
<g id="edge8" class="edge"><title>2&#45;&gt;8</title>
<path fill="none" stroke="black" d="M204.66,-356.971C217.037,-317.409 241.661,-226.365 234,-149 229.757,-106.151 231.737,-93.6722 215,-54 213.146,-49.6046 210.694,-45.1935 208.066,-41.056"/>
<polygon fill="black" stroke="black" points="210.754,-38.7896 202.194,-32.5473 204.993,-42.7656 210.754,-38.7896"/>
<text text-anchor="middle" x="243.5" y="-196.3" font-family="Times,serif" font-size="14.00">b,c</text>
</g>
<!-- 3&#45;&gt;0 -->
<g id="edge9" class="edge"><title>3&#45;&gt;0</title>
<path fill="none" stroke="black" d="M251.675,-577.148C246.142,-583.414 240.159,-591.513 237,-600 234.343,-607.139 233.069,-615.176 232.568,-622.825"/>
<polygon fill="black" stroke="black" points="229.067,-622.807 232.306,-632.895 236.065,-622.989 229.067,-622.807"/>
<text text-anchor="middle" x="240.5" y="-603.8" font-family="Times,serif" font-size="14.00">d</text>
</g>
<!-- 3&#45;&gt;8 -->
<g id="edge10" class="edge"><title>3&#45;&gt;8</title>
<path fill="none" stroke="black" d="M274.183,-548.987C285.439,-532.085 302,-502.393 302,-474 302,-474 302,-474 302,-108 302,-65.0213 250.721,-39.351 217.87,-27.3156"/>
<polygon fill="black" stroke="black" points="218.939,-23.9817 208.344,-24.0141 216.646,-30.5958 218.939,-23.9817"/>
<text text-anchor="middle" x="315.5" y="-283.3" font-family="Times,serif" font-size="14.00">b,c,a</text>
</g>
<!-- 7 -->
<g id="node8" class="node"><title>7</title>
<ellipse fill="lightblue" stroke="black" cx="163" cy="-200" rx="18" ry="18"/>
<text text-anchor="middle" x="163" y="-196.3" font-family="Times,serif" font-size="14.00">7</text>
</g>
<!-- 4&#45;&gt;7 -->
<g id="edge11" class="edge"><title>4&#45;&gt;7</title>
<path fill="none" stroke="black" d="M168.583,-268.799C167.625,-257.163 166.339,-241.548 165.243,-228.237"/>
<polygon fill="black" stroke="black" points="168.723,-227.854 164.414,-218.175 161.747,-228.429 168.723,-227.854"/>
<text text-anchor="middle" x="169.5" y="-239.8" font-family="Times,serif" font-size="14.00">b</text>
</g>
<!-- 4&#45;&gt;8 -->
<g id="edge12" class="edge"><title>4&#45;&gt;8</title>
<path fill="none" stroke="black" d="M175.925,-269.86C187.626,-236.123 211.986,-155.575 205,-87 203.588,-73.1353 200.595,-57.9231 197.738,-45.4089"/>
<polygon fill="black" stroke="black" points="201.128,-44.5379 195.407,-35.6204 194.319,-46.1592 201.128,-44.5379"/>
<text text-anchor="middle" x="216.5" y="-152.8" font-family="Times,serif" font-size="14.00">d,c,a</text>
</g>
<!-- 5 -->
<g id="node6" class="node"><title>5</title>
<ellipse fill="lightblue" stroke="black" cx="105" cy="-109" rx="18" ry="18"/>
<ellipse fill="none" stroke="black" cx="105" cy="-109" rx="22" ry="22"/>
<text text-anchor="middle" x="105" y="-105.3" font-family="Times,serif" font-size="14.00">5</text>
</g>
<!-- 5&#45;&gt;4 -->
<g id="edge13" class="edge"><title>5&#45;&gt;4</title>
<path fill="none" stroke="black" d="M107.596,-130.895C110.82,-153.096 117.369,-188.933 129,-218 135.429,-234.067 145.411,-250.727 153.916,-263.536"/>
<polygon fill="black" stroke="black" points="151.247,-265.833 159.776,-272.118 157.028,-261.886 151.247,-265.833"/>
<text text-anchor="middle" x="132.5" y="-196.3" font-family="Times,serif" font-size="14.00">a</text>
</g>
<!-- 5&#45;&gt;8 -->
<g id="edge14" class="edge"><title>5&#45;&gt;8</title>
<path fill="none" stroke="black" d="M107.213,-86.8822C109.279,-76.0431 113.274,-63.2171 121,-54 132.063,-40.8015 149.331,-32.0926 163.947,-26.6632"/>
<polygon fill="black" stroke="black" points="165.187,-29.9386 173.534,-23.4133 162.94,-23.3092 165.187,-29.9386"/>
<text text-anchor="middle" x="135" y="-57.8" font-family="Times,serif" font-size="14.00">d,b,c</text>
</g>
<!-- 6&#45;&gt;1 -->
<g id="edge15" class="edge"><title>6&#45;&gt;1</title>
<path fill="none" stroke="black" d="M90.9524,-495.191C91.4959,-507.284 92.1833,-522.578 92.7676,-535.579"/>
<polygon fill="black" stroke="black" points="89.2832,-536.007 93.2288,-545.84 96.2762,-535.693 89.2832,-536.007"/>
<text text-anchor="middle" x="95.5" y="-516.8" font-family="Times,serif" font-size="14.00">a</text>
</g>
<!-- 6&#45;&gt;2 -->
<g id="edge16" class="edge"><title>6&#45;&gt;2</title>
<path fill="none" stroke="black" d="M106.403,-457.875C124.427,-442.354 153.546,-417.279 174.107,-399.574"/>
<polygon fill="black" stroke="black" points="176.503,-402.13 181.797,-392.953 171.935,-396.826 176.503,-402.13"/>
<text text-anchor="middle" x="153.5" y="-421.8" font-family="Times,serif" font-size="14.00">c</text>
</g>
<!-- 6&#45;&gt;8 -->
<g id="edge17" class="edge"><title>6&#45;&gt;8</title>
<path fill="none" stroke="black" d="M78.7331,-453.877C68.5015,-435.662 55,-406.43 55,-379 55,-379 55,-379 55,-108 55,-56.7124 123.556,-33.3885 163.32,-24.1738"/>
<polygon fill="black" stroke="black" points="164.187,-27.5672 173.22,-22.0316 162.706,-20.7255 164.187,-27.5672"/>
<text text-anchor="middle" x="64" y="-239.8" font-family="Times,serif" font-size="14.00">d,b</text>
</g>
<!-- 7&#45;&gt;5 -->
<g id="edge18" class="edge"><title>7&#45;&gt;5</title>
<path fill="none" stroke="black" d="M153.422,-184.303C144.977,-171.344 132.464,-152.143 122.274,-136.507"/>
<polygon fill="black" stroke="black" points="124.983,-134.254 116.591,-127.787 119.119,-138.076 124.983,-134.254"/>
<text text-anchor="middle" x="142.5" y="-152.8" font-family="Times,serif" font-size="14.00">c</text>
</g>
<!-- 7&#45;&gt;8 -->
<g id="edge19" class="edge"><title>7&#45;&gt;8</title>
<path fill="none" stroke="black" d="M164.718,-181.862C167.024,-159.837 171.475,-120.447 177,-87 179.271,-73.2498 182.347,-58.0487 185.037,-45.5123"/>
<polygon fill="black" stroke="black" points="188.466,-46.2152 187.18,-35.6987 181.627,-44.7219 188.466,-46.2152"/>
<text text-anchor="middle" x="191" y="-105.3" font-family="Times,serif" font-size="14.00">d,b,a</text>
</g>
<!-- 8&#45;&gt;8 -->
<g id="edge20" class="edge"><title>8&#45;&gt;8</title>
<path fill="none" stroke="black" d="M207.664,-25.3828C217.625,-27.0234 227,-24.5625 227,-18 227,-13.7959 223.152,-11.2751 217.768,-10.4375"/>
<polygon fill="black" stroke="black" points="217.6,-6.93988 207.664,-10.6172 217.725,-13.9388 217.6,-6.93988"/>
<text text-anchor="middle" x="245.5" y="-14.3" font-family="Times,serif" font-size="14.00">d,b,c,a</text>
</g>
</g>
</svg>
