<?xml version="1.0" encoding="UTF-8" standalone="no"?>
<!DOCTYPE svg PUBLIC "-//W3C//DTD SVG 1.1//EN"
 "http://www.w3.org/Graphics/SVG/1.1/DTD/svg11.dtd">
<!-- Generated by graphviz version 2.38.0 (20140413.2041)
 -->
<!-- Title: %3 Pages: 1 -->
<svg width="873pt" height="332pt"
 viewBox="0.00 0.00 873.30 332.00" xmlns="http://www.w3.org/2000/svg" xmlns:xlink="http://www.w3.org/1999/xlink">
<g id="graph0" class="graph" transform="scale(1 1) rotate(0) translate(4 328)">
<title>%3</title>
<!-- 1 -->
<g id="node1" class="node"><title>1</title>
<ellipse fill="none" stroke="black" cx="119.298" cy="-306" rx="27" ry="18"/>
<text text-anchor="middle" x="119.298" y="-302.3" font-family="Times,serif" font-size="14.00" fill="red">1</text>
</g>
<!-- aa -->
<g id="node3" class="node"><title>aa</title>
<ellipse fill="none" stroke="black" cx="335.298" cy="-234" rx="27" ry="18"/>
<text text-anchor="middle" x="335.298" y="-230.3" font-family="Times,serif" font-size="14.00" fill="red">aa</text>
</g>
<!-- 1&#45;&gt;aa -->
<g id="edge1" class="edge"><title>1&#45;&gt;aa</title>
<path fill="none" stroke="black" d="M144.449,-298.909C179.622,-290.097 245.258,-272.573 299.298,-252 301.139,-251.299 303.016,-250.544 304.898,-249.754"/>
<polygon fill="black" stroke="black" points="306.491,-252.877 314.213,-245.623 303.653,-246.478 306.491,-252.877"/>
</g>
<!-- abcd -->
<g id="node6" class="node"><title>abcd</title>
<ellipse fill="none" stroke="black" cx="263.298" cy="-234" rx="27.0966" ry="18"/>
<text text-anchor="middle" x="263.298" y="-230.3" font-family="Times,serif" font-size="14.00" fill="red">abcd</text>
</g>
<!-- 1&#45;&gt;abcd -->
<g id="edge2" class="edge"><title>1&#45;&gt;abcd</title>
<path fill="none" stroke="black" d="M140.545,-294.671C164.899,-282.832 205.016,-263.331 232.725,-249.862"/>
<polygon fill="black" stroke="black" points="234.499,-252.891 241.963,-245.371 231.439,-246.595 234.499,-252.891"/>
</g>
<!-- bcda -->
<g id="node15" class="node"><title>bcda</title>
<ellipse fill="none" stroke="black" cx="119.298" cy="-234" rx="27.0966" ry="18"/>
<text text-anchor="middle" x="119.298" y="-230.3" font-family="Times,serif" font-size="14.00" fill="red">bcda</text>
</g>
<!-- 1&#45;&gt;bcda -->
<g id="edge3" class="edge"><title>1&#45;&gt;bcda</title>
<path fill="none" stroke="black" d="M119.298,-287.697C119.298,-279.983 119.298,-270.712 119.298,-262.112"/>
<polygon fill="black" stroke="black" points="122.798,-262.104 119.298,-252.104 115.798,-262.104 122.798,-262.104"/>
</g>
<!-- cdab -->
<g id="node22" class="node"><title>cdab</title>
<ellipse fill="none" stroke="black" cx="27.2976" cy="-162" rx="27.0966" ry="18"/>
<text text-anchor="middle" x="27.2976" y="-158.3" font-family="Times,serif" font-size="14.00" fill="red">cdab</text>
</g>
<!-- 1&#45;&gt;cdab -->
<g id="edge4" class="edge"><title>1&#45;&gt;cdab</title>
<path fill="none" stroke="black" d="M106.128,-289.721C97.4915,-279.388 86.194,-265.259 77.2976,-252 63.4666,-231.387 49.8031,-206.689 40.2639,-188.545"/>
<polygon fill="black" stroke="black" points="43.1293,-186.468 35.4138,-179.207 36.9172,-189.695 43.1293,-186.468"/>
</g>
<!-- dabc -->
<g id="node28" class="node"><title>dabc</title>
<ellipse fill="none" stroke="black" cx="101.298" cy="-162" rx="27.0966" ry="18"/>
<text text-anchor="middle" x="101.298" y="-158.3" font-family="Times,serif" font-size="14.00" fill="red">dabc</text>
</g>
<!-- 1&#45;&gt;dabc -->
<g id="edge5" class="edge"><title>1&#45;&gt;dabc</title>
<path fill="none" stroke="black" d="M105.547,-290.069C97.3368,-280.1 87.6786,-266.247 83.2976,-252 76.8767,-231.12 82.6814,-206.767 89.3575,-188.819"/>
<polygon fill="black" stroke="black" points="92.6949,-189.901 93.1931,-179.318 86.2039,-187.28 92.6949,-189.901"/>
</g>
<!-- a -->
<g id="node2" class="node"><title>a</title>
<ellipse fill="none" stroke="black" cx="373.298" cy="-306" rx="27" ry="18"/>
<text text-anchor="middle" x="373.298" y="-302.3" font-family="Times,serif" font-size="14.00">a</text>
</g>
<!-- a&#45;&gt;aa -->
<g id="edge6" class="edge"><title>a&#45;&gt;aa</title>
<path fill="none" stroke="black" d="M364.484,-288.765C359.88,-280.283 354.143,-269.714 348.976,-260.197"/>
<polygon fill="black" stroke="black" points="351.91,-258.266 344.063,-251.147 345.758,-261.606 351.91,-258.266"/>
</g>
<!-- abcda -->
<g id="node7" class="node"><title>abcda</title>
<ellipse fill="none" stroke="black" cx="411.298" cy="-234" rx="31.3957" ry="18"/>
<text text-anchor="middle" x="411.298" y="-230.3" font-family="Times,serif" font-size="14.00">abcda</text>
</g>
<!-- a&#45;&gt;abcda -->
<g id="edge7" class="edge"><title>a&#45;&gt;abcda</title>
<path fill="none" stroke="black" d="M382.111,-288.765C386.65,-280.404 392.289,-270.016 397.397,-260.606"/>
<polygon fill="black" stroke="black" points="400.573,-262.092 402.268,-251.633 394.421,-258.752 400.573,-262.092"/>
</g>
<!-- abcdaa -->
<g id="node8" class="node"><title>abcdaa</title>
<ellipse fill="none" stroke="black" cx="263.298" cy="-162" rx="35.194" ry="18"/>
<text text-anchor="middle" x="263.298" y="-158.3" font-family="Times,serif" font-size="14.00">abcdaa</text>
</g>
<!-- aa&#45;&gt;abcdaa -->
<g id="edge8" class="edge"><title>aa&#45;&gt;abcdaa</title>
<path fill="none" stroke="black" d="M320.727,-218.834C310.912,-209.291 297.754,-196.5 286.51,-185.568"/>
<polygon fill="black" stroke="black" points="288.705,-182.82 279.096,-178.359 283.826,-187.839 288.705,-182.82"/>
</g>
<!-- ad -->
<g id="node11" class="node"><title>ad</title>
<ellipse fill="none" stroke="black" cx="343.298" cy="-162" rx="27" ry="18"/>
<text text-anchor="middle" x="343.298" y="-158.3" font-family="Times,serif" font-size="14.00">ad</text>
</g>
<!-- aa&#45;&gt;ad -->
<g id="edge9" class="edge"><title>aa&#45;&gt;ad</title>
<path fill="none" stroke="black" d="M337.275,-215.697C338.157,-207.983 339.216,-198.712 340.199,-190.112"/>
<polygon fill="black" stroke="black" points="343.685,-190.437 341.343,-180.104 336.73,-189.642 343.685,-190.437"/>
</g>
<!-- bcdaa -->
<g id="node16" class="node"><title>bcdaa</title>
<ellipse fill="none" stroke="black" cx="179.298" cy="-162" rx="31.3957" ry="18"/>
<text text-anchor="middle" x="179.298" y="-158.3" font-family="Times,serif" font-size="14.00">bcdaa</text>
</g>
<!-- aa&#45;&gt;bcdaa -->
<g id="edge10" class="edge"><title>aa&#45;&gt;bcdaa</title>
<path fill="none" stroke="black" d="M314.019,-222.843C309.189,-220.568 304.076,-218.183 299.298,-216 270.349,-202.774 237.247,-188.195 213.152,-177.68"/>
<polygon fill="black" stroke="black" points="214.306,-174.365 203.74,-173.58 211.51,-180.783 214.306,-174.365"/>
</g>
<!-- ab -->
<g id="node4" class="node"><title>ab</title>
<ellipse fill="none" stroke="black" cx="334.298" cy="-90" rx="27" ry="18"/>
<text text-anchor="middle" x="334.298" y="-86.3" font-family="Times,serif" font-size="14.00">ab</text>
</g>
<!-- ac -->
<g id="node10" class="node"><title>ac</title>
<ellipse fill="none" stroke="black" cx="442.298" cy="-18" rx="27" ry="18"/>
<text text-anchor="middle" x="442.298" y="-14.3" font-family="Times,serif" font-size="14.00" fill="red">ac</text>
</g>
<!-- ab&#45;&gt;ac -->
<g id="edge11" class="edge"><title>ab&#45;&gt;ac</title>
<path fill="none" stroke="black" d="M353.11,-76.8069C370.3,-65.6653 395.916,-49.0622 415.291,-36.5043"/>
<polygon fill="black" stroke="black" points="417.213,-39.4294 423.701,-31.0533 413.406,-33.5553 417.213,-39.4294"/>
</g>
<!-- abc -->
<g id="node5" class="node"><title>abc</title>
<ellipse fill="none" stroke="black" cx="406.298" cy="-90" rx="27" ry="18"/>
<text text-anchor="middle" x="406.298" y="-86.3" font-family="Times,serif" font-size="14.00">abc</text>
</g>
<!-- abc&#45;&gt;ac -->
<g id="edge12" class="edge"><title>abc&#45;&gt;ac</title>
<path fill="none" stroke="black" d="M414.647,-72.7646C419.009,-64.2831 424.444,-53.7144 429.339,-44.1974"/>
<polygon fill="black" stroke="black" points="432.532,-45.6409 433.993,-35.1473 426.307,-42.4395 432.532,-45.6409"/>
</g>
<!-- abcd&#45;&gt;abcdaa -->
<g id="edge13" class="edge"><title>abcd&#45;&gt;abcdaa</title>
<path fill="none" stroke="black" d="M263.298,-215.697C263.298,-207.983 263.298,-198.712 263.298,-190.112"/>
<polygon fill="black" stroke="black" points="266.798,-190.104 263.298,-180.104 259.798,-190.104 266.798,-190.104"/>
</g>
<!-- abcda&#45;&gt;abcdaa -->
<g id="edge14" class="edge"><title>abcda&#45;&gt;abcdaa</title>
<path fill="none" stroke="black" d="M387.847,-221.908C363.494,-210.39 325.152,-192.255 297.439,-179.148"/>
<polygon fill="black" stroke="black" points="298.657,-175.852 288.12,-174.74 295.664,-182.18 298.657,-175.852"/>
</g>
<!-- abcdd -->
<g id="node9" class="node"><title>abcdd</title>
<ellipse fill="none" stroke="black" cx="257.298" cy="-90" rx="31.6951" ry="18"/>
<text text-anchor="middle" x="257.298" y="-86.3" font-family="Times,serif" font-size="14.00">abcdd</text>
</g>
<!-- abcdaa&#45;&gt;abcdd -->
<g id="edge15" class="edge"><title>abcdaa&#45;&gt;abcdd</title>
<path fill="none" stroke="black" d="M261.814,-143.697C261.153,-135.983 260.359,-126.712 259.621,-118.112"/>
<polygon fill="black" stroke="black" points="263.105,-117.769 258.764,-108.104 256.131,-118.367 263.105,-117.769"/>
</g>
<!-- abcdd&#45;&gt;ac -->
<g id="edge16" class="edge"><title>abcdd&#45;&gt;ac</title>
<path fill="none" stroke="black" d="M281.948,-78.5899C287.321,-76.374 292.987,-74.0772 298.298,-72 336.136,-57.1992 380,-41.2221 409.28,-30.7239"/>
<polygon fill="black" stroke="black" points="410.757,-33.9128 418.994,-27.2499 408.4,-27.3216 410.757,-33.9128"/>
</g>
<!-- ad&#45;&gt;abcdd -->
<g id="edge17" class="edge"><title>ad&#45;&gt;abcdd</title>
<path fill="none" stroke="black" d="M326.716,-147.503C314.231,-137.341 296.894,-123.229 282.669,-111.651"/>
<polygon fill="black" stroke="black" points="284.679,-108.774 274.714,-105.176 280.26,-114.203 284.679,-108.774"/>
</g>
<!-- bcdd -->
<g id="node17" class="node"><title>bcdd</title>
<ellipse fill="none" stroke="black" cx="179.298" cy="-90" rx="27.8951" ry="18"/>
<text text-anchor="middle" x="179.298" y="-86.3" font-family="Times,serif" font-size="14.00">bcdd</text>
</g>
<!-- ad&#45;&gt;bcdd -->
<g id="edge18" class="edge"><title>ad&#45;&gt;bcdd</title>
<path fill="none" stroke="black" d="M322.081,-150.703C317.248,-148.436 312.117,-146.089 307.298,-144 267.39,-126.705 256.295,-125.086 216.298,-108 214.445,-107.209 212.546,-106.383 210.634,-105.54"/>
<polygon fill="black" stroke="black" points="211.679,-102.172 201.123,-101.265 208.809,-108.557 211.679,-102.172"/>
</g>
<!-- b -->
<g id="node12" class="node"><title>b</title>
<ellipse fill="none" stroke="black" cx="478.298" cy="-90" rx="27" ry="18"/>
<text text-anchor="middle" x="478.298" y="-86.3" font-family="Times,serif" font-size="14.00">b</text>
</g>
<!-- b&#45;&gt;ac -->
<g id="edge19" class="edge"><title>b&#45;&gt;ac</title>
<path fill="none" stroke="black" d="M469.948,-72.7646C465.586,-64.2831 460.151,-53.7144 455.256,-44.1974"/>
<polygon fill="black" stroke="black" points="458.288,-42.4395 450.602,-35.1473 452.063,-45.6409 458.288,-42.4395"/>
</g>
<!-- bc -->
<g id="node13" class="node"><title>bc</title>
<ellipse fill="none" stroke="black" cx="550.298" cy="-90" rx="27" ry="18"/>
<text text-anchor="middle" x="550.298" y="-86.3" font-family="Times,serif" font-size="14.00">bc</text>
</g>
<!-- bc&#45;&gt;ac -->
<g id="edge20" class="edge"><title>bc&#45;&gt;ac</title>
<path fill="none" stroke="black" d="M531.485,-76.8069C514.295,-65.6653 488.679,-49.0622 469.304,-36.5043"/>
<polygon fill="black" stroke="black" points="471.189,-33.5553 460.894,-31.0533 467.382,-39.4294 471.189,-33.5553"/>
</g>
<!-- bcd -->
<g id="node14" class="node"><title>bcd</title>
<ellipse fill="none" stroke="black" cx="191.298" cy="-234" rx="27" ry="18"/>
<text text-anchor="middle" x="191.298" y="-230.3" font-family="Times,serif" font-size="14.00">bcd</text>
</g>
<!-- bcd&#45;&gt;bcdaa -->
<g id="edge21" class="edge"><title>bcd&#45;&gt;bcdaa</title>
<path fill="none" stroke="black" d="M188.393,-216.055C187.071,-208.346 185.474,-199.027 183.989,-190.364"/>
<polygon fill="black" stroke="black" points="187.398,-189.54 182.259,-180.275 180.499,-190.723 187.398,-189.54"/>
</g>
<!-- bcda&#45;&gt;bcdaa -->
<g id="edge22" class="edge"><title>bcda&#45;&gt;bcdaa</title>
<path fill="none" stroke="black" d="M132.317,-217.811C140.149,-208.673 150.284,-196.849 159.134,-186.524"/>
<polygon fill="black" stroke="black" points="162.038,-188.514 165.888,-178.644 156.723,-183.959 162.038,-188.514"/>
</g>
<!-- bcdaa&#45;&gt;bcdd -->
<g id="edge23" class="edge"><title>bcdaa&#45;&gt;bcdd</title>
<path fill="none" stroke="black" d="M179.298,-143.697C179.298,-135.983 179.298,-126.712 179.298,-118.112"/>
<polygon fill="black" stroke="black" points="182.798,-118.104 179.298,-108.104 175.798,-118.104 182.798,-118.104"/>
</g>
<!-- bcdd&#45;&gt;ac -->
<g id="edge24" class="edge"><title>bcdd&#45;&gt;ac</title>
<path fill="none" stroke="black" d="M200.914,-78.1913C205.89,-75.9502 211.216,-73.7436 216.298,-72 281.899,-49.4917 361.432,-33.2942 406.52,-25.0945"/>
<polygon fill="black" stroke="black" points="407.18,-28.5321 416.407,-23.3247 405.946,-21.6416 407.18,-28.5321"/>
</g>
<!-- c -->
<g id="node18" class="node"><title>c</title>
<ellipse fill="none" stroke="black" cx="694.298" cy="-90" rx="27" ry="18"/>
<text text-anchor="middle" x="694.298" y="-86.3" font-family="Times,serif" font-size="14.00">c</text>
</g>
<!-- c&#45;&gt;ac -->
<g id="edge25" class="edge"><title>c&#45;&gt;ac</title>
<path fill="none" stroke="black" d="M673.656,-78.3871C668.705,-76.0847 663.379,-73.8025 658.298,-72 596.44,-50.056 521.495,-33.8861 478.116,-25.4974"/>
<polygon fill="black" stroke="black" points="478.533,-22.0139 468.055,-23.5822 477.224,-28.8905 478.533,-22.0139"/>
</g>
<!-- cd -->
<g id="node19" class="node"><title>cd</title>
<ellipse fill="none" stroke="black" cx="753.298" cy="-234" rx="27" ry="18"/>
<text text-anchor="middle" x="753.298" y="-230.3" font-family="Times,serif" font-size="14.00">cd</text>
</g>
<!-- cdaa -->
<g id="node21" class="node"><title>cdaa</title>
<ellipse fill="none" stroke="black" cx="766.298" cy="-162" rx="27" ry="18"/>
<text text-anchor="middle" x="766.298" y="-158.3" font-family="Times,serif" font-size="14.00">cdaa</text>
</g>
<!-- cd&#45;&gt;cdaa -->
<g id="edge26" class="edge"><title>cd&#45;&gt;cdaa</title>
<path fill="none" stroke="black" d="M756.445,-216.055C757.876,-208.346 759.607,-199.027 761.216,-190.364"/>
<polygon fill="black" stroke="black" points="764.704,-190.746 763.089,-180.275 757.822,-189.468 764.704,-190.746"/>
</g>
<!-- cda -->
<g id="node20" class="node"><title>cda</title>
<ellipse fill="none" stroke="black" cx="825.298" cy="-234" rx="27" ry="18"/>
<text text-anchor="middle" x="825.298" y="-230.3" font-family="Times,serif" font-size="14.00">cda</text>
</g>
<!-- cda&#45;&gt;cdaa -->
<g id="edge27" class="edge"><title>cda&#45;&gt;cdaa</title>
<path fill="none" stroke="black" d="M812.495,-217.811C804.687,-208.546 794.55,-196.52 785.763,-186.094"/>
<polygon fill="black" stroke="black" points="788.196,-183.55 779.075,-178.159 782.843,-188.061 788.196,-183.55"/>
</g>
<!-- cdd -->
<g id="node23" class="node"><title>cdd</title>
<ellipse fill="none" stroke="black" cx="766.298" cy="-90" rx="27" ry="18"/>
<text text-anchor="middle" x="766.298" y="-86.3" font-family="Times,serif" font-size="14.00">cdd</text>
</g>
<!-- cdaa&#45;&gt;cdd -->
<g id="edge28" class="edge"><title>cdaa&#45;&gt;cdd</title>
<path fill="none" stroke="black" d="M766.298,-143.697C766.298,-135.983 766.298,-126.712 766.298,-118.112"/>
<polygon fill="black" stroke="black" points="769.798,-118.104 766.298,-108.104 762.798,-118.104 769.798,-118.104"/>
</g>
<!-- cdab&#45;&gt;ac -->
<g id="edge29" class="edge"><title>cdab&#45;&gt;ac</title>
<path fill="none" stroke="black" d="M37.5004,-145.132C51.6314,-124.596 79.1982,-89.3927 112.298,-72 162.725,-45.5022 329.919,-28.4736 405.104,-21.9761"/>
<polygon fill="black" stroke="black" points="405.836,-25.4267 415.504,-21.094 405.244,-18.4518 405.836,-25.4267"/>
</g>
<!-- cdd&#45;&gt;ac -->
<g id="edge30" class="edge"><title>cdd&#45;&gt;ac</title>
<path fill="none" stroke="black" d="M745.73,-78.17C740.776,-75.8766 735.429,-73.6528 730.298,-72 642.557,-43.7407 534.632,-28.9248 479.129,-22.6852"/>
<polygon fill="black" stroke="black" points="479.391,-19.1931 469.07,-21.5843 478.63,-26.1515 479.391,-19.1931"/>
</g>
<!-- d -->
<g id="node24" class="node"><title>d</title>
<ellipse fill="none" stroke="black" cx="575.298" cy="-306" rx="27" ry="18"/>
<text text-anchor="middle" x="575.298" y="-302.3" font-family="Times,serif" font-size="14.00">d</text>
</g>
<!-- dabcd -->
<g id="node29" class="node"><title>dabcd</title>
<ellipse fill="none" stroke="black" cx="650.298" cy="-234" rx="31.6951" ry="18"/>
<text text-anchor="middle" x="650.298" y="-230.3" font-family="Times,serif" font-size="14.00">dabcd</text>
</g>
<!-- d&#45;&gt;dabcd -->
<g id="edge31" class="edge"><title>d&#45;&gt;dabcd</title>
<path fill="none" stroke="black" d="M590.475,-290.834C600.938,-281.069 615.047,-267.9 626.935,-256.805"/>
<polygon fill="black" stroke="black" points="629.444,-259.251 634.366,-249.869 624.667,-254.134 629.444,-259.251"/>
</g>
<!-- dd -->
<g id="node31" class="node"><title>dd</title>
<ellipse fill="none" stroke="black" cx="501.298" cy="-234" rx="27" ry="18"/>
<text text-anchor="middle" x="501.298" y="-230.3" font-family="Times,serif" font-size="14.00" fill="red">dd</text>
</g>
<!-- d&#45;&gt;dd -->
<g id="edge32" class="edge"><title>d&#45;&gt;dd</title>
<path fill="none" stroke="black" d="M560.323,-290.834C549.791,-280.872 535.516,-267.369 523.643,-256.137"/>
<polygon fill="black" stroke="black" points="525.92,-253.474 516.25,-249.144 521.11,-258.559 525.92,-253.474"/>
</g>
<!-- da -->
<g id="node25" class="node"><title>da</title>
<ellipse fill="none" stroke="black" cx="573.298" cy="-234" rx="27" ry="18"/>
<text text-anchor="middle" x="573.298" y="-230.3" font-family="Times,serif" font-size="14.00">da</text>
</g>
<!-- daa -->
<g id="node26" class="node"><title>daa</title>
<ellipse fill="none" stroke="black" cx="622.298" cy="-162" rx="27" ry="18"/>
<text text-anchor="middle" x="622.298" y="-158.3" font-family="Times,serif" font-size="14.00">daa</text>
</g>
<!-- da&#45;&gt;daa -->
<g id="edge33" class="edge"><title>da&#45;&gt;daa</title>
<path fill="none" stroke="black" d="M584.172,-217.465C590.453,-208.493 598.485,-197.019 605.555,-186.918"/>
<polygon fill="black" stroke="black" points="608.586,-188.691 611.453,-178.492 602.851,-184.677 608.586,-188.691"/>
</g>
<!-- dad -->
<g id="node30" class="node"><title>dad</title>
<ellipse fill="none" stroke="black" cx="622.298" cy="-90" rx="27" ry="18"/>
<text text-anchor="middle" x="622.298" y="-86.3" font-family="Times,serif" font-size="14.00">dad</text>
</g>
<!-- daa&#45;&gt;dad -->
<g id="edge34" class="edge"><title>daa&#45;&gt;dad</title>
<path fill="none" stroke="black" d="M622.298,-143.697C622.298,-135.983 622.298,-126.712 622.298,-118.112"/>
<polygon fill="black" stroke="black" points="625.798,-118.104 622.298,-108.104 618.798,-118.104 625.798,-118.104"/>
</g>
<!-- dab -->
<g id="node27" class="node"><title>dab</title>
<ellipse fill="none" stroke="black" cx="838.298" cy="-90" rx="27" ry="18"/>
<text text-anchor="middle" x="838.298" y="-86.3" font-family="Times,serif" font-size="14.00">dab</text>
</g>
<!-- dab&#45;&gt;ac -->
<g id="edge35" class="edge"><title>dab&#45;&gt;ac</title>
<path fill="none" stroke="black" d="M817.772,-78.0363C812.816,-75.7484 807.458,-73.5606 802.298,-72 688.024,-37.4412 546.285,-25.0232 479.904,-20.8898"/>
<polygon fill="black" stroke="black" points="479.725,-17.3732 469.535,-20.2741 479.31,-24.3608 479.725,-17.3732"/>
</g>
<!-- dabc&#45;&gt;ac -->
<g id="edge36" class="edge"><title>dabc&#45;&gt;ac</title>
<path fill="none" stroke="black" d="M104.238,-143.956C108.707,-123.508 119.262,-89.7666 142.298,-72 182.93,-40.6613 334.32,-26.3808 405.223,-21.3039"/>
<polygon fill="black" stroke="black" points="405.746,-24.7762 415.48,-20.5937 405.262,-17.7929 405.746,-24.7762"/>
</g>
<!-- dabcd&#45;&gt;daa -->
<g id="edge37" class="edge"><title>dabcd&#45;&gt;daa</title>
<path fill="none" stroke="black" d="M643.52,-216.055C640.287,-207.973 636.346,-198.121 632.742,-189.112"/>
<polygon fill="black" stroke="black" points="635.977,-187.774 629.013,-179.789 629.477,-190.374 635.977,-187.774"/>
</g>
<!-- dad&#45;&gt;ac -->
<g id="edge38" class="edge"><title>dad&#45;&gt;ac</title>
<path fill="none" stroke="black" d="M601.118,-78.6171C596.283,-76.354 591.142,-74.0307 586.298,-72 548.936,-56.3392 505.149,-40.5823 475.754,-30.3697"/>
<polygon fill="black" stroke="black" points="476.586,-26.9541 465.991,-26.9978 474.301,-33.5706 476.586,-26.9541"/>
</g>
<!-- dd&#45;&gt;ad -->
<g id="edge39" class="edge"><title>dd&#45;&gt;ad</title>
<path fill="none" stroke="black" d="M479.328,-223.267C452.09,-211.199 405.483,-190.551 374.534,-176.839"/>
<polygon fill="black" stroke="black" points="375.641,-173.501 365.08,-172.651 372.805,-179.901 375.641,-173.501"/>
</g>
<!-- dd&#45;&gt;dad -->
<g id="edge40" class="edge"><title>dd&#45;&gt;dad</title>
<path fill="none" stroke="black" d="M514.018,-218.072C535.204,-193.208 577.854,-143.157 602.838,-113.837"/>
<polygon fill="black" stroke="black" points="605.562,-116.037 609.383,-106.155 600.234,-111.497 605.562,-116.037"/>
</g>
</g>
</svg>
