<?xml version="1.0" encoding="UTF-8" standalone="no"?>
<!DOCTYPE svg PUBLIC "-//W3C//DTD SVG 1.1//EN"
 "http://www.w3.org/Graphics/SVG/1.1/DTD/svg11.dtd">
<!-- Generated by graphviz version 2.38.0 (20140413.2041)
 -->
<!-- Title: %3 Pages: 1 -->
<svg width="319pt" height="748pt"
 viewBox="0.00 0.00 319.00 748.00" xmlns="http://www.w3.org/2000/svg" xmlns:xlink="http://www.w3.org/1999/xlink">
<g id="graph0" class="graph" transform="scale(1 1) rotate(0) translate(4 744)">
<title>%3</title>
<!-- 0 -->
<g id="node1" class="node"><title>0</title>
<ellipse fill="#aaff80" stroke="black" cx="65" cy="-718" rx="18" ry="18"/>
<ellipse fill="none" stroke="black" cx="65" cy="-718" rx="22" ry="22"/>
<text text-anchor="middle" x="65" y="-714.3" font-family="Times,serif" font-size="14.00">0</text>
</g>
<!-- 7 -->
<g id="node8" class="node"><title>7</title>
<ellipse fill="lightblue" stroke="black" cx="143" cy="-18" rx="18" ry="18"/>
<text text-anchor="middle" x="143" y="-14.3" font-family="Times,serif" font-size="14.00">7</text>
</g>
<!-- 0&#45;&gt;7 -->
<g id="edge1" class="edge"><title>0&#45;&gt;7</title>
<path fill="none" stroke="black" d="M47.5812,-704.353C28.3274,-688.765 0,-660.336 0,-628 0,-628 0,-628 0,-104 0,-50.9962 73.4926,-30.304 115.105,-22.836"/>
<polygon fill="black" stroke="black" points="115.881,-26.2553 125.178,-21.1738 114.742,-19.3487 115.881,-26.2553"/>
<text text-anchor="middle" x="3.5" y="-362.3" font-family="Times,serif" font-size="14.00">b</text>
</g>
<!-- 8 -->
<g id="node9" class="node"><title>8</title>
<ellipse fill="lightblue" stroke="black" cx="65" cy="-627" rx="18" ry="18"/>
<text text-anchor="middle" x="65" y="-623.3" font-family="Times,serif" font-size="14.00">8</text>
</g>
<!-- 0&#45;&gt;8 -->
<g id="edge2" class="edge"><title>0&#45;&gt;8</title>
<path fill="none" stroke="black" d="M65,-695.908C65,-683.78 65,-668.409 65,-655.36"/>
<polygon fill="black" stroke="black" points="68.5001,-655.066 65,-645.066 61.5001,-655.066 68.5001,-655.066"/>
<text text-anchor="middle" x="68.5" y="-666.8" font-family="Times,serif" font-size="14.00">a</text>
</g>
<!-- 1 -->
<g id="node2" class="node"><title>1</title>
<ellipse fill="lightblue" stroke="black" cx="214" cy="-279" rx="18" ry="18"/>
<text text-anchor="middle" x="214" y="-275.3" font-family="Times,serif" font-size="14.00">1</text>
</g>
<!-- 5 -->
<g id="node6" class="node"><title>5</title>
<ellipse fill="lightblue" stroke="black" cx="249" cy="-192" rx="18" ry="18"/>
<text text-anchor="middle" x="249" y="-188.3" font-family="Times,serif" font-size="14.00">5</text>
</g>
<!-- 1&#45;&gt;5 -->
<g id="edge3" class="edge"><title>1&#45;&gt;5</title>
<path fill="none" stroke="black" d="M220.583,-262.012C225.619,-249.784 232.661,-232.679 238.476,-218.559"/>
<polygon fill="black" stroke="black" points="241.875,-219.496 242.446,-208.916 235.402,-216.83 241.875,-219.496"/>
<text text-anchor="middle" x="236.5" y="-231.8" font-family="Times,serif" font-size="14.00">b</text>
</g>
<!-- 1&#45;&gt;7 -->
<g id="edge4" class="edge"><title>1&#45;&gt;7</title>
<path fill="none" stroke="black" d="M214.889,-260.865C216.187,-221.798 215.249,-124.1 179,-54 175.61,-47.4451 170.526,-41.398 165.238,-36.2398"/>
<polygon fill="black" stroke="black" points="167.314,-33.4015 157.519,-29.3626 162.657,-38.6281 167.314,-33.4015"/>
<text text-anchor="middle" x="212.5" y="-144.8" font-family="Times,serif" font-size="14.00">a</text>
</g>
<!-- 2 -->
<g id="node3" class="node"><title>2</title>
<ellipse fill="lightblue" stroke="black" cx="168" cy="-366" rx="18" ry="18"/>
<text text-anchor="middle" x="168" y="-362.3" font-family="Times,serif" font-size="14.00">2</text>
</g>
<!-- 2&#45;&gt;1 -->
<g id="edge5" class="edge"><title>2&#45;&gt;1</title>
<path fill="none" stroke="black" d="M176.224,-349.804C183.092,-337.112 193.009,-318.787 200.959,-304.097"/>
<polygon fill="black" stroke="black" points="204.166,-305.525 205.847,-295.065 198.01,-302.194 204.166,-305.525"/>
<text text-anchor="middle" x="196.5" y="-318.8" font-family="Times,serif" font-size="14.00">a</text>
</g>
<!-- 2&#45;&gt;7 -->
<g id="edge6" class="edge"><title>2&#45;&gt;7</title>
<path fill="none" stroke="black" d="M166.76,-347.842C162.72,-291.926 149.911,-114.642 144.97,-46.2655"/>
<polygon fill="black" stroke="black" points="148.459,-45.9835 144.247,-36.2618 141.477,-46.488 148.459,-45.9835"/>
<text text-anchor="middle" x="159.5" y="-188.3" font-family="Times,serif" font-size="14.00">b</text>
</g>
<!-- 3 -->
<g id="node4" class="node"><title>3</title>
<ellipse fill="lightblue" stroke="black" cx="292" cy="-105" rx="18" ry="18"/>
<text text-anchor="middle" x="292" y="-101.3" font-family="Times,serif" font-size="14.00">3</text>
</g>
<!-- 3&#45;&gt;0 -->
<g id="edge7" class="edge"><title>3&#45;&gt;0</title>
<path fill="none" stroke="black" d="M295.797,-122.835C299.312,-139.913 304,-167.155 304,-191 304,-628 304,-628 304,-628 304,-671.724 161.743,-700.956 96.7325,-712.032"/>
<polygon fill="black" stroke="black" points="95.9213,-708.619 86.6312,-713.712 97.07,-715.524 95.9213,-708.619"/>
<text text-anchor="middle" x="307.5" y="-405.8" font-family="Times,serif" font-size="14.00">b</text>
</g>
<!-- 3&#45;&gt;7 -->
<g id="edge8" class="edge"><title>3&#45;&gt;7</title>
<path fill="none" stroke="black" d="M286.345,-87.8418C281.696,-76.8049 274.06,-62.6635 263,-54 236.273,-33.0636 197.397,-24.6452 171.203,-21.2638"/>
<polygon fill="black" stroke="black" points="171.492,-17.7743 161.163,-20.1334 170.708,-24.7303 171.492,-17.7743"/>
<text text-anchor="middle" x="278.5" y="-57.8" font-family="Times,serif" font-size="14.00">a</text>
</g>
<!-- 4 -->
<g id="node5" class="node"><title>4</title>
<ellipse fill="lightblue" stroke="black" cx="130" cy="-453" rx="18" ry="18"/>
<text text-anchor="middle" x="130" y="-449.3" font-family="Times,serif" font-size="14.00">4</text>
</g>
<!-- 4&#45;&gt;2 -->
<g id="edge9" class="edge"><title>4&#45;&gt;2</title>
<path fill="none" stroke="black" d="M137.148,-436.012C142.702,-423.587 150.508,-406.127 156.878,-391.879"/>
<polygon fill="black" stroke="black" points="160.127,-393.187 161.013,-382.629 153.736,-390.33 160.127,-393.187"/>
<text text-anchor="middle" x="154.5" y="-405.8" font-family="Times,serif" font-size="14.00">a</text>
</g>
<!-- 4&#45;&gt;7 -->
<g id="edge10" class="edge"><title>4&#45;&gt;7</title>
<path fill="none" stroke="black" d="M127.469,-435.11C125.125,-417.99 122,-390.715 122,-367 122,-367 122,-367 122,-104 122,-83.6074 127.767,-61.245 133.257,-44.5776"/>
<polygon fill="black" stroke="black" points="136.607,-45.5991 136.585,-35.0043 129.995,-43.3004 136.607,-45.5991"/>
<text text-anchor="middle" x="125.5" y="-231.8" font-family="Times,serif" font-size="14.00">b</text>
</g>
<!-- 5&#45;&gt;3 -->
<g id="edge11" class="edge"><title>5&#45;&gt;3</title>
<path fill="none" stroke="black" d="M256.887,-175.41C263.251,-162.829 272.319,-144.903 279.646,-130.421"/>
<polygon fill="black" stroke="black" points="282.772,-131.995 284.163,-121.491 276.526,-128.835 282.772,-131.995"/>
<text text-anchor="middle" x="276.5" y="-144.8" font-family="Times,serif" font-size="14.00">a</text>
</g>
<!-- 5&#45;&gt;7 -->
<g id="edge12" class="edge"><title>5&#45;&gt;7</title>
<path fill="none" stroke="black" d="M249.532,-173.801C249.5,-145.652 245.539,-89.3473 217,-54 205.356,-39.5777 186.368,-30.7661 170.542,-25.5918"/>
<polygon fill="black" stroke="black" points="171.289,-22.1633 160.707,-22.6944 169.311,-28.8779 171.289,-22.1633"/>
<text text-anchor="middle" x="247.5" y="-101.3" font-family="Times,serif" font-size="14.00">b</text>
</g>
<!-- 6 -->
<g id="node7" class="node"><title>6</title>
<ellipse fill="lightblue" stroke="black" cx="84" cy="-540" rx="18" ry="18"/>
<text text-anchor="middle" x="84" y="-536.3" font-family="Times,serif" font-size="14.00">6</text>
</g>
<!-- 6&#45;&gt;4 -->
<g id="edge13" class="edge"><title>6&#45;&gt;4</title>
<path fill="none" stroke="black" d="M92.2239,-523.804C99.0923,-511.112 109.009,-492.787 116.959,-478.097"/>
<polygon fill="black" stroke="black" points="120.166,-479.525 121.847,-469.065 114.01,-476.194 120.166,-479.525"/>
<text text-anchor="middle" x="112.5" y="-492.8" font-family="Times,serif" font-size="14.00">b</text>
</g>
<!-- 6&#45;&gt;7 -->
<g id="edge14" class="edge"><title>6&#45;&gt;7</title>
<path fill="none" stroke="black" d="M84,-521.744C84,-504.57 84,-477.464 84,-454 84,-454 84,-454 84,-104 84,-76.9846 104.362,-52.3757 121.162,-36.6692"/>
<polygon fill="black" stroke="black" points="123.858,-38.9559 129.018,-29.7023 119.214,-33.7185 123.858,-38.9559"/>
<text text-anchor="middle" x="87.5" y="-275.3" font-family="Times,serif" font-size="14.00">a</text>
</g>
<!-- 7&#45;&gt;7 -->
<g id="edge15" class="edge"><title>7&#45;&gt;7</title>
<path fill="none" stroke="black" d="M159.664,-25.3828C169.625,-27.0234 179,-24.5625 179,-18 179,-13.7959 175.152,-11.2751 169.768,-10.4375"/>
<polygon fill="black" stroke="black" points="169.6,-6.93988 159.664,-10.6172 169.725,-13.9388 169.6,-6.93988"/>
<text text-anchor="middle" x="187.5" y="-14.3" font-family="Times,serif" font-size="14.00">b,a</text>
</g>
<!-- 8&#45;&gt;6 -->
<g id="edge16" class="edge"><title>8&#45;&gt;6</title>
<path fill="none" stroke="black" d="M68.7538,-609.207C71.4081,-597.332 75.0212,-581.168 78.0638,-567.557"/>
<polygon fill="black" stroke="black" points="81.4882,-568.281 80.254,-557.758 74.6568,-566.754 81.4882,-568.281"/>
<text text-anchor="middle" x="78.5" y="-579.8" font-family="Times,serif" font-size="14.00">a</text>
</g>
<!-- 8&#45;&gt;7 -->
<g id="edge17" class="edge"><title>8&#45;&gt;7</title>
<path fill="none" stroke="black" d="M57.0451,-610.795C49.0808,-594.135 38,-566.393 38,-541 38,-541 38,-541 38,-104 38,-63.79 85.0935,-39.3146 116.203,-27.5333"/>
<polygon fill="black" stroke="black" points="117.424,-30.8136 125.661,-24.1503 115.067,-24.2224 117.424,-30.8136"/>
<text text-anchor="middle" x="41.5" y="-318.8" font-family="Times,serif" font-size="14.00">b</text>
</g>
</g>
</svg>
