<?xml version="1.0" encoding="UTF-8" standalone="no"?>
<!DOCTYPE svg PUBLIC "-//W3C//DTD SVG 1.1//EN"
 "http://www.w3.org/Graphics/SVG/1.1/DTD/svg11.dtd">
<!-- Generated by graphviz version 2.38.0 (20140413.2041)
 -->
<!-- Title: %3 Pages: 1 -->
<svg width="176pt" height="139pt"
 viewBox="0.00 0.00 176.00 139.00" xmlns="http://www.w3.org/2000/svg" xmlns:xlink="http://www.w3.org/1999/xlink">
<g id="graph0" class="graph" transform="scale(1 1) rotate(0) translate(4 135)">
<title>%3</title>
<!-- 0 -->
<g id="node1" class="node"><title>0</title>
<ellipse fill="lightblue" stroke="black" cx="22" cy="-22" rx="18" ry="18"/>
<ellipse fill="none" stroke="black" cx="22" cy="-22" rx="22" ry="22"/>
<text text-anchor="middle" x="22" y="-18.3" font-family="Times,serif" font-size="14.00">0</text>
</g>
<!-- 0&#45;&gt;0 -->
<g id="edge1" class="edge"><title>0&#45;&gt;0</title>
<path fill="none" stroke="black" d="M42.5808,-30.3702C52.8447,-31.5284 62,-28.7383 62,-22 62,-17.6833 58.2427,-14.9869 52.8436,-13.9109"/>
<polygon fill="black" stroke="black" points="52.6729,-10.405 42.5808,-13.6298 52.4812,-17.4024 52.6729,-10.405"/>
<text text-anchor="middle" x="70.5" y="-18.3" font-family="Times,serif" font-size="14.00">b,a</text>
</g>
<!-- 1 -->
<g id="node2" class="node"><title>1</title>
<ellipse fill="lightblue" stroke="black" cx="115" cy="-22" rx="18" ry="18"/>
<text text-anchor="middle" x="115" y="-18.3" font-family="Times,serif" font-size="14.00">1</text>
</g>
<!-- 1&#45;&gt;1 -->
<g id="edge2" class="edge"><title>1&#45;&gt;1</title>
<path fill="none" stroke="black" d="M131.29,-30.0164C141.389,-31.9495 151,-29.2773 151,-22 151,-17.338 147.056,-14.5659 141.566,-13.6838"/>
<polygon fill="black" stroke="black" points="141.184,-10.1933 131.29,-13.9836 141.388,-17.1903 141.184,-10.1933"/>
<text text-anchor="middle" x="159.5" y="-18.3" font-family="Times,serif" font-size="14.00">b,a</text>
</g>
<!-- 2 -->
<g id="node3" class="node"><title>2</title>
<ellipse fill="#aaff80" stroke="black" cx="68" cy="-113" rx="18" ry="18"/>
<text text-anchor="middle" x="68" y="-109.3" font-family="Times,serif" font-size="14.00">2</text>
</g>
<!-- 2&#45;&gt;0 -->
<g id="edge3" class="edge"><title>2&#45;&gt;0</title>
<path fill="none" stroke="black" d="M59.9874,-96.4974C53.5072,-83.9595 44.2154,-65.982 36.4437,-50.9455"/>
<polygon fill="black" stroke="black" points="39.5408,-49.3147 31.8399,-42.0381 33.3222,-52.5288 39.5408,-49.3147"/>
<text text-anchor="middle" x="53.5" y="-65.8" font-family="Times,serif" font-size="14.00">a</text>
</g>
<!-- 2&#45;&gt;1 -->
<g id="edge4" class="edge"><title>2&#45;&gt;1</title>
<path fill="none" stroke="black" d="M76.1868,-96.4974C83.3306,-82.9697 93.8185,-63.1096 102.092,-47.4433"/>
<polygon fill="black" stroke="black" points="105.332,-48.8021 106.907,-38.325 99.1423,-45.5333 105.332,-48.8021"/>
<text text-anchor="middle" x="97.5" y="-65.8" font-family="Times,serif" font-size="14.00">b</text>
</g>
</g>
</svg>
