<?xml version="1.0" encoding="UTF-8" standalone="no"?>
<!DOCTYPE svg PUBLIC "-//W3C//DTD SVG 1.1//EN"
 "http://www.w3.org/Graphics/SVG/1.1/DTD/svg11.dtd">
<!-- Generated by graphviz version 2.38.0 (20140413.2041)
 -->
<!-- Title: %3 Pages: 1 -->
<svg width="146pt" height="329pt"
 viewBox="0.00 0.00 146.45 329.00" xmlns="http://www.w3.org/2000/svg" xmlns:xlink="http://www.w3.org/1999/xlink">
<g id="graph0" class="graph" transform="scale(1 1) rotate(0) translate(4 325)">
<title>%3</title>
<!-- 0 -->
<g id="node1" class="node"><title>0</title>
<ellipse fill="lightblue" stroke="black" cx="63.4453" cy="-18" rx="18" ry="18"/>
<text text-anchor="middle" x="63.4453" y="-14.3" font-family="Times,serif" font-size="14.00">0</text>
</g>
<!-- 0&#45;&gt;0 -->
<g id="edge1" class="edge"><title>0&#45;&gt;0</title>
<path fill="none" stroke="black" d="M80.1094,-25.3828C90.0703,-27.0234 99.4453,-24.5625 99.4453,-18 99.4453,-13.7959 95.5978,-11.2751 90.2136,-10.4375"/>
<polygon fill="black" stroke="black" points="90.0455,-6.93988 80.1094,-10.6172 90.17,-13.9388 90.0455,-6.93988"/>
<text text-anchor="middle" x="107.945" y="-14.3" font-family="Times,serif" font-size="14.00">a,b</text>
</g>
<!-- 1 -->
<g id="node2" class="node"><title>1</title>
<ellipse fill="lightblue" stroke="black" cx="31.4453" cy="-204" rx="18" ry="18"/>
<ellipse fill="none" stroke="black" cx="31.4453" cy="-204" rx="22" ry="22"/>
<text text-anchor="middle" x="31.4453" y="-200.3" font-family="Times,serif" font-size="14.00">1</text>
</g>
<!-- 1&#45;&gt;0 -->
<g id="edge2" class="edge"><title>1&#45;&gt;0</title>
<path fill="none" stroke="black" d="M20.6141,-184.49C8.47012,-161.229 -7.99418,-120.318 4.44531,-87 11.94,-66.9259 28.3278,-48.8508 41.9345,-36.3905"/>
<polygon fill="black" stroke="black" points="44.3212,-38.9528 49.5362,-29.7303 39.7082,-33.6877 44.3212,-38.9528"/>
<text text-anchor="middle" x="7.94531" y="-105.3" font-family="Times,serif" font-size="14.00">a</text>
</g>
<!-- 5 -->
<g id="node6" class="node"><title>5</title>
<ellipse fill="lightblue" stroke="black" cx="38.4453" cy="-109" rx="18" ry="18"/>
<text text-anchor="middle" x="38.4453" y="-105.3" font-family="Times,serif" font-size="14.00">5</text>
</g>
<!-- 1&#45;&gt;5 -->
<g id="edge3" class="edge"><title>1&#45;&gt;5</title>
<path fill="none" stroke="black" d="M31.7832,-181.945C32.0566,-171.95 32.5511,-159.846 33.4453,-149 33.7612,-145.169 34.18,-141.136 34.6413,-137.176"/>
<polygon fill="black" stroke="black" points="38.1394,-137.41 35.9195,-127.05 31.1945,-136.533 38.1394,-137.41"/>
<text text-anchor="middle" x="36.9453" y="-152.8" font-family="Times,serif" font-size="14.00">b</text>
</g>
<!-- 2 -->
<g id="node3" class="node"><title>2</title>
<ellipse fill="lightblue" stroke="black" cx="96.4453" cy="-109" rx="18" ry="18"/>
<ellipse fill="none" stroke="black" cx="96.4453" cy="-109" rx="22" ry="22"/>
<text text-anchor="middle" x="96.4453" y="-105.3" font-family="Times,serif" font-size="14.00">2</text>
</g>
<!-- 2&#45;&gt;0 -->
<g id="edge4" class="edge"><title>2&#45;&gt;0</title>
<path fill="none" stroke="black" d="M89.1215,-88.248C84.3543,-75.3908 78.0885,-58.4922 72.9401,-44.6071"/>
<polygon fill="black" stroke="black" points="76.1845,-43.2895 69.4261,-35.1301 69.6211,-45.7232 76.1845,-43.2895"/>
<text text-anchor="middle" x="84.9453" y="-57.8" font-family="Times,serif" font-size="14.00">a</text>
</g>
<!-- 4 -->
<g id="node5" class="node"><title>4</title>
<ellipse fill="lightblue" stroke="black" cx="94.4453" cy="-204" rx="18" ry="18"/>
<ellipse fill="none" stroke="black" cx="94.4453" cy="-204" rx="22" ry="22"/>
<text text-anchor="middle" x="94.4453" y="-200.3" font-family="Times,serif" font-size="14.00">4</text>
</g>
<!-- 2&#45;&gt;4 -->
<g id="edge5" class="edge"><title>2&#45;&gt;4</title>
<path fill="none" stroke="black" d="M100.131,-130.768C101.462,-140.805 102.422,-153.028 101.445,-164 101.216,-166.578 100.903,-169.241 100.535,-171.907"/>
<polygon fill="black" stroke="black" points="97.0374,-171.615 98.9121,-182.042 103.949,-172.722 97.0374,-171.615"/>
<text text-anchor="middle" x="104.945" y="-152.8" font-family="Times,serif" font-size="14.00">b</text>
</g>
<!-- 3 -->
<g id="node4" class="node"><title>3</title>
<ellipse fill="#aaff80" stroke="black" cx="66.4453" cy="-299" rx="18" ry="18"/>
<ellipse fill="none" stroke="black" cx="66.4453" cy="-299" rx="22" ry="22"/>
<text text-anchor="middle" x="66.4453" y="-295.3" font-family="Times,serif" font-size="14.00">3</text>
</g>
<!-- 3&#45;&gt;1 -->
<g id="edge6" class="edge"><title>3&#45;&gt;1</title>
<path fill="none" stroke="black" d="M59.0227,-278.277C54.2294,-265.541 47.9059,-248.738 42.5235,-234.436"/>
<polygon fill="black" stroke="black" points="45.7759,-233.141 38.9779,-225.015 39.2245,-235.607 45.7759,-233.141"/>
<text text-anchor="middle" x="54.9453" y="-247.8" font-family="Times,serif" font-size="14.00">a</text>
</g>
<!-- 3&#45;&gt;4 -->
<g id="edge7" class="edge"><title>3&#45;&gt;4</title>
<path fill="none" stroke="black" d="M72.5209,-277.82C76.2743,-265.354 81.1607,-249.124 85.3676,-235.151"/>
<polygon fill="black" stroke="black" points="88.7533,-236.046 88.2849,-225.461 82.0505,-234.028 88.7533,-236.046"/>
<text text-anchor="middle" x="84.9453" y="-247.8" font-family="Times,serif" font-size="14.00">b</text>
</g>
<!-- 4&#45;&gt;0 -->
<g id="edge8" class="edge"><title>4&#45;&gt;0</title>
<path fill="none" stroke="black" d="M106.568,-185.344C120.804,-162.285 140.876,-120.866 127.445,-87 119.152,-66.0878 101.045,-47.8668 86.2,-35.5639"/>
<polygon fill="black" stroke="black" points="87.9502,-32.4858 77.9354,-29.0284 83.6083,-37.9765 87.9502,-32.4858"/>
<text text-anchor="middle" x="134.945" y="-105.3" font-family="Times,serif" font-size="14.00">b</text>
</g>
<!-- 4&#45;&gt;2 -->
<g id="edge9" class="edge"><title>4&#45;&gt;2</title>
<path fill="none" stroke="black" d="M94.8991,-181.897C95.1574,-169.887 95.4858,-154.617 95.7734,-141.242"/>
<polygon fill="black" stroke="black" points="99.2774,-141.093 95.9933,-131.02 92.279,-140.942 99.2774,-141.093"/>
<text text-anchor="middle" x="98.9453" y="-152.8" font-family="Times,serif" font-size="14.00">a</text>
</g>
<!-- 5&#45;&gt;0 -->
<g id="edge10" class="edge"><title>5&#45;&gt;0</title>
<path fill="none" stroke="black" d="M43.0093,-91.4475C45.9655,-80.7566 49.9096,-66.5496 53.4453,-54 54.2486,-51.1487 55.093,-48.1681 55.9366,-45.2012"/>
<polygon fill="black" stroke="black" points="59.3623,-45.9509 58.74,-35.3744 52.6308,-44.0305 59.3623,-45.9509"/>
<text text-anchor="middle" x="56.9453" y="-57.8" font-family="Times,serif" font-size="14.00">b</text>
</g>
<!-- 5&#45;&gt;1 -->
<g id="edge11" class="edge"><title>5&#45;&gt;1</title>
<path fill="none" stroke="black" d="M39.2177,-127.059C39.5084,-137.702 39.5427,-151.674 38.4453,-164 38.2158,-166.578 37.9025,-169.241 37.5351,-171.907"/>
<polygon fill="black" stroke="black" points="34.0374,-171.615 35.9121,-182.042 40.9494,-172.722 34.0374,-171.615"/>
<text text-anchor="middle" x="42.9453" y="-152.8" font-family="Times,serif" font-size="14.00">a</text>
</g>
</g>
</svg>
