<?xml version="1.0" encoding="UTF-8" standalone="no"?>
<!DOCTYPE svg PUBLIC "-//W3C//DTD SVG 1.1//EN"
 "http://www.w3.org/Graphics/SVG/1.1/DTD/svg11.dtd">
<!-- Generated by graphviz version 2.38.0 (20140413.2041)
 -->
<!-- Title: %3 Pages: 1 -->
<svg width="345pt" height="582pt"
 viewBox="0.00 0.00 345.00 582.00" xmlns="http://www.w3.org/2000/svg" xmlns:xlink="http://www.w3.org/1999/xlink">
<g id="graph0" class="graph" transform="scale(1 1) rotate(0) translate(4 578)">
<title>%3</title>
<!-- 0 -->
<g id="node1" class="node"><title>0</title>
<ellipse fill="#aaff80" stroke="black" cx="278" cy="-552" rx="18" ry="18"/>
<ellipse fill="none" stroke="black" cx="278" cy="-552" rx="22" ry="22"/>
<text text-anchor="middle" x="278" y="-548.3" font-family="Times,serif" font-size="14.00">0</text>
</g>
<!-- 0&#45;&gt;0 -->
<g id="edge1" class="edge"><title>0&#45;&gt;0</title>
<path fill="none" stroke="black" d="M298.581,-560.37C308.845,-561.528 318,-558.738 318,-552 318,-547.683 314.243,-544.987 308.844,-543.911"/>
<polygon fill="black" stroke="black" points="308.673,-540.405 298.581,-543.63 308.481,-547.402 308.673,-540.405"/>
<text text-anchor="middle" x="326" y="-548.3" font-family="Times,serif" font-size="14.00">c,a</text>
</g>
<!-- 4 -->
<g id="node5" class="node"><title>4</title>
<ellipse fill="lightblue" stroke="black" cx="237" cy="-461" rx="18" ry="18"/>
<text text-anchor="middle" x="237" y="-457.3" font-family="Times,serif" font-size="14.00">4</text>
</g>
<!-- 0&#45;&gt;4 -->
<g id="edge2" class="edge"><title>0&#45;&gt;4</title>
<path fill="none" stroke="black" d="M269.104,-531.688C263.057,-518.562 255.001,-501.076 248.473,-486.904"/>
<polygon fill="black" stroke="black" points="251.603,-485.334 244.24,-477.716 245.245,-488.263 251.603,-485.334"/>
<text text-anchor="middle" x="263.5" y="-500.8" font-family="Times,serif" font-size="14.00">b</text>
</g>
<!-- 1 -->
<g id="node2" class="node"><title>1</title>
<ellipse fill="lightblue" stroke="black" cx="172" cy="-287" rx="18" ry="18"/>
<text text-anchor="middle" x="172" y="-283.3" font-family="Times,serif" font-size="14.00">1</text>
</g>
<!-- 5 -->
<g id="node6" class="node"><title>5</title>
<ellipse fill="lightblue" stroke="black" cx="195" cy="-18" rx="18" ry="18"/>
<text text-anchor="middle" x="195" y="-14.3" font-family="Times,serif" font-size="14.00">5</text>
</g>
<!-- 1&#45;&gt;5 -->
<g id="edge3" class="edge"><title>1&#45;&gt;5</title>
<path fill="none" stroke="black" d="M173.474,-268.892C177.368,-223.68 187.958,-100.753 192.677,-45.9703"/>
<polygon fill="black" stroke="black" points="196.167,-46.2293 193.539,-35.9657 189.193,-45.6284 196.167,-46.2293"/>
<text text-anchor="middle" x="193.5" y="-144.8" font-family="Times,serif" font-size="14.00">a,b</text>
</g>
<!-- 7 -->
<g id="node8" class="node"><title>7</title>
<ellipse fill="lightblue" stroke="black" cx="88" cy="-196" rx="18" ry="18"/>
<ellipse fill="none" stroke="black" cx="88" cy="-196" rx="22" ry="22"/>
<text text-anchor="middle" x="88" y="-192.3" font-family="Times,serif" font-size="14.00">7</text>
</g>
<!-- 1&#45;&gt;7 -->
<g id="edge4" class="edge"><title>1&#45;&gt;7</title>
<path fill="none" stroke="black" d="M159.965,-273.248C146.904,-259.41 125.777,-237.025 109.784,-220.081"/>
<polygon fill="black" stroke="black" points="112.254,-217.599 102.845,-212.729 107.164,-222.404 112.254,-217.599"/>
<text text-anchor="middle" x="141.5" y="-239.8" font-family="Times,serif" font-size="14.00">c</text>
</g>
<!-- 2 -->
<g id="node3" class="node"><title>2</title>
<ellipse fill="lightblue" stroke="black" cx="270" cy="-374" rx="18" ry="18"/>
<text text-anchor="middle" x="270" y="-370.3" font-family="Times,serif" font-size="14.00">2</text>
</g>
<!-- 3 -->
<g id="node4" class="node"><title>3</title>
<ellipse fill="lightblue" stroke="black" cx="316" cy="-287" rx="18" ry="18"/>
<text text-anchor="middle" x="316" y="-283.3" font-family="Times,serif" font-size="14.00">3</text>
</g>
<!-- 2&#45;&gt;3 -->
<g id="edge5" class="edge"><title>2&#45;&gt;3</title>
<path fill="none" stroke="black" d="M278.224,-357.804C285.092,-345.112 295.009,-326.787 302.959,-312.097"/>
<polygon fill="black" stroke="black" points="306.166,-313.525 307.847,-303.065 300.01,-310.194 306.166,-313.525"/>
<text text-anchor="middle" x="299.5" y="-326.8" font-family="Times,serif" font-size="14.00">b</text>
</g>
<!-- 2&#45;&gt;5 -->
<g id="edge6" class="edge"><title>2&#45;&gt;5</title>
<path fill="none" stroke="black" d="M270,-355.744C270,-338.57 270,-311.464 270,-288 270,-288 270,-288 270,-104 270,-72.6924 241.038,-47.4715 219.109,-32.8623"/>
<polygon fill="black" stroke="black" points="220.862,-29.8294 210.54,-27.4399 217.119,-35.7447 220.862,-29.8294"/>
<text text-anchor="middle" x="278" y="-192.3" font-family="Times,serif" font-size="14.00">c,a</text>
</g>
<!-- 3&#45;&gt;0 -->
<g id="edge7" class="edge"><title>3&#45;&gt;0</title>
<path fill="none" stroke="black" d="M313.547,-304.978C307.273,-348.402 290.568,-464.013 282.494,-519.897"/>
<polygon fill="black" stroke="black" points="279.012,-519.524 281.045,-529.922 285.94,-520.525 279.012,-519.524"/>
<text text-anchor="middle" x="302.5" y="-413.8" font-family="Times,serif" font-size="14.00">b</text>
</g>
<!-- 3&#45;&gt;5 -->
<g id="edge8" class="edge"><title>3&#45;&gt;5</title>
<path fill="none" stroke="black" d="M318.969,-268.935C325.204,-227.273 335.16,-119.029 284,-54 269.226,-35.2206 242.936,-26.4944 222.747,-22.4531"/>
<polygon fill="black" stroke="black" points="223.29,-18.995 212.839,-20.7384 222.096,-25.8925 223.29,-18.995"/>
<text text-anchor="middle" x="329" y="-144.8" font-family="Times,serif" font-size="14.00">c,a</text>
</g>
<!-- 4&#45;&gt;2 -->
<g id="edge9" class="edge"><title>4&#45;&gt;2</title>
<path fill="none" stroke="black" d="M243.207,-444.012C247.955,-431.784 254.595,-414.679 260.077,-400.559"/>
<polygon fill="black" stroke="black" points="263.464,-401.505 263.821,-390.916 256.939,-398.972 263.464,-401.505"/>
<text text-anchor="middle" x="259.5" y="-413.8" font-family="Times,serif" font-size="14.00">b</text>
</g>
<!-- 4&#45;&gt;5 -->
<g id="edge10" class="edge"><title>4&#45;&gt;5</title>
<path fill="none" stroke="black" d="M219.186,-457.551C164.069,-449.482 0,-421.553 0,-375 0,-375 0,-375 0,-104 0,-32.1353 112.671,-20.4109 166.723,-18.9211"/>
<polygon fill="black" stroke="black" points="167.067,-22.4157 177.004,-18.7426 166.945,-15.4168 167.067,-22.4157"/>
<text text-anchor="middle" x="3.5" y="-239.8" font-family="Times,serif" font-size="14.00">c</text>
</g>
<!-- 6 -->
<g id="node7" class="node"><title>6</title>
<ellipse fill="lightblue" stroke="black" cx="194" cy="-374" rx="18" ry="18"/>
<text text-anchor="middle" x="194" y="-370.3" font-family="Times,serif" font-size="14.00">6</text>
</g>
<!-- 4&#45;&gt;6 -->
<g id="edge11" class="edge"><title>4&#45;&gt;6</title>
<path fill="none" stroke="black" d="M229.113,-444.41C222.749,-431.829 213.681,-413.903 206.354,-399.421"/>
<polygon fill="black" stroke="black" points="209.474,-397.835 201.837,-390.491 203.228,-400.995 209.474,-397.835"/>
<text text-anchor="middle" x="222.5" y="-413.8" font-family="Times,serif" font-size="14.00">a</text>
</g>
<!-- 5&#45;&gt;5 -->
<g id="edge12" class="edge"><title>5&#45;&gt;5</title>
<path fill="none" stroke="black" d="M211.664,-25.3828C221.625,-27.0234 231,-24.5625 231,-18 231,-13.7959 227.152,-11.2751 221.768,-10.4375"/>
<polygon fill="black" stroke="black" points="221.6,-6.93988 211.664,-10.6172 221.725,-13.9388 221.6,-6.93988"/>
<text text-anchor="middle" x="244.5" y="-14.3" font-family="Times,serif" font-size="14.00">c,a,b</text>
</g>
<!-- 6&#45;&gt;1 -->
<g id="edge13" class="edge"><title>6&#45;&gt;1</title>
<path fill="none" stroke="black" d="M189.654,-356.207C186.58,-344.332 182.397,-328.168 178.873,-314.557"/>
<polygon fill="black" stroke="black" points="182.232,-313.562 176.337,-304.758 175.455,-315.316 182.232,-313.562"/>
<text text-anchor="middle" x="188.5" y="-326.8" font-family="Times,serif" font-size="14.00">b</text>
</g>
<!-- 6&#45;&gt;5 -->
<g id="edge14" class="edge"><title>6&#45;&gt;5</title>
<path fill="none" stroke="black" d="M201.201,-357.393C208.27,-340.62 218,-312.994 218,-288 218,-288 218,-288 218,-104 218,-83.3641 211.605,-60.8578 205.56,-44.1909"/>
<polygon fill="black" stroke="black" points="208.746,-42.7237 201.901,-34.6369 202.209,-45.2273 208.746,-42.7237"/>
<text text-anchor="middle" x="226" y="-192.3" font-family="Times,serif" font-size="14.00">c,a</text>
</g>
<!-- 7&#45;&gt;7 -->
<g id="edge15" class="edge"><title>7&#45;&gt;7</title>
<path fill="none" stroke="black" d="M108.581,-204.37C118.845,-205.528 128,-202.738 128,-196 128,-191.683 124.243,-188.987 118.844,-187.911"/>
<polygon fill="black" stroke="black" points="118.673,-184.405 108.581,-187.63 118.481,-191.402 118.673,-184.405"/>
<text text-anchor="middle" x="136" y="-192.3" font-family="Times,serif" font-size="14.00">c,a</text>
</g>
<!-- 8 -->
<g id="node9" class="node"><title>8</title>
<ellipse fill="lightblue" stroke="black" cx="88" cy="-105" rx="18" ry="18"/>
<text text-anchor="middle" x="88" y="-101.3" font-family="Times,serif" font-size="14.00">8</text>
</g>
<!-- 7&#45;&gt;8 -->
<g id="edge16" class="edge"><title>7&#45;&gt;8</title>
<path fill="none" stroke="black" d="M88,-173.908C88,-161.78 88,-146.409 88,-133.36"/>
<polygon fill="black" stroke="black" points="91.5001,-133.066 88,-123.066 84.5001,-133.066 91.5001,-133.066"/>
<text text-anchor="middle" x="91.5" y="-144.8" font-family="Times,serif" font-size="14.00">b</text>
</g>
<!-- 8&#45;&gt;5 -->
<g id="edge17" class="edge"><title>8&#45;&gt;5</title>
<path fill="none" stroke="black" d="M100.059,-91.4092C110.445,-80.8706 126.076,-65.7186 141,-54 150.455,-46.5753 161.503,-39.2082 171.134,-33.1623"/>
<polygon fill="black" stroke="black" points="173.15,-36.0313 179.835,-27.8117 169.483,-30.0685 173.15,-36.0313"/>
<text text-anchor="middle" x="149.5" y="-57.8" font-family="Times,serif" font-size="14.00">c,b</text>
</g>
<!-- 8&#45;&gt;6 -->
<g id="edge18" class="edge"><title>8&#45;&gt;6</title>
<path fill="none" stroke="black" d="M78.2475,-120.413C64.9207,-142.001 44.0703,-183.848 57,-218 79.9958,-278.74 138.867,-331.012 171.453,-356.47"/>
<polygon fill="black" stroke="black" points="169.447,-359.342 179.515,-362.64 173.701,-353.783 169.447,-359.342"/>
<text text-anchor="middle" x="77.5" y="-239.8" font-family="Times,serif" font-size="14.00">a</text>
</g>
</g>
</svg>
