<?xml version="1.0" encoding="UTF-8" standalone="no"?>
<!DOCTYPE svg PUBLIC "-//W3C//DTD SVG 1.1//EN"
 "http://www.w3.org/Graphics/SVG/1.1/DTD/svg11.dtd">
<!-- Generated by graphviz version 2.38.0 (20140413.2041)
 -->
<!-- Title: %3 Pages: 1 -->
<svg width="411pt" height="986pt"
 viewBox="0.00 0.00 411.00 986.00" xmlns="http://www.w3.org/2000/svg" xmlns:xlink="http://www.w3.org/1999/xlink">
<g id="graph0" class="graph" transform="scale(1 1) rotate(0) translate(4 982)">
<title>%3</title>
<!-- 0 -->
<g id="node1" class="node"><title>0</title>
<ellipse fill="lightblue" stroke="black" cx="201" cy="-861" rx="18" ry="18"/>
<ellipse fill="none" stroke="black" cx="201" cy="-861" rx="22" ry="22"/>
<text text-anchor="middle" x="201" y="-857.3" font-family="Times,serif" font-size="14.00">0</text>
</g>
<!-- 6 -->
<g id="node7" class="node"><title>6</title>
<ellipse fill="lightblue" stroke="black" cx="201" cy="-766" rx="18" ry="18"/>
<ellipse fill="none" stroke="black" cx="201" cy="-766" rx="22" ry="22"/>
<text text-anchor="middle" x="201" y="-762.3" font-family="Times,serif" font-size="14.00">6</text>
</g>
<!-- 0&#45;&gt;6 -->
<g id="edge1" class="edge"><title>0&#45;&gt;6</title>
<path fill="none" stroke="black" d="M201,-838.897C201,-826.887 201,-811.617 201,-798.242"/>
<polygon fill="black" stroke="black" points="204.5,-798.02 201,-788.02 197.5,-798.02 204.5,-798.02"/>
<text text-anchor="middle" x="204.5" y="-809.8" font-family="Times,serif" font-size="14.00">b</text>
</g>
<!-- 13 -->
<g id="node14" class="node"><title>13</title>
<ellipse fill="lightblue" stroke="black" cx="154" cy="-671" rx="18" ry="18"/>
<ellipse fill="none" stroke="black" cx="154" cy="-671" rx="22" ry="22"/>
<text text-anchor="middle" x="154" y="-667.3" font-family="Times,serif" font-size="14.00">13</text>
</g>
<!-- 0&#45;&gt;13 -->
<g id="edge2" class="edge"><title>0&#45;&gt;13</title>
<path fill="none" stroke="black" d="M188.974,-842.234C180.129,-828.172 168.694,-807.688 163,-788 154.922,-760.067 153.083,-726.869 153.02,-703.16"/>
<polygon fill="black" stroke="black" points="156.522,-703.015 153.101,-692.987 149.522,-702.959 156.522,-703.015"/>
<text text-anchor="middle" x="166.5" y="-762.3" font-family="Times,serif" font-size="14.00">a</text>
</g>
<!-- 1 -->
<g id="node2" class="node"><title>1</title>
<ellipse fill="lightblue" stroke="black" cx="178" cy="-18" rx="18" ry="18"/>
<text text-anchor="middle" x="178" y="-14.3" font-family="Times,serif" font-size="14.00">1</text>
</g>
<!-- 1&#45;&gt;1 -->
<g id="edge3" class="edge"><title>1&#45;&gt;1</title>
<path fill="none" stroke="black" d="M194.664,-25.3828C204.625,-27.0234 214,-24.5625 214,-18 214,-13.7959 210.152,-11.2751 204.768,-10.4375"/>
<polygon fill="black" stroke="black" points="204.6,-6.93988 194.664,-10.6172 204.725,-13.9388 204.6,-6.93988"/>
<text text-anchor="middle" x="222.5" y="-14.3" font-family="Times,serif" font-size="14.00">a,b</text>
</g>
<!-- 2 -->
<g id="node3" class="node"><title>2</title>
<ellipse fill="lightblue" stroke="black" cx="350" cy="-394" rx="18" ry="18"/>
<text text-anchor="middle" x="350" y="-390.3" font-family="Times,serif" font-size="14.00">2</text>
</g>
<!-- 2&#45;&gt;1 -->
<g id="edge4" class="edge"><title>2&#45;&gt;1</title>
<path fill="none" stroke="black" d="M350,-375.859C350,-357.199 350,-326.479 350,-300 350,-300 350,-300 350,-108 350,-44.0777 255.134,-26.0131 206.309,-20.9487"/>
<polygon fill="black" stroke="black" points="206.36,-17.4388 196.082,-20.0086 205.719,-24.4094 206.36,-17.4388"/>
<text text-anchor="middle" x="353.5" y="-200.3" font-family="Times,serif" font-size="14.00">b</text>
</g>
<!-- 5 -->
<g id="node6" class="node"><title>5</title>
<ellipse fill="lightblue" stroke="black" cx="293" cy="-299" rx="18" ry="18"/>
<text text-anchor="middle" x="293" y="-295.3" font-family="Times,serif" font-size="14.00">5</text>
</g>
<!-- 2&#45;&gt;5 -->
<g id="edge5" class="edge"><title>2&#45;&gt;5</title>
<path fill="none" stroke="black" d="M340.842,-378.058C331.867,-363.415 318.047,-340.866 307.564,-323.762"/>
<polygon fill="black" stroke="black" points="310.345,-321.602 302.135,-314.905 304.377,-325.26 310.345,-321.602"/>
<text text-anchor="middle" x="327.5" y="-342.8" font-family="Times,serif" font-size="14.00">a</text>
</g>
<!-- 3 -->
<g id="node4" class="node"><title>3</title>
<ellipse fill="lightblue" stroke="black" cx="241" cy="-671" rx="18" ry="18"/>
<ellipse fill="none" stroke="black" cx="241" cy="-671" rx="22" ry="22"/>
<text text-anchor="middle" x="241" y="-667.3" font-family="Times,serif" font-size="14.00">3</text>
</g>
<!-- 16 -->
<g id="node17" class="node"><title>16</title>
<ellipse fill="lightblue" stroke="black" cx="150" cy="-204" rx="18" ry="18"/>
<ellipse fill="none" stroke="black" cx="150" cy="-204" rx="22" ry="22"/>
<text text-anchor="middle" x="150" y="-200.3" font-family="Times,serif" font-size="14.00">16</text>
</g>
<!-- 3&#45;&gt;16 -->
<g id="edge6" class="edge"><title>3&#45;&gt;16</title>
<path fill="none" stroke="black" d="M235.224,-649.684C230.641,-631.764 225,-604.863 225,-581 225,-581 225,-581 225,-298 225,-266.321 198.306,-239.341 176.769,-222.727"/>
<polygon fill="black" stroke="black" points="178.668,-219.78 168.539,-216.673 174.52,-225.418 178.668,-219.78"/>
<text text-anchor="middle" x="228.5" y="-437.8" font-family="Times,serif" font-size="14.00">a</text>
</g>
<!-- 17 -->
<g id="node18" class="node"><title>17</title>
<ellipse fill="lightblue" stroke="black" cx="316" cy="-580" rx="18" ry="18"/>
<text text-anchor="middle" x="316" y="-576.3" font-family="Times,serif" font-size="14.00">17</text>
</g>
<!-- 3&#45;&gt;17 -->
<g id="edge7" class="edge"><title>3&#45;&gt;17</title>
<path fill="none" stroke="black" d="M254.756,-653.676C267,-639.147 284.981,-617.809 298.295,-602.01"/>
<polygon fill="black" stroke="black" points="301.009,-604.221 304.777,-594.318 295.656,-599.71 301.009,-604.221"/>
<text text-anchor="middle" x="288.5" y="-619.8" font-family="Times,serif" font-size="14.00">b</text>
</g>
<!-- 4 -->
<g id="node5" class="node"><title>4</title>
<ellipse fill="lightblue" stroke="black" cx="316" cy="-489" rx="18" ry="18"/>
<text text-anchor="middle" x="316" y="-485.3" font-family="Times,serif" font-size="14.00">4</text>
</g>
<!-- 4&#45;&gt;2 -->
<g id="edge8" class="edge"><title>4&#45;&gt;2</title>
<path fill="none" stroke="black" d="M321.922,-471.801C327.059,-457.751 334.585,-437.165 340.552,-420.842"/>
<polygon fill="black" stroke="black" points="343.885,-421.92 344.031,-411.326 337.311,-419.516 343.885,-421.92"/>
<text text-anchor="middle" x="338.5" y="-437.8" font-family="Times,serif" font-size="14.00">a</text>
</g>
<!-- 9 -->
<g id="node10" class="node"><title>9</title>
<ellipse fill="lightblue" stroke="black" cx="271" cy="-394" rx="18" ry="18"/>
<text text-anchor="middle" x="271" y="-390.3" font-family="Times,serif" font-size="14.00">9</text>
</g>
<!-- 4&#45;&gt;9 -->
<g id="edge9" class="edge"><title>4&#45;&gt;9</title>
<path fill="none" stroke="black" d="M308.366,-472.224C301.407,-457.841 291.013,-436.361 282.953,-419.703"/>
<polygon fill="black" stroke="black" points="286.027,-418.02 278.521,-410.543 279.726,-421.069 286.027,-418.02"/>
<text text-anchor="middle" x="299.5" y="-437.8" font-family="Times,serif" font-size="14.00">b</text>
</g>
<!-- 5&#45;&gt;1 -->
<g id="edge10" class="edge"><title>5&#45;&gt;1</title>
<path fill="none" stroke="black" d="M294.044,-280.704C294.933,-257.687 294.789,-215.943 285,-182 268.281,-124.026 222.972,-67.7632 196.991,-38.9332"/>
<polygon fill="black" stroke="black" points="199.555,-36.5513 190.215,-31.5505 194.398,-41.2846 199.555,-36.5513"/>
<text text-anchor="middle" x="281.5" y="-152.8" font-family="Times,serif" font-size="14.00">b</text>
</g>
<!-- 7 -->
<g id="node8" class="node"><title>7</title>
<ellipse fill="lightblue" stroke="black" cx="233" cy="-204" rx="18" ry="18"/>
<text text-anchor="middle" x="233" y="-200.3" font-family="Times,serif" font-size="14.00">7</text>
</g>
<!-- 5&#45;&gt;7 -->
<g id="edge11" class="edge"><title>5&#45;&gt;7</title>
<path fill="none" stroke="black" d="M283.625,-283.469C274.026,-268.591 258.967,-245.25 247.766,-227.887"/>
<polygon fill="black" stroke="black" points="250.672,-225.935 242.309,-219.429 244.789,-229.73 250.672,-225.935"/>
<text text-anchor="middle" x="269.5" y="-247.8" font-family="Times,serif" font-size="14.00">a</text>
</g>
<!-- 6&#45;&gt;3 -->
<g id="edge12" class="edge"><title>6&#45;&gt;3</title>
<path fill="none" stroke="black" d="M209.483,-745.277C215.036,-732.367 222.385,-715.28 228.59,-700.854"/>
<polygon fill="black" stroke="black" points="231.93,-701.945 232.666,-691.376 225.5,-699.179 231.93,-701.945"/>
<text text-anchor="middle" x="226.5" y="-714.8" font-family="Times,serif" font-size="14.00">a</text>
</g>
<!-- 6&#45;&gt;6 -->
<g id="edge13" class="edge"><title>6&#45;&gt;6</title>
<path fill="none" stroke="black" d="M221.581,-774.37C231.845,-775.528 241,-772.738 241,-766 241,-761.683 237.243,-758.987 231.844,-757.911"/>
<polygon fill="black" stroke="black" points="231.673,-754.405 221.581,-757.63 231.481,-761.402 231.673,-754.405"/>
<text text-anchor="middle" x="244.5" y="-762.3" font-family="Times,serif" font-size="14.00">b</text>
</g>
<!-- 7&#45;&gt;7 -->
<g id="edge14" class="edge"><title>7&#45;&gt;7</title>
<path fill="none" stroke="black" d="M249.29,-212.016C259.389,-213.949 269,-211.277 269,-204 269,-199.338 265.056,-196.566 259.566,-195.684"/>
<polygon fill="black" stroke="black" points="259.184,-192.193 249.29,-195.984 259.388,-199.19 259.184,-192.193"/>
<text text-anchor="middle" x="272.5" y="-200.3" font-family="Times,serif" font-size="14.00">a</text>
</g>
<!-- 18 -->
<g id="node19" class="node"><title>18</title>
<ellipse fill="lightblue" stroke="black" cx="178" cy="-109" rx="18" ry="18"/>
<ellipse fill="none" stroke="black" cx="178" cy="-109" rx="22" ry="22"/>
<text text-anchor="middle" x="178" y="-105.3" font-family="Times,serif" font-size="14.00">18</text>
</g>
<!-- 7&#45;&gt;18 -->
<g id="edge15" class="edge"><title>7&#45;&gt;18</title>
<path fill="none" stroke="black" d="M224.163,-188.058C216.067,-174.368 203.884,-153.768 194.067,-137.168"/>
<polygon fill="black" stroke="black" points="197,-135.252 188.897,-128.426 190.975,-138.815 197,-135.252"/>
<text text-anchor="middle" x="211.5" y="-152.8" font-family="Times,serif" font-size="14.00">b</text>
</g>
<!-- 8 -->
<g id="node9" class="node"><title>8</title>
<ellipse fill="lightblue" stroke="black" cx="50" cy="-394" rx="18" ry="18"/>
<ellipse fill="none" stroke="black" cx="50" cy="-394" rx="22" ry="22"/>
<text text-anchor="middle" x="50" y="-390.3" font-family="Times,serif" font-size="14.00">8</text>
</g>
<!-- 8&#45;&gt;1 -->
<g id="edge16" class="edge"><title>8&#45;&gt;1</title>
<path fill="none" stroke="black" d="M49.6446,-371.947C49.3572,-353.098 49,-324.705 49,-300 49,-300 49,-300 49,-108 49,-59.1294 112.502,-35.024 150.398,-24.9898"/>
<polygon fill="black" stroke="black" points="151.471,-28.3297 160.334,-22.5239 149.785,-21.5358 151.471,-28.3297"/>
<text text-anchor="middle" x="52.5" y="-200.3" font-family="Times,serif" font-size="14.00">b</text>
</g>
<!-- 10 -->
<g id="node11" class="node"><title>10</title>
<ellipse fill="lightblue" stroke="black" cx="106" cy="-299" rx="18" ry="18"/>
<ellipse fill="none" stroke="black" cx="106" cy="-299" rx="22" ry="22"/>
<text text-anchor="middle" x="106" y="-295.3" font-family="Times,serif" font-size="14.00">10</text>
</g>
<!-- 8&#45;&gt;10 -->
<g id="edge17" class="edge"><title>8&#45;&gt;10</title>
<path fill="none" stroke="black" d="M61.0638,-374.626C69.194,-361.124 80.3757,-342.555 89.5509,-327.317"/>
<polygon fill="black" stroke="black" points="92.799,-328.708 94.9592,-318.336 86.8023,-325.097 92.799,-328.708"/>
<text text-anchor="middle" x="85.5" y="-342.8" font-family="Times,serif" font-size="14.00">a</text>
</g>
<!-- 9&#45;&gt;5 -->
<g id="edge18" class="edge"><title>9&#45;&gt;5</title>
<path fill="none" stroke="black" d="M274.933,-376.373C278.198,-362.573 282.902,-342.685 286.693,-326.663"/>
<polygon fill="black" stroke="black" points="290.131,-327.333 289.027,-316.796 283.319,-325.722 290.131,-327.333"/>
<text text-anchor="middle" x="286.5" y="-342.8" font-family="Times,serif" font-size="14.00">a</text>
</g>
<!-- 9&#45;&gt;9 -->
<g id="edge19" class="edge"><title>9&#45;&gt;9</title>
<path fill="none" stroke="black" d="M287.29,-402.016C297.389,-403.949 307,-401.277 307,-394 307,-389.338 303.056,-386.566 297.566,-385.684"/>
<polygon fill="black" stroke="black" points="297.184,-382.193 287.29,-385.984 297.388,-389.19 297.184,-382.193"/>
<text text-anchor="middle" x="310.5" y="-390.3" font-family="Times,serif" font-size="14.00">b</text>
</g>
<!-- 10&#45;&gt;1 -->
<g id="edge20" class="edge"><title>10&#45;&gt;1</title>
<path fill="none" stroke="black" d="M107.253,-276.873C108.897,-253.491 112.386,-214.777 119,-182 127.707,-138.852 131.61,-128.24 147,-87 152.495,-72.2765 159.73,-56.2628 165.828,-43.4759"/>
<polygon fill="black" stroke="black" points="169.014,-44.9272 170.222,-34.4015 162.714,-41.8763 169.014,-44.9272"/>
<text text-anchor="middle" x="130.5" y="-152.8" font-family="Times,serif" font-size="14.00">b</text>
</g>
<!-- 10&#45;&gt;16 -->
<g id="edge21" class="edge"><title>10&#45;&gt;16</title>
<path fill="none" stroke="black" d="M115.117,-278.73C121.311,-265.637 129.61,-248.097 136.559,-233.409"/>
<polygon fill="black" stroke="black" points="139.782,-234.781 140.895,-224.245 133.454,-231.787 139.782,-234.781"/>
<text text-anchor="middle" x="134.5" y="-247.8" font-family="Times,serif" font-size="14.00">a</text>
</g>
<!-- 11 -->
<g id="node12" class="node"><title>11</title>
<ellipse fill="lightblue" stroke="black" cx="112" cy="-394" rx="18" ry="18"/>
<ellipse fill="none" stroke="black" cx="112" cy="-394" rx="22" ry="22"/>
<text text-anchor="middle" x="112" y="-390.3" font-family="Times,serif" font-size="14.00">11</text>
</g>
<!-- 11&#45;&gt;10 -->
<g id="edge22" class="edge"><title>11&#45;&gt;10</title>
<path fill="none" stroke="black" d="M110.639,-371.897C109.864,-359.887 108.879,-344.617 108.016,-331.242"/>
<polygon fill="black" stroke="black" points="111.493,-330.774 107.356,-321.02 104.507,-331.224 111.493,-330.774"/>
<text text-anchor="middle" x="113.5" y="-342.8" font-family="Times,serif" font-size="14.00">a</text>
</g>
<!-- 11&#45;&gt;11 -->
<g id="edge23" class="edge"><title>11&#45;&gt;11</title>
<path fill="none" stroke="black" d="M132.581,-402.37C142.845,-403.528 152,-400.738 152,-394 152,-389.683 148.243,-386.987 142.844,-385.911"/>
<polygon fill="black" stroke="black" points="142.673,-382.405 132.581,-385.63 142.481,-389.402 142.673,-382.405"/>
<text text-anchor="middle" x="155.5" y="-390.3" font-family="Times,serif" font-size="14.00">b</text>
</g>
<!-- 12 -->
<g id="node13" class="node"><title>12</title>
<ellipse fill="#aaff80" stroke="black" cx="252" cy="-956" rx="18" ry="18"/>
<ellipse fill="none" stroke="black" cx="252" cy="-956" rx="22" ry="22"/>
<text text-anchor="middle" x="252" y="-952.3" font-family="Times,serif" font-size="14.00">12</text>
</g>
<!-- 12&#45;&gt;0 -->
<g id="edge24" class="edge"><title>12&#45;&gt;0</title>
<path fill="none" stroke="black" d="M241.679,-936.18C234.352,-922.818 224.395,-904.662 216.167,-889.657"/>
<polygon fill="black" stroke="black" points="219.182,-887.877 211.305,-880.792 213.045,-891.243 219.182,-887.877"/>
<text text-anchor="middle" x="232.5" y="-904.8" font-family="Times,serif" font-size="14.00">b</text>
</g>
<!-- 12&#45;&gt;3 -->
<g id="edge25" class="edge"><title>12&#45;&gt;3</title>
<path fill="none" stroke="black" d="M254.34,-933.957C258.163,-895.911 264.597,-813.205 257,-744 255.468,-730.039 252.311,-714.825 249.204,-701.994"/>
<polygon fill="black" stroke="black" points="252.594,-701.124 246.754,-692.284 245.807,-702.836 252.594,-701.124"/>
<text text-anchor="middle" x="263.5" y="-809.8" font-family="Times,serif" font-size="14.00">a</text>
</g>
<!-- 14 -->
<g id="node15" class="node"><title>14</title>
<ellipse fill="lightblue" stroke="black" cx="73" cy="-580" rx="18" ry="18"/>
<text text-anchor="middle" x="73" y="-576.3" font-family="Times,serif" font-size="14.00">14</text>
</g>
<!-- 13&#45;&gt;14 -->
<g id="edge26" class="edge"><title>13&#45;&gt;14</title>
<path fill="none" stroke="black" d="M139.519,-654.089C126.189,-639.442 106.337,-617.63 91.7904,-601.646"/>
<polygon fill="black" stroke="black" points="94.0488,-598.928 84.7294,-593.888 88.8718,-603.639 94.0488,-598.928"/>
<text text-anchor="middle" x="122.5" y="-619.8" font-family="Times,serif" font-size="14.00">b</text>
</g>
<!-- 13&#45;&gt;16 -->
<g id="edge27" class="edge"><title>13&#45;&gt;16</title>
<path fill="none" stroke="black" d="M165.172,-651.637C174.746,-634.133 187,-606.708 187,-581 187,-581 187,-581 187,-298 187,-274.324 176.519,-249.507 166.714,-231.469"/>
<polygon fill="black" stroke="black" points="169.704,-229.647 161.707,-222.696 163.624,-233.116 169.704,-229.647"/>
<text text-anchor="middle" x="190.5" y="-437.8" font-family="Times,serif" font-size="14.00">a</text>
</g>
<!-- 14&#45;&gt;1 -->
<g id="edge28" class="edge"><title>14&#45;&gt;1</title>
<path fill="none" stroke="black" d="M57.8744,-569.873C36.4922,-555.685 0,-526.171 0,-490 0,-490 0,-490 0,-108 0,-41.8526 99.5544,-24.866 149.758,-20.5052"/>
<polygon fill="black" stroke="black" points="150.245,-23.9785 159.953,-19.7348 149.718,-16.9984 150.245,-23.9785"/>
<text text-anchor="middle" x="3.5" y="-295.3" font-family="Times,serif" font-size="14.00">a</text>
</g>
<!-- 15 -->
<g id="node16" class="node"><title>15</title>
<ellipse fill="lightblue" stroke="black" cx="73" cy="-489" rx="18" ry="18"/>
<ellipse fill="none" stroke="black" cx="73" cy="-489" rx="22" ry="22"/>
<text text-anchor="middle" x="73" y="-485.3" font-family="Times,serif" font-size="14.00">15</text>
</g>
<!-- 14&#45;&gt;15 -->
<g id="edge29" class="edge"><title>14&#45;&gt;15</title>
<path fill="none" stroke="black" d="M73,-561.84C73,-550.441 73,-535.134 73,-521.578"/>
<polygon fill="black" stroke="black" points="76.5001,-521.19 73,-511.191 69.5001,-521.191 76.5001,-521.19"/>
<text text-anchor="middle" x="76.5" y="-532.8" font-family="Times,serif" font-size="14.00">b</text>
</g>
<!-- 15&#45;&gt;8 -->
<g id="edge30" class="edge"><title>15&#45;&gt;8</title>
<path fill="none" stroke="black" d="M67.8956,-467.36C64.8583,-455.079 60.9483,-439.269 57.5582,-425.561"/>
<polygon fill="black" stroke="black" points="60.8887,-424.449 55.0902,-415.582 54.0934,-426.13 60.8887,-424.449"/>
<text text-anchor="middle" x="66.5" y="-437.8" font-family="Times,serif" font-size="14.00">a</text>
</g>
<!-- 15&#45;&gt;11 -->
<g id="edge31" class="edge"><title>15&#45;&gt;11</title>
<path fill="none" stroke="black" d="M81.2709,-468.277C86.6484,-455.454 93.7541,-438.509 99.778,-424.145"/>
<polygon fill="black" stroke="black" points="103.101,-425.27 103.741,-414.694 96.646,-422.563 103.101,-425.27"/>
<text text-anchor="middle" x="98.5" y="-437.8" font-family="Times,serif" font-size="14.00">b</text>
</g>
<!-- 16&#45;&gt;16 -->
<g id="edge32" class="edge"><title>16&#45;&gt;16</title>
<path fill="none" stroke="black" d="M170.581,-212.37C180.845,-213.528 190,-210.738 190,-204 190,-199.683 186.243,-196.987 180.844,-195.911"/>
<polygon fill="black" stroke="black" points="180.673,-192.405 170.581,-195.63 180.481,-199.402 180.673,-192.405"/>
<text text-anchor="middle" x="193.5" y="-200.3" font-family="Times,serif" font-size="14.00">a</text>
</g>
<!-- 16&#45;&gt;18 -->
<g id="edge33" class="edge"><title>16&#45;&gt;18</title>
<path fill="none" stroke="black" d="M156.076,-182.82C159.829,-170.354 164.715,-154.124 168.922,-140.151"/>
<polygon fill="black" stroke="black" points="172.308,-141.046 171.84,-130.461 165.605,-139.028 172.308,-141.046"/>
<text text-anchor="middle" x="169.5" y="-152.8" font-family="Times,serif" font-size="14.00">b</text>
</g>
<!-- 17&#45;&gt;1 -->
<g id="edge34" class="edge"><title>17&#45;&gt;1</title>
<path fill="none" stroke="black" d="M331.805,-570.691C355.12,-557.163 396,-528.02 396,-490 396,-490 396,-490 396,-108 396,-26.9901 265.372,-18.0679 206.351,-18.171"/>
<polygon fill="black" stroke="black" points="206.173,-14.6727 196.212,-18.28 206.249,-21.6722 206.173,-14.6727"/>
<text text-anchor="middle" x="399.5" y="-295.3" font-family="Times,serif" font-size="14.00">a</text>
</g>
<!-- 17&#45;&gt;4 -->
<g id="edge35" class="edge"><title>17&#45;&gt;4</title>
<path fill="none" stroke="black" d="M316,-561.84C316,-549.281 316,-531.979 316,-517.502"/>
<polygon fill="black" stroke="black" points="319.5,-517.107 316,-507.107 312.5,-517.107 319.5,-517.107"/>
<text text-anchor="middle" x="319.5" y="-532.8" font-family="Times,serif" font-size="14.00">b</text>
</g>
<!-- 18&#45;&gt;1 -->
<g id="edge36" class="edge"><title>18&#45;&gt;1</title>
<path fill="none" stroke="black" d="M178,-86.9082C178,-74.7803 178,-59.4094 178,-46.3598"/>
<polygon fill="black" stroke="black" points="181.5,-46.0663 178,-36.0663 174.5,-46.0663 181.5,-46.0663"/>
<text text-anchor="middle" x="181.5" y="-57.8" font-family="Times,serif" font-size="14.00">b</text>
</g>
<!-- 18&#45;&gt;18 -->
<g id="edge37" class="edge"><title>18&#45;&gt;18</title>
<path fill="none" stroke="black" d="M198.581,-117.37C208.845,-118.528 218,-115.738 218,-109 218,-104.683 214.243,-101.987 208.844,-100.911"/>
<polygon fill="black" stroke="black" points="208.673,-97.405 198.581,-100.63 208.481,-104.402 208.673,-97.405"/>
<text text-anchor="middle" x="221.5" y="-105.3" font-family="Times,serif" font-size="14.00">a</text>
</g>
</g>
</svg>
