<?xml version="1.0" encoding="UTF-8" standalone="no"?>
<!DOCTYPE svg PUBLIC "-//W3C//DTD SVG 1.1//EN"
 "http://www.w3.org/Graphics/SVG/1.1/DTD/svg11.dtd">
<!-- Generated by graphviz version 2.38.0 (20140413.2041)
 -->
<!-- Title: %3 Pages: 1 -->
<svg width="345pt" height="234pt"
 viewBox="0.00 0.00 345.00 234.00" xmlns="http://www.w3.org/2000/svg" xmlns:xlink="http://www.w3.org/1999/xlink">
<g id="graph0" class="graph" transform="scale(1 1) rotate(0) translate(4 230)">
<title>%3</title>
<!-- 0 -->
<g id="node1" class="node"><title>0</title>
<ellipse fill="lightblue" stroke="black" cx="22" cy="-109" rx="18" ry="18"/>
<ellipse fill="none" stroke="black" cx="22" cy="-109" rx="22" ry="22"/>
<text text-anchor="middle" x="22" y="-105.3" font-family="Times,serif" font-size="14.00">0</text>
</g>
<!-- 0&#45;&gt;0 -->
<g id="edge1" class="edge"><title>0&#45;&gt;0</title>
<path fill="none" stroke="black" d="M42.5808,-117.37C52.8447,-118.528 62,-115.738 62,-109 62,-104.683 58.2427,-101.987 52.8436,-100.911"/>
<polygon fill="black" stroke="black" points="52.6729,-97.405 42.5808,-100.63 52.4812,-104.402 52.6729,-97.405"/>
<text text-anchor="middle" x="65.5" y="-105.3" font-family="Times,serif" font-size="14.00">a</text>
</g>
<!-- 5 -->
<g id="node6" class="node"><title>5</title>
<ellipse fill="lightblue" stroke="black" cx="62" cy="-18" rx="18" ry="18"/>
<text text-anchor="middle" x="62" y="-14.3" font-family="Times,serif" font-size="14.00">5</text>
</g>
<!-- 0&#45;&gt;5 -->
<g id="edge2" class="edge"><title>0&#45;&gt;5</title>
<path fill="none" stroke="black" d="M18.5844,-87.1357C17.8078,-76.7373 18.3201,-64.2325 23,-54 26.5119,-46.3213 32.6036,-39.6099 38.9428,-34.1738"/>
<polygon fill="black" stroke="black" points="41.1629,-36.8814 46.9294,-27.9932 36.8788,-31.3454 41.1629,-36.8814"/>
<text text-anchor="middle" x="31.5" y="-57.8" font-family="Times,serif" font-size="14.00">c,b</text>
</g>
<!-- 1 -->
<g id="node2" class="node"><title>1</title>
<ellipse fill="lightblue" stroke="black" cx="109" cy="-109" rx="18" ry="18"/>
<ellipse fill="none" stroke="black" cx="109" cy="-109" rx="22" ry="22"/>
<text text-anchor="middle" x="109" y="-105.3" font-family="Times,serif" font-size="14.00">1</text>
</g>
<!-- 1&#45;&gt;1 -->
<g id="edge3" class="edge"><title>1&#45;&gt;1</title>
<path fill="none" stroke="black" d="M129.581,-117.37C139.845,-118.528 149,-115.738 149,-109 149,-104.683 145.243,-101.987 139.844,-100.911"/>
<polygon fill="black" stroke="black" points="139.673,-97.405 129.581,-100.63 139.481,-104.402 139.673,-97.405"/>
<text text-anchor="middle" x="157" y="-105.3" font-family="Times,serif" font-size="14.00">c,a</text>
</g>
<!-- 1&#45;&gt;5 -->
<g id="edge4" class="edge"><title>1&#45;&gt;5</title>
<path fill="none" stroke="black" d="M99.0325,-89.1254C91.9591,-75.7311 82.4045,-57.6383 74.7722,-43.1856"/>
<polygon fill="black" stroke="black" points="77.8443,-41.5079 70.0796,-34.2996 71.6544,-44.7768 77.8443,-41.5079"/>
<text text-anchor="middle" x="92.5" y="-57.8" font-family="Times,serif" font-size="14.00">b</text>
</g>
<!-- 2 -->
<g id="node3" class="node"><title>2</title>
<ellipse fill="#aaff80" stroke="black" cx="205" cy="-204" rx="18" ry="18"/>
<ellipse fill="none" stroke="black" cx="205" cy="-204" rx="22" ry="22"/>
<text text-anchor="middle" x="205" y="-200.3" font-family="Times,serif" font-size="14.00">2</text>
</g>
<!-- 2&#45;&gt;1 -->
<g id="edge5" class="edge"><title>2&#45;&gt;1</title>
<path fill="none" stroke="black" d="M189.576,-188.058C173.901,-172.872 149.449,-149.185 131.591,-131.885"/>
<polygon fill="black" stroke="black" points="134.004,-129.349 124.386,-124.905 129.133,-134.377 134.004,-129.349"/>
<text text-anchor="middle" x="165.5" y="-152.8" font-family="Times,serif" font-size="14.00">a</text>
</g>
<!-- 3 -->
<g id="node4" class="node"><title>3</title>
<ellipse fill="lightblue" stroke="black" cx="205" cy="-109" rx="18" ry="18"/>
<ellipse fill="none" stroke="black" cx="205" cy="-109" rx="22" ry="22"/>
<text text-anchor="middle" x="205" y="-105.3" font-family="Times,serif" font-size="14.00">3</text>
</g>
<!-- 2&#45;&gt;3 -->
<g id="edge6" class="edge"><title>2&#45;&gt;3</title>
<path fill="none" stroke="black" d="M205,-181.897C205,-169.887 205,-154.617 205,-141.242"/>
<polygon fill="black" stroke="black" points="208.5,-141.02 205,-131.02 201.5,-141.02 208.5,-141.02"/>
<text text-anchor="middle" x="208.5" y="-152.8" font-family="Times,serif" font-size="14.00">c</text>
</g>
<!-- 4 -->
<g id="node5" class="node"><title>4</title>
<ellipse fill="lightblue" stroke="black" cx="274" cy="-18" rx="18" ry="18"/>
<text text-anchor="middle" x="274" y="-14.3" font-family="Times,serif" font-size="14.00">4</text>
</g>
<!-- 2&#45;&gt;4 -->
<g id="edge7" class="edge"><title>2&#45;&gt;4</title>
<path fill="none" stroke="black" d="M222.189,-190.019C237.872,-177.032 260.07,-155.504 270,-131 281.04,-103.758 280.443,-69.6637 278.099,-46.2922"/>
<polygon fill="black" stroke="black" points="281.54,-45.5861 276.893,-36.0647 274.588,-46.4058 281.54,-45.5861"/>
<text text-anchor="middle" x="282.5" y="-105.3" font-family="Times,serif" font-size="14.00">b</text>
</g>
<!-- 3&#45;&gt;3 -->
<g id="edge8" class="edge"><title>3&#45;&gt;3</title>
<path fill="none" stroke="black" d="M225.581,-117.37C235.845,-118.528 245,-115.738 245,-109 245,-104.683 241.243,-101.987 235.844,-100.911"/>
<polygon fill="black" stroke="black" points="235.673,-97.405 225.581,-100.63 235.481,-104.402 235.673,-97.405"/>
<text text-anchor="middle" x="253" y="-105.3" font-family="Times,serif" font-size="14.00">c,a</text>
</g>
<!-- 3&#45;&gt;4 -->
<g id="edge9" class="edge"><title>3&#45;&gt;4</title>
<path fill="none" stroke="black" d="M218.304,-90.8399C229.406,-76.5196 245.29,-56.0321 257.256,-40.5977"/>
<polygon fill="black" stroke="black" points="260.084,-42.6617 263.445,-32.6141 254.552,-38.3727 260.084,-42.6617"/>
<text text-anchor="middle" x="248.5" y="-57.8" font-family="Times,serif" font-size="14.00">b</text>
</g>
<!-- 4&#45;&gt;4 -->
<g id="edge10" class="edge"><title>4&#45;&gt;4</title>
<path fill="none" stroke="black" d="M290.664,-25.3828C300.625,-27.0234 310,-24.5625 310,-18 310,-13.7959 306.152,-11.2751 300.768,-10.4375"/>
<polygon fill="black" stroke="black" points="300.6,-6.93988 290.664,-10.6172 300.725,-13.9388 300.6,-6.93988"/>
<text text-anchor="middle" x="323.5" y="-14.3" font-family="Times,serif" font-size="14.00">c,b,a</text>
</g>
<!-- 5&#45;&gt;0 -->
<g id="edge11" class="edge"><title>5&#45;&gt;0</title>
<path fill="none" stroke="black" d="M55.1361,-34.7956C50.8324,-44.6504 45.144,-57.5873 40,-69 38.4698,-72.395 36.8516,-75.9495 35.2381,-79.4721"/>
<polygon fill="black" stroke="black" points="32.0429,-78.0432 31.0412,-88.5906 38.4017,-80.97 32.0429,-78.0432"/>
<text text-anchor="middle" x="50.5" y="-57.8" font-family="Times,serif" font-size="14.00">a</text>
</g>
<!-- 5&#45;&gt;5 -->
<g id="edge12" class="edge"><title>5&#45;&gt;5</title>
<path fill="none" stroke="black" d="M78.6641,-25.3828C88.625,-27.0234 98,-24.5625 98,-18 98,-13.7959 94.1525,-11.2751 88.7682,-10.4375"/>
<polygon fill="black" stroke="black" points="88.6002,-6.93988 78.6641,-10.6172 88.7247,-13.9388 88.6002,-6.93988"/>
<text text-anchor="middle" x="106.5" y="-14.3" font-family="Times,serif" font-size="14.00">c,b</text>
</g>
</g>
</svg>
