<?xml version="1.0" encoding="UTF-8" standalone="no"?>
<!DOCTYPE svg PUBLIC "-//W3C//DTD SVG 1.1//EN"
 "http://www.w3.org/Graphics/SVG/1.1/DTD/svg11.dtd">
<!-- Generated by graphviz version 2.38.0 (20140413.2041)
 -->
<!-- Title: %3 Pages: 1 -->
<svg width="141pt" height="313pt"
 viewBox="0.00 0.00 140.71 313.00" xmlns="http://www.w3.org/2000/svg" xmlns:xlink="http://www.w3.org/1999/xlink">
<g id="graph0" class="graph" transform="scale(1 1) rotate(0) translate(4 309)">
<title>%3</title>
<!-- 0 -->
<g id="node1" class="node"><title>0</title>
<ellipse fill="#aaff80" stroke="black" cx="61.7075" cy="-287" rx="18" ry="18"/>
<text text-anchor="middle" x="61.7075" y="-283.3" font-family="Times,serif" font-size="14.00">0</text>
</g>
<!-- 0&#45;&gt;0 -->
<g id="edge1" class="edge"><title>0&#45;&gt;0</title>
<path fill="none" stroke="black" d="M78.3716,-294.383C88.3325,-296.023 97.7075,-293.562 97.7075,-287 97.7075,-282.796 93.86,-280.275 88.4757,-279.438"/>
<polygon fill="black" stroke="black" points="88.3077,-275.94 78.3716,-279.617 88.4322,-282.939 88.3077,-275.94"/>
<text text-anchor="middle" x="101.707" y="-283.3" font-family="Times,serif" font-size="14.00">S</text>
</g>
<!-- 2 -->
<g id="node3" class="node"><title>2</title>
<ellipse fill="lightblue" stroke="black" cx="34.7075" cy="-200" rx="18" ry="18"/>
<text text-anchor="middle" x="34.7075" y="-196.3" font-family="Times,serif" font-size="14.00">2</text>
</g>
<!-- 0&#45;&gt;2 -->
<g id="edge2" class="edge"><title>0&#45;&gt;2</title>
<path fill="none" stroke="black" d="M56.5016,-269.611C52.6917,-257.617 47.4428,-241.093 43.0509,-227.266"/>
<polygon fill="black" stroke="black" points="46.2606,-225.81 39.8974,-217.339 39.5891,-227.929 46.2606,-225.81"/>
<text text-anchor="middle" x="54.2075" y="-239.8" font-family="Times,serif" font-size="14.00">a</text>
</g>
<!-- 3 -->
<g id="node4" class="node"><title>3</title>
<ellipse fill="lightblue" stroke="black" cx="88.7075" cy="-200" rx="18" ry="18"/>
<text text-anchor="middle" x="88.7075" y="-196.3" font-family="Times,serif" font-size="14.00">3</text>
</g>
<!-- 0&#45;&gt;3 -->
<g id="edge3" class="edge"><title>0&#45;&gt;3</title>
<path fill="none" stroke="black" d="M66.9134,-269.611C70.7233,-257.617 75.9722,-241.093 80.3641,-227.266"/>
<polygon fill="black" stroke="black" points="83.8259,-227.929 83.5176,-217.339 77.1544,-225.81 83.8259,-227.929"/>
<text text-anchor="middle" x="80.2075" y="-239.8" font-family="Times,serif" font-size="14.00">b</text>
</g>
<!-- 1 -->
<g id="node2" class="node"><title>1</title>
<ellipse fill="lightblue" stroke="black" cx="53.7075" cy="-109" rx="18" ry="18"/>
<ellipse fill="none" stroke="black" cx="53.7075" cy="-109" rx="22" ry="22"/>
<text text-anchor="middle" x="53.7075" y="-105.3" font-family="Times,serif" font-size="14.00">1</text>
</g>
<!-- 1&#45;&gt;1 -->
<g id="edge4" class="edge"><title>1&#45;&gt;1</title>
<path fill="none" stroke="black" d="M74.2883,-117.37C84.5522,-118.528 93.7075,-115.738 93.7075,-109 93.7075,-104.683 89.9502,-101.987 84.5511,-100.911"/>
<polygon fill="black" stroke="black" points="84.3804,-97.405 74.2883,-100.63 84.1887,-104.402 84.3804,-97.405"/>
<text text-anchor="middle" x="97.7075" y="-105.3" font-family="Times,serif" font-size="14.00">S</text>
</g>
<!-- 4 -->
<g id="node5" class="node"><title>4</title>
<ellipse fill="lightblue" stroke="black" cx="53.7075" cy="-18" rx="18" ry="18"/>
<text text-anchor="middle" x="53.7075" y="-14.3" font-family="Times,serif" font-size="14.00">4</text>
</g>
<!-- 1&#45;&gt;4 -->
<g id="edge5" class="edge"><title>1&#45;&gt;4</title>
<path fill="none" stroke="black" d="M53.7075,-86.9082C53.7075,-74.7803 53.7075,-59.4094 53.7075,-46.3598"/>
<polygon fill="black" stroke="black" points="57.2076,-46.0663 53.7075,-36.0663 50.2076,-46.0663 57.2076,-46.0663"/>
<text text-anchor="middle" x="62.2075" y="-57.8" font-family="Times,serif" font-size="14.00">b,a</text>
</g>
<!-- 2&#45;&gt;1 -->
<g id="edge6" class="edge"><title>2&#45;&gt;1</title>
<path fill="none" stroke="black" d="M38.2813,-182.26C40.7654,-170.623 44.1498,-154.77 47.1156,-140.878"/>
<polygon fill="black" stroke="black" points="50.6152,-141.249 49.2802,-130.738 43.7695,-139.787 50.6152,-141.249"/>
<text text-anchor="middle" x="49.2075" y="-152.8" font-family="Times,serif" font-size="14.00">a</text>
</g>
<!-- 2&#45;&gt;4 -->
<g id="edge7" class="edge"><title>2&#45;&gt;4</title>
<path fill="none" stroke="black" d="M25.14,-184.371C12.3118,-162.859 -7.61321,-121.506 3.7075,-87 9.70285,-68.7257 22.6935,-51.3155 33.9305,-38.6868"/>
<polygon fill="black" stroke="black" points="36.723,-40.8236 40.9705,-31.1174 31.5972,-36.0563 36.723,-40.8236"/>
<text text-anchor="middle" x="13.2075" y="-105.3" font-family="Times,serif" font-size="14.00">b,S</text>
</g>
<!-- 3&#45;&gt;1 -->
<g id="edge8" class="edge"><title>3&#45;&gt;1</title>
<path fill="none" stroke="black" d="M82.4502,-183.089C77.6894,-170.983 71.0035,-153.981 65.2779,-139.422"/>
<polygon fill="black" stroke="black" points="68.42,-137.848 61.503,-129.823 61.9056,-140.41 68.42,-137.848"/>
<text text-anchor="middle" x="77.2075" y="-152.8" font-family="Times,serif" font-size="14.00">b</text>
</g>
<!-- 3&#45;&gt;4 -->
<g id="edge9" class="edge"><title>3&#45;&gt;4</title>
<path fill="none" stroke="black" d="M96.7715,-183.745C107.244,-161.81 122.831,-120.335 110.707,-87 103.601,-67.4585 88.1409,-49.619 75.1128,-37.1196"/>
<polygon fill="black" stroke="black" points="77.1481,-34.2373 67.4116,-30.0596 72.4178,-39.3972 77.1481,-34.2373"/>
<text text-anchor="middle" x="123.707" y="-105.3" font-family="Times,serif" font-size="14.00">S,a</text>
</g>
<!-- 4&#45;&gt;4 -->
<g id="edge10" class="edge"><title>4&#45;&gt;4</title>
<path fill="none" stroke="black" d="M70.3716,-25.3828C80.3325,-27.0234 89.7075,-24.5625 89.7075,-18 89.7075,-13.7959 85.86,-11.2751 80.4757,-10.4375"/>
<polygon fill="black" stroke="black" points="80.3077,-6.93988 70.3716,-10.6172 80.4322,-13.9388 80.3077,-6.93988"/>
<text text-anchor="middle" x="103.707" y="-14.3" font-family="Times,serif" font-size="14.00">b,S,a</text>
</g>
</g>
</svg>
