<?xml version="1.0" encoding="UTF-8" standalone="no"?>
<!DOCTYPE svg PUBLIC "-//W3C//DTD SVG 1.1//EN"
 "http://www.w3.org/Graphics/SVG/1.1/DTD/svg11.dtd">
<!-- Generated by graphviz version 2.38.0 (20140413.2041)
 -->
<!-- Title: %3 Pages: 1 -->
<svg width="407pt" height="661pt"
 viewBox="0.00 0.00 407.00 661.00" xmlns="http://www.w3.org/2000/svg" xmlns:xlink="http://www.w3.org/1999/xlink">
<g id="graph0" class="graph" transform="scale(1 1) rotate(0) translate(4 657)">
<title>%3</title>
<!-- 0 -->
<g id="node1" class="node"><title>0</title>
<ellipse fill="lightblue" stroke="black" cx="257" cy="-635" rx="18" ry="18"/>
<text text-anchor="middle" x="257" y="-631.3" font-family="Times,serif" font-size="14.00">0</text>
</g>
<!-- 5 -->
<g id="node6" class="node"><title>5</title>
<ellipse fill="lightblue" stroke="black" cx="145" cy="-18" rx="18" ry="18"/>
<text text-anchor="middle" x="145" y="-14.3" font-family="Times,serif" font-size="14.00">5</text>
</g>
<!-- 0&#45;&gt;5 -->
<g id="edge1" class="edge"><title>0&#45;&gt;5</title>
<path fill="none" stroke="black" d="M238.928,-631.734C180.43,-623.902 0,-595.641 0,-545 0,-545 0,-545 0,-104 0,-50.1992 75.2129,-29.8044 117.3,-22.6035"/>
<polygon fill="black" stroke="black" points="117.885,-26.0547 127.22,-21.0448 116.798,-19.1395 117.885,-26.0547"/>
<text text-anchor="middle" x="23" y="-318.8" font-family="Times,serif" font-size="14.00">b,f,d,a,g</text>
</g>
<!-- 6 -->
<g id="node7" class="node"><title>6</title>
<ellipse fill="#aaff80" stroke="black" cx="287" cy="-544" rx="18" ry="18"/>
<ellipse fill="none" stroke="black" cx="287" cy="-544" rx="22" ry="22"/>
<text text-anchor="middle" x="287" y="-540.3" font-family="Times,serif" font-size="14.00">6</text>
</g>
<!-- 0&#45;&gt;6 -->
<g id="edge2" class="edge"><title>0&#45;&gt;6</title>
<path fill="none" stroke="black" d="M262.502,-617.676C266.571,-605.607 272.222,-588.841 277.072,-574.453"/>
<polygon fill="black" stroke="black" points="280.394,-575.554 280.272,-564.959 273.761,-573.318 280.394,-575.554"/>
<text text-anchor="middle" x="276.5" y="-587.8" font-family="Times,serif" font-size="14.00">e</text>
</g>
<!-- 1 -->
<g id="node2" class="node"><title>1</title>
<ellipse fill="lightblue" stroke="black" cx="278" cy="-105" rx="18" ry="18"/>
<text text-anchor="middle" x="278" y="-101.3" font-family="Times,serif" font-size="14.00">1</text>
</g>
<!-- 1&#45;&gt;5 -->
<g id="edge3" class="edge"><title>1&#45;&gt;5</title>
<path fill="none" stroke="black" d="M267.965,-89.6355C259.661,-78.6361 246.992,-63.7434 233,-54 214.416,-41.0591 190.356,-31.9118 172.092,-26.222"/>
<polygon fill="black" stroke="black" points="172.935,-22.8217 162.353,-23.3417 170.95,-29.5343 172.935,-22.8217"/>
<text text-anchor="middle" x="272" y="-57.8" font-family="Times,serif" font-size="14.00">f,d,e,a,g</text>
</g>
<!-- 1&#45;&gt;6 -->
<g id="edge4" class="edge"><title>1&#45;&gt;6</title>
<path fill="none" stroke="black" d="M280.848,-122.878C283.484,-139.99 287,-167.257 287,-191 287,-454 287,-454 287,-454 287,-473.012 287,-494.309 287,-511.303"/>
<polygon fill="black" stroke="black" points="283.5,-511.781 287,-521.781 290.5,-511.781 283.5,-511.781"/>
<text text-anchor="middle" x="290.5" y="-318.8" font-family="Times,serif" font-size="14.00">b</text>
</g>
<!-- 2 -->
<g id="node3" class="node"><title>2</title>
<ellipse fill="lightblue" stroke="black" cx="193" cy="-453" rx="18" ry="18"/>
<text text-anchor="middle" x="193" y="-449.3" font-family="Times,serif" font-size="14.00">2</text>
</g>
<!-- 4 -->
<g id="node5" class="node"><title>4</title>
<ellipse fill="lightblue" stroke="black" cx="193" cy="-366" rx="18" ry="18"/>
<text text-anchor="middle" x="193" y="-362.3" font-family="Times,serif" font-size="14.00">4</text>
</g>
<!-- 2&#45;&gt;4 -->
<g id="edge5" class="edge"><title>2&#45;&gt;4</title>
<path fill="none" stroke="black" d="M193,-434.799C193,-423.163 193,-407.548 193,-394.237"/>
<polygon fill="black" stroke="black" points="196.5,-394.175 193,-384.175 189.5,-394.175 196.5,-394.175"/>
<text text-anchor="middle" x="196.5" y="-405.8" font-family="Times,serif" font-size="14.00">g</text>
</g>
<!-- 2&#45;&gt;5 -->
<g id="edge6" class="edge"><title>2&#45;&gt;5</title>
<path fill="none" stroke="black" d="M175.198,-449.093C139.168,-442.086 61,-420.696 61,-367 61,-367 61,-367 61,-104 61,-70.1499 95.1198,-44.9211 119.868,-31.0739"/>
<polygon fill="black" stroke="black" points="121.613,-34.1105 128.804,-26.3298 118.33,-27.9278 121.613,-34.1105"/>
<text text-anchor="middle" x="84" y="-231.8" font-family="Times,serif" font-size="14.00">b,f,d,e,a</text>
</g>
<!-- 3 -->
<g id="node4" class="node"><title>3</title>
<ellipse fill="lightblue" stroke="black" cx="157" cy="-279" rx="18" ry="18"/>
<text text-anchor="middle" x="157" y="-275.3" font-family="Times,serif" font-size="14.00">3</text>
</g>
<!-- 3&#45;&gt;5 -->
<g id="edge7" class="edge"><title>3&#45;&gt;5</title>
<path fill="none" stroke="black" d="M148.208,-263.259C135.478,-240.966 112.505,-196.924 104,-156 95.5494,-115.339 115.648,-69.3215 130.595,-42.3086"/>
<polygon fill="black" stroke="black" points="133.659,-43.9998 135.611,-33.5863 127.591,-40.5098 133.659,-43.9998"/>
<text text-anchor="middle" x="127" y="-144.8" font-family="Times,serif" font-size="14.00">b,f,d,e,a</text>
</g>
<!-- 7 -->
<g id="node8" class="node"><title>7</title>
<ellipse fill="lightblue" stroke="black" cx="157" cy="-192" rx="18" ry="18"/>
<text text-anchor="middle" x="157" y="-188.3" font-family="Times,serif" font-size="14.00">7</text>
</g>
<!-- 3&#45;&gt;7 -->
<g id="edge8" class="edge"><title>3&#45;&gt;7</title>
<path fill="none" stroke="black" d="M157,-260.799C157,-249.163 157,-233.548 157,-220.237"/>
<polygon fill="black" stroke="black" points="160.5,-220.175 157,-210.175 153.5,-220.175 160.5,-220.175"/>
<text text-anchor="middle" x="160.5" y="-231.8" font-family="Times,serif" font-size="14.00">g</text>
</g>
<!-- 4&#45;&gt;3 -->
<g id="edge9" class="edge"><title>4&#45;&gt;3</title>
<path fill="none" stroke="black" d="M186.229,-349.012C180.999,-336.665 173.665,-319.347 167.651,-305.148"/>
<polygon fill="black" stroke="black" points="170.864,-303.759 163.741,-295.916 164.418,-306.489 170.864,-303.759"/>
<text text-anchor="middle" x="180.5" y="-318.8" font-family="Times,serif" font-size="14.00">f</text>
</g>
<!-- 4&#45;&gt;5 -->
<g id="edge10" class="edge"><title>4&#45;&gt;5</title>
<path fill="none" stroke="black" d="M197.845,-348.334C209.83,-304.074 237.487,-180.577 203,-87 195.644,-67.0401 179.533,-48.9568 166.154,-36.4644"/>
<polygon fill="black" stroke="black" points="168.467,-33.8377 158.679,-29.7832 163.802,-39.0569 168.467,-33.8377"/>
<text text-anchor="middle" x="244" y="-188.3" font-family="Times,serif" font-size="14.00">b,d,e,a,g</text>
</g>
<!-- 5&#45;&gt;5 -->
<g id="edge11" class="edge"><title>5&#45;&gt;5</title>
<path fill="none" stroke="black" d="M161.664,-25.3828C171.625,-27.0234 181,-24.5625 181,-18 181,-13.7959 177.152,-11.2751 171.768,-10.4375"/>
<polygon fill="black" stroke="black" points="171.6,-6.93988 161.664,-10.6172 171.725,-13.9388 171.6,-6.93988"/>
<text text-anchor="middle" x="209" y="-14.3" font-family="Times,serif" font-size="14.00">b,f,d,e,a,g</text>
</g>
<!-- 6&#45;&gt;0 -->
<g id="edge12" class="edge"><title>6&#45;&gt;0</title>
<path fill="none" stroke="black" d="M272.99,-560.98C267.97,-567.645 262.851,-575.75 260,-584 257.529,-591.151 256.391,-599.216 255.965,-606.748"/>
<polygon fill="black" stroke="black" points="252.463,-606.826 255.773,-616.89 259.462,-606.959 252.463,-606.826"/>
<text text-anchor="middle" x="263.5" y="-587.8" font-family="Times,serif" font-size="14.00">d</text>
</g>
<!-- 6&#45;&gt;1 -->
<g id="edge13" class="edge"><title>6&#45;&gt;1</title>
<path fill="none" stroke="black" d="M299.443,-525.528C310.525,-508.226 325,-480.545 325,-454 325,-454 325,-454 325,-191 325,-166.445 309.793,-142.323 296.679,-126.086"/>
<polygon fill="black" stroke="black" points="299.248,-123.704 290.104,-118.353 293.915,-128.238 299.248,-123.704"/>
<text text-anchor="middle" x="328.5" y="-318.8" font-family="Times,serif" font-size="14.00">a</text>
</g>
<!-- 6&#45;&gt;2 -->
<g id="edge14" class="edge"><title>6&#45;&gt;2</title>
<path fill="none" stroke="black" d="M271.478,-528.303C255.56,-513.233 230.728,-489.721 213.269,-473.191"/>
<polygon fill="black" stroke="black" points="215.492,-470.476 205.824,-466.142 210.679,-475.559 215.492,-470.476"/>
<text text-anchor="middle" x="247.5" y="-492.8" font-family="Times,serif" font-size="14.00">f</text>
</g>
<!-- 6&#45;&gt;5 -->
<g id="edge15" class="edge"><title>6&#45;&gt;5</title>
<path fill="none" stroke="black" d="M306.482,-533.313C331.297,-519.438 371,-491.394 371,-454 371,-454 371,-454 371,-104 371,-62.0822 233.071,-33.7826 172.719,-23.4062"/>
<polygon fill="black" stroke="black" points="173.175,-19.9338 162.734,-21.7319 172.017,-26.8374 173.175,-19.9338"/>
<text text-anchor="middle" x="385" y="-275.3" font-family="Times,serif" font-size="14.00">b,e,g</text>
</g>
<!-- 7&#45;&gt;1 -->
<g id="edge16" class="edge"><title>7&#45;&gt;1</title>
<path fill="none" stroke="black" d="M171.355,-180.916C192.096,-166.346 230.65,-139.263 255.278,-121.961"/>
<polygon fill="black" stroke="black" points="257.492,-124.684 263.663,-116.071 253.469,-118.956 257.492,-124.684"/>
<text text-anchor="middle" x="227.5" y="-144.8" font-family="Times,serif" font-size="14.00">a</text>
</g>
<!-- 7&#45;&gt;5 -->
<g id="edge17" class="edge"><title>7&#45;&gt;5</title>
<path fill="none" stroke="black" d="M155.806,-173.879C153.721,-144.001 149.403,-82.1129 146.903,-46.2736"/>
<polygon fill="black" stroke="black" points="150.377,-45.7837 146.19,-36.0516 143.394,-46.271 150.377,-45.7837"/>
<text text-anchor="middle" x="176" y="-101.3" font-family="Times,serif" font-size="14.00">b,f,d,e,g</text>
</g>
</g>
</svg>
