<?xml version="1.0" encoding="UTF-8" standalone="no"?>
<!DOCTYPE svg PUBLIC "-//W3C//DTD SVG 1.1//EN"
 "http://www.w3.org/Graphics/SVG/1.1/DTD/svg11.dtd">
<!-- Generated by graphviz version 2.38.0 (20140413.2041)
 -->
<!-- Title: %3 Pages: 1 -->
<svg width="443pt" height="1263pt"
 viewBox="0.00 0.00 443.00 1263.00" xmlns="http://www.w3.org/2000/svg" xmlns:xlink="http://www.w3.org/1999/xlink">
<g id="graph0" class="graph" transform="scale(1 1) rotate(0) translate(4 1259)">
<title>%3</title>
<!-- 0 -->
<g id="node1" class="node"><title>0</title>
<ellipse fill="lightblue" stroke="black" cx="200" cy="-18" rx="18" ry="18"/>
<text text-anchor="middle" x="200" y="-14.3" font-family="Times,serif" font-size="14.00">0</text>
</g>
<!-- 0&#45;&gt;0 -->
<g id="edge1" class="edge"><title>0&#45;&gt;0</title>
<path fill="none" stroke="black" d="M216.664,-25.3828C226.625,-27.0234 236,-24.5625 236,-18 236,-13.7959 232.152,-11.2751 226.768,-10.4375"/>
<polygon fill="black" stroke="black" points="226.6,-6.93988 216.664,-10.6172 226.725,-13.9388 226.6,-6.93988"/>
<text text-anchor="middle" x="244.5" y="-14.3" font-family="Times,serif" font-size="14.00">a,b</text>
</g>
<!-- 1 -->
<g id="node2" class="node"><title>1</title>
<ellipse fill="lightblue" stroke="black" cx="60" cy="-584" rx="18" ry="18"/>
<text text-anchor="middle" x="60" y="-580.3" font-family="Times,serif" font-size="14.00">1</text>
</g>
<!-- 1&#45;&gt;0 -->
<g id="edge2" class="edge"><title>1&#45;&gt;0</title>
<path fill="none" stroke="black" d="M46.6841,-571.886C29.0076,-555.803 0,-524.202 0,-490 0,-490 0,-490 0,-108 0,-33.7122 116.602,-20.9815 171.743,-19.1145"/>
<polygon fill="black" stroke="black" points="171.985,-22.6098 181.899,-18.8709 171.818,-15.6118 171.985,-22.6098"/>
<text text-anchor="middle" x="3.5" y="-295.3" font-family="Times,serif" font-size="14.00">a</text>
</g>
<!-- 14 -->
<g id="node15" class="node"><title>14</title>
<ellipse fill="lightblue" stroke="black" cx="60" cy="-489" rx="18" ry="18"/>
<ellipse fill="none" stroke="black" cx="60" cy="-489" rx="22" ry="22"/>
<text text-anchor="middle" x="60" y="-485.3" font-family="Times,serif" font-size="14.00">14</text>
</g>
<!-- 1&#45;&gt;14 -->
<g id="edge3" class="edge"><title>1&#45;&gt;14</title>
<path fill="none" stroke="black" d="M60,-565.942C60,-553.537 60,-536.381 60,-521.514"/>
<polygon fill="black" stroke="black" points="63.5001,-521.194 60,-511.194 56.5001,-521.194 63.5001,-521.194"/>
<text text-anchor="middle" x="63.5" y="-532.8" font-family="Times,serif" font-size="14.00">b</text>
</g>
<!-- 2 -->
<g id="node3" class="node"><title>2</title>
<ellipse fill="lightblue" stroke="black" cx="319" cy="-489" rx="18" ry="18"/>
<text text-anchor="middle" x="319" y="-485.3" font-family="Times,serif" font-size="14.00">2</text>
</g>
<!-- 2&#45;&gt;2 -->
<g id="edge4" class="edge"><title>2&#45;&gt;2</title>
<path fill="none" stroke="black" d="M335.29,-497.016C345.389,-498.949 355,-496.277 355,-489 355,-484.338 351.056,-481.566 345.566,-480.684"/>
<polygon fill="black" stroke="black" points="345.184,-477.193 335.29,-480.984 345.388,-484.19 345.184,-477.193"/>
<text text-anchor="middle" x="358.5" y="-485.3" font-family="Times,serif" font-size="14.00">b</text>
</g>
<!-- 6 -->
<g id="node7" class="node"><title>6</title>
<ellipse fill="lightblue" stroke="black" cx="302" cy="-394" rx="18" ry="18"/>
<text text-anchor="middle" x="302" y="-390.3" font-family="Times,serif" font-size="14.00">6</text>
</g>
<!-- 2&#45;&gt;6 -->
<g id="edge5" class="edge"><title>2&#45;&gt;6</title>
<path fill="none" stroke="black" d="M315.882,-470.942C313.39,-457.308 309.849,-437.938 306.967,-422.173"/>
<polygon fill="black" stroke="black" points="310.339,-421.157 305.098,-411.949 303.454,-422.416 310.339,-421.157"/>
<text text-anchor="middle" x="314.5" y="-437.8" font-family="Times,serif" font-size="14.00">a</text>
</g>
<!-- 3 -->
<g id="node4" class="node"><title>3</title>
<ellipse fill="lightblue" stroke="black" cx="224" cy="-204" rx="18" ry="18"/>
<text text-anchor="middle" x="224" y="-200.3" font-family="Times,serif" font-size="14.00">3</text>
</g>
<!-- 3&#45;&gt;3 -->
<g id="edge6" class="edge"><title>3&#45;&gt;3</title>
<path fill="none" stroke="black" d="M240.29,-212.016C250.389,-213.949 260,-211.277 260,-204 260,-199.338 256.056,-196.566 250.566,-195.684"/>
<polygon fill="black" stroke="black" points="250.184,-192.193 240.29,-195.984 250.388,-199.19 250.184,-192.193"/>
<text text-anchor="middle" x="263.5" y="-200.3" font-family="Times,serif" font-size="14.00">a</text>
</g>
<!-- 4 -->
<g id="node5" class="node"><title>4</title>
<ellipse fill="lightblue" stroke="black" cx="200" cy="-109" rx="18" ry="18"/>
<ellipse fill="none" stroke="black" cx="200" cy="-109" rx="22" ry="22"/>
<text text-anchor="middle" x="200" y="-105.3" font-family="Times,serif" font-size="14.00">4</text>
</g>
<!-- 3&#45;&gt;4 -->
<g id="edge7" class="edge"><title>3&#45;&gt;4</title>
<path fill="none" stroke="black" d="M219.709,-186.373C216.423,-173.638 211.799,-155.719 207.855,-140.438"/>
<polygon fill="black" stroke="black" points="211.146,-139.185 205.259,-130.377 204.368,-140.934 211.146,-139.185"/>
<text text-anchor="middle" x="216.5" y="-152.8" font-family="Times,serif" font-size="14.00">b</text>
</g>
<!-- 4&#45;&gt;0 -->
<g id="edge8" class="edge"><title>4&#45;&gt;0</title>
<path fill="none" stroke="black" d="M200,-86.9082C200,-74.7803 200,-59.4094 200,-46.3598"/>
<polygon fill="black" stroke="black" points="203.5,-46.0663 200,-36.0663 196.5,-46.0663 203.5,-46.0663"/>
<text text-anchor="middle" x="203.5" y="-57.8" font-family="Times,serif" font-size="14.00">b</text>
</g>
<!-- 4&#45;&gt;4 -->
<g id="edge9" class="edge"><title>4&#45;&gt;4</title>
<path fill="none" stroke="black" d="M220.581,-117.37C230.845,-118.528 240,-115.738 240,-109 240,-104.683 236.243,-101.987 230.844,-100.911"/>
<polygon fill="black" stroke="black" points="230.673,-97.405 220.581,-100.63 230.481,-104.402 230.673,-97.405"/>
<text text-anchor="middle" x="243.5" y="-105.3" font-family="Times,serif" font-size="14.00">a</text>
</g>
<!-- 5 -->
<g id="node6" class="node"><title>5</title>
<ellipse fill="lightblue" stroke="black" cx="351" cy="-857" rx="18" ry="18"/>
<text text-anchor="middle" x="351" y="-853.3" font-family="Times,serif" font-size="14.00">5</text>
</g>
<!-- 5&#45;&gt;0 -->
<g id="edge10" class="edge"><title>5&#45;&gt;0</title>
<path fill="none" stroke="black" d="M366.582,-847.883C389.082,-834.912 428,-807.239 428,-771 428,-771 428,-771 428,-108 428,-65.5095 288.851,-35.0908 227.964,-23.8145"/>
<polygon fill="black" stroke="black" points="228.354,-20.3283 217.891,-21.9919 227.108,-27.2165 228.354,-20.3283"/>
<text text-anchor="middle" x="431.5" y="-437.8" font-family="Times,serif" font-size="14.00">a</text>
</g>
<!-- 7 -->
<g id="node8" class="node"><title>7</title>
<ellipse fill="lightblue" stroke="black" cx="351" cy="-770" rx="18" ry="18"/>
<text text-anchor="middle" x="351" y="-766.3" font-family="Times,serif" font-size="14.00">7</text>
</g>
<!-- 5&#45;&gt;7 -->
<g id="edge11" class="edge"><title>5&#45;&gt;7</title>
<path fill="none" stroke="black" d="M351,-838.799C351,-827.163 351,-811.548 351,-798.237"/>
<polygon fill="black" stroke="black" points="354.5,-798.175 351,-788.175 347.5,-798.175 354.5,-798.175"/>
<text text-anchor="middle" x="354.5" y="-809.8" font-family="Times,serif" font-size="14.00">b</text>
</g>
<!-- 6&#45;&gt;0 -->
<g id="edge12" class="edge"><title>6&#45;&gt;0</title>
<path fill="none" stroke="black" d="M312.043,-378.952C323.599,-361.376 341,-329.939 341,-300 341,-300 341,-300 341,-108 341,-55.0069 268.898,-32.2929 227.814,-23.6517"/>
<polygon fill="black" stroke="black" points="228.344,-20.1891 217.858,-21.7043 227,-27.0589 228.344,-20.1891"/>
<text text-anchor="middle" x="344.5" y="-200.3" font-family="Times,serif" font-size="14.00">b</text>
</g>
<!-- 17 -->
<g id="node18" class="node"><title>17</title>
<ellipse fill="lightblue" stroke="black" cx="295" cy="-299" rx="18" ry="18"/>
<text text-anchor="middle" x="295" y="-295.3" font-family="Times,serif" font-size="14.00">17</text>
</g>
<!-- 6&#45;&gt;17 -->
<g id="edge13" class="edge"><title>6&#45;&gt;17</title>
<path fill="none" stroke="black" d="M300.716,-375.942C299.696,-362.394 298.25,-343.18 297.068,-327.469"/>
<polygon fill="black" stroke="black" points="300.54,-326.974 296.299,-317.264 293.56,-327.499 300.54,-326.974"/>
<text text-anchor="middle" x="301.5" y="-342.8" font-family="Times,serif" font-size="14.00">a</text>
</g>
<!-- 7&#45;&gt;6 -->
<g id="edge14" class="edge"><title>7&#45;&gt;6</title>
<path fill="none" stroke="black" d="M361.451,-755.028C373.004,-738.165 390,-708.51 390,-680 390,-680 390,-680 390,-488 390,-451.177 353.152,-423.068 327.144,-407.814"/>
<polygon fill="black" stroke="black" points="328.577,-404.606 318.141,-402.784 325.163,-410.717 328.577,-404.606"/>
<text text-anchor="middle" x="393.5" y="-580.3" font-family="Times,serif" font-size="14.00">a</text>
</g>
<!-- 9 -->
<g id="node10" class="node"><title>9</title>
<ellipse fill="lightblue" stroke="black" cx="297" cy="-679" rx="18" ry="18"/>
<text text-anchor="middle" x="297" y="-675.3" font-family="Times,serif" font-size="14.00">9</text>
</g>
<!-- 7&#45;&gt;9 -->
<g id="edge15" class="edge"><title>7&#45;&gt;9</title>
<path fill="none" stroke="black" d="M342.083,-754.303C333.719,-740.519 321.071,-719.672 311.298,-703.565"/>
<polygon fill="black" stroke="black" points="314.11,-701.452 305.93,-694.718 308.125,-705.083 314.11,-701.452"/>
<text text-anchor="middle" x="331.5" y="-722.8" font-family="Times,serif" font-size="14.00">b</text>
</g>
<!-- 8 -->
<g id="node9" class="node"><title>8</title>
<ellipse fill="lightblue" stroke="black" cx="134" cy="-679" rx="18" ry="18"/>
<ellipse fill="none" stroke="black" cx="134" cy="-679" rx="22" ry="22"/>
<text text-anchor="middle" x="134" y="-675.3" font-family="Times,serif" font-size="14.00">8</text>
</g>
<!-- 8&#45;&gt;1 -->
<g id="edge16" class="edge"><title>8&#45;&gt;1</title>
<path fill="none" stroke="black" d="M120.77,-661.373C108.592,-646.069 90.4563,-623.276 77.1665,-606.574"/>
<polygon fill="black" stroke="black" points="79.681,-604.113 70.7158,-598.467 74.2034,-608.471 79.681,-604.113"/>
<text text-anchor="middle" x="105.5" y="-627.8" font-family="Times,serif" font-size="14.00">b</text>
</g>
<!-- 16 -->
<g id="node17" class="node"><title>16</title>
<ellipse fill="lightblue" stroke="black" cx="141" cy="-204" rx="18" ry="18"/>
<ellipse fill="none" stroke="black" cx="141" cy="-204" rx="22" ry="22"/>
<text text-anchor="middle" x="141" y="-200.3" font-family="Times,serif" font-size="14.00">16</text>
</g>
<!-- 8&#45;&gt;16 -->
<g id="edge17" class="edge"><title>8&#45;&gt;16</title>
<path fill="none" stroke="black" d="M138.265,-657.046C141.714,-638.262 146,-609.908 146,-585 146,-585 146,-585 146,-298 146,-277.32 144.752,-254.09 143.503,-236.021"/>
<polygon fill="black" stroke="black" points="146.993,-235.756 142.777,-226.036 140.011,-236.264 146.993,-235.756"/>
<text text-anchor="middle" x="149.5" y="-437.8" font-family="Times,serif" font-size="14.00">a</text>
</g>
<!-- 9&#45;&gt;6 -->
<g id="edge18" class="edge"><title>9&#45;&gt;6</title>
<path fill="none" stroke="black" d="M288.467,-663.143C280.86,-648.981 270.286,-626.793 266,-606 250.483,-530.721 261.919,-507.622 284,-434 285.45,-429.165 287.392,-424.161 289.464,-419.414"/>
<polygon fill="black" stroke="black" points="292.72,-420.712 293.784,-410.17 286.379,-417.748 292.72,-420.712"/>
<text text-anchor="middle" x="262.5" y="-532.8" font-family="Times,serif" font-size="14.00">a</text>
</g>
<!-- 10 -->
<g id="node11" class="node"><title>10</title>
<ellipse fill="lightblue" stroke="black" cx="297" cy="-584" rx="18" ry="18"/>
<ellipse fill="none" stroke="black" cx="297" cy="-584" rx="22" ry="22"/>
<text text-anchor="middle" x="297" y="-580.3" font-family="Times,serif" font-size="14.00">10</text>
</g>
<!-- 9&#45;&gt;10 -->
<g id="edge19" class="edge"><title>9&#45;&gt;10</title>
<path fill="none" stroke="black" d="M297,-660.942C297,-648.537 297,-631.381 297,-616.514"/>
<polygon fill="black" stroke="black" points="300.5,-616.194 297,-606.194 293.5,-616.194 300.5,-616.194"/>
<text text-anchor="middle" x="300.5" y="-627.8" font-family="Times,serif" font-size="14.00">b</text>
</g>
<!-- 10&#45;&gt;2 -->
<g id="edge20" class="edge"><title>10&#45;&gt;2</title>
<path fill="none" stroke="black" d="M301.883,-562.36C305.061,-548.925 309.238,-531.267 312.67,-516.758"/>
<polygon fill="black" stroke="black" points="316.117,-517.392 315.013,-506.855 309.305,-515.781 316.117,-517.392"/>
<text text-anchor="middle" x="312.5" y="-532.8" font-family="Times,serif" font-size="14.00">b</text>
</g>
<!-- 10&#45;&gt;6 -->
<g id="edge21" class="edge"><title>10&#45;&gt;6</title>
<path fill="none" stroke="black" d="M292.152,-562.448C287.312,-539.247 281.112,-500.383 285,-467 286.782,-451.699 290.626,-434.931 294.208,-421.43"/>
<polygon fill="black" stroke="black" points="297.692,-421.964 296.981,-411.393 290.944,-420.1 297.692,-421.964"/>
<text text-anchor="middle" x="288.5" y="-485.3" font-family="Times,serif" font-size="14.00">a</text>
</g>
<!-- 11 -->
<g id="node12" class="node"><title>11</title>
<ellipse fill="lightblue" stroke="black" cx="184" cy="-1138" rx="18" ry="18"/>
<ellipse fill="none" stroke="black" cx="184" cy="-1138" rx="22" ry="22"/>
<text text-anchor="middle" x="184" y="-1134.3" font-family="Times,serif" font-size="14.00">11</text>
</g>
<!-- 11&#45;&gt;8 -->
<g id="edge22" class="edge"><title>11&#45;&gt;8</title>
<path fill="none" stroke="black" d="M169.269,-1121.25C154.52,-1103.78 134,-1074.06 134,-1044 134,-1044 134,-1044 134,-769 134,-749.988 134,-728.691 134,-711.697"/>
<polygon fill="black" stroke="black" points="137.5,-711.219 134,-701.219 130.5,-711.219 137.5,-711.219"/>
<text text-anchor="middle" x="137.5" y="-896.8" font-family="Times,serif" font-size="14.00">a</text>
</g>
<!-- 18 -->
<g id="node19" class="node"><title>18</title>
<ellipse fill="lightblue" stroke="black" cx="184" cy="-1043" rx="18" ry="18"/>
<ellipse fill="none" stroke="black" cx="184" cy="-1043" rx="22" ry="22"/>
<text text-anchor="middle" x="184" y="-1039.3" font-family="Times,serif" font-size="14.00">18</text>
</g>
<!-- 11&#45;&gt;18 -->
<g id="edge23" class="edge"><title>11&#45;&gt;18</title>
<path fill="none" stroke="black" d="M184,-1115.9C184,-1103.89 184,-1088.62 184,-1075.24"/>
<polygon fill="black" stroke="black" points="187.5,-1075.02 184,-1065.02 180.5,-1075.02 187.5,-1075.02"/>
<text text-anchor="middle" x="187.5" y="-1086.8" font-family="Times,serif" font-size="14.00">b</text>
</g>
<!-- 12 -->
<g id="node13" class="node"><title>12</title>
<ellipse fill="lightblue" stroke="black" cx="200" cy="-948" rx="18" ry="18"/>
<ellipse fill="none" stroke="black" cx="200" cy="-948" rx="22" ry="22"/>
<text text-anchor="middle" x="200" y="-944.3" font-family="Times,serif" font-size="14.00">12</text>
</g>
<!-- 12&#45;&gt;5 -->
<g id="edge24" class="edge"><title>12&#45;&gt;5</title>
<path fill="none" stroke="black" d="M218.516,-936.087C245.779,-920.018 296.743,-889.979 326.893,-872.209"/>
<polygon fill="black" stroke="black" points="328.695,-875.21 335.532,-867.117 325.14,-869.179 328.695,-875.21"/>
<text text-anchor="middle" x="292.5" y="-896.8" font-family="Times,serif" font-size="14.00">b</text>
</g>
<!-- 12&#45;&gt;16 -->
<g id="edge25" class="edge"><title>12&#45;&gt;16</title>
<path fill="none" stroke="black" d="M197.067,-926.188C194.783,-908.181 192,-881.426 192,-858 192,-858 192,-858 192,-298 192,-271.889 176.353,-246.171 162.393,-228.422"/>
<polygon fill="black" stroke="black" points="164.819,-225.862 155.751,-220.382 159.422,-230.321 164.819,-225.862"/>
<text text-anchor="middle" x="195.5" y="-580.3" font-family="Times,serif" font-size="14.00">a</text>
</g>
<!-- 13 -->
<g id="node14" class="node"><title>13</title>
<ellipse fill="lightblue" stroke="black" cx="60" cy="-394" rx="18" ry="18"/>
<ellipse fill="none" stroke="black" cx="60" cy="-394" rx="22" ry="22"/>
<text text-anchor="middle" x="60" y="-390.3" font-family="Times,serif" font-size="14.00">13</text>
</g>
<!-- 13&#45;&gt;0 -->
<g id="edge26" class="edge"><title>13&#45;&gt;0</title>
<path fill="none" stroke="black" d="M55.1035,-372.448C51.0663,-353.692 46,-325.145 46,-300 46,-300 46,-300 46,-108 46,-50.5167 127.428,-29.5728 171.862,-22.4233"/>
<polygon fill="black" stroke="black" points="172.651,-25.845 182.033,-20.9233 171.629,-18.9199 172.651,-25.845"/>
<text text-anchor="middle" x="49.5" y="-200.3" font-family="Times,serif" font-size="14.00">b</text>
</g>
<!-- 19 -->
<g id="node20" class="node"><title>19</title>
<ellipse fill="lightblue" stroke="black" cx="96" cy="-299" rx="18" ry="18"/>
<ellipse fill="none" stroke="black" cx="96" cy="-299" rx="22" ry="22"/>
<text text-anchor="middle" x="96" y="-295.3" font-family="Times,serif" font-size="14.00">19</text>
</g>
<!-- 13&#45;&gt;19 -->
<g id="edge27" class="edge"><title>13&#45;&gt;19</title>
<path fill="none" stroke="black" d="M67.6347,-373.277C72.5985,-360.454 79.1577,-343.509 84.7182,-329.145"/>
<polygon fill="black" stroke="black" points="88.0303,-330.284 88.3763,-319.694 81.5023,-327.757 88.0303,-330.284"/>
<text text-anchor="middle" x="84.5" y="-342.8" font-family="Times,serif" font-size="14.00">a</text>
</g>
<!-- 14&#45;&gt;13 -->
<g id="edge28" class="edge"><title>14&#45;&gt;13</title>
<path fill="none" stroke="black" d="M60,-466.897C60,-454.887 60,-439.617 60,-426.242"/>
<polygon fill="black" stroke="black" points="63.5001,-426.02 60,-416.02 56.5001,-426.02 63.5001,-426.02"/>
<text text-anchor="middle" x="63.5" y="-437.8" font-family="Times,serif" font-size="14.00">a</text>
</g>
<!-- 14&#45;&gt;14 -->
<g id="edge29" class="edge"><title>14&#45;&gt;14</title>
<path fill="none" stroke="black" d="M80.5808,-497.37C90.8447,-498.528 100,-495.738 100,-489 100,-484.683 96.2427,-481.987 90.8436,-480.911"/>
<polygon fill="black" stroke="black" points="90.6729,-477.405 80.5808,-480.63 90.4812,-484.402 90.6729,-477.405"/>
<text text-anchor="middle" x="103.5" y="-485.3" font-family="Times,serif" font-size="14.00">b</text>
</g>
<!-- 15 -->
<g id="node16" class="node"><title>15</title>
<ellipse fill="#aaff80" stroke="black" cx="235" cy="-1233" rx="18" ry="18"/>
<ellipse fill="none" stroke="black" cx="235" cy="-1233" rx="22" ry="22"/>
<text text-anchor="middle" x="235" y="-1229.3" font-family="Times,serif" font-size="14.00">15</text>
</g>
<!-- 15&#45;&gt;11 -->
<g id="edge30" class="edge"><title>15&#45;&gt;11</title>
<path fill="none" stroke="black" d="M224.679,-1213.18C217.352,-1199.82 207.395,-1181.66 199.167,-1166.66"/>
<polygon fill="black" stroke="black" points="202.182,-1164.88 194.305,-1157.79 196.045,-1168.24 202.182,-1164.88"/>
<text text-anchor="middle" x="215.5" y="-1181.8" font-family="Times,serif" font-size="14.00">b</text>
</g>
<!-- 15&#45;&gt;12 -->
<g id="edge31" class="edge"><title>15&#45;&gt;12</title>
<path fill="none" stroke="black" d="M239.199,-1211.2C246.132,-1172.86 257.556,-1088.75 240,-1021 235.716,-1004.47 226.722,-987.689 218.347,-974.493"/>
<polygon fill="black" stroke="black" points="221.149,-972.385 212.712,-965.976 215.311,-976.248 221.149,-972.385"/>
<text text-anchor="middle" x="252.5" y="-1086.8" font-family="Times,serif" font-size="14.00">a</text>
</g>
<!-- 16&#45;&gt;4 -->
<g id="edge32" class="edge"><title>16&#45;&gt;4</title>
<path fill="none" stroke="black" d="M152.376,-185.069C161.109,-171.302 173.303,-152.082 183.165,-136.536"/>
<polygon fill="black" stroke="black" points="186.258,-138.195 188.659,-127.876 180.347,-134.445 186.258,-138.195"/>
<text text-anchor="middle" x="177.5" y="-152.8" font-family="Times,serif" font-size="14.00">b</text>
</g>
<!-- 16&#45;&gt;16 -->
<g id="edge33" class="edge"><title>16&#45;&gt;16</title>
<path fill="none" stroke="black" d="M161.581,-212.37C171.845,-213.528 181,-210.738 181,-204 181,-199.683 177.243,-196.987 171.844,-195.911"/>
<polygon fill="black" stroke="black" points="171.673,-192.405 161.581,-195.63 171.481,-199.402 171.673,-192.405"/>
<text text-anchor="middle" x="184.5" y="-200.3" font-family="Times,serif" font-size="14.00">a</text>
</g>
<!-- 17&#45;&gt;0 -->
<g id="edge34" class="edge"><title>17&#45;&gt;0</title>
<path fill="none" stroke="black" d="M294.831,-280.934C293.843,-243.796 288.045,-153.642 256,-87 247.109,-68.5094 232.157,-50.7241 219.939,-37.9829"/>
<polygon fill="black" stroke="black" points="222.288,-35.3808 212.763,-30.7404 217.315,-40.3075 222.288,-35.3808"/>
<text text-anchor="middle" x="284.5" y="-152.8" font-family="Times,serif" font-size="14.00">b</text>
</g>
<!-- 17&#45;&gt;3 -->
<g id="edge35" class="edge"><title>17&#45;&gt;3</title>
<path fill="none" stroke="black" d="M284.524,-284.278C272.988,-269.167 254.279,-244.661 240.712,-226.891"/>
<polygon fill="black" stroke="black" points="243.369,-224.603 234.519,-218.779 237.806,-228.851 243.369,-224.603"/>
<text text-anchor="middle" x="266.5" y="-247.8" font-family="Times,serif" font-size="14.00">a</text>
</g>
<!-- 18&#45;&gt;12 -->
<g id="edge36" class="edge"><title>18&#45;&gt;12</title>
<path fill="none" stroke="black" d="M187.631,-1020.9C189.697,-1008.89 192.324,-993.617 194.625,-980.242"/>
<polygon fill="black" stroke="black" points="198.137,-980.468 196.384,-970.02 191.239,-979.281 198.137,-980.468"/>
<text text-anchor="middle" x="195.5" y="-991.8" font-family="Times,serif" font-size="14.00">a</text>
</g>
<!-- 18&#45;&gt;18 -->
<g id="edge37" class="edge"><title>18&#45;&gt;18</title>
<path fill="none" stroke="black" d="M204.581,-1051.37C214.845,-1052.53 224,-1049.74 224,-1043 224,-1038.68 220.243,-1035.99 214.844,-1034.91"/>
<polygon fill="black" stroke="black" points="214.673,-1031.41 204.581,-1034.63 214.481,-1038.4 214.673,-1031.41"/>
<text text-anchor="middle" x="227.5" y="-1039.3" font-family="Times,serif" font-size="14.00">b</text>
</g>
<!-- 19&#45;&gt;0 -->
<g id="edge38" class="edge"><title>19&#45;&gt;0</title>
<path fill="none" stroke="black" d="M96.1382,-276.951C96.8389,-253.306 99.654,-214.044 110,-182 127.372,-128.195 163.018,-71.8238 183.858,-41.5091"/>
<polygon fill="black" stroke="black" points="186.964,-43.1738 189.814,-32.9693 181.222,-39.1695 186.964,-43.1738"/>
<text text-anchor="middle" x="126.5" y="-152.8" font-family="Times,serif" font-size="14.00">b</text>
</g>
<!-- 19&#45;&gt;16 -->
<g id="edge39" class="edge"><title>19&#45;&gt;16</title>
<path fill="none" stroke="black" d="M105.324,-278.73C111.659,-265.637 120.147,-248.097 127.254,-233.409"/>
<polygon fill="black" stroke="black" points="130.483,-234.771 131.688,-224.245 124.182,-231.722 130.483,-234.771"/>
<text text-anchor="middle" x="125.5" y="-247.8" font-family="Times,serif" font-size="14.00">a</text>
</g>
</g>
</svg>
