<?xml version="1.0" encoding="UTF-8" standalone="no"?>
<!DOCTYPE svg PUBLIC "-//W3C//DTD SVG 1.1//EN"
 "http://www.w3.org/Graphics/SVG/1.1/DTD/svg11.dtd">
<!-- Generated by graphviz version 2.38.0 (20140413.2041)
 -->
<!-- Title: %3 Pages: 1 -->
<svg width="1531pt" height="3558pt"
 viewBox="0.00 0.00 1531.00 3558.00" xmlns="http://www.w3.org/2000/svg" xmlns:xlink="http://www.w3.org/1999/xlink">
<g id="graph0" class="graph" transform="scale(1 1) rotate(0) translate(4 3554)">
<title>%3</title>
<!-- 0 -->
<g id="node1" class="node"><title>0</title>
<ellipse fill="lightblue" stroke="black" cx="1315" cy="-3528" rx="18" ry="18"/>
<ellipse fill="none" stroke="black" cx="1315" cy="-3528" rx="22" ry="22"/>
<text text-anchor="middle" x="1315" y="-3524.3" font-family="Times,serif" font-size="14.00">0</text>
</g>
<!-- 29 -->
<g id="node30" class="node"><title>29</title>
<ellipse fill="lightblue" stroke="black" cx="1246" cy="-3433" rx="18" ry="18"/>
<ellipse fill="none" stroke="black" cx="1246" cy="-3433" rx="22" ry="22"/>
<text text-anchor="middle" x="1246" y="-3429.3" font-family="Times,serif" font-size="14.00">29</text>
</g>
<!-- 0&#45;&gt;29 -->
<g id="edge1" class="edge"><title>0&#45;&gt;29</title>
<path fill="none" stroke="black" d="M1302.34,-3509.94C1291.91,-3495.87 1276.93,-3475.69 1265.05,-3459.67"/>
<polygon fill="black" stroke="black" points="1267.58,-3457.21 1258.81,-3451.26 1261.96,-3461.38 1267.58,-3457.21"/>
<text text-anchor="middle" x="1287.5" y="-3476.8" font-family="Times,serif" font-size="14.00">c</text>
</g>
<!-- 56 -->
<g id="node57" class="node"><title>56</title>
<ellipse fill="lightblue" stroke="black" cx="1166" cy="-3276" rx="18" ry="18"/>
<ellipse fill="none" stroke="black" cx="1166" cy="-3276" rx="22" ry="22"/>
<text text-anchor="middle" x="1166" y="-3272.3" font-family="Times,serif" font-size="14.00">56</text>
</g>
<!-- 0&#45;&gt;56 -->
<g id="edge2" class="edge"><title>0&#45;&gt;56</title>
<path fill="none" stroke="black" d="M1295.13,-3518.34C1258.4,-3500.98 1181.56,-3457.92 1159,-3393 1149.31,-3365.11 1152.99,-3331.2 1157.91,-3307.27"/>
<polygon fill="black" stroke="black" points="1161.36,-3307.87 1160.14,-3297.35 1154.53,-3306.34 1161.36,-3307.87"/>
<text text-anchor="middle" x="1204.5" y="-3429.3" font-family="Times,serif" font-size="14.00">b</text>
</g>
<!-- 57 -->
<g id="node58" class="node"><title>57</title>
<ellipse fill="lightblue" stroke="black" cx="1380" cy="-1259" rx="18" ry="18"/>
<ellipse fill="none" stroke="black" cx="1380" cy="-1259" rx="22" ry="22"/>
<text text-anchor="middle" x="1380" y="-1255.3" font-family="Times,serif" font-size="14.00">57</text>
</g>
<!-- 0&#45;&gt;57 -->
<g id="edge3" class="edge"><title>0&#45;&gt;57</title>
<path fill="none" stroke="black" d="M1333.04,-3515.21C1354.66,-3499.5 1388,-3469.51 1388,-3434 1388,-3434 1388,-3434 1388,-1353 1388,-1332.27 1386,-1309.04 1384,-1290.99"/>
<polygon fill="black" stroke="black" points="1387.48,-1290.54 1382.84,-1281.01 1380.52,-1291.35 1387.48,-1290.54"/>
<text text-anchor="middle" x="1391.5" y="-2391.3" font-family="Times,serif" font-size="14.00">a</text>
</g>
<!-- 1 -->
<g id="node2" class="node"><title>1</title>
<ellipse fill="lightblue" stroke="black" cx="1235" cy="-1544" rx="18" ry="18"/>
<ellipse fill="none" stroke="black" cx="1235" cy="-1544" rx="22" ry="22"/>
<text text-anchor="middle" x="1235" y="-1540.3" font-family="Times,serif" font-size="14.00">1</text>
</g>
<!-- 19 -->
<g id="node20" class="node"><title>19</title>
<ellipse fill="lightblue" stroke="black" cx="1022" cy="-1924" rx="18" ry="18"/>
<text text-anchor="middle" x="1022" y="-1920.3" font-family="Times,serif" font-size="14.00">19</text>
</g>
<!-- 1&#45;&gt;19 -->
<g id="edge4" class="edge"><title>1&#45;&gt;19</title>
<path fill="none" stroke="black" d="M1231.37,-1565.8C1220.36,-1627.03 1185.88,-1805.21 1150,-1851 1123.97,-1884.21 1078.11,-1904.57 1048.93,-1914.82"/>
<polygon fill="black" stroke="black" points="1047.73,-1911.53 1039.36,-1918.02 1049.96,-1918.16 1047.73,-1911.53"/>
<text text-anchor="middle" x="1203.5" y="-1730.3" font-family="Times,serif" font-size="14.00">b</text>
</g>
<!-- 1&#45;&gt;29 -->
<g id="edge5" class="edge"><title>1&#45;&gt;29</title>
<path fill="none" stroke="black" d="M1240.25,-1565.53C1244.57,-1584.28 1250,-1612.81 1250,-1638 1250,-1782.5 1250,-1782.5 1250,-1782.5 1250,-1867.83 1289,-1885.17 1289,-1970.5 1289,-2352.5 1289,-2352.5 1289,-2352.5 1289,-2428.96 1292,-2448.04 1292,-2524.5 1292,-3339 1292,-3339 1292,-3339 1292,-3364.23 1278.23,-3389.7 1265.75,-3407.58"/>
<polygon fill="black" stroke="black" points="1262.88,-3405.58 1259.8,-3415.72 1268.53,-3409.72 1262.88,-3405.58"/>
<text text-anchor="middle" x="1294.5" y="-2478.3" font-family="Times,serif" font-size="14.00">c</text>
</g>
<!-- 1&#45;&gt;57 -->
<g id="edge6" class="edge"><title>1&#45;&gt;57</title>
<path fill="none" stroke="black" d="M1238.69,-1522.1C1247.43,-1477.33 1272.86,-1370.44 1327,-1299 1333.85,-1289.96 1343.36,-1282.07 1352.43,-1275.79"/>
<polygon fill="black" stroke="black" points="1354.42,-1278.67 1360.9,-1270.28 1350.61,-1272.8 1354.42,-1278.67"/>
<text text-anchor="middle" x="1279.5" y="-1397.8" font-family="Times,serif" font-size="14.00">a</text>
</g>
<!-- 2 -->
<g id="node3" class="node"><title>2</title>
<ellipse fill="lightblue" stroke="black" cx="887" cy="-1164" rx="18" ry="18"/>
<ellipse fill="none" stroke="black" cx="887" cy="-1164" rx="22" ry="22"/>
<text text-anchor="middle" x="887" y="-1160.3" font-family="Times,serif" font-size="14.00">2</text>
</g>
<!-- 41 -->
<g id="node42" class="node"><title>41</title>
<ellipse fill="lightblue" stroke="black" cx="1240" cy="-1069" rx="18" ry="18"/>
<ellipse fill="none" stroke="black" cx="1240" cy="-1069" rx="22" ry="22"/>
<text text-anchor="middle" x="1240" y="-1065.3" font-family="Times,serif" font-size="14.00">41</text>
</g>
<!-- 2&#45;&gt;41 -->
<g id="edge7" class="edge"><title>2&#45;&gt;41</title>
<path fill="none" stroke="black" d="M907.153,-1154.61C918.405,-1150.24 932.781,-1145.16 946,-1142 1007.45,-1127.32 1025.53,-1138.6 1087,-1124 1131.07,-1113.53 1180.15,-1094.91 1210.56,-1082.5"/>
<polygon fill="black" stroke="black" points="1212.21,-1085.61 1220.12,-1078.56 1209.54,-1079.14 1212.21,-1085.61"/>
<text text-anchor="middle" x="1142.5" y="-1112.8" font-family="Times,serif" font-size="14.00">b</text>
</g>
<!-- 61 -->
<g id="node62" class="node"><title>61</title>
<ellipse fill="lightblue" stroke="black" cx="760" cy="-1069" rx="18" ry="18"/>
<ellipse fill="none" stroke="black" cx="760" cy="-1069" rx="22" ry="22"/>
<text text-anchor="middle" x="760" y="-1065.3" font-family="Times,serif" font-size="14.00">61</text>
</g>
<!-- 2&#45;&gt;61 -->
<g id="edge8" class="edge"><title>2&#45;&gt;61</title>
<path fill="none" stroke="black" d="M865.199,-1159.44C842.879,-1154.78 808.378,-1144.65 786,-1124 778.944,-1117.49 773.597,-1108.66 769.643,-1100.02"/>
<polygon fill="black" stroke="black" points="772.773,-1098.43 765.755,-1090.49 766.292,-1101.07 772.773,-1098.43"/>
<text text-anchor="middle" x="794" y="-1112.8" font-family="Times,serif" font-size="14.00">c,a</text>
</g>
<!-- 3 -->
<g id="node4" class="node"><title>3</title>
<ellipse fill="lightblue" stroke="black" cx="410" cy="-2573" rx="18" ry="18"/>
<ellipse fill="none" stroke="black" cx="410" cy="-2573" rx="22" ry="22"/>
<text text-anchor="middle" x="410" y="-2569.3" font-family="Times,serif" font-size="14.00">3</text>
</g>
<!-- 50 -->
<g id="node51" class="node"><title>50</title>
<ellipse fill="lightblue" stroke="black" cx="855" cy="-2482" rx="18" ry="18"/>
<text text-anchor="middle" x="855" y="-2478.3" font-family="Times,serif" font-size="14.00">50</text>
</g>
<!-- 3&#45;&gt;50 -->
<g id="edge9" class="edge"><title>3&#45;&gt;50</title>
<path fill="none" stroke="black" d="M431.836,-2569.2C474.917,-2563.54 573.812,-2549.81 656,-2533 718.048,-2520.31 789.891,-2501.13 827.999,-2490.6"/>
<polygon fill="black" stroke="black" points="829.12,-2493.92 837.816,-2487.87 827.244,-2487.17 829.12,-2493.92"/>
<text text-anchor="middle" x="726.5" y="-2521.8" font-family="Times,serif" font-size="14.00">b</text>
</g>
<!-- 68 -->
<g id="node69" class="node"><title>68</title>
<ellipse fill="lightblue" stroke="black" cx="555" cy="-457" rx="18" ry="18"/>
<ellipse fill="none" stroke="black" cx="555" cy="-457" rx="22" ry="22"/>
<text text-anchor="middle" x="555" y="-453.3" font-family="Times,serif" font-size="14.00">68</text>
</g>
<!-- 3&#45;&gt;68 -->
<g id="edge10" class="edge"><title>3&#45;&gt;68</title>
<path fill="none" stroke="black" d="M390.301,-2562.98C377.736,-2556.32 361.991,-2546.13 352,-2533 342.64,-2520.7 345.113,-2514.9 341,-2500 277.854,-2271.23 258,-2209.83 258,-1972.5 258,-1972.5 258,-1972.5 258,-1590.5 258,-1532.93 226.212,-1525.62 208,-1471 124.188,-1219.66 130,-1144.94 130,-880 130,-880 130,-880 130,-551 130,-470.655 423.522,-459.622 522.704,-458.187"/>
<polygon fill="black" stroke="black" points="522.792,-461.686 532.749,-458.065 522.707,-454.686 522.792,-461.686"/>
<text text-anchor="middle" x="259.5" y="-1540.3" font-family="Times,serif" font-size="14.00">a</text>
</g>
<!-- 70 -->
<g id="node71" class="node"><title>70</title>
<ellipse fill="lightblue" stroke="black" cx="340" cy="-1354" rx="18" ry="18"/>
<ellipse fill="none" stroke="black" cx="340" cy="-1354" rx="22" ry="22"/>
<text text-anchor="middle" x="340" y="-1350.3" font-family="Times,serif" font-size="14.00">70</text>
</g>
<!-- 3&#45;&gt;70 -->
<g id="edge11" class="edge"><title>3&#45;&gt;70</title>
<path fill="none" stroke="black" d="M392.581,-2559.35C373.327,-2543.76 345,-2515.34 345,-2483 345,-2483 345,-2483 345,-1590.5 345,-1517.24 342.552,-1431.19 341.082,-1386.13"/>
<polygon fill="black" stroke="black" points="344.579,-1385.99 340.749,-1376.11 337.583,-1386.22 344.579,-1385.99"/>
<text text-anchor="middle" x="348.5" y="-1967.8" font-family="Times,serif" font-size="14.00">c</text>
</g>
<!-- 4 -->
<g id="node5" class="node"><title>4</title>
<ellipse fill="lightblue" stroke="black" cx="832" cy="-1259" rx="18" ry="18"/>
<text text-anchor="middle" x="832" y="-1255.3" font-family="Times,serif" font-size="14.00">4</text>
</g>
<!-- 4&#45;&gt;2 -->
<g id="edge12" class="edge"><title>4&#45;&gt;2</title>
<path fill="none" stroke="black" d="M840.837,-1243.06C848.933,-1229.37 861.116,-1208.77 870.933,-1192.17"/>
<polygon fill="black" stroke="black" points="874.025,-1193.81 876.103,-1183.43 868,-1190.25 874.025,-1193.81"/>
<text text-anchor="middle" x="866.5" y="-1207.8" font-family="Times,serif" font-size="14.00">b</text>
</g>
<!-- 63 -->
<g id="node64" class="node"><title>63</title>
<ellipse fill="lightblue" stroke="black" cx="895" cy="-668" rx="18" ry="18"/>
<text text-anchor="middle" x="895" y="-664.3" font-family="Times,serif" font-size="14.00">63</text>
</g>
<!-- 4&#45;&gt;63 -->
<g id="edge13" class="edge"><title>4&#45;&gt;63</title>
<path fill="none" stroke="black" d="M831.862,-1240.86C832.441,-1216.91 836.38,-1172.9 856,-1142 876.248,-1110.11 906.57,-1124.52 924,-1091 994.259,-955.902 931.675,-762.796 905.354,-694.287"/>
<polygon fill="black" stroke="black" points="908.521,-692.776 901.61,-684.746 902.005,-695.333 908.521,-692.776"/>
<text text-anchor="middle" x="965" y="-970.3" font-family="Times,serif" font-size="14.00">c,a</text>
</g>
<!-- 5 -->
<g id="node6" class="node"><title>5</title>
<ellipse fill="lightblue" stroke="black" cx="699" cy="-2209" rx="18" ry="18"/>
<ellipse fill="none" stroke="black" cx="699" cy="-2209" rx="22" ry="22"/>
<text text-anchor="middle" x="699" y="-2205.3" font-family="Times,serif" font-size="14.00">5</text>
</g>
<!-- 14 -->
<g id="node15" class="node"><title>14</title>
<ellipse fill="lightblue" stroke="black" cx="640" cy="-784" rx="18" ry="18"/>
<ellipse fill="none" stroke="black" cx="640" cy="-784" rx="22" ry="22"/>
<text text-anchor="middle" x="640" y="-780.3" font-family="Times,serif" font-size="14.00">14</text>
</g>
<!-- 5&#45;&gt;14 -->
<g id="edge14" class="edge"><title>5&#45;&gt;14</title>
<path fill="none" stroke="black" d="M693.8,-2187.26C678.88,-2126.54 636.095,-1943.68 622,-1789 606.666,-1620.72 631.223,-1577.95 634,-1409 637.772,-1179.5 562.367,-1129.53 541,-901 539.18,-881.529 532.126,-874.426 541,-857 555.409,-828.704 586.723,-808.911 610.299,-797.335"/>
<polygon fill="black" stroke="black" points="611.961,-800.421 619.539,-793.017 608.998,-794.08 611.961,-800.421"/>
<text text-anchor="middle" x="639" y="-1492.8" font-family="Times,serif" font-size="14.00">c,a</text>
</g>
<!-- 53 -->
<g id="node54" class="node"><title>53</title>
<ellipse fill="lightblue" stroke="black" cx="888" cy="-2114" rx="18" ry="18"/>
<ellipse fill="none" stroke="black" cx="888" cy="-2114" rx="22" ry="22"/>
<text text-anchor="middle" x="888" y="-2110.3" font-family="Times,serif" font-size="14.00">53</text>
</g>
<!-- 5&#45;&gt;53 -->
<g id="edge15" class="edge"><title>5&#45;&gt;53</title>
<path fill="none" stroke="black" d="M713.013,-2191.7C724.117,-2179.72 740.611,-2163.87 758,-2154 789.071,-2136.36 828.942,-2125.94 856.288,-2120.37"/>
<polygon fill="black" stroke="black" points="856.958,-2123.8 866.111,-2118.46 855.628,-2116.93 856.958,-2123.8"/>
<text text-anchor="middle" x="761.5" y="-2157.8" font-family="Times,serif" font-size="14.00">b</text>
</g>
<!-- 6 -->
<g id="node7" class="node"><title>6</title>
<ellipse fill="lightblue" stroke="black" cx="46" cy="-879" rx="18" ry="18"/>
<ellipse fill="none" stroke="black" cx="46" cy="-879" rx="22" ry="22"/>
<text text-anchor="middle" x="46" y="-875.3" font-family="Times,serif" font-size="14.00">6</text>
</g>
<!-- 6&#45;&gt;6 -->
<g id="edge16" class="edge"><title>6&#45;&gt;6</title>
<path fill="none" stroke="black" d="M66.5808,-887.37C76.8447,-888.528 86,-885.738 86,-879 86,-874.683 82.2427,-871.987 76.8436,-870.911"/>
<polygon fill="black" stroke="black" points="76.6729,-867.405 66.5808,-870.63 76.4812,-874.402 76.6729,-867.405"/>
<text text-anchor="middle" x="94" y="-875.3" font-family="Times,serif" font-size="14.00">c,a</text>
</g>
<!-- 30 -->
<g id="node31" class="node"><title>30</title>
<ellipse fill="lightblue" stroke="black" cx="85" cy="-726" rx="18" ry="18"/>
<text text-anchor="middle" x="85" y="-722.3" font-family="Times,serif" font-size="14.00">30</text>
</g>
<!-- 6&#45;&gt;30 -->
<g id="edge17" class="edge"><title>6&#45;&gt;30</title>
<path fill="none" stroke="black" d="M54.2378,-858.366C56.6246,-852.233 59.0971,-845.397 61,-839 69.5168,-810.369 76.3019,-776.777 80.4552,-753.903"/>
<polygon fill="black" stroke="black" points="83.9284,-754.361 82.2269,-743.904 77.0358,-753.14 83.9284,-754.361"/>
<text text-anchor="middle" x="69.5" y="-827.8" font-family="Times,serif" font-size="14.00">b</text>
</g>
<!-- 7 -->
<g id="node8" class="node"><title>7</title>
<ellipse fill="lightblue" stroke="black" cx="767" cy="-1544" rx="18" ry="18"/>
<ellipse fill="none" stroke="black" cx="767" cy="-1544" rx="22" ry="22"/>
<text text-anchor="middle" x="767" y="-1540.3" font-family="Times,serif" font-size="14.00">7</text>
</g>
<!-- 8 -->
<g id="node9" class="node"><title>8</title>
<ellipse fill="lightblue" stroke="black" cx="476" cy="-1449" rx="18" ry="18"/>
<ellipse fill="none" stroke="black" cx="476" cy="-1449" rx="22" ry="22"/>
<text text-anchor="middle" x="476" y="-1445.3" font-family="Times,serif" font-size="14.00">8</text>
</g>
<!-- 7&#45;&gt;8 -->
<g id="edge18" class="edge"><title>7&#45;&gt;8</title>
<path fill="none" stroke="black" d="M745.547,-1538.6C715.232,-1532.17 658.282,-1519.29 611,-1504 573.779,-1491.96 532.151,-1474.71 505.091,-1462.97"/>
<polygon fill="black" stroke="black" points="506.381,-1459.71 495.816,-1458.91 503.575,-1466.13 506.381,-1459.71"/>
<text text-anchor="middle" x="614.5" y="-1492.8" font-family="Times,serif" font-size="14.00">c</text>
</g>
<!-- 77 -->
<g id="node78" class="node"><title>77</title>
<ellipse fill="lightblue" stroke="black" cx="1049" cy="-668" rx="18" ry="18"/>
<ellipse fill="none" stroke="black" cx="1049" cy="-668" rx="22" ry="22"/>
<text text-anchor="middle" x="1049" y="-664.3" font-family="Times,serif" font-size="14.00">77</text>
</g>
<!-- 7&#45;&gt;77 -->
<g id="edge19" class="edge"><title>7&#45;&gt;77</title>
<path fill="none" stroke="black" d="M768.284,-1522C771.62,-1472.09 781.959,-1342.65 805,-1237 823.986,-1149.94 824.35,-1124.11 869,-1047 896.803,-998.982 913.877,-994.117 950,-952 969.489,-929.276 980.381,-927.659 994,-901 1011.92,-865.923 1033.59,-754.783 1043.53,-700.057"/>
<polygon fill="black" stroke="black" points="1047.04,-700.365 1045.36,-689.903 1040.15,-699.125 1047.04,-700.365"/>
<text text-anchor="middle" x="841.5" y="-1112.8" font-family="Times,serif" font-size="14.00">a</text>
</g>
<!-- 78 -->
<g id="node79" class="node"><title>78</title>
<ellipse fill="lightblue" stroke="black" cx="701" cy="-1924" rx="18" ry="18"/>
<ellipse fill="none" stroke="black" cx="701" cy="-1924" rx="22" ry="22"/>
<text text-anchor="middle" x="701" y="-1920.3" font-family="Times,serif" font-size="14.00">78</text>
</g>
<!-- 7&#45;&gt;78 -->
<g id="edge20" class="edge"><title>7&#45;&gt;78</title>
<path fill="none" stroke="black" d="M765.223,-1566.04C763.786,-1584.87 762,-1613.26 762,-1638 762,-1830 762,-1830 762,-1830 762,-1858.13 742.244,-1884.36 725.218,-1901.75"/>
<polygon fill="black" stroke="black" points="722.399,-1899.61 717.669,-1909.09 727.278,-1904.63 722.399,-1899.61"/>
<text text-anchor="middle" x="765.5" y="-1730.3" font-family="Times,serif" font-size="14.00">b</text>
</g>
<!-- 59 -->
<g id="node60" class="node"><title>59</title>
<ellipse fill="lightblue" stroke="black" cx="867" cy="-1354" rx="18" ry="18"/>
<ellipse fill="none" stroke="black" cx="867" cy="-1354" rx="22" ry="22"/>
<text text-anchor="middle" x="867" y="-1350.3" font-family="Times,serif" font-size="14.00">59</text>
</g>
<!-- 8&#45;&gt;59 -->
<g id="edge21" class="edge"><title>8&#45;&gt;59</title>
<path fill="none" stroke="black" d="M497.3,-1442.93C562.29,-1427.48 758.302,-1380.85 835.381,-1362.52"/>
<polygon fill="black" stroke="black" points="836.523,-1365.85 845.441,-1360.13 834.903,-1359.04 836.523,-1365.85"/>
<text text-anchor="middle" x="698.5" y="-1397.8" font-family="Times,serif" font-size="14.00">b</text>
</g>
<!-- 8&#45;&gt;68 -->
<g id="edge22" class="edge"><title>8&#45;&gt;68</title>
<path fill="none" stroke="black" d="M475.488,-1426.75C474.037,-1364.58 470,-1177.65 470,-1022.5 470,-1022.5 470,-1022.5 470,-551 470,-516.518 502.231,-489.238 526.999,-473.366"/>
<polygon fill="black" stroke="black" points="529.004,-476.243 535.712,-468.042 525.354,-470.269 529.004,-476.243"/>
<text text-anchor="middle" x="473.5" y="-970.3" font-family="Times,serif" font-size="14.00">a</text>
</g>
<!-- 8&#45;&gt;70 -->
<g id="edge23" class="edge"><title>8&#45;&gt;70</title>
<path fill="none" stroke="black" d="M465.266,-1429.73C457.732,-1418.21 446.749,-1403.72 434,-1394 415.217,-1379.68 390.415,-1369.68 371.004,-1363.39"/>
<polygon fill="black" stroke="black" points="371.992,-1360.03 361.405,-1360.44 369.934,-1366.72 371.992,-1360.03"/>
<text text-anchor="middle" x="452.5" y="-1397.8" font-family="Times,serif" font-size="14.00">c</text>
</g>
<!-- 9 -->
<g id="node10" class="node"><title>9</title>
<ellipse fill="lightblue" stroke="black" cx="134" cy="-2941" rx="18" ry="18"/>
<text text-anchor="middle" x="134" y="-2937.3" font-family="Times,serif" font-size="14.00">9</text>
</g>
<!-- 51 -->
<g id="node52" class="node"><title>51</title>
<ellipse fill="lightblue" stroke="black" cx="410" cy="-2854" rx="18" ry="18"/>
<text text-anchor="middle" x="410" y="-2850.3" font-family="Times,serif" font-size="14.00">51</text>
</g>
<!-- 9&#45;&gt;51 -->
<g id="edge24" class="edge"><title>9&#45;&gt;51</title>
<path fill="none" stroke="black" d="M151.265,-2934.68C198.038,-2920.28 327.435,-2880.43 383.513,-2863.16"/>
<polygon fill="black" stroke="black" points="384.567,-2866.49 393.094,-2860.21 382.507,-2859.8 384.567,-2866.49"/>
<text text-anchor="middle" x="302.5" y="-2893.8" font-family="Times,serif" font-size="14.00">c,a,b</text>
</g>
<!-- 10 -->
<g id="node11" class="node"><title>10</title>
<ellipse fill="lightblue" stroke="black" cx="509" cy="-1544" rx="18" ry="18"/>
<ellipse fill="none" stroke="black" cx="509" cy="-1544" rx="22" ry="22"/>
<text text-anchor="middle" x="509" y="-1540.3" font-family="Times,serif" font-size="14.00">10</text>
</g>
<!-- 10&#45;&gt;8 -->
<g id="edge25" class="edge"><title>10&#45;&gt;8</title>
<path fill="none" stroke="black" d="M493.233,-1528.6C486.938,-1521.82 480.39,-1513.21 477,-1504 474.349,-1496.8 473.291,-1488.69 473.077,-1480.98"/>
<polygon fill="black" stroke="black" points="476.579,-1480.9 473.24,-1470.85 469.58,-1480.79 476.579,-1480.9"/>
<text text-anchor="middle" x="480.5" y="-1492.8" font-family="Times,serif" font-size="14.00">c</text>
</g>
<!-- 49 -->
<g id="node50" class="node"><title>49</title>
<ellipse fill="lightblue" stroke="black" cx="340" cy="-1259" rx="18" ry="18"/>
<text text-anchor="middle" x="340" y="-1255.3" font-family="Times,serif" font-size="14.00">49</text>
</g>
<!-- 10&#45;&gt;49 -->
<g id="edge26" class="edge"><title>10&#45;&gt;49</title>
<path fill="none" stroke="black" d="M493.354,-1528.51C479.241,-1514.78 458.661,-1493.03 445,-1471 424.02,-1437.17 374.266,-1332.85 351.605,-1284.76"/>
<polygon fill="black" stroke="black" points="354.748,-1283.22 347.325,-1275.66 348.414,-1286.2 354.748,-1283.22"/>
<text text-anchor="middle" x="415.5" y="-1397.8" font-family="Times,serif" font-size="14.00">b</text>
</g>
<!-- 10&#45;&gt;77 -->
<g id="edge27" class="edge"><title>10&#45;&gt;77</title>
<path fill="none" stroke="black" d="M514.946,-1522.51C519.848,-1503.8 526,-1475.28 526,-1450 526,-1450 526,-1450 526,-1305.5 526,-1251.93 552.089,-1240.82 591,-1204 609.54,-1186.46 772.725,-1108.82 791,-1091 854.797,-1028.8 847.634,-995.089 894,-919 943.723,-837.403 1003.56,-741.532 1032.17,-695.842"/>
<polygon fill="black" stroke="black" points="1035.28,-697.467 1037.62,-687.134 1029.35,-693.751 1035.28,-697.467"/>
<text text-anchor="middle" x="766.5" y="-1112.8" font-family="Times,serif" font-size="14.00">a</text>
</g>
<!-- 11 -->
<g id="node12" class="node"><title>11</title>
<ellipse fill="lightblue" stroke="black" cx="943" cy="-1734" rx="18" ry="18"/>
<ellipse fill="none" stroke="black" cx="943" cy="-1734" rx="22" ry="22"/>
<text text-anchor="middle" x="943" y="-1730.3" font-family="Times,serif" font-size="14.00">11</text>
</g>
<!-- 46 -->
<g id="node47" class="node"><title>46</title>
<ellipse fill="lightblue" stroke="black" cx="1120" cy="-1639" rx="18" ry="18"/>
<ellipse fill="none" stroke="black" cx="1120" cy="-1639" rx="22" ry="22"/>
<text text-anchor="middle" x="1120" y="-1635.3" font-family="Times,serif" font-size="14.00">46</text>
</g>
<!-- 11&#45;&gt;46 -->
<g id="edge28" class="edge"><title>11&#45;&gt;46</title>
<path fill="none" stroke="black" d="M939.507,-1712.27C938.844,-1701.14 940.177,-1687.92 948,-1679 966.132,-1658.33 1043.48,-1647.47 1088.03,-1642.82"/>
<polygon fill="black" stroke="black" points="1088.46,-1646.3 1098.07,-1641.83 1087.77,-1639.33 1088.46,-1646.3"/>
<text text-anchor="middle" x="951.5" y="-1682.8" font-family="Times,serif" font-size="14.00">b</text>
</g>
<!-- 55 -->
<g id="node56" class="node"><title>55</title>
<ellipse fill="lightblue" stroke="black" cx="465" cy="-1639" rx="18" ry="18"/>
<ellipse fill="none" stroke="black" cx="465" cy="-1639" rx="22" ry="22"/>
<text text-anchor="middle" x="465" y="-1635.3" font-family="Times,serif" font-size="14.00">55</text>
</g>
<!-- 11&#45;&gt;55 -->
<g id="edge29" class="edge"><title>11&#45;&gt;55</title>
<path fill="none" stroke="black" d="M926.879,-1718.53C911.609,-1705.74 887.436,-1687.8 863,-1679 795.729,-1654.77 579.065,-1644.28 496.951,-1641.11"/>
<polygon fill="black" stroke="black" points="497.077,-1637.61 486.953,-1640.73 496.814,-1644.61 497.077,-1637.61"/>
<text text-anchor="middle" x="900" y="-1682.8" font-family="Times,serif" font-size="14.00">c,a</text>
</g>
<!-- 12 -->
<g id="node13" class="node"><title>12</title>
<ellipse fill="lightblue" stroke="black" cx="872" cy="-1639" rx="18" ry="18"/>
<ellipse fill="none" stroke="black" cx="872" cy="-1639" rx="22" ry="22"/>
<text text-anchor="middle" x="872" y="-1635.3" font-family="Times,serif" font-size="14.00">12</text>
</g>
<!-- 12&#45;&gt;7 -->
<g id="edge30" class="edge"><title>12&#45;&gt;7</title>
<path fill="none" stroke="black" d="M855.594,-1623.47C838.256,-1608.11 810.741,-1583.74 790.973,-1566.23"/>
<polygon fill="black" stroke="black" points="793.098,-1563.44 783.291,-1559.43 788.456,-1568.68 793.098,-1563.44"/>
<text text-anchor="middle" x="829.5" y="-1587.8" font-family="Times,serif" font-size="14.00">b</text>
</g>
<!-- 23 -->
<g id="node24" class="node"><title>23</title>
<ellipse fill="lightblue" stroke="black" cx="1084" cy="-1164" rx="18" ry="18"/>
<ellipse fill="none" stroke="black" cx="1084" cy="-1164" rx="22" ry="22"/>
<text text-anchor="middle" x="1084" y="-1160.3" font-family="Times,serif" font-size="14.00">23</text>
</g>
<!-- 12&#45;&gt;23 -->
<g id="edge31" class="edge"><title>12&#45;&gt;23</title>
<path fill="none" stroke="black" d="M886.714,-1622.3C918.758,-1586.39 992,-1494.27 992,-1402.5 992,-1402.5 992,-1402.5 992,-1258 992,-1221.63 1027.99,-1194.38 1054.95,-1179.06"/>
<polygon fill="black" stroke="black" points="1056.91,-1181.98 1064.04,-1174.15 1053.58,-1175.83 1056.91,-1181.98"/>
<text text-anchor="middle" x="1000" y="-1397.8" font-family="Times,serif" font-size="14.00">c,a</text>
</g>
<!-- 13 -->
<g id="node14" class="node"><title>13</title>
<ellipse fill="lightblue" stroke="black" cx="1119" cy="-1734" rx="18" ry="18"/>
<ellipse fill="none" stroke="black" cx="1119" cy="-1734" rx="22" ry="22"/>
<text text-anchor="middle" x="1119" y="-1730.3" font-family="Times,serif" font-size="14.00">13</text>
</g>
<!-- 13&#45;&gt;12 -->
<g id="edge32" class="edge"><title>13&#45;&gt;12</title>
<path fill="none" stroke="black" d="M1098.37,-1725.23C1054.67,-1708.78 952.652,-1670.37 901.847,-1651.24"/>
<polygon fill="black" stroke="black" points="902.994,-1647.93 892.402,-1647.68 900.527,-1654.48 902.994,-1647.93"/>
<text text-anchor="middle" x="1019" y="-1682.8" font-family="Times,serif" font-size="14.00">c,a</text>
</g>
<!-- 73 -->
<g id="node74" class="node"><title>73</title>
<ellipse fill="lightblue" stroke="black" cx="1338" cy="-1639" rx="18" ry="18"/>
<ellipse fill="none" stroke="black" cx="1338" cy="-1639" rx="22" ry="22"/>
<text text-anchor="middle" x="1338" y="-1635.3" font-family="Times,serif" font-size="14.00">73</text>
</g>
<!-- 13&#45;&gt;73 -->
<g id="edge33" class="edge"><title>13&#45;&gt;73</title>
<path fill="none" stroke="black" d="M1137.39,-1721.55C1142.95,-1718.28 1149.14,-1714.84 1155,-1712 1207.23,-1686.68 1270.8,-1663.23 1307.61,-1650.34"/>
<polygon fill="black" stroke="black" points="1308.95,-1653.58 1317.25,-1646.99 1306.66,-1646.97 1308.95,-1653.58"/>
<text text-anchor="middle" x="1233.5" y="-1682.8" font-family="Times,serif" font-size="14.00">b</text>
</g>
<!-- 24 -->
<g id="node25" class="node"><title>24</title>
<ellipse fill="lightblue" stroke="black" cx="668" cy="-668" rx="18" ry="18"/>
<text text-anchor="middle" x="668" y="-664.3" font-family="Times,serif" font-size="14.00">24</text>
</g>
<!-- 14&#45;&gt;24 -->
<g id="edge34" class="edge"><title>14&#45;&gt;24</title>
<path fill="none" stroke="black" d="M645.071,-762.355C649.66,-743.669 656.447,-716.035 661.447,-695.679"/>
<polygon fill="black" stroke="black" points="664.891,-696.33 663.878,-685.784 658.093,-694.66 664.891,-696.33"/>
<text text-anchor="middle" x="662.5" y="-722.3" font-family="Times,serif" font-size="14.00">b</text>
</g>
<!-- 14&#45;&gt;68 -->
<g id="edge35" class="edge"><title>14&#45;&gt;68</title>
<path fill="none" stroke="black" d="M624.952,-767.771C618.941,-760.97 612.412,-752.565 608,-744 564.314,-659.197 556.242,-543.816 555.011,-489.162"/>
<polygon fill="black" stroke="black" points="558.509,-489.01 554.848,-479.068 551.51,-489.124 558.509,-489.01"/>
<text text-anchor="middle" x="578" y="-606.3" font-family="Times,serif" font-size="14.00">c,a</text>
</g>
<!-- 15 -->
<g id="node16" class="node"><title>15</title>
<ellipse fill="lightblue" stroke="black" cx="741" cy="-974" rx="18" ry="18"/>
<ellipse fill="none" stroke="black" cx="741" cy="-974" rx="22" ry="22"/>
<text text-anchor="middle" x="741" y="-970.3" font-family="Times,serif" font-size="14.00">15</text>
</g>
<!-- 15&#45;&gt;6 -->
<g id="edge36" class="edge"><title>15&#45;&gt;6</title>
<path fill="none" stroke="black" d="M723.561,-960.527C718.165,-957.233 712.045,-954.034 706,-952 675.816,-941.845 205.726,-895.55 77.8818,-883.094"/>
<polygon fill="black" stroke="black" points="78.2206,-879.611 67.9286,-882.125 77.5425,-886.578 78.2206,-879.611"/>
<text text-anchor="middle" x="573" y="-922.8" font-family="Times,serif" font-size="14.00">c,a</text>
</g>
<!-- 38 -->
<g id="node39" class="node"><title>38</title>
<ellipse fill="lightblue" stroke="black" cx="753" cy="-879" rx="18" ry="18"/>
<ellipse fill="none" stroke="black" cx="753" cy="-879" rx="22" ry="22"/>
<text text-anchor="middle" x="753" y="-875.3" font-family="Times,serif" font-size="14.00">38</text>
</g>
<!-- 15&#45;&gt;38 -->
<g id="edge37" class="edge"><title>15&#45;&gt;38</title>
<path fill="none" stroke="black" d="M743.723,-951.897C745.273,-939.887 747.243,-924.617 748.969,-911.242"/>
<polygon fill="black" stroke="black" points="752.479,-911.385 750.288,-901.02 745.537,-910.489 752.479,-911.385"/>
<text text-anchor="middle" x="751.5" y="-922.8" font-family="Times,serif" font-size="14.00">b</text>
</g>
<!-- 16 -->
<g id="node17" class="node"><title>16</title>
<ellipse fill="lightblue" stroke="black" cx="1119" cy="-1829" rx="18" ry="18"/>
<ellipse fill="none" stroke="black" cx="1119" cy="-1829" rx="22" ry="22"/>
<text text-anchor="middle" x="1119" y="-1825.3" font-family="Times,serif" font-size="14.00">16</text>
</g>
<!-- 16&#45;&gt;2 -->
<g id="edge38" class="edge"><title>16&#45;&gt;2</title>
<path fill="none" stroke="black" d="M1104.83,-1811.55C1080.69,-1782.8 1031.35,-1720.73 1002,-1661 968.387,-1592.59 953.659,-1577.37 933,-1504 924.736,-1474.65 900.133,-1274.28 890.72,-1196.12"/>
<polygon fill="black" stroke="black" points="894.164,-1195.45 889.496,-1185.94 887.214,-1196.28 894.164,-1195.45"/>
<text text-anchor="middle" x="941" y="-1492.8" font-family="Times,serif" font-size="14.00">c,a</text>
</g>
<!-- 16&#45;&gt;13 -->
<g id="edge39" class="edge"><title>16&#45;&gt;13</title>
<path fill="none" stroke="black" d="M1119,-1806.9C1119,-1794.89 1119,-1779.62 1119,-1766.24"/>
<polygon fill="black" stroke="black" points="1122.5,-1766.02 1119,-1756.02 1115.5,-1766.02 1122.5,-1766.02"/>
<text text-anchor="middle" x="1122.5" y="-1777.8" font-family="Times,serif" font-size="14.00">b</text>
</g>
<!-- 17 -->
<g id="node18" class="node"><title>17</title>
<ellipse fill="lightblue" stroke="black" cx="1048" cy="-552" rx="18" ry="18"/>
<ellipse fill="none" stroke="black" cx="1048" cy="-552" rx="22" ry="22"/>
<text text-anchor="middle" x="1048" y="-548.3" font-family="Times,serif" font-size="14.00">17</text>
</g>
<!-- 52 -->
<g id="node53" class="node"><title>52</title>
<ellipse fill="lightblue" stroke="black" cx="1048" cy="-457" rx="18" ry="18"/>
<text text-anchor="middle" x="1048" y="-453.3" font-family="Times,serif" font-size="14.00">52</text>
</g>
<!-- 17&#45;&gt;52 -->
<g id="edge40" class="edge"><title>17&#45;&gt;52</title>
<path fill="none" stroke="black" d="M1048,-529.897C1048,-516.743 1048,-499.679 1048,-485.476"/>
<polygon fill="black" stroke="black" points="1051.5,-485.285 1048,-475.285 1044.5,-485.285 1051.5,-485.285"/>
<text text-anchor="middle" x="1051.5" y="-500.8" font-family="Times,serif" font-size="14.00">b</text>
</g>
<!-- 17&#45;&gt;77 -->
<g id="edge41" class="edge"><title>17&#45;&gt;77</title>
<path fill="none" stroke="black" d="M1034.79,-569.889C1030.47,-576.421 1026.21,-584.197 1024,-592 1019.64,-607.395 1019.5,-612.646 1024,-628 1025.4,-632.766 1027.57,-637.502 1030.07,-641.945"/>
<polygon fill="black" stroke="black" points="1027.22,-643.978 1035.51,-650.569 1033.14,-640.244 1027.22,-643.978"/>
<text text-anchor="middle" x="1032" y="-606.3" font-family="Times,serif" font-size="14.00">c,a</text>
</g>
<!-- 18 -->
<g id="node19" class="node"><title>18</title>
<ellipse fill="lightblue" stroke="black" cx="1501" cy="-974" rx="18" ry="18"/>
<ellipse fill="none" stroke="black" cx="1501" cy="-974" rx="22" ry="22"/>
<text text-anchor="middle" x="1501" y="-970.3" font-family="Times,serif" font-size="14.00">18</text>
</g>
<!-- 18&#45;&gt;57 -->
<g id="edge42" class="edge"><title>18&#45;&gt;57</title>
<path fill="none" stroke="black" d="M1504.09,-996.108C1509.56,-1041.76 1516,-1151.01 1465,-1219 1452.18,-1236.1 1430.07,-1245.92 1411.61,-1251.43"/>
<polygon fill="black" stroke="black" points="1410.57,-1248.09 1401.82,-1254.07 1412.39,-1254.85 1410.57,-1248.09"/>
<text text-anchor="middle" x="1512" y="-1112.8" font-family="Times,serif" font-size="14.00">c,a</text>
</g>
<!-- 75 -->
<g id="node76" class="node"><title>75</title>
<ellipse fill="lightblue" stroke="black" cx="1451" cy="-879" rx="18" ry="18"/>
<text text-anchor="middle" x="1451" y="-875.3" font-family="Times,serif" font-size="14.00">75</text>
</g>
<!-- 18&#45;&gt;75 -->
<g id="edge43" class="edge"><title>18&#45;&gt;75</title>
<path fill="none" stroke="black" d="M1490.88,-954.18C1483.13,-939.763 1472.38,-919.765 1463.99,-904.166"/>
<polygon fill="black" stroke="black" points="1466.94,-902.261 1459.12,-895.11 1460.78,-905.575 1466.94,-902.261"/>
<text text-anchor="middle" x="1481.5" y="-922.8" font-family="Times,serif" font-size="14.00">b</text>
</g>
<!-- 45 -->
<g id="node46" class="node"><title>45</title>
<ellipse fill="lightblue" stroke="black" cx="813" cy="-2395" rx="18" ry="18"/>
<text text-anchor="middle" x="813" y="-2391.3" font-family="Times,serif" font-size="14.00">45</text>
</g>
<!-- 19&#45;&gt;45 -->
<g id="edge44" class="edge"><title>19&#45;&gt;45</title>
<path fill="none" stroke="black" d="M1020.39,-1942.21C1014.18,-2000.85 987.567,-2196.46 899,-2326 883.049,-2349.33 856.67,-2368.47 837.325,-2380.44"/>
<polygon fill="black" stroke="black" points="835.524,-2377.44 828.733,-2385.57 839.113,-2383.45 835.524,-2377.44"/>
<text text-anchor="middle" x="985" y="-2157.8" font-family="Times,serif" font-size="14.00">c,a</text>
</g>
<!-- 65 -->
<g id="node66" class="node"><title>65</title>
<ellipse fill="lightblue" stroke="black" cx="969" cy="-1829" rx="18" ry="18"/>
<ellipse fill="none" stroke="black" cx="969" cy="-1829" rx="22" ry="22"/>
<text text-anchor="middle" x="969" y="-1825.3" font-family="Times,serif" font-size="14.00">65</text>
</g>
<!-- 19&#45;&gt;65 -->
<g id="edge45" class="edge"><title>19&#45;&gt;65</title>
<path fill="none" stroke="black" d="M1013.48,-1908.06C1005.68,-1894.37 993.943,-1873.77 984.483,-1857.17"/>
<polygon fill="black" stroke="black" points="987.493,-1855.38 979.501,-1848.43 981.411,-1858.85 987.493,-1855.38"/>
<text text-anchor="middle" x="1002.5" y="-1872.8" font-family="Times,serif" font-size="14.00">b</text>
</g>
<!-- 20 -->
<g id="node21" class="node"><title>20</title>
<ellipse fill="lightblue" stroke="black" cx="648" cy="-105" rx="18" ry="18"/>
<text text-anchor="middle" x="648" y="-101.3" font-family="Times,serif" font-size="14.00">20</text>
</g>
<!-- 20&#45;&gt;6 -->
<g id="edge46" class="edge"><title>20&#45;&gt;6</title>
<path fill="none" stroke="black" d="M630.013,-106.6C530.014,-110.17 47,-130.539 47,-191 47,-785 47,-785 47,-785 47,-805.555 46.7527,-828.664 46.5041,-846.704"/>
<polygon fill="black" stroke="black" points="43.001,-846.898 46.3554,-856.947 50.0003,-846.999 43.001,-846.898"/>
<text text-anchor="middle" x="50.5" y="-453.3" font-family="Times,serif" font-size="14.00">b</text>
</g>
<!-- 74 -->
<g id="node75" class="node"><title>74</title>
<ellipse fill="lightblue" stroke="black" cx="648" cy="-18" rx="18" ry="18"/>
<text text-anchor="middle" x="648" y="-14.3" font-family="Times,serif" font-size="14.00">74</text>
</g>
<!-- 20&#45;&gt;74 -->
<g id="edge47" class="edge"><title>20&#45;&gt;74</title>
<path fill="none" stroke="black" d="M648,-86.799C648,-75.1626 648,-59.5479 648,-46.2368"/>
<polygon fill="black" stroke="black" points="651.5,-46.1754 648,-36.1754 644.5,-46.1755 651.5,-46.1754"/>
<text text-anchor="middle" x="656" y="-57.8" font-family="Times,serif" font-size="14.00">c,a</text>
</g>
<!-- 21 -->
<g id="node22" class="node"><title>21</title>
<ellipse fill="lightblue" stroke="black" cx="803" cy="-784" rx="18" ry="18"/>
<text text-anchor="middle" x="803" y="-780.3" font-family="Times,serif" font-size="14.00">21</text>
</g>
<!-- 21&#45;&gt;63 -->
<g id="edge48" class="edge"><title>21&#45;&gt;63</title>
<path fill="none" stroke="black" d="M809.866,-767.254C817.308,-751.27 830.257,-726.332 846,-708 853.438,-699.339 863.017,-691.222 871.731,-684.66"/>
<polygon fill="black" stroke="black" points="873.988,-687.347 880.044,-678.653 869.888,-681.673 873.988,-687.347"/>
<text text-anchor="middle" x="859.5" y="-722.3" font-family="Times,serif" font-size="14.00">c,a,b</text>
</g>
<!-- 22 -->
<g id="node23" class="node"><title>22</title>
<ellipse fill="lightblue" stroke="black" cx="843" cy="-1734" rx="18" ry="18"/>
<text text-anchor="middle" x="843" y="-1730.3" font-family="Times,serif" font-size="14.00">22</text>
</g>
<!-- 22&#45;&gt;12 -->
<g id="edge49" class="edge"><title>22&#45;&gt;12</title>
<path fill="none" stroke="black" d="M835.066,-1717.39C830.574,-1706.34 826.796,-1691.34 832,-1679 835.179,-1671.46 840.608,-1664.65 846.458,-1658.92"/>
<polygon fill="black" stroke="black" points="848.811,-1661.51 853.956,-1652.25 844.158,-1656.28 848.811,-1661.51"/>
<text text-anchor="middle" x="845.5" y="-1682.8" font-family="Times,serif" font-size="14.00">c,a,b</text>
</g>
<!-- 23&#45;&gt;15 -->
<g id="edge50" class="edge"><title>23&#45;&gt;15</title>
<path fill="none" stroke="black" d="M1065.07,-1152.62C1007.8,-1121.23 836.157,-1027.16 768.679,-990.171"/>
<polygon fill="black" stroke="black" points="770.323,-987.081 759.871,-985.343 766.958,-993.219 770.323,-987.081"/>
<text text-anchor="middle" x="961" y="-1065.3" font-family="Times,serif" font-size="14.00">c,a</text>
</g>
<!-- 42 -->
<g id="node43" class="node"><title>42</title>
<ellipse fill="lightblue" stroke="black" cx="1064" cy="-1069" rx="18" ry="18"/>
<ellipse fill="none" stroke="black" cx="1064" cy="-1069" rx="22" ry="22"/>
<text text-anchor="middle" x="1064" y="-1065.3" font-family="Times,serif" font-size="14.00">42</text>
</g>
<!-- 23&#45;&gt;42 -->
<g id="edge51" class="edge"><title>23&#45;&gt;42</title>
<path fill="none" stroke="black" d="M1079.56,-1142.36C1076.92,-1130.08 1073.52,-1114.27 1070.57,-1100.56"/>
<polygon fill="black" stroke="black" points="1073.95,-1099.62 1068.43,-1090.58 1067.11,-1101.09 1073.95,-1099.62"/>
<text text-anchor="middle" x="1079.5" y="-1112.8" font-family="Times,serif" font-size="14.00">b</text>
</g>
<!-- 31 -->
<g id="node32" class="node"><title>31</title>
<ellipse fill="lightblue" stroke="black" cx="674" cy="-552" rx="18" ry="18"/>
<text text-anchor="middle" x="674" y="-548.3" font-family="Times,serif" font-size="14.00">31</text>
</g>
<!-- 24&#45;&gt;31 -->
<g id="edge52" class="edge"><title>24&#45;&gt;31</title>
<path fill="none" stroke="black" d="M668.911,-649.686C669.882,-631.249 671.431,-601.816 672.565,-580.262"/>
<polygon fill="black" stroke="black" points="676.069,-580.274 673.1,-570.104 669.079,-579.906 676.069,-580.274"/>
<text text-anchor="middle" x="685.5" y="-606.3" font-family="Times,serif" font-size="14.00">c,a,b</text>
</g>
<!-- 25 -->
<g id="node26" class="node"><title>25</title>
<ellipse fill="lightblue" stroke="black" cx="164" cy="-3028" rx="18" ry="18"/>
<text text-anchor="middle" x="164" y="-3024.3" font-family="Times,serif" font-size="14.00">25</text>
</g>
<!-- 25&#45;&gt;9 -->
<g id="edge53" class="edge"><title>25&#45;&gt;9</title>
<path fill="none" stroke="black" d="M152.225,-3013.99C147.284,-3007.78 141.998,-2999.97 139,-2992 136.327,-2984.9 134.893,-2976.85 134.165,-2969.31"/>
<polygon fill="black" stroke="black" points="137.648,-2968.93 133.55,-2959.16 130.661,-2969.36 137.648,-2968.93"/>
<text text-anchor="middle" x="152.5" y="-2980.8" font-family="Times,serif" font-size="14.00">c,a,b</text>
</g>
<!-- 26 -->
<g id="node27" class="node"><title>26</title>
<ellipse fill="lightblue" stroke="black" cx="699" cy="-2304" rx="18" ry="18"/>
<ellipse fill="none" stroke="black" cx="699" cy="-2304" rx="22" ry="22"/>
<text text-anchor="middle" x="699" y="-2300.3" font-family="Times,serif" font-size="14.00">26</text>
</g>
<!-- 26&#45;&gt;5 -->
<g id="edge54" class="edge"><title>26&#45;&gt;5</title>
<path fill="none" stroke="black" d="M699,-2281.9C699,-2269.89 699,-2254.62 699,-2241.24"/>
<polygon fill="black" stroke="black" points="702.5,-2241.02 699,-2231.02 695.5,-2241.02 702.5,-2241.02"/>
<text text-anchor="middle" x="702.5" y="-2252.8" font-family="Times,serif" font-size="14.00">b</text>
</g>
<!-- 27 -->
<g id="node28" class="node"><title>27</title>
<ellipse fill="lightblue" stroke="black" cx="410" cy="-2763" rx="18" ry="18"/>
<ellipse fill="none" stroke="black" cx="410" cy="-2763" rx="22" ry="22"/>
<text text-anchor="middle" x="410" y="-2759.3" font-family="Times,serif" font-size="14.00">27</text>
</g>
<!-- 26&#45;&gt;27 -->
<g id="edge55" class="edge"><title>26&#45;&gt;27</title>
<path fill="none" stroke="black" d="M681.785,-2318.05C663.132,-2333.81 636,-2362.2 636,-2394 636,-2669 636,-2669 636,-2669 636,-2751.82 504.593,-2762.41 442.181,-2762.77"/>
<polygon fill="black" stroke="black" points="442.091,-2759.27 432.081,-2762.74 442.071,-2766.27 442.091,-2759.27"/>
<text text-anchor="middle" x="644" y="-2521.8" font-family="Times,serif" font-size="14.00">c,a</text>
</g>
<!-- 27&#45;&gt;6 -->
<g id="edge56" class="edge"><title>27&#45;&gt;6</title>
<path fill="none" stroke="black" d="M387.956,-2759.87C342.801,-2754.17 244,-2734.24 244,-2669 244,-2669 244,-2669 244,-2524.5 244,-2446.21 206,-2430.79 206,-2352.5 206,-2352.5 206,-2352.5 206,-2160.5 206,-1916.95 180.313,-1856.49 136,-1617 118.152,-1520.54 84,-1500.59 84,-1402.5 84,-1402.5 84,-1402.5 84,-973 84,-949.236 73.2359,-924.424 63.1656,-906.411"/>
<polygon fill="black" stroke="black" points="66.1048,-904.504 58.0234,-897.653 60.0683,-908.048 66.1048,-904.504"/>
<text text-anchor="middle" x="190" y="-1825.3" font-family="Times,serif" font-size="14.00">c,a</text>
</g>
<!-- 43 -->
<g id="node44" class="node"><title>43</title>
<ellipse fill="lightblue" stroke="black" cx="410" cy="-2668" rx="18" ry="18"/>
<ellipse fill="none" stroke="black" cx="410" cy="-2668" rx="22" ry="22"/>
<text text-anchor="middle" x="410" y="-2664.3" font-family="Times,serif" font-size="14.00">43</text>
</g>
<!-- 27&#45;&gt;43 -->
<g id="edge57" class="edge"><title>27&#45;&gt;43</title>
<path fill="none" stroke="black" d="M410,-2740.9C410,-2728.89 410,-2713.62 410,-2700.24"/>
<polygon fill="black" stroke="black" points="413.5,-2700.02 410,-2690.02 406.5,-2700.02 413.5,-2700.02"/>
<text text-anchor="middle" x="413.5" y="-2711.8" font-family="Times,serif" font-size="14.00">b</text>
</g>
<!-- 28 -->
<g id="node29" class="node"><title>28</title>
<ellipse fill="lightblue" stroke="black" cx="754" cy="-3338" rx="18" ry="18"/>
<ellipse fill="none" stroke="black" cx="754" cy="-3338" rx="22" ry="22"/>
<text text-anchor="middle" x="754" y="-3334.3" font-family="Times,serif" font-size="14.00">28</text>
</g>
<!-- 28&#45;&gt;15 -->
<g id="edge58" class="edge"><title>28&#45;&gt;15</title>
<path fill="none" stroke="black" d="M754,-3315.84C754,-3291.51 754,-3250.37 754,-3215 754,-3215 754,-3215 754,-2572 754,-2389.41 787,-2345.09 787,-2162.5 787,-2162.5 787,-2162.5 787,-1923 787,-1813.68 716,-1796.82 716,-1687.5 716,-1687.5 716,-1687.5 716,-1305.5 716,-1190.47 716.635,-1161.37 729,-1047 730.469,-1033.42 732.829,-1018.5 735.069,-1005.79"/>
<polygon fill="black" stroke="black" points="738.557,-1006.17 736.9,-995.708 731.669,-1004.92 738.557,-1006.17"/>
<text text-anchor="middle" x="790.5" y="-2157.8" font-family="Times,serif" font-size="14.00">a</text>
</g>
<!-- 72 -->
<g id="node73" class="node"><title>72</title>
<ellipse fill="lightblue" stroke="black" cx="144" cy="-3214" rx="18" ry="18"/>
<ellipse fill="none" stroke="black" cx="144" cy="-3214" rx="22" ry="22"/>
<text text-anchor="middle" x="144" y="-3210.3" font-family="Times,serif" font-size="14.00">72</text>
</g>
<!-- 28&#45;&gt;72 -->
<g id="edge59" class="edge"><title>28&#45;&gt;72</title>
<path fill="none" stroke="black" d="M732.29,-3332.66C640.477,-3314.3 283.846,-3242.97 175.436,-3221.29"/>
<polygon fill="black" stroke="black" points="175.942,-3217.82 165.45,-3219.29 174.569,-3224.68 175.942,-3217.82"/>
<text text-anchor="middle" x="560.5" y="-3272.3" font-family="Times,serif" font-size="14.00">c</text>
</g>
<!-- 28&#45;&gt;78 -->
<g id="edge60" class="edge"><title>28&#45;&gt;78</title>
<path fill="none" stroke="black" d="M742.392,-3318.79C728.765,-3295.62 708,-3253.93 708,-3215 708,-3215 708,-3215 708,-2809.5 708,-2523.75 664.456,-2454.48 652,-2169 650.508,-2134.81 647.133,-2125.87 652,-2092 659.127,-2042.4 677.584,-1986.98 689.7,-1954.09"/>
<polygon fill="black" stroke="black" points="693.01,-1955.23 693.237,-1944.64 686.454,-1952.78 693.01,-1955.23"/>
<text text-anchor="middle" x="704.5" y="-2616.8" font-family="Times,serif" font-size="14.00">b</text>
</g>
<!-- 29&#45;&gt;23 -->
<g id="edge61" class="edge"><title>29&#45;&gt;23</title>
<path fill="none" stroke="black" d="M1246,-3410.95C1246,-3392.1 1246,-3363.7 1246,-3339 1246,-3339 1246,-3339 1246,-2524.5 1246,-2448.02 1251,-2428.98 1251,-2352.5 1251,-2352.5 1251,-2352.5 1251,-1970.5 1251,-1870.78 1328.08,-1600.04 1266,-1522 1243.85,-1494.16 1214.92,-1527.26 1188,-1504 1141.79,-1464.07 1156.72,-1434.14 1138,-1376 1117.64,-1312.76 1099.79,-1236.93 1090.6,-1195.59"/>
<polygon fill="black" stroke="black" points="1093.97,-1194.62 1088.4,-1185.6 1087.13,-1196.12 1093.97,-1194.62"/>
<text text-anchor="middle" x="1254.5" y="-2300.3" font-family="Times,serif" font-size="14.00">a</text>
</g>
<!-- 29&#45;&gt;28 -->
<g id="edge62" class="edge"><title>29&#45;&gt;28</title>
<path fill="none" stroke="black" d="M1224.61,-3426.68C1206.42,-3422.23 1179.57,-3415.86 1156,-3411 1018.89,-3382.75 854.157,-3355.25 785.962,-3344.14"/>
<polygon fill="black" stroke="black" points="786.296,-3340.65 775.865,-3342.51 785.175,-3347.56 786.296,-3340.65"/>
<text text-anchor="middle" x="1061.5" y="-3381.8" font-family="Times,serif" font-size="14.00">c</text>
</g>
<!-- 29&#45;&gt;56 -->
<g id="edge63" class="edge"><title>29&#45;&gt;56</title>
<path fill="none" stroke="black" d="M1235.87,-3413.4C1232.39,-3406.96 1228.49,-3399.68 1225,-3393 1209.34,-3363.09 1191.87,-3328.58 1180.02,-3305.03"/>
<polygon fill="black" stroke="black" points="1183.09,-3303.32 1175.47,-3295.96 1176.83,-3306.46 1183.09,-3303.32"/>
<text text-anchor="middle" x="1228.5" y="-3381.8" font-family="Times,serif" font-size="14.00">b</text>
</g>
<!-- 69 -->
<g id="node70" class="node"><title>69</title>
<ellipse fill="lightblue" stroke="black" cx="605" cy="-279" rx="18" ry="18"/>
<text text-anchor="middle" x="605" y="-275.3" font-family="Times,serif" font-size="14.00">69</text>
</g>
<!-- 30&#45;&gt;69 -->
<g id="edge64" class="edge"><title>30&#45;&gt;69</title>
<path fill="none" stroke="black" d="M85.4841,-708.005C86.076,-685.73 87,-645.443 87,-611 87,-611 87,-611 87,-365 87,-314.944 468.529,-288.2 576.715,-281.623"/>
<polygon fill="black" stroke="black" points="577.094,-285.106 586.868,-281.016 576.677,-278.119 577.094,-285.106"/>
<text text-anchor="middle" x="100.5" y="-500.8" font-family="Times,serif" font-size="14.00">c,a,b</text>
</g>
<!-- 39 -->
<g id="node40" class="node"><title>39</title>
<ellipse fill="lightblue" stroke="black" cx="648" cy="-192" rx="18" ry="18"/>
<text text-anchor="middle" x="648" y="-188.3" font-family="Times,serif" font-size="14.00">39</text>
</g>
<!-- 31&#45;&gt;39 -->
<g id="edge65" class="edge"><title>31&#45;&gt;39</title>
<path fill="none" stroke="black" d="M674.884,-533.865C675.769,-515.209 677,-484.493 677,-458 677,-458 677,-458 677,-278 677,-256.624 668.683,-233.766 660.957,-217.144"/>
<polygon fill="black" stroke="black" points="664.087,-215.576 656.544,-208.135 657.801,-218.656 664.087,-215.576"/>
<text text-anchor="middle" x="685" y="-362.3" font-family="Times,serif" font-size="14.00">c,a</text>
</g>
<!-- 31&#45;&gt;68 -->
<g id="edge66" class="edge"><title>31&#45;&gt;68</title>
<path fill="none" stroke="black" d="M659.882,-539.966C640.276,-524.644 604.485,-496.673 580.227,-477.715"/>
<polygon fill="black" stroke="black" points="582.207,-474.821 572.173,-471.421 577.897,-480.336 582.207,-474.821"/>
<text text-anchor="middle" x="625.5" y="-500.8" font-family="Times,serif" font-size="14.00">b</text>
</g>
<!-- 32 -->
<g id="node33" class="node"><title>32</title>
<ellipse fill="lightblue" stroke="black" cx="1150" cy="-974" rx="18" ry="18"/>
<ellipse fill="none" stroke="black" cx="1150" cy="-974" rx="22" ry="22"/>
<text text-anchor="middle" x="1150" y="-970.3" font-family="Times,serif" font-size="14.00">32</text>
</g>
<!-- 34 -->
<g id="node35" class="node"><title>34</title>
<ellipse fill="lightblue" stroke="black" cx="1105" cy="-879" rx="18" ry="18"/>
<ellipse fill="none" stroke="black" cx="1105" cy="-879" rx="22" ry="22"/>
<text text-anchor="middle" x="1105" y="-875.3" font-family="Times,serif" font-size="14.00">34</text>
</g>
<!-- 32&#45;&gt;34 -->
<g id="edge67" class="edge"><title>32&#45;&gt;34</title>
<path fill="none" stroke="black" d="M1140.68,-953.73C1134.34,-940.637 1125.85,-923.097 1118.75,-908.409"/>
<polygon fill="black" stroke="black" points="1121.82,-906.722 1114.31,-899.245 1115.52,-909.771 1121.82,-906.722"/>
<text text-anchor="middle" x="1134.5" y="-922.8" font-family="Times,serif" font-size="14.00">a</text>
</g>
<!-- 54 -->
<g id="node55" class="node"><title>54</title>
<ellipse fill="lightblue" stroke="black" cx="1062" cy="-2019" rx="18" ry="18"/>
<ellipse fill="none" stroke="black" cx="1062" cy="-2019" rx="22" ry="22"/>
<text text-anchor="middle" x="1062" y="-2015.3" font-family="Times,serif" font-size="14.00">54</text>
</g>
<!-- 32&#45;&gt;54 -->
<g id="edge68" class="edge"><title>32&#45;&gt;54</title>
<path fill="none" stroke="black" d="M1154.92,-995.741C1166.79,-1047.62 1196,-1187.32 1196,-1305.5 1196,-1450 1196,-1450 1196,-1450 1196,-1516.44 1179.91,-1532.69 1184,-1599 1184.78,-1611.63 1197.22,-1699.37 1198,-1712 1199.2,-1731.52 1200.32,-1736.58 1198,-1756 1192.85,-1799.14 1192.56,-1811.27 1175,-1851 1150.68,-1906.02 1108.09,-1962.42 1082.72,-1993.56"/>
<polygon fill="black" stroke="black" points="1079.71,-1991.71 1076.05,-2001.65 1085.11,-1996.16 1079.71,-1991.71"/>
<text text-anchor="middle" x="1197.5" y="-1492.8" font-family="Times,serif" font-size="14.00">c</text>
</g>
<!-- 32&#45;&gt;59 -->
<g id="edge69" class="edge"><title>32&#45;&gt;59</title>
<path fill="none" stroke="black" d="M1135.66,-991.213C1124.31,-1003.15 1107.52,-1018.98 1090,-1029 1066.94,-1042.19 1053.49,-1030.09 1033,-1047 985.677,-1086.04 909.014,-1255.6 879.308,-1324.12"/>
<polygon fill="black" stroke="black" points="876.022,-1322.9 875.275,-1333.47 882.45,-1325.67 876.022,-1322.9"/>
<text text-anchor="middle" x="969.5" y="-1160.3" font-family="Times,serif" font-size="14.00">b</text>
</g>
<!-- 33 -->
<g id="node34" class="node"><title>33</title>
<ellipse fill="lightblue" stroke="black" cx="1361" cy="-784" rx="18" ry="18"/>
<text text-anchor="middle" x="1361" y="-780.3" font-family="Times,serif" font-size="14.00">33</text>
</g>
<!-- 33&#45;&gt;23 -->
<g id="edge70" class="edge"><title>33&#45;&gt;23</title>
<path fill="none" stroke="black" d="M1366.14,-801.584C1374.23,-831.186 1386.27,-893.78 1358,-934 1345.14,-952.301 1326.13,-935.521 1311,-952 1267.53,-999.358 1314.43,-1043.6 1271,-1091 1229.92,-1135.83 1157.77,-1153.01 1116.12,-1159.39"/>
<polygon fill="black" stroke="black" points="1115.39,-1155.96 1105.98,-1160.83 1116.37,-1162.89 1115.39,-1155.96"/>
<text text-anchor="middle" x="1314.5" y="-970.3" font-family="Times,serif" font-size="14.00">b</text>
</g>
<!-- 67 -->
<g id="node68" class="node"><title>67</title>
<ellipse fill="lightblue" stroke="black" cx="872" cy="-279" rx="18" ry="18"/>
<text text-anchor="middle" x="872" y="-275.3" font-family="Times,serif" font-size="14.00">67</text>
</g>
<!-- 33&#45;&gt;67 -->
<g id="edge71" class="edge"><title>33&#45;&gt;67</title>
<path fill="none" stroke="black" d="M1356.64,-766.135C1351.32,-744 1343,-703.864 1343,-669 1343,-669 1343,-669 1343,-365 1343,-319.704 1001.28,-289.903 899.976,-282.063"/>
<polygon fill="black" stroke="black" points="900.126,-278.565 889.889,-281.294 899.594,-285.544 900.126,-278.565"/>
<text text-anchor="middle" x="1351" y="-500.8" font-family="Times,serif" font-size="14.00">c,a</text>
</g>
<!-- 34&#45;&gt;23 -->
<g id="edge72" class="edge"><title>34&#45;&gt;23</title>
<path fill="none" stroke="black" d="M1094.6,-898.591C1091.43,-904.909 1088.21,-912.115 1086,-919 1072.93,-959.775 1073.57,-971.332 1070,-1014 1069.44,-1020.64 1066.96,-1023.07 1070,-1029 1076.24,-1041.19 1088.76,-1034.81 1095,-1047 1103.92,-1064.41 1096.48,-1071.5 1095,-1091 1093.97,-1104.59 1091.85,-1119.51 1089.75,-1132.22"/>
<polygon fill="black" stroke="black" points="1086.26,-1131.85 1088.01,-1142.3 1093.16,-1133.04 1086.26,-1131.85"/>
<text text-anchor="middle" x="1078" y="-1017.8" font-family="Times,serif" font-size="14.00">c,a</text>
</g>
<!-- 35 -->
<g id="node36" class="node"><title>35</title>
<ellipse fill="lightblue" stroke="black" cx="1064" cy="-784" rx="18" ry="18"/>
<text text-anchor="middle" x="1064" y="-780.3" font-family="Times,serif" font-size="14.00">35</text>
</g>
<!-- 34&#45;&gt;35 -->
<g id="edge73" class="edge"><title>34&#45;&gt;35</title>
<path fill="none" stroke="black" d="M1096.3,-858.277C1090.1,-844.193 1081.7,-825.138 1075.02,-809.99"/>
<polygon fill="black" stroke="black" points="1078.15,-808.429 1070.92,-800.691 1071.75,-811.253 1078.15,-808.429"/>
<text text-anchor="middle" x="1090.5" y="-827.8" font-family="Times,serif" font-size="14.00">b</text>
</g>
<!-- 35&#45;&gt;31 -->
<g id="edge74" class="edge"><title>35&#45;&gt;31</title>
<path fill="none" stroke="black" d="M1054.21,-768.773C1033.56,-740.025 982.428,-675.265 922,-646 868.314,-620.001 844.905,-648.802 789,-628 769.749,-620.837 724.296,-589.326 696.646,-569.497"/>
<polygon fill="black" stroke="black" points="698.509,-566.525 688.351,-563.515 694.415,-572.202 698.509,-566.525"/>
<text text-anchor="middle" x="992" y="-664.3" font-family="Times,serif" font-size="14.00">c,a</text>
</g>
<!-- 35&#45;&gt;77 -->
<g id="edge75" class="edge"><title>35&#45;&gt;77</title>
<path fill="none" stroke="black" d="M1061.72,-765.686C1059.44,-748.315 1055.87,-721.182 1053.09,-700.075"/>
<polygon fill="black" stroke="black" points="1056.53,-699.427 1051.76,-689.97 1049.59,-700.341 1056.53,-699.427"/>
<text text-anchor="middle" x="1062.5" y="-722.3" font-family="Times,serif" font-size="14.00">b</text>
</g>
<!-- 36 -->
<g id="node37" class="node"><title>36</title>
<ellipse fill="lightblue" stroke="black" cx="1380" cy="-1164" rx="18" ry="18"/>
<ellipse fill="none" stroke="black" cx="1380" cy="-1164" rx="22" ry="22"/>
<text text-anchor="middle" x="1380" y="-1160.3" font-family="Times,serif" font-size="14.00">36</text>
</g>
<!-- 47 -->
<g id="node48" class="node"><title>47</title>
<ellipse fill="lightblue" stroke="black" cx="1393" cy="-1069" rx="18" ry="18"/>
<ellipse fill="none" stroke="black" cx="1393" cy="-1069" rx="22" ry="22"/>
<text text-anchor="middle" x="1393" y="-1065.3" font-family="Times,serif" font-size="14.00">47</text>
</g>
<!-- 36&#45;&gt;47 -->
<g id="edge76" class="edge"><title>36&#45;&gt;47</title>
<path fill="none" stroke="black" d="M1382.95,-1141.9C1384.63,-1129.89 1386.76,-1114.62 1388.63,-1101.24"/>
<polygon fill="black" stroke="black" points="1392.14,-1101.41 1390.06,-1091.02 1385.21,-1100.44 1392.14,-1101.41"/>
<text text-anchor="middle" x="1390.5" y="-1112.8" font-family="Times,serif" font-size="14.00">b</text>
</g>
<!-- 36&#45;&gt;77 -->
<g id="edge77" class="edge"><title>36&#45;&gt;77</title>
<path fill="none" stroke="black" d="M1374.86,-1142.49C1354.64,-1061.81 1281.34,-770.348 1276,-762 1255.57,-730.08 1244.67,-723.319 1210,-708 1159.87,-685.846 1140.02,-707.252 1088,-690 1084.17,-688.729 1080.27,-687.096 1076.49,-685.304"/>
<polygon fill="black" stroke="black" points="1077.94,-682.114 1067.45,-680.632 1074.73,-688.333 1077.94,-682.114"/>
<text text-anchor="middle" x="1329" y="-922.8" font-family="Times,serif" font-size="14.00">c,a</text>
</g>
<!-- 37 -->
<g id="node38" class="node"><title>37</title>
<ellipse fill="lightblue" stroke="black" cx="1212" cy="-974" rx="18" ry="18"/>
<ellipse fill="none" stroke="black" cx="1212" cy="-974" rx="22" ry="22"/>
<text text-anchor="middle" x="1212" y="-970.3" font-family="Times,serif" font-size="14.00">37</text>
</g>
<!-- 37&#45;&gt;34 -->
<g id="edge78" class="edge"><title>37&#45;&gt;34</title>
<path fill="none" stroke="black" d="M1195.75,-958.875C1177.99,-943.444 1149.38,-918.569 1129.03,-900.882"/>
<polygon fill="black" stroke="black" points="1131.25,-898.176 1121.4,-894.258 1126.66,-903.459 1131.25,-898.176"/>
<text text-anchor="middle" x="1173" y="-922.8" font-family="Times,serif" font-size="14.00">c,a</text>
</g>
<!-- 66 -->
<g id="node67" class="node"><title>66</title>
<ellipse fill="lightblue" stroke="black" cx="1208" cy="-879" rx="18" ry="18"/>
<text text-anchor="middle" x="1208" y="-875.3" font-family="Times,serif" font-size="14.00">66</text>
</g>
<!-- 37&#45;&gt;66 -->
<g id="edge79" class="edge"><title>37&#45;&gt;66</title>
<path fill="none" stroke="black" d="M1211.09,-951.897C1210.53,-938.743 1209.79,-921.679 1209.18,-907.476"/>
<polygon fill="black" stroke="black" points="1212.67,-907.125 1208.74,-897.285 1205.68,-907.426 1212.67,-907.125"/>
<text text-anchor="middle" x="1214.5" y="-922.8" font-family="Times,serif" font-size="14.00">b</text>
</g>
<!-- 38&#45;&gt;14 -->
<g id="edge80" class="edge"><title>38&#45;&gt;14</title>
<path fill="none" stroke="black" d="M736.326,-864.278C717.382,-848.686 686.284,-823.092 664.563,-805.215"/>
<polygon fill="black" stroke="black" points="666.687,-802.431 656.742,-798.779 662.239,-807.836 666.687,-802.431"/>
<text text-anchor="middle" x="712" y="-827.8" font-family="Times,serif" font-size="14.00">c,a</text>
</g>
<!-- 44 -->
<g id="node45" class="node"><title>44</title>
<ellipse fill="lightblue" stroke="black" cx="808" cy="-610" rx="18" ry="18"/>
<text text-anchor="middle" x="808" y="-606.3" font-family="Times,serif" font-size="14.00">44</text>
</g>
<!-- 38&#45;&gt;44 -->
<g id="edge81" class="edge"><title>38&#45;&gt;44</title>
<path fill="none" stroke="black" d="M755.165,-856.923C757.735,-833.585 762.503,-794.909 769,-762 777.725,-717.804 791.583,-667.273 800.216,-637.31"/>
<polygon fill="black" stroke="black" points="803.604,-638.193 803.035,-627.614 796.882,-636.239 803.604,-638.193"/>
<text text-anchor="middle" x="772.5" y="-780.3" font-family="Times,serif" font-size="14.00">b</text>
</g>
<!-- 39&#45;&gt;20 -->
<g id="edge82" class="edge"><title>39&#45;&gt;20</title>
<path fill="none" stroke="black" d="M648,-173.799C648,-162.163 648,-146.548 648,-133.237"/>
<polygon fill="black" stroke="black" points="651.5,-133.175 648,-123.175 644.5,-133.175 651.5,-133.175"/>
<text text-anchor="middle" x="661.5" y="-144.8" font-family="Times,serif" font-size="14.00">c,a,b</text>
</g>
<!-- 40 -->
<g id="node41" class="node"><title>40</title>
<ellipse fill="#aaff80" stroke="black" cx="144" cy="-3119" rx="18" ry="18"/>
<ellipse fill="none" stroke="black" cx="144" cy="-3119" rx="22" ry="22"/>
<text text-anchor="middle" x="144" y="-3115.3" font-family="Times,serif" font-size="14.00">40</text>
</g>
<!-- 40&#45;&gt;6 -->
<g id="edge83" class="edge"><title>40&#45;&gt;6</title>
<path fill="none" stroke="black" d="M130.579,-3101.23C103.739,-3065.94 46,-2980.51 46,-2898.5 46,-2898.5 46,-2898.5 46,-973 46,-952.446 46,-929.337 46,-911.297"/>
<polygon fill="black" stroke="black" points="49.5001,-911.053 46,-901.053 42.5001,-911.053 49.5001,-911.053"/>
<text text-anchor="middle" x="49.5" y="-2015.3" font-family="Times,serif" font-size="14.00">a</text>
</g>
<!-- 40&#45;&gt;25 -->
<g id="edge84" class="edge"><title>40&#45;&gt;25</title>
<path fill="none" stroke="black" d="M148.639,-3097.36C151.425,-3084.96 155,-3069.05 157.999,-3055.7"/>
<polygon fill="black" stroke="black" points="161.478,-3056.19 160.256,-3045.66 154.648,-3054.65 161.478,-3056.19"/>
<text text-anchor="middle" x="159.5" y="-3067.8" font-family="Times,serif" font-size="14.00">b</text>
</g>
<!-- 40&#45;&gt;40 -->
<g id="edge85" class="edge"><title>40&#45;&gt;40</title>
<path fill="none" stroke="black" d="M164.581,-3127.37C174.845,-3128.53 184,-3125.74 184,-3119 184,-3114.68 180.243,-3111.99 174.844,-3110.91"/>
<polygon fill="black" stroke="black" points="174.673,-3107.41 164.581,-3110.63 174.481,-3114.4 174.673,-3107.41"/>
<text text-anchor="middle" x="187.5" y="-3115.3" font-family="Times,serif" font-size="14.00">c</text>
</g>
<!-- 41&#45;&gt;32 -->
<g id="edge86" class="edge"><title>41&#45;&gt;32</title>
<path fill="none" stroke="black" d="M1225.01,-1052.38C1214.63,-1041.58 1200.5,-1026.9 1188,-1014 1182.96,-1008.8 1177.54,-1003.22 1172.41,-997.953"/>
<polygon fill="black" stroke="black" points="1174.67,-995.259 1165.18,-990.541 1169.66,-1000.15 1174.67,-995.259"/>
<text text-anchor="middle" x="1206.5" y="-1017.8" font-family="Times,serif" font-size="14.00">b</text>
</g>
<!-- 41&#45;&gt;77 -->
<g id="edge87" class="edge"><title>41&#45;&gt;77</title>
<path fill="none" stroke="black" d="M1247.57,-1048C1253.93,-1029.39 1262,-1000.72 1262,-975 1262,-975 1262,-975 1262,-783 1262,-695.314 1165.27,-731.453 1088,-690 1084.44,-688.091 1080.7,-686.082 1077.01,-684.095"/>
<polygon fill="black" stroke="black" points="1078.5,-680.923 1068.04,-679.266 1075.18,-687.087 1078.5,-680.923"/>
<text text-anchor="middle" x="1270" y="-875.3" font-family="Times,serif" font-size="14.00">c,a</text>
</g>
<!-- 42&#45;&gt;14 -->
<g id="edge88" class="edge"><title>42&#45;&gt;14</title>
<path fill="none" stroke="black" d="M1051.11,-1050.61C1032.52,-1026.35 996.198,-981.982 958,-952 957.271,-951.428 724.827,-824.417 724,-824 706.053,-814.937 685.596,-805.423 669.364,-798.06"/>
<polygon fill="black" stroke="black" points="670.419,-794.697 659.864,-793.778 667.542,-801.078 670.419,-794.697"/>
<text text-anchor="middle" x="933" y="-922.8" font-family="Times,serif" font-size="14.00">c,a</text>
</g>
<!-- 42&#45;&gt;37 -->
<g id="edge89" class="edge"><title>42&#45;&gt;37</title>
<path fill="none" stroke="black" d="M1085.95,-1065.56C1123.71,-1060.85 1198.4,-1049.17 1214,-1029 1219.18,-1022.3 1220.46,-1013.61 1219.94,-1005.16"/>
<polygon fill="black" stroke="black" points="1223.39,-1004.57 1218.56,-995.137 1216.46,-1005.52 1223.39,-1004.57"/>
<text text-anchor="middle" x="1223.5" y="-1017.8" font-family="Times,serif" font-size="14.00">b</text>
</g>
<!-- 43&#45;&gt;3 -->
<g id="edge90" class="edge"><title>43&#45;&gt;3</title>
<path fill="none" stroke="black" d="M410,-2645.9C410,-2633.89 410,-2618.62 410,-2605.24"/>
<polygon fill="black" stroke="black" points="413.5,-2605.02 410,-2595.02 406.5,-2605.02 413.5,-2605.02"/>
<text text-anchor="middle" x="413.5" y="-2616.8" font-family="Times,serif" font-size="14.00">c</text>
</g>
<!-- 43&#45;&gt;14 -->
<g id="edge91" class="edge"><title>43&#45;&gt;14</title>
<path fill="none" stroke="black" d="M430.547,-2659.44C460.856,-2646.8 514,-2618.33 514,-2574 514,-2574 514,-2574 514,-1875.5 514,-1735.38 553.24,-1704.57 574,-1566 603.27,-1370.63 605.023,-1320.9 621,-1124 630.178,-1010.89 636.297,-876.185 638.767,-816.333"/>
<polygon fill="black" stroke="black" points="642.276,-816.185 639.186,-806.051 635.282,-815.9 642.276,-816.185"/>
<text text-anchor="middle" x="542.5" y="-1730.3" font-family="Times,serif" font-size="14.00">a</text>
</g>
<!-- 43&#45;&gt;25 -->
<g id="edge92" class="edge"><title>43&#45;&gt;25</title>
<path fill="none" stroke="black" d="M397.208,-2686.27C369.931,-2723.23 304.275,-2812.9 252,-2890 225.347,-2929.31 195.776,-2976.03 178.596,-3003.5"/>
<polygon fill="black" stroke="black" points="175.592,-3001.71 173.267,-3012.04 181.53,-3005.41 175.592,-3001.71"/>
<text text-anchor="middle" x="292.5" y="-2850.3" font-family="Times,serif" font-size="14.00">b</text>
</g>
<!-- 62 -->
<g id="node63" class="node"><title>62</title>
<ellipse fill="lightblue" stroke="black" cx="895" cy="-366" rx="18" ry="18"/>
<text text-anchor="middle" x="895" y="-362.3" font-family="Times,serif" font-size="14.00">62</text>
</g>
<!-- 44&#45;&gt;62 -->
<g id="edge93" class="edge"><title>44&#45;&gt;62</title>
<path fill="none" stroke="black" d="M813.843,-592.746C828.671,-551.502 867.849,-442.523 885.791,-392.616"/>
<polygon fill="black" stroke="black" points="889.093,-393.778 889.182,-383.183 882.505,-391.41 889.093,-393.778"/>
<text text-anchor="middle" x="861.5" y="-500.8" font-family="Times,serif" font-size="14.00">c,a,b</text>
</g>
<!-- 45&#45;&gt;26 -->
<g id="edge94" class="edge"><title>45&#45;&gt;26</title>
<path fill="none" stroke="black" d="M799.021,-2383.09C780.382,-2368.54 747.069,-2342.53 724.04,-2324.55"/>
<polygon fill="black" stroke="black" points="726.103,-2321.72 716.067,-2318.32 721.795,-2327.24 726.103,-2321.72"/>
<text text-anchor="middle" x="770.5" y="-2347.8" font-family="Times,serif" font-size="14.00">b</text>
</g>
<!-- 45&#45;&gt;51 -->
<g id="edge95" class="edge"><title>45&#45;&gt;51</title>
<path fill="none" stroke="black" d="M807.735,-2412.43C790.391,-2464.28 730.414,-2626.73 631,-2723 570.926,-2781.18 480.006,-2823.98 435.865,-2842.64"/>
<polygon fill="black" stroke="black" points="434.329,-2839.49 426.438,-2846.56 437.015,-2845.95 434.329,-2839.49"/>
<text text-anchor="middle" x="724" y="-2616.8" font-family="Times,serif" font-size="14.00">c,a</text>
</g>
<!-- 46&#45;&gt;1 -->
<g id="edge96" class="edge"><title>46&#45;&gt;1</title>
<path fill="none" stroke="black" d="M1136.97,-1624.28C1156.36,-1608.6 1188.26,-1582.8 1210.38,-1564.91"/>
<polygon fill="black" stroke="black" points="1212.76,-1567.49 1218.34,-1558.48 1208.36,-1562.04 1212.76,-1567.49"/>
<text text-anchor="middle" x="1188.5" y="-1587.8" font-family="Times,serif" font-size="14.00">b</text>
</g>
<!-- 46&#45;&gt;34 -->
<g id="edge97" class="edge"><title>46&#45;&gt;34</title>
<path fill="none" stroke="black" d="M1122.5,-1616.79C1130.57,-1545.19 1154.44,-1305.89 1138,-1109 1133.76,-1058.25 1126.28,-1046.4 1119,-996 1114.85,-967.273 1110.97,-934.42 1108.35,-911.028"/>
<polygon fill="black" stroke="black" points="1111.82,-910.548 1107.24,-900.994 1104.86,-911.319 1111.82,-910.548"/>
<text text-anchor="middle" x="1152" y="-1255.3" font-family="Times,serif" font-size="14.00">c,a</text>
</g>
<!-- 47&#45;&gt;18 -->
<g id="edge98" class="edge"><title>47&#45;&gt;18</title>
<path fill="none" stroke="black" d="M1409.4,-1053.88C1427.43,-1038.35 1456.55,-1013.28 1477.11,-995.574"/>
<polygon fill="black" stroke="black" points="1479.5,-998.13 1484.8,-988.953 1474.94,-992.826 1479.5,-998.13"/>
<text text-anchor="middle" x="1456.5" y="-1017.8" font-family="Times,serif" font-size="14.00">b</text>
</g>
<!-- 47&#45;&gt;34 -->
<g id="edge99" class="edge"><title>47&#45;&gt;34</title>
<path fill="none" stroke="black" d="M1386.06,-1047.97C1375.78,-1021.5 1353.88,-975.471 1319,-952 1282.26,-927.277 1263.19,-947.453 1221,-934 1203.89,-928.543 1162.1,-908.431 1133.65,-894.358"/>
<polygon fill="black" stroke="black" points="1135.08,-891.159 1124.56,-889.846 1131.96,-897.429 1135.08,-891.159"/>
<text text-anchor="middle" x="1367" y="-970.3" font-family="Times,serif" font-size="14.00">c,a</text>
</g>
<!-- 48 -->
<g id="node49" class="node"><title>48</title>
<ellipse fill="lightblue" stroke="black" cx="300" cy="-668" rx="18" ry="18"/>
<text text-anchor="middle" x="300" y="-664.3" font-family="Times,serif" font-size="14.00">48</text>
</g>
<!-- 48&#45;&gt;55 -->
<g id="edge100" class="edge"><title>48&#45;&gt;55</title>
<path fill="none" stroke="black" d="M304.357,-685.865C309.684,-708 318,-748.136 318,-783 318,-927.5 318,-927.5 318,-927.5 318,-1042.97 286.85,-1070.65 292,-1186 295.782,-1270.7 283.879,-1295.03 309,-1376 328.34,-1438.34 343.101,-1450.86 381,-1504 387.215,-1512.71 390.708,-1513.34 397,-1522 417.717,-1550.51 437.647,-1585.73 450.514,-1609.84"/>
<polygon fill="black" stroke="black" points="447.486,-1611.6 455.25,-1618.81 453.676,-1608.33 447.486,-1611.6"/>
<text text-anchor="middle" x="305.5" y="-1160.3" font-family="Times,serif" font-size="14.00">c,a,b</text>
</g>
<!-- 49&#45;&gt;9 -->
<g id="edge101" class="edge"><title>49&#45;&gt;9</title>
<path fill="none" stroke="black" d="M323.97,-1267.48C273.626,-1292.21 122,-1376.55 122,-1495.5 122,-2855 122,-2855 122,-2855 122,-2874.56 125.154,-2896.41 128.228,-2913.05"/>
<polygon fill="black" stroke="black" points="124.851,-2914.02 130.203,-2923.17 131.722,-2912.68 124.851,-2914.02"/>
<text text-anchor="middle" x="130" y="-2110.3" font-family="Times,serif" font-size="14.00">c,a</text>
</g>
<!-- 60 -->
<g id="node61" class="node"><title>60</title>
<ellipse fill="lightblue" stroke="black" cx="268" cy="-784" rx="18" ry="18"/>
<ellipse fill="none" stroke="black" cx="268" cy="-784" rx="22" ry="22"/>
<text text-anchor="middle" x="268" y="-780.3" font-family="Times,serif" font-size="14.00">60</text>
</g>
<!-- 49&#45;&gt;60 -->
<g id="edge102" class="edge"><title>49&#45;&gt;60</title>
<path fill="none" stroke="black" d="M337.437,-1241.17C326.871,-1171.75 286.588,-907.112 272.722,-816.022"/>
<polygon fill="black" stroke="black" points="276.168,-815.401 271.203,-806.041 269.248,-816.454 276.168,-815.401"/>
<text text-anchor="middle" x="309.5" y="-1017.8" font-family="Times,serif" font-size="14.00">b</text>
</g>
<!-- 50&#45;&gt;45 -->
<g id="edge103" class="edge"><title>50&#45;&gt;45</title>
<path fill="none" stroke="black" d="M847.297,-2465.41C841.139,-2452.95 832.391,-2435.24 825.272,-2420.84"/>
<polygon fill="black" stroke="black" points="828.222,-2418.91 820.655,-2411.49 821.947,-2422.01 828.222,-2418.91"/>
<text text-anchor="middle" x="850.5" y="-2434.8" font-family="Times,serif" font-size="14.00">c,a,b</text>
</g>
<!-- 51&#45;&gt;27 -->
<g id="edge104" class="edge"><title>51&#45;&gt;27</title>
<path fill="none" stroke="black" d="M410,-2835.84C410,-2824.44 410,-2809.13 410,-2795.58"/>
<polygon fill="black" stroke="black" points="413.5,-2795.19 410,-2785.19 406.5,-2795.19 413.5,-2795.19"/>
<text text-anchor="middle" x="423.5" y="-2806.8" font-family="Times,serif" font-size="14.00">c,a,b</text>
</g>
<!-- 52&#45;&gt;34 -->
<g id="edge105" class="edge"><title>52&#45;&gt;34</title>
<path fill="none" stroke="black" d="M1061.76,-469.02C1080.03,-484.99 1110,-516.459 1110,-551 1110,-785 1110,-785 1110,-785 1110,-805.68 1108.75,-828.91 1107.5,-846.979"/>
<polygon fill="black" stroke="black" points="1104.01,-846.736 1106.78,-856.964 1110.99,-847.244 1104.01,-846.736"/>
<text text-anchor="middle" x="1113.5" y="-664.3" font-family="Times,serif" font-size="14.00">b</text>
</g>
<!-- 52&#45;&gt;62 -->
<g id="edge106" class="edge"><title>52&#45;&gt;62</title>
<path fill="none" stroke="black" d="M1032.77,-447.141C1006.08,-431.614 950.666,-399.381 918.85,-380.873"/>
<polygon fill="black" stroke="black" points="920.572,-377.826 910.168,-375.823 917.052,-383.877 920.572,-377.826"/>
<text text-anchor="middle" x="989" y="-405.8" font-family="Times,serif" font-size="14.00">c,a</text>
</g>
<!-- 53&#45;&gt;34 -->
<g id="edge107" class="edge"><title>53&#45;&gt;34</title>
<path fill="none" stroke="black" d="M887.931,-2091.63C887.736,-2029.97 887.182,-1846.4 887,-1694 886.992,-1687.33 884.631,-1685.23 887,-1679 890.804,-1669 896.697,-1669.65 903,-1661 958.831,-1584.37 972.044,-1561.6 1000,-1471 1008.28,-1444.18 1008.51,-1436.85 1012,-1409 1032.02,-1249.09 1001.3,-1205.01 1033,-1047 1044.86,-987.876 1050.59,-972.714 1078,-919 1080.37,-914.351 1083.22,-909.614 1086.17,-905.117"/>
<polygon fill="black" stroke="black" points="1089.08,-907.073 1091.86,-896.852 1083.31,-903.103 1089.08,-907.073"/>
<text text-anchor="middle" x="998.5" y="-1492.8" font-family="Times,serif" font-size="14.00">a</text>
</g>
<!-- 53&#45;&gt;50 -->
<g id="edge108" class="edge"><title>53&#45;&gt;50</title>
<path fill="none" stroke="black" d="M888,-2136.05C888,-2154.9 888,-2183.3 888,-2208 888,-2396 888,-2396 888,-2396 888,-2417.97 878.304,-2441.09 869.423,-2457.67"/>
<polygon fill="black" stroke="black" points="866.242,-2456.19 864.368,-2466.61 872.336,-2459.63 866.242,-2456.19"/>
<text text-anchor="middle" x="891.5" y="-2300.3" font-family="Times,serif" font-size="14.00">b</text>
</g>
<!-- 53&#45;&gt;54 -->
<g id="edge109" class="edge"><title>53&#45;&gt;54</title>
<path fill="none" stroke="black" d="M907.286,-2102.69C938.07,-2086.24 998.455,-2053.96 1034,-2034.97"/>
<polygon fill="black" stroke="black" points="1035.72,-2038.01 1042.89,-2030.21 1032.42,-2031.84 1035.72,-2038.01"/>
<text text-anchor="middle" x="989.5" y="-2062.8" font-family="Times,serif" font-size="14.00">c</text>
</g>
<!-- 54&#45;&gt;19 -->
<g id="edge110" class="edge"><title>54&#45;&gt;19</title>
<path fill="none" stroke="black" d="M1053.52,-1998.28C1047.46,-1984.19 1039.26,-1965.14 1032.75,-1949.99"/>
<polygon fill="black" stroke="black" points="1035.92,-1948.49 1028.75,-1940.69 1029.48,-1951.26 1035.92,-1948.49"/>
<text text-anchor="middle" x="1048.5" y="-1967.8" font-family="Times,serif" font-size="14.00">b</text>
</g>
<!-- 54&#45;&gt;23 -->
<g id="edge111" class="edge"><title>54&#45;&gt;23</title>
<path fill="none" stroke="black" d="M1064.49,-1996.98C1066.5,-1978.15 1069,-1949.77 1069,-1925 1069,-1925 1069,-1925 1069,-1590.5 1069,-1528.05 1068,-1512.45 1068,-1450 1068,-1450 1068,-1450 1068,-1258 1068,-1236.91 1072.05,-1213.51 1076.07,-1195.46"/>
<polygon fill="black" stroke="black" points="1079.53,-1196.05 1078.4,-1185.51 1072.71,-1194.45 1079.53,-1196.05"/>
<text text-anchor="middle" x="1072.5" y="-1587.8" font-family="Times,serif" font-size="14.00">a</text>
</g>
<!-- 54&#45;&gt;28 -->
<g id="edge112" class="edge"><title>54&#45;&gt;28</title>
<path fill="none" stroke="black" d="M1060.49,-2041.04C1055.37,-2114.28 1039,-2364.82 1039,-2572 1039,-3215 1039,-3215 1039,-3215 1039,-3323.75 861.444,-3336.83 786.624,-3337.52"/>
<polygon fill="black" stroke="black" points="786.356,-3334.02 776.363,-3337.54 786.371,-3341.02 786.356,-3334.02"/>
<text text-anchor="middle" x="1042.5" y="-2664.3" font-family="Times,serif" font-size="14.00">c</text>
</g>
<!-- 55&#45;&gt;10 -->
<g id="edge113" class="edge"><title>55&#45;&gt;10</title>
<path fill="none" stroke="black" d="M474.117,-1618.73C480.311,-1605.64 488.61,-1588.1 495.559,-1573.41"/>
<polygon fill="black" stroke="black" points="498.782,-1574.78 499.895,-1564.24 492.454,-1571.79 498.782,-1574.78"/>
<text text-anchor="middle" x="493.5" y="-1587.8" font-family="Times,serif" font-size="14.00">b</text>
</g>
<!-- 55&#45;&gt;68 -->
<g id="edge114" class="edge"><title>55&#45;&gt;68</title>
<path fill="none" stroke="black" d="M459.042,-1617.76C449.874,-1586.41 431.911,-1524.18 418,-1471 410.825,-1443.57 406.357,-1437.15 403,-1409 392.6,-1321.79 424,-1300.33 424,-1212.5 424,-1212.5 424,-1212.5 424,-551 424,-502.225 485.128,-476.69 523.87,-465.405"/>
<polygon fill="black" stroke="black" points="524.946,-468.739 533.661,-462.714 523.091,-461.989 524.946,-468.739"/>
<text text-anchor="middle" x="432" y="-1065.3" font-family="Times,serif" font-size="14.00">c,a</text>
</g>
<!-- 56&#45;&gt;16 -->
<g id="edge115" class="edge"><title>56&#45;&gt;16</title>
<path fill="none" stroke="black" d="M1172.41,-3254.62C1178.59,-3233.17 1187,-3198.31 1187,-3167.5 1187,-3167.5 1187,-3167.5 1187,-1923 1187,-1892.94 1163.56,-1866.12 1144.21,-1849.1"/>
<polygon fill="black" stroke="black" points="1146.42,-1846.39 1136.51,-1842.64 1141.92,-1851.75 1146.42,-1846.39"/>
<text text-anchor="middle" x="1190.5" y="-2569.3" font-family="Times,serif" font-size="14.00">b</text>
</g>
<!-- 56&#45;&gt;65 -->
<g id="edge116" class="edge"><title>56&#45;&gt;65</title>
<path fill="none" stroke="black" d="M1148.02,-3262.73C1124.16,-3244.82 1085,-3209.1 1085,-3167.5 1085,-3167.5 1085,-3167.5 1085,-2619.5 1085,-2408.95 1056.79,-2355.88 997,-2154 985.525,-2115.26 969,-2107.91 969,-2067.5 969,-2067.5 969,-2067.5 969,-1923 969,-1902.45 969,-1879.34 969,-1861.3"/>
<polygon fill="black" stroke="black" points="972.5,-1861.05 969,-1851.05 965.5,-1861.05 972.5,-1861.05"/>
<text text-anchor="middle" x="1093" y="-2569.3" font-family="Times,serif" font-size="14.00">c,a</text>
</g>
<!-- 57&#45;&gt;23 -->
<g id="edge117" class="edge"><title>57&#45;&gt;23</title>
<path fill="none" stroke="black" d="M1359.19,-1251.46C1307.81,-1235.32 1174.78,-1193.52 1114.49,-1174.58"/>
<polygon fill="black" stroke="black" points="1115.38,-1171.19 1104.79,-1171.53 1113.28,-1177.87 1115.38,-1171.19"/>
<text text-anchor="middle" x="1258" y="-1207.8" font-family="Times,serif" font-size="14.00">c,a</text>
</g>
<!-- 57&#45;&gt;36 -->
<g id="edge118" class="edge"><title>57&#45;&gt;36</title>
<path fill="none" stroke="black" d="M1380,-1236.9C1380,-1224.89 1380,-1209.62 1380,-1196.24"/>
<polygon fill="black" stroke="black" points="1383.5,-1196.02 1380,-1186.02 1376.5,-1196.02 1383.5,-1196.02"/>
<text text-anchor="middle" x="1383.5" y="-1207.8" font-family="Times,serif" font-size="14.00">b</text>
</g>
<!-- 58 -->
<g id="node59" class="node"><title>58</title>
<ellipse fill="lightblue" stroke="black" cx="820" cy="-1829" rx="18" ry="18"/>
<ellipse fill="none" stroke="black" cx="820" cy="-1829" rx="22" ry="22"/>
<text text-anchor="middle" x="820" y="-1825.3" font-family="Times,serif" font-size="14.00">58</text>
</g>
<!-- 58&#45;&gt;2 -->
<g id="edge119" class="edge"><title>58&#45;&gt;2</title>
<path fill="none" stroke="black" d="M818.519,-1806.9C817.588,-1792.56 816.476,-1773.14 816,-1756 815.457,-1736.45 815.941,-1731.56 816,-1712 816.222,-1637.78 817,-1619.22 817,-1545 817,-1545 817,-1545 817,-1400.5 817,-1368.91 823.419,-1360.98 836,-1332 839.733,-1323.4 842.933,-1322.45 847,-1314 853.769,-1299.94 854.495,-1295.94 859,-1281 867.608,-1252.45 875.389,-1219.33 880.551,-1195.8"/>
<polygon fill="black" stroke="black" points="884.038,-1196.24 882.732,-1185.72 877.197,-1194.76 884.038,-1196.24"/>
<text text-anchor="middle" x="825" y="-1492.8" font-family="Times,serif" font-size="14.00">c,a</text>
</g>
<!-- 58&#45;&gt;22 -->
<g id="edge120" class="edge"><title>58&#45;&gt;22</title>
<path fill="none" stroke="black" d="M825.104,-1807.36C828.448,-1793.84 832.85,-1776.04 836.451,-1761.48"/>
<polygon fill="black" stroke="black" points="839.902,-1762.1 838.905,-1751.56 833.107,-1760.42 839.902,-1762.1"/>
<text text-anchor="middle" x="836.5" y="-1777.8" font-family="Times,serif" font-size="14.00">b</text>
</g>
<!-- 59&#45;&gt;4 -->
<g id="edge121" class="edge"><title>59&#45;&gt;4</title>
<path fill="none" stroke="black" d="M859.577,-1333.28C854.36,-1319.41 847.33,-1300.73 841.674,-1285.71"/>
<polygon fill="black" stroke="black" points="844.815,-1284.11 838.017,-1275.99 838.263,-1286.58 844.815,-1284.11"/>
<text text-anchor="middle" x="855.5" y="-1302.8" font-family="Times,serif" font-size="14.00">b</text>
</g>
<!-- 59&#45;&gt;65 -->
<g id="edge122" class="edge"><title>59&#45;&gt;65</title>
<path fill="none" stroke="black" d="M879.713,-1372.06C913.11,-1418.39 1001.81,-1551.59 1017,-1679 1022.26,-1723.07 1001.27,-1771.56 985.384,-1800.89"/>
<polygon fill="black" stroke="black" points="982.277,-1799.27 980.445,-1809.7 988.385,-1802.69 982.277,-1799.27"/>
<text text-anchor="middle" x="1007" y="-1587.8" font-family="Times,serif" font-size="14.00">c,a</text>
</g>
<!-- 60&#45;&gt;26 -->
<g id="edge123" class="edge"><title>60&#45;&gt;26</title>
<path fill="none" stroke="black" d="M250.336,-797.241C229.599,-813.208 198,-843.242 198,-878 198,-1402.5 198,-1402.5 198,-1402.5 198,-1419.13 520.129,-1887.35 528,-1902 603.218,-2041.98 605.468,-2084.91 668,-2231 674.06,-2245.16 680.819,-2260.87 686.476,-2273.99"/>
<polygon fill="black" stroke="black" points="683.383,-2275.66 690.557,-2283.45 689.811,-2272.88 683.383,-2275.66"/>
<text text-anchor="middle" x="310" y="-1540.3" font-family="Times,serif" font-size="14.00">c,a</text>
</g>
<!-- 60&#45;&gt;48 -->
<g id="edge124" class="edge"><title>60&#45;&gt;48</title>
<path fill="none" stroke="black" d="M273.721,-762.619C279.011,-743.772 286.902,-715.663 292.656,-695.164"/>
<polygon fill="black" stroke="black" points="296.033,-696.082 295.366,-685.508 289.294,-694.19 296.033,-696.082"/>
<text text-anchor="middle" x="292.5" y="-722.3" font-family="Times,serif" font-size="14.00">b</text>
</g>
<!-- 61&#45;&gt;15 -->
<g id="edge125" class="edge"><title>61&#45;&gt;15</title>
<path fill="none" stroke="black" d="M755.783,-1047.36C753.292,-1035.16 750.089,-1019.49 747.302,-1005.85"/>
<polygon fill="black" stroke="black" points="750.702,-1005 745.271,-995.904 743.843,-1006.4 750.702,-1005"/>
<text text-anchor="middle" x="760" y="-1017.8" font-family="Times,serif" font-size="14.00">c,a</text>
</g>
<!-- 76 -->
<g id="node77" class="node"><title>76</title>
<ellipse fill="lightblue" stroke="black" cx="675" cy="-974" rx="18" ry="18"/>
<ellipse fill="none" stroke="black" cx="675" cy="-974" rx="22" ry="22"/>
<text text-anchor="middle" x="675" y="-970.3" font-family="Times,serif" font-size="14.00">76</text>
</g>
<!-- 61&#45;&gt;76 -->
<g id="edge126" class="edge"><title>61&#45;&gt;76</title>
<path fill="none" stroke="black" d="M745.581,-1052.22C732.148,-1037.53 711.942,-1015.42 696.587,-998.619"/>
<polygon fill="black" stroke="black" points="698.82,-995.874 689.49,-990.854 693.653,-1000.6 698.82,-995.874"/>
<text text-anchor="middle" x="726.5" y="-1017.8" font-family="Times,serif" font-size="14.00">b</text>
</g>
<!-- 62&#45;&gt;67 -->
<g id="edge127" class="edge"><title>62&#45;&gt;67</title>
<path fill="none" stroke="black" d="M890.456,-348.207C887.222,-336.255 882.812,-319.958 879.114,-306.292"/>
<polygon fill="black" stroke="black" points="882.447,-305.208 876.456,-296.469 875.69,-307.036 882.447,-305.208"/>
<text text-anchor="middle" x="898.5" y="-318.8" font-family="Times,serif" font-size="14.00">c,a,b</text>
</g>
<!-- 63&#45;&gt;61 -->
<g id="edge128" class="edge"><title>63&#45;&gt;61</title>
<path fill="none" stroke="black" d="M894.454,-686.251C892.695,-725.684 885.348,-824.878 855,-901 851.439,-909.931 848.01,-910.794 843,-919 817.8,-960.277 790.971,-1009.53 774.849,-1039.79"/>
<polygon fill="black" stroke="black" points="771.605,-1038.43 770.006,-1048.91 777.787,-1041.71 771.605,-1038.43"/>
<text text-anchor="middle" x="883.5" y="-875.3" font-family="Times,serif" font-size="14.00">c,a,b</text>
</g>
<!-- 64 -->
<g id="node65" class="node"><title>64</title>
<ellipse fill="lightblue" stroke="black" cx="572" cy="-879" rx="18" ry="18"/>
<ellipse fill="none" stroke="black" cx="572" cy="-879" rx="22" ry="22"/>
<text text-anchor="middle" x="572" y="-875.3" font-family="Times,serif" font-size="14.00">64</text>
</g>
<!-- 64&#45;&gt;21 -->
<g id="edge129" class="edge"><title>64&#45;&gt;21</title>
<path fill="none" stroke="black" d="M590.638,-866.602C611.461,-854.349 646.523,-835.135 679,-824 718.412,-810.487 732.417,-821.724 771,-806 774.138,-804.721 777.296,-803.118 780.341,-801.371"/>
<polygon fill="black" stroke="black" points="782.434,-804.189 789.006,-795.878 778.686,-798.276 782.434,-804.189"/>
<text text-anchor="middle" x="682.5" y="-827.8" font-family="Times,serif" font-size="14.00">b</text>
</g>
<!-- 64&#45;&gt;60 -->
<g id="edge130" class="edge"><title>64&#45;&gt;60</title>
<path fill="none" stroke="black" d="M551.105,-871.608C498.497,-855.514 360.387,-813.263 298.619,-794.367"/>
<polygon fill="black" stroke="black" points="299.628,-791.016 289.041,-791.437 297.58,-797.709 299.628,-791.016"/>
<text text-anchor="middle" x="447" y="-827.8" font-family="Times,serif" font-size="14.00">c,a</text>
</g>
<!-- 65&#45;&gt;11 -->
<g id="edge131" class="edge"><title>65&#45;&gt;11</title>
<path fill="none" stroke="black" d="M963.23,-1807.36C959.772,-1794.99 955.315,-1779.05 951.464,-1765.28"/>
<polygon fill="black" stroke="black" points="954.728,-1763.95 948.665,-1755.26 947.986,-1765.84 954.728,-1763.95"/>
<text text-anchor="middle" x="961.5" y="-1777.8" font-family="Times,serif" font-size="14.00">b</text>
</g>
<!-- 65&#45;&gt;26 -->
<g id="edge132" class="edge"><title>65&#45;&gt;26</title>
<path fill="none" stroke="black" d="M961.77,-1850.04C950.797,-1879.39 928.397,-1935.3 902,-1979 850.929,-2063.55 815.835,-2069.31 765,-2154 761.689,-2159.52 729.756,-2232.43 711.551,-2274.17"/>
<polygon fill="black" stroke="black" points="708.247,-2272.99 707.459,-2283.56 714.663,-2275.79 708.247,-2272.99"/>
<text text-anchor="middle" x="849" y="-2062.8" font-family="Times,serif" font-size="14.00">c,a</text>
</g>
<!-- 66&#45;&gt;33 -->
<g id="edge133" class="edge"><title>66&#45;&gt;33</title>
<path fill="none" stroke="black" d="M1222.57,-868.246C1228.01,-864.657 1234.25,-860.593 1240,-857 1273.27,-836.201 1312.38,-813.182 1336.93,-798.901"/>
<polygon fill="black" stroke="black" points="1338.7,-801.925 1345.59,-793.879 1335.18,-795.871 1338.7,-801.925"/>
<text text-anchor="middle" x="1305.5" y="-827.8" font-family="Times,serif" font-size="14.00">c,a,b</text>
</g>
<!-- 67&#45;&gt;15 -->
<g id="edge134" class="edge"><title>67&#45;&gt;15</title>
<path fill="none" stroke="black" d="M865.099,-295.637C858.324,-312.435 849,-340.081 849,-365 849,-727 849,-727 849,-727 849,-814.273 791.305,-905.387 760.254,-948.104"/>
<polygon fill="black" stroke="black" points="757.378,-946.107 754.243,-956.227 763.005,-950.271 757.378,-946.107"/>
<text text-anchor="middle" x="852.5" y="-606.3" font-family="Times,serif" font-size="14.00">b</text>
</g>
<!-- 67&#45;&gt;20 -->
<g id="edge135" class="edge"><title>67&#45;&gt;20</title>
<path fill="none" stroke="black" d="M857.988,-267.241C820.196,-238.222 715.942,-158.17 670.107,-122.975"/>
<polygon fill="black" stroke="black" points="672.07,-120.07 662.007,-116.755 667.807,-125.622 672.07,-120.07"/>
<text text-anchor="middle" x="791" y="-188.3" font-family="Times,serif" font-size="14.00">c,a</text>
</g>
<!-- 68&#45;&gt;15 -->
<g id="edge136" class="edge"><title>68&#45;&gt;15</title>
<path fill="none" stroke="black" d="M560.443,-478.83C568.673,-508.719 584.927,-561.552 600,-574 634.483,-602.477 669.089,-558.753 699,-592 791.105,-694.379 699.224,-765.183 722,-901 724.345,-914.984 728.168,-930.202 731.773,-943.029"/>
<polygon fill="black" stroke="black" points="728.44,-944.103 734.584,-952.735 735.164,-942.156 728.44,-944.103"/>
<text text-anchor="middle" x="749" y="-722.3" font-family="Times,serif" font-size="14.00">c,a</text>
</g>
<!-- 71 -->
<g id="node72" class="node"><title>71</title>
<ellipse fill="lightblue" stroke="black" cx="605" cy="-366" rx="18" ry="18"/>
<text text-anchor="middle" x="605" y="-362.3" font-family="Times,serif" font-size="14.00">71</text>
</g>
<!-- 68&#45;&gt;71 -->
<g id="edge137" class="edge"><title>68&#45;&gt;71</title>
<path fill="none" stroke="black" d="M565.36,-437.559C572.916,-424.11 583.226,-405.759 591.437,-391.142"/>
<polygon fill="black" stroke="black" points="594.634,-392.598 596.48,-382.165 588.531,-389.169 594.634,-392.598"/>
<text text-anchor="middle" x="588.5" y="-405.8" font-family="Times,serif" font-size="14.00">b</text>
</g>
<!-- 69&#45;&gt;39 -->
<g id="edge138" class="edge"><title>69&#45;&gt;39</title>
<path fill="none" stroke="black" d="M612.887,-262.41C619.251,-249.829 628.319,-231.903 635.646,-217.421"/>
<polygon fill="black" stroke="black" points="638.772,-218.995 640.163,-208.491 632.526,-215.835 638.772,-218.995"/>
<text text-anchor="middle" x="643.5" y="-231.8" font-family="Times,serif" font-size="14.00">c,a,b</text>
</g>
<!-- 70&#45;&gt;15 -->
<g id="edge139" class="edge"><title>70&#45;&gt;15</title>
<path fill="none" stroke="black" d="M347.769,-1333.41C362.038,-1298 392.554,-1225.08 410,-1204 433.331,-1175.81 640.12,-1040.41 714.498,-992.142"/>
<polygon fill="black" stroke="black" points="716.404,-995.077 722.891,-986.7 712.596,-989.203 716.404,-995.077"/>
<text text-anchor="middle" x="493.5" y="-1160.3" font-family="Times,serif" font-size="14.00">a</text>
</g>
<!-- 70&#45;&gt;49 -->
<g id="edge140" class="edge"><title>70&#45;&gt;49</title>
<path fill="none" stroke="black" d="M340,-1331.9C340,-1318.74 340,-1301.68 340,-1287.48"/>
<polygon fill="black" stroke="black" points="343.5,-1287.28 340,-1277.28 336.5,-1287.28 343.5,-1287.28"/>
<text text-anchor="middle" x="343.5" y="-1302.8" font-family="Times,serif" font-size="14.00">b</text>
</g>
<!-- 70&#45;&gt;72 -->
<g id="edge141" class="edge"><title>70&#45;&gt;72</title>
<path fill="none" stroke="black" d="M327.727,-1372.29C295.689,-1418.09 212,-1542.34 212,-1590.5 212,-1877.5 212,-1877.5 212,-1877.5 212,-2094.15 185.495,-2148.08 136,-2359 118.386,-2434.06 84,-2447.4 84,-2524.5 84,-2898.5 84,-2898.5 84,-2898.5 84,-2964.49 99.6624,-3093.79 113,-3141 117.217,-3155.92 123.822,-3171.83 129.853,-3184.88"/>
<polygon fill="black" stroke="black" points="126.85,-3186.72 134.305,-3194.25 133.172,-3183.71 126.85,-3186.72"/>
<text text-anchor="middle" x="158.5" y="-2300.3" font-family="Times,serif" font-size="14.00">c</text>
</g>
<!-- 71&#45;&gt;14 -->
<g id="edge142" class="edge"><title>71&#45;&gt;14</title>
<path fill="none" stroke="black" d="M610.101,-383.551C615.108,-401.289 622,-430.359 622,-456 622,-669 622,-669 622,-669 622,-697.67 627.623,-729.905 632.584,-752.763"/>
<polygon fill="black" stroke="black" points="629.179,-753.574 634.794,-762.559 636.007,-752.034 629.179,-753.574"/>
<text text-anchor="middle" x="625.5" y="-548.3" font-family="Times,serif" font-size="14.00">b</text>
</g>
<!-- 71&#45;&gt;69 -->
<g id="edge143" class="edge"><title>71&#45;&gt;69</title>
<path fill="none" stroke="black" d="M605,-347.799C605,-336.163 605,-320.548 605,-307.237"/>
<polygon fill="black" stroke="black" points="608.5,-307.175 605,-297.175 601.5,-307.175 608.5,-307.175"/>
<text text-anchor="middle" x="613" y="-318.8" font-family="Times,serif" font-size="14.00">c,a</text>
</g>
<!-- 72&#45;&gt;6 -->
<g id="edge144" class="edge"><title>72&#45;&gt;6</title>
<path fill="none" stroke="black" d="M122.442,-3209.37C82.2706,-3201.25 0,-3177.59 0,-3120 0,-3120 0,-3120 0,-973 0,-947.768 13.7727,-922.304 26.2458,-904.417"/>
<polygon fill="black" stroke="black" points="29.1196,-906.416 32.1985,-896.278 23.4697,-902.283 29.1196,-906.416"/>
<text text-anchor="middle" x="3.5" y="-2062.8" font-family="Times,serif" font-size="14.00">a</text>
</g>
<!-- 72&#45;&gt;40 -->
<g id="edge145" class="edge"><title>72&#45;&gt;40</title>
<path fill="none" stroke="black" d="M144,-3191.9C144,-3179.89 144,-3164.62 144,-3151.24"/>
<polygon fill="black" stroke="black" points="147.5,-3151.02 144,-3141.02 140.5,-3151.02 147.5,-3151.02"/>
<text text-anchor="middle" x="147.5" y="-3162.8" font-family="Times,serif" font-size="14.00">c</text>
</g>
<!-- 72&#45;&gt;64 -->
<g id="edge146" class="edge"><title>72&#45;&gt;64</title>
<path fill="none" stroke="black" d="M164.878,-3206.24C197.032,-3194.37 255,-3166.51 255,-3120 255,-3120 255,-3120 255,-2940 255,-2800.89 235.56,-2767 230,-2628 228.632,-2593.81 226.537,-2585.05 230,-2551 243.179,-2421.45 268.536,-2392.6 289,-2264 310.087,-2131.48 281.322,-2091.55 323,-1964 385.577,-1772.49 492.075,-1761.69 540,-1566 600.277,-1319.88 582.525,-1009.6 574.759,-911.329"/>
<polygon fill="black" stroke="black" points="578.233,-910.868 573.932,-901.185 571.256,-911.437 578.233,-910.868"/>
<text text-anchor="middle" x="305.5" y="-2062.8" font-family="Times,serif" font-size="14.00">b</text>
</g>
<!-- 73&#45;&gt;0 -->
<g id="edge147" class="edge"><title>73&#45;&gt;0</title>
<path fill="none" stroke="black" d="M1338,-1661.05C1338,-1679.9 1338,-1708.3 1338,-1733 1338,-3434 1338,-3434 1338,-3434 1338,-3455.79 1331.98,-3479.64 1326.09,-3497.73"/>
<polygon fill="black" stroke="black" points="1322.71,-3496.8 1322.79,-3507.39 1329.34,-3499.06 1322.71,-3496.8"/>
<text text-anchor="middle" x="1341.5" y="-2569.3" font-family="Times,serif" font-size="14.00">b</text>
</g>
<!-- 73&#45;&gt;57 -->
<g id="edge148" class="edge"><title>73&#45;&gt;57</title>
<path fill="none" stroke="black" d="M1339.07,-1616.95C1339.93,-1598.11 1341,-1569.72 1341,-1545 1341,-1545 1341,-1545 1341,-1353 1341,-1329.15 1352.05,-1304.34 1362.38,-1286.35"/>
<polygon fill="black" stroke="black" points="1365.49,-1287.98 1367.66,-1277.61 1359.5,-1284.36 1365.49,-1287.98"/>
<text text-anchor="middle" x="1349" y="-1445.3" font-family="Times,serif" font-size="14.00">c,a</text>
</g>
<!-- 74&#45;&gt;74 -->
<g id="edge149" class="edge"><title>74&#45;&gt;74</title>
<path fill="none" stroke="black" d="M664.664,-25.3828C674.625,-27.0234 684,-24.5625 684,-18 684,-13.7959 680.152,-11.2751 674.768,-10.4375"/>
<polygon fill="black" stroke="black" points="674.6,-6.93988 664.664,-10.6172 674.725,-13.9388 674.6,-6.93988"/>
<text text-anchor="middle" x="697.5" y="-14.3" font-family="Times,serif" font-size="14.00">c,a,b</text>
</g>
<!-- 75&#45;&gt;33 -->
<g id="edge150" class="edge"><title>75&#45;&gt;33</title>
<path fill="none" stroke="black" d="M1438.86,-865.458C1423.83,-849.927 1398.05,-823.283 1380.29,-804.938"/>
<polygon fill="black" stroke="black" points="1382.7,-802.393 1373.23,-797.641 1377.67,-807.261 1382.7,-802.393"/>
<text text-anchor="middle" x="1419" y="-827.8" font-family="Times,serif" font-size="14.00">c,a</text>
</g>
<!-- 75&#45;&gt;57 -->
<g id="edge151" class="edge"><title>75&#45;&gt;57</title>
<path fill="none" stroke="black" d="M1451,-897.141C1451,-915.801 1451,-946.521 1451,-973 1451,-1165 1451,-1165 1451,-1165 1451,-1195.71 1426.24,-1222.58 1405.97,-1239.44"/>
<polygon fill="black" stroke="black" points="1403.58,-1236.86 1397.92,-1245.82 1407.93,-1242.35 1403.58,-1236.86"/>
<text text-anchor="middle" x="1454.5" y="-1065.3" font-family="Times,serif" font-size="14.00">b</text>
</g>
<!-- 76&#45;&gt;3 -->
<g id="edge152" class="edge"><title>76&#45;&gt;3</title>
<path fill="none" stroke="black" d="M675.327,-996.265C676.104,-1048.76 678,-1188.73 678,-1305.5 678,-1687.5 678,-1687.5 678,-1687.5 678,-1864.59 552,-1888.41 552,-2065.5 552,-2439.5 552,-2439.5 552,-2439.5 552,-2500.37 481.385,-2541.28 439.749,-2560.11"/>
<polygon fill="black" stroke="black" points="438.111,-2557.01 430.345,-2564.22 440.91,-2563.42 438.111,-2557.01"/>
<text text-anchor="middle" x="669.5" y="-1777.8" font-family="Times,serif" font-size="14.00">c</text>
</g>
<!-- 76&#45;&gt;14 -->
<g id="edge153" class="edge"><title>76&#45;&gt;14</title>
<path fill="none" stroke="black" d="M671.121,-952.162C664.971,-919.13 652.949,-854.555 645.781,-816.052"/>
<polygon fill="black" stroke="black" points="649.168,-815.121 643.897,-805.931 642.286,-816.403 649.168,-815.121"/>
<text text-anchor="middle" x="665.5" y="-875.3" font-family="Times,serif" font-size="14.00">a</text>
</g>
<!-- 76&#45;&gt;64 -->
<g id="edge154" class="edge"><title>76&#45;&gt;64</title>
<path fill="none" stroke="black" d="M658.906,-958.469C641.899,-943.113 614.908,-918.742 595.517,-901.234"/>
<polygon fill="black" stroke="black" points="597.749,-898.533 587.981,-894.429 593.057,-903.729 597.749,-898.533"/>
<text text-anchor="middle" x="633.5" y="-922.8" font-family="Times,serif" font-size="14.00">b</text>
</g>
<!-- 77&#45;&gt;17 -->
<g id="edge155" class="edge"><title>77&#45;&gt;17</title>
<path fill="none" stroke="black" d="M1048.81,-645.825C1048.66,-628.548 1048.45,-603.887 1048.27,-584.325"/>
<polygon fill="black" stroke="black" points="1051.77,-584.031 1048.18,-574.062 1044.77,-584.092 1051.77,-584.031"/>
<text text-anchor="middle" x="1052.5" y="-606.3" font-family="Times,serif" font-size="14.00">b</text>
</g>
<!-- 77&#45;&gt;68 -->
<g id="edge156" class="edge"><title>77&#45;&gt;68</title>
<path fill="none" stroke="black" d="M1034.82,-650.725C1003.37,-615.836 923.73,-534.014 838,-497 793.45,-477.766 651.658,-465.149 587.312,-460.272"/>
<polygon fill="black" stroke="black" points="587.187,-456.753 576.956,-459.503 586.669,-463.734 587.187,-456.753"/>
<text text-anchor="middle" x="963" y="-548.3" font-family="Times,serif" font-size="14.00">c,a</text>
</g>
<!-- 78&#45;&gt;58 -->
<g id="edge157" class="edge"><title>78&#45;&gt;58</title>
<path fill="none" stroke="black" d="M721.438,-1915.08C737.326,-1908.31 759.384,-1897.53 776,-1884 785.792,-1876.03 794.916,-1865.58 802.288,-1855.99"/>
<polygon fill="black" stroke="black" points="805.156,-1858 808.288,-1847.88 799.528,-1853.84 805.156,-1858"/>
<text text-anchor="middle" x="795.5" y="-1872.8" font-family="Times,serif" font-size="14.00">b</text>
</g>
<!-- 78&#45;&gt;60 -->
<g id="edge158" class="edge"><title>78&#45;&gt;60</title>
<path fill="none" stroke="black" d="M698.545,-1902.02C694.137,-1871.5 682.613,-1814.15 655,-1774 629.709,-1737.22 615.059,-1733.6 576,-1712 517.316,-1679.55 485.402,-1704.07 434,-1661 323.313,-1568.26 320.522,-1514 278,-1376 243.842,-1265.15 242,-1233.5 242,-1117.5 242,-1117.5 242,-1117.5 242,-878 242,-855.933 248.873,-831.973 255.552,-813.899"/>
<polygon fill="black" stroke="black" points="258.839,-815.102 259.198,-804.514 252.314,-812.568 258.839,-815.102"/>
<text text-anchor="middle" x="286" y="-1350.3" font-family="Times,serif" font-size="14.00">c,a</text>
</g>
</g>
</svg>
