<?xml version="1.0" encoding="UTF-8" standalone="no"?>
<!DOCTYPE svg PUBLIC "-//W3C//DTD SVG 1.1//EN"
 "http://www.w3.org/Graphics/SVG/1.1/DTD/svg11.dtd">
<!-- Generated by graphviz version 2.38.0 (20140413.2041)
 -->
<!-- Title: %3 Pages: 1 -->
<svg width="102pt" height="218pt"
 viewBox="0.00 0.00 102.00 218.00" xmlns="http://www.w3.org/2000/svg" xmlns:xlink="http://www.w3.org/1999/xlink">
<g id="graph0" class="graph" transform="scale(1 1) rotate(0) translate(4 214)">
<title>%3</title>
<!-- 2 -->
<g id="node1" class="node"><title>2</title>
<ellipse fill="lightblue" stroke="black" cx="76" cy="-18" rx="18" ry="18"/>
<text text-anchor="middle" x="76" y="-14.3" font-family="Times,serif" font-size="14.00">2</text>
</g>
<!-- 0 -->
<g id="node2" class="node"><title>0</title>
<ellipse fill="lightblue" stroke="black" cx="34" cy="-192" rx="18" ry="18"/>
<text text-anchor="middle" x="34" y="-188.3" font-family="Times,serif" font-size="14.00">0</text>
</g>
<!-- 3 -->
<g id="node3" class="node"><title>3</title>
<ellipse fill="lightblue" stroke="black" cx="18" cy="-18" rx="18" ry="18"/>
<text text-anchor="middle" x="18" y="-14.3" font-family="Times,serif" font-size="14.00">3</text>
</g>
<!-- 0&#45;&gt;3 -->
<g id="edge1" class="edge"><title>0&#45;&gt;3</title>
<path fill="none" stroke="black" d="M30.4023,-174.323C27.6029,-160.613 23.887,-140.642 22,-123 19.2344,-97.1438 18.3141,-67.4915 18.0384,-46.4824"/>
<polygon fill="black" stroke="black" points="21.5372,-46.3177 17.9466,-36.3498 14.5374,-46.3811 21.5372,-46.3177"/>
<text text-anchor="middle" x="30.5" y="-101.3" font-family="Times,serif" font-size="14.00">d,c</text>
</g>
<!-- 1 -->
<g id="node4" class="node"><title>1</title>
<ellipse fill="lightblue" stroke="black" cx="66" cy="-105" rx="18" ry="18"/>
<text text-anchor="middle" x="66" y="-101.3" font-family="Times,serif" font-size="14.00">1</text>
</g>
<!-- 0&#45;&gt;1 -->
<g id="edge2" class="edge"><title>0&#45;&gt;1</title>
<path fill="none" stroke="black" d="M40.019,-175.012C44.5935,-162.861 50.9805,-145.896 56.2769,-131.827"/>
<polygon fill="black" stroke="black" points="59.6514,-132.797 59.8992,-122.205 53.1003,-130.331 59.6514,-132.797"/>
<text text-anchor="middle" x="59.5" y="-144.8" font-family="Times,serif" font-size="14.00">a,b</text>
</g>
<!-- 1&#45;&gt;2 -->
<g id="edge3" class="edge"><title>1&#45;&gt;2</title>
<path fill="none" stroke="black" d="M68.0236,-86.799C69.3926,-75.1626 71.2297,-59.5479 72.7957,-46.2368"/>
<polygon fill="black" stroke="black" points="76.2869,-46.5159 73.9794,-36.1754 69.3348,-45.698 76.2869,-46.5159"/>
<text text-anchor="middle" x="74.5" y="-57.8" font-family="Times,serif" font-size="14.00">b</text>
</g>
<!-- 1&#45;&gt;3 -->
<g id="edge4" class="edge"><title>1&#45;&gt;3</title>
<path fill="none" stroke="black" d="M57.4186,-88.8037C50.2516,-76.1121 39.9033,-57.7871 31.6079,-43.0973"/>
<polygon fill="black" stroke="black" points="34.472,-41.0512 26.5071,-34.0647 28.3767,-44.4933 34.472,-41.0512"/>
<text text-anchor="middle" x="47.5" y="-57.8" font-family="Times,serif" font-size="14.00">a</text>
</g>
</g>
</svg>
