<?xml version="1.0" encoding="UTF-8" standalone="no"?>
<!DOCTYPE svg PUBLIC "-//W3C//DTD SVG 1.1//EN"
 "http://www.w3.org/Graphics/SVG/1.1/DTD/svg11.dtd">
<!-- Generated by graphviz version 2.38.0 (20140413.2041)
 -->
<!-- Title: %3 Pages: 1 -->
<svg width="184pt" height="321pt"
 viewBox="0.00 0.00 184.00 321.00" xmlns="http://www.w3.org/2000/svg" xmlns:xlink="http://www.w3.org/1999/xlink">
<g id="graph0" class="graph" transform="scale(1 1) rotate(0) translate(4 317)">
<title>%3</title>
<!-- 0 -->
<g id="node1" class="node"><title>0</title>
<ellipse fill="#aaff80" stroke="black" cx="115" cy="-295" rx="18" ry="18"/>
<text text-anchor="middle" x="115" y="-291.3" font-family="Times,serif" font-size="14.00">0</text>
</g>
<!-- 0&#45;&gt;0 -->
<g id="edge1" class="edge"><title>0&#45;&gt;0</title>
<path fill="none" stroke="black" d="M131.664,-302.383C141.625,-304.023 151,-301.562 151,-295 151,-290.796 147.152,-288.275 141.768,-287.438"/>
<polygon fill="black" stroke="black" points="141.6,-283.94 131.664,-287.617 141.725,-290.939 141.6,-283.94"/>
<text text-anchor="middle" x="154.5" y="-291.3" font-family="Times,serif" font-size="14.00">c</text>
</g>
<!-- 1 -->
<g id="node2" class="node"><title>1</title>
<ellipse fill="lightblue" stroke="black" cx="58" cy="-208" rx="18" ry="18"/>
<text text-anchor="middle" x="58" y="-204.3" font-family="Times,serif" font-size="14.00">1</text>
</g>
<!-- 0&#45;&gt;1 -->
<g id="edge2" class="edge"><title>0&#45;&gt;1</title>
<path fill="none" stroke="black" d="M99.8445,-284.678C90.8562,-278.433 79.9055,-269.454 73,-259 68.4849,-252.165 65.2882,-243.923 63.0418,-236.12"/>
<polygon fill="black" stroke="black" points="66.4042,-235.137 60.6051,-226.27 59.609,-236.818 66.4042,-235.137"/>
<text text-anchor="middle" x="76.5" y="-247.8" font-family="Times,serif" font-size="14.00">b</text>
</g>
<!-- 3 -->
<g id="node4" class="node"><title>3</title>
<ellipse fill="lightblue" stroke="black" cx="129" cy="-22" rx="18" ry="18"/>
<ellipse fill="none" stroke="black" cx="129" cy="-22" rx="22" ry="22"/>
<text text-anchor="middle" x="129" y="-18.3" font-family="Times,serif" font-size="14.00">3</text>
</g>
<!-- 0&#45;&gt;3 -->
<g id="edge3" class="edge"><title>0&#45;&gt;3</title>
<path fill="none" stroke="black" d="M115.897,-276.635C118.21,-231.858 124.403,-111.976 127.371,-54.5349"/>
<polygon fill="black" stroke="black" points="130.882,-54.411 127.903,-44.2437 123.891,-54.0498 130.882,-54.411"/>
<text text-anchor="middle" x="125.5" y="-160.8" font-family="Times,serif" font-size="14.00">a</text>
</g>
<!-- 1&#45;&gt;0 -->
<g id="edge4" class="edge"><title>1&#45;&gt;0</title>
<path fill="none" stroke="black" d="M67.7167,-223.49C76.4941,-236.579 89.5567,-256.058 99.7294,-271.228"/>
<polygon fill="black" stroke="black" points="96.8542,-273.225 105.331,-279.581 102.668,-269.326 96.8542,-273.225"/>
<text text-anchor="middle" x="92.5" y="-247.8" font-family="Times,serif" font-size="14.00">c</text>
</g>
<!-- 1&#45;&gt;1 -->
<g id="edge5" class="edge"><title>1&#45;&gt;1</title>
<path fill="none" stroke="black" d="M74.6641,-215.383C84.625,-217.023 94,-214.562 94,-208 94,-203.796 90.1525,-201.275 84.7682,-200.438"/>
<polygon fill="black" stroke="black" points="84.6002,-196.94 74.6641,-200.617 84.7247,-203.939 84.6002,-196.94"/>
<text text-anchor="middle" x="97.5" y="-204.3" font-family="Times,serif" font-size="14.00">b</text>
</g>
<!-- 2 -->
<g id="node3" class="node"><title>2</title>
<ellipse fill="lightblue" stroke="black" cx="34" cy="-117" rx="18" ry="18"/>
<ellipse fill="none" stroke="black" cx="34" cy="-117" rx="22" ry="22"/>
<text text-anchor="middle" x="34" y="-113.3" font-family="Times,serif" font-size="14.00">2</text>
</g>
<!-- 1&#45;&gt;2 -->
<g id="edge6" class="edge"><title>1&#45;&gt;2</title>
<path fill="none" stroke="black" d="M46.1191,-194.447C41.0243,-188.208 35.6435,-180.249 33,-172 30.6786,-164.756 29.9289,-156.681 29.9879,-149.028"/>
<polygon fill="black" stroke="black" points="33.4868,-149.137 30.4979,-138.972 26.4957,-148.782 33.4868,-149.137"/>
<text text-anchor="middle" x="36.5" y="-160.8" font-family="Times,serif" font-size="14.00">a</text>
</g>
<!-- 2&#45;&gt;1 -->
<g id="edge7" class="edge"><title>2&#45;&gt;1</title>
<path fill="none" stroke="black" d="M39.5051,-138.415C42.8802,-150.931 47.2363,-167.085 50.8731,-180.571"/>
<polygon fill="black" stroke="black" points="47.5028,-181.516 53.4858,-190.26 54.2614,-179.693 47.5028,-181.516"/>
<text text-anchor="middle" x="52.5" y="-160.8" font-family="Times,serif" font-size="14.00">b</text>
</g>
<!-- 2&#45;&gt;3 -->
<g id="edge8" class="edge"><title>2&#45;&gt;3</title>
<path fill="none" stroke="black" d="M44.6872,-97.4941C51.6115,-86.4417 61.3115,-72.5488 72,-62 72.7089,-61.3003 88.0469,-50.8142 102.632,-40.8924"/>
<polygon fill="black" stroke="black" points="104.713,-43.7099 111.016,-35.194 100.778,-37.9204 104.713,-43.7099"/>
<text text-anchor="middle" x="75.5" y="-65.8" font-family="Times,serif" font-size="14.00">a</text>
</g>
<!-- 4 -->
<g id="node5" class="node"><title>4</title>
<ellipse fill="lightblue" stroke="black" cx="22" cy="-22" rx="18" ry="18"/>
<ellipse fill="none" stroke="black" cx="22" cy="-22" rx="22" ry="22"/>
<text text-anchor="middle" x="22" y="-18.3" font-family="Times,serif" font-size="14.00">4</text>
</g>
<!-- 2&#45;&gt;4 -->
<g id="edge9" class="edge"><title>2&#45;&gt;4</title>
<path fill="none" stroke="black" d="M31.277,-94.8969C29.7274,-82.8873 27.7571,-67.6175 26.0312,-54.242"/>
<polygon fill="black" stroke="black" points="29.4632,-53.4895 24.7122,-44.0196 22.5208,-54.3853 29.4632,-53.4895"/>
<text text-anchor="middle" x="32.5" y="-65.8" font-family="Times,serif" font-size="14.00">c</text>
</g>
<!-- 3&#45;&gt;0 -->
<g id="edge10" class="edge"><title>3&#45;&gt;0</title>
<path fill="none" stroke="black" d="M135.783,-43.0172C137.515,-49.046 139.132,-55.7282 140,-62 140.913,-68.6038 140.107,-70.3342 140,-77 138.694,-157.977 150.617,-180.424 131,-259 130.132,-262.476 128.926,-266.032 127.561,-269.481"/>
<polygon fill="black" stroke="black" points="124.298,-268.205 123.444,-278.766 130.697,-271.043 124.298,-268.205"/>
<text text-anchor="middle" x="145.5" y="-160.8" font-family="Times,serif" font-size="14.00">c</text>
</g>
<!-- 3&#45;&gt;1 -->
<g id="edge11" class="edge"><title>3&#45;&gt;1</title>
<path fill="none" stroke="black" d="M121.411,-42.6674C108.489,-76.1561 82.2226,-144.226 67.8836,-181.386"/>
<polygon fill="black" stroke="black" points="64.5113,-180.404 64.1766,-190.993 71.042,-182.924 64.5113,-180.404"/>
<text text-anchor="middle" x="103.5" y="-113.3" font-family="Times,serif" font-size="14.00">b</text>
</g>
<!-- 3&#45;&gt;3 -->
<g id="edge12" class="edge"><title>3&#45;&gt;3</title>
<path fill="none" stroke="black" d="M149.581,-30.3702C159.845,-31.5284 169,-28.7383 169,-22 169,-17.6833 165.243,-14.9869 159.844,-13.9109"/>
<polygon fill="black" stroke="black" points="159.673,-10.405 149.581,-13.6298 159.481,-17.4024 159.673,-10.405"/>
<text text-anchor="middle" x="172.5" y="-18.3" font-family="Times,serif" font-size="14.00">a</text>
</g>
<!-- 4&#45;&gt;4 -->
<g id="edge13" class="edge"><title>4&#45;&gt;4</title>
<path fill="none" stroke="black" d="M42.5808,-30.3702C52.8447,-31.5284 62,-28.7383 62,-22 62,-17.6833 58.2427,-14.9869 52.8436,-13.9109"/>
<polygon fill="black" stroke="black" points="52.6729,-10.405 42.5808,-13.6298 52.4812,-17.4024 52.6729,-10.405"/>
<text text-anchor="middle" x="75.5" y="-18.3" font-family="Times,serif" font-size="14.00">a,c,b</text>
</g>
</g>
</svg>
