<?xml version="1.0" encoding="UTF-8" standalone="no"?>
<!DOCTYPE svg PUBLIC "-//W3C//DTD SVG 1.1//EN"
 "http://www.w3.org/Graphics/SVG/1.1/DTD/svg11.dtd">
<!-- Generated by graphviz version 2.38.0 (20140413.2041)
 -->
<!-- Title: %3 Pages: 1 -->
<svg width="312pt" height="748pt"
 viewBox="0.00 0.00 312.00 748.00" xmlns="http://www.w3.org/2000/svg" xmlns:xlink="http://www.w3.org/1999/xlink">
<g id="graph0" class="graph" transform="scale(1 1) rotate(0) translate(4 744)">
<title>%3</title>
<!-- 0 -->
<g id="node1" class="node"><title>0</title>
<ellipse fill="lightblue" stroke="black" cx="176" cy="-722" rx="18" ry="18"/>
<text text-anchor="middle" x="176" y="-718.3" font-family="Times,serif" font-size="14.00">0</text>
</g>
<!-- 0&#45;&gt;0 -->
<g id="edge1" class="edge"><title>0&#45;&gt;0</title>
<path fill="none" stroke="black" d="M192.664,-729.383C202.625,-731.023 212,-728.562 212,-722 212,-717.796 208.152,-715.275 202.768,-714.438"/>
<polygon fill="black" stroke="black" points="202.6,-710.94 192.664,-714.617 202.725,-717.939 202.6,-710.94"/>
<text text-anchor="middle" x="215.5" y="-718.3" font-family="Times,serif" font-size="14.00">a</text>
</g>
<!-- 6 -->
<g id="node7" class="node"><title>6</title>
<ellipse fill="#aaff80" stroke="black" cx="229" cy="-635" rx="18" ry="18"/>
<text text-anchor="middle" x="229" y="-631.3" font-family="Times,serif" font-size="14.00">6</text>
</g>
<!-- 0&#45;&gt;6 -->
<g id="edge2" class="edge"><title>0&#45;&gt;6</title>
<path fill="none" stroke="black" d="M185.232,-706.194C193.288,-693.274 205.115,-674.307 214.444,-659.345"/>
<polygon fill="black" stroke="black" points="217.553,-660.974 219.874,-650.636 211.613,-657.27 217.553,-660.974"/>
<text text-anchor="middle" x="208.5" y="-674.8" font-family="Times,serif" font-size="14.00">c</text>
</g>
<!-- 8 -->
<g id="node9" class="node"><title>8</title>
<ellipse fill="lightblue" stroke="black" cx="129" cy="-548" rx="18" ry="18"/>
<text text-anchor="middle" x="129" y="-544.3" font-family="Times,serif" font-size="14.00">8</text>
</g>
<!-- 0&#45;&gt;8 -->
<g id="edge3" class="edge"><title>0&#45;&gt;8</title>
<path fill="none" stroke="black" d="M171.493,-704.508C163.317,-674.585 145.978,-611.131 136.163,-575.215"/>
<polygon fill="black" stroke="black" points="139.505,-574.166 133.493,-565.442 132.753,-576.011 139.505,-574.166"/>
<text text-anchor="middle" x="160.5" y="-631.3" font-family="Times,serif" font-size="14.00">b</text>
</g>
<!-- 1 -->
<g id="node2" class="node"><title>1</title>
<ellipse fill="lightblue" stroke="black" cx="209" cy="-548" rx="18" ry="18"/>
<text text-anchor="middle" x="209" y="-544.3" font-family="Times,serif" font-size="14.00">1</text>
</g>
<!-- 1&#45;&gt;0 -->
<g id="edge4" class="edge"><title>1&#45;&gt;0</title>
<path fill="none" stroke="black" d="M205.444,-565.746C202.549,-579.497 198.402,-599.489 195,-617 189.933,-643.083 184.521,-672.924 180.774,-693.932"/>
<polygon fill="black" stroke="black" points="177.281,-693.587 178.978,-704.045 184.173,-694.812 177.281,-693.587"/>
<text text-anchor="middle" x="198.5" y="-631.3" font-family="Times,serif" font-size="14.00">a</text>
</g>
<!-- 4 -->
<g id="node5" class="node"><title>4</title>
<ellipse fill="lightblue" stroke="black" cx="209" cy="-461" rx="18" ry="18"/>
<text text-anchor="middle" x="209" y="-457.3" font-family="Times,serif" font-size="14.00">4</text>
</g>
<!-- 1&#45;&gt;4 -->
<g id="edge5" class="edge"><title>1&#45;&gt;4</title>
<path fill="none" stroke="black" d="M209,-529.799C209,-518.163 209,-502.548 209,-489.237"/>
<polygon fill="black" stroke="black" points="212.5,-489.175 209,-479.175 205.5,-489.175 212.5,-489.175"/>
<text text-anchor="middle" x="212.5" y="-500.8" font-family="Times,serif" font-size="14.00">b</text>
</g>
<!-- 1&#45;&gt;6 -->
<g id="edge6" class="edge"><title>1&#45;&gt;6</title>
<path fill="none" stroke="black" d="M208.388,-566.386C208.455,-576.122 209.225,-588.4 212,-599 212.963,-602.68 214.326,-606.435 215.864,-610.053"/>
<polygon fill="black" stroke="black" points="212.743,-611.639 220.198,-619.167 219.065,-608.633 212.743,-611.639"/>
<text text-anchor="middle" x="215.5" y="-587.8" font-family="Times,serif" font-size="14.00">c</text>
</g>
<!-- 2 -->
<g id="node3" class="node"><title>2</title>
<ellipse fill="lightblue" stroke="black" cx="118" cy="-374" rx="18" ry="18"/>
<text text-anchor="middle" x="118" y="-370.3" font-family="Times,serif" font-size="14.00">2</text>
</g>
<!-- 3 -->
<g id="node4" class="node"><title>3</title>
<ellipse fill="lightblue" stroke="black" cx="98" cy="-200" rx="18" ry="18"/>
<text text-anchor="middle" x="98" y="-196.3" font-family="Times,serif" font-size="14.00">3</text>
</g>
<!-- 2&#45;&gt;3 -->
<g id="edge7" class="edge"><title>2&#45;&gt;3</title>
<path fill="none" stroke="black" d="M116.009,-355.879C112.535,-326.001 105.339,-264.113 101.171,-228.274"/>
<polygon fill="black" stroke="black" points="104.614,-227.58 99.9827,-218.052 97.6613,-228.389 104.614,-227.58"/>
<text text-anchor="middle" x="113.5" y="-283.3" font-family="Times,serif" font-size="14.00">c</text>
</g>
<!-- 5 -->
<g id="node6" class="node"><title>5</title>
<ellipse fill="lightblue" stroke="black" cx="145" cy="-287" rx="18" ry="18"/>
<text text-anchor="middle" x="145" y="-283.3" font-family="Times,serif" font-size="14.00">5</text>
</g>
<!-- 2&#45;&gt;5 -->
<g id="edge8" class="edge"><title>2&#45;&gt;5</title>
<path fill="none" stroke="black" d="M123.206,-356.611C127.016,-344.617 132.265,-328.093 136.657,-314.266"/>
<polygon fill="black" stroke="black" points="140.118,-314.929 139.81,-304.339 133.447,-312.81 140.118,-314.929"/>
<text text-anchor="middle" x="137.5" y="-326.8" font-family="Times,serif" font-size="14.00">b</text>
</g>
<!-- 7 -->
<g id="node8" class="node"><title>7</title>
<ellipse fill="lightblue" stroke="black" cx="50" cy="-109" rx="18" ry="18"/>
<ellipse fill="none" stroke="black" cx="50" cy="-109" rx="22" ry="22"/>
<text text-anchor="middle" x="50" y="-105.3" font-family="Times,serif" font-size="14.00">7</text>
</g>
<!-- 2&#45;&gt;7 -->
<g id="edge9" class="edge"><title>2&#45;&gt;7</title>
<path fill="none" stroke="black" d="M112.357,-356.412C102.905,-328.217 83.6642,-269.036 71,-218 64.5955,-192.19 58.9462,-162.512 55.1248,-140.806"/>
<polygon fill="black" stroke="black" points="58.5546,-140.099 53.4004,-130.843 51.6572,-141.293 58.5546,-140.099"/>
<text text-anchor="middle" x="83.5" y="-239.8" font-family="Times,serif" font-size="14.00">a</text>
</g>
<!-- 3&#45;&gt;3 -->
<g id="edge10" class="edge"><title>3&#45;&gt;3</title>
<path fill="none" stroke="black" d="M114.664,-207.383C124.625,-209.023 134,-206.562 134,-200 134,-195.796 130.152,-193.275 124.768,-192.438"/>
<polygon fill="black" stroke="black" points="124.6,-188.94 114.664,-192.617 124.725,-195.939 124.6,-188.94"/>
<text text-anchor="middle" x="137.5" y="-196.3" font-family="Times,serif" font-size="14.00">c</text>
</g>
<!-- 3&#45;&gt;7 -->
<g id="edge11" class="edge"><title>3&#45;&gt;7</title>
<path fill="none" stroke="black" d="M89.8575,-183.902C83.0795,-171.335 73.2474,-153.105 65.0446,-137.895"/>
<polygon fill="black" stroke="black" points="68.0171,-136.033 60.1897,-128.893 61.8561,-139.356 68.0171,-136.033"/>
<text text-anchor="middle" x="82.5" y="-152.8" font-family="Times,serif" font-size="14.00">a</text>
</g>
<!-- 10 -->
<g id="node11" class="node"><title>10</title>
<ellipse fill="lightblue" stroke="black" cx="177" cy="-18" rx="18" ry="18"/>
<text text-anchor="middle" x="177" y="-14.3" font-family="Times,serif" font-size="14.00">10</text>
</g>
<!-- 3&#45;&gt;10 -->
<g id="edge12" class="edge"><title>3&#45;&gt;10</title>
<path fill="none" stroke="black" d="M104.873,-183.341C118.588,-152.091 149.456,-81.7586 166.014,-44.0324"/>
<polygon fill="black" stroke="black" points="169.273,-45.3144 170.087,-34.7509 162.863,-42.5012 169.273,-45.3144"/>
<text text-anchor="middle" x="150.5" y="-105.3" font-family="Times,serif" font-size="14.00">b</text>
</g>
<!-- 4&#45;&gt;4 -->
<g id="edge13" class="edge"><title>4&#45;&gt;4</title>
<path fill="none" stroke="black" d="M225.664,-468.383C235.625,-470.023 245,-467.562 245,-461 245,-456.796 241.152,-454.275 235.768,-453.438"/>
<polygon fill="black" stroke="black" points="235.6,-449.94 225.664,-453.617 235.725,-456.939 235.6,-449.94"/>
<text text-anchor="middle" x="248.5" y="-457.3" font-family="Times,serif" font-size="14.00">b</text>
</g>
<!-- 9 -->
<g id="node10" class="node"><title>9</title>
<ellipse fill="lightblue" stroke="black" cx="209" cy="-374" rx="18" ry="18"/>
<text text-anchor="middle" x="209" y="-370.3" font-family="Times,serif" font-size="14.00">9</text>
</g>
<!-- 4&#45;&gt;9 -->
<g id="edge14" class="edge"><title>4&#45;&gt;9</title>
<path fill="none" stroke="black" d="M209,-442.799C209,-431.163 209,-415.548 209,-402.237"/>
<polygon fill="black" stroke="black" points="212.5,-402.175 209,-392.175 205.5,-402.175 212.5,-402.175"/>
<text text-anchor="middle" x="212.5" y="-413.8" font-family="Times,serif" font-size="14.00">a</text>
</g>
<!-- 4&#45;&gt;10 -->
<g id="edge15" class="edge"><title>4&#45;&gt;10</title>
<path fill="none" stroke="black" d="M221.617,-448.062C236.429,-432.695 259,-404.448 259,-375 259,-375 259,-375 259,-108 259,-73.7212 225.693,-46.9854 201.533,-32.1015"/>
<polygon fill="black" stroke="black" points="203.207,-29.0257 192.81,-26.9864 199.666,-35.0641 203.207,-29.0257"/>
<text text-anchor="middle" x="262.5" y="-239.8" font-family="Times,serif" font-size="14.00">c</text>
</g>
<!-- 5&#45;&gt;3 -->
<g id="edge16" class="edge"><title>5&#45;&gt;3</title>
<path fill="none" stroke="black" d="M136.597,-270.804C129.58,-258.112 119.447,-239.787 111.324,-225.097"/>
<polygon fill="black" stroke="black" points="114.232,-223.122 106.33,-216.065 108.106,-226.51 114.232,-223.122"/>
<text text-anchor="middle" x="128.5" y="-239.8" font-family="Times,serif" font-size="14.00">a</text>
</g>
<!-- 5&#45;&gt;10 -->
<g id="edge17" class="edge"><title>5&#45;&gt;10</title>
<path fill="none" stroke="black" d="M147.05,-268.892C152.469,-223.68 167.202,-100.753 173.768,-45.9703"/>
<polygon fill="black" stroke="black" points="177.252,-46.3112 174.967,-35.9657 170.301,-45.4782 177.252,-46.3112"/>
<text text-anchor="middle" x="169.5" y="-152.8" font-family="Times,serif" font-size="14.00">b,c</text>
</g>
<!-- 6&#45;&gt;1 -->
<g id="edge18" class="edge"><title>6&#45;&gt;1</title>
<path fill="none" stroke="black" d="M225.049,-617.207C222.255,-605.332 218.451,-589.168 215.249,-575.557"/>
<polygon fill="black" stroke="black" points="218.641,-574.691 212.943,-565.758 211.827,-576.294 218.641,-574.691"/>
<text text-anchor="middle" x="223.5" y="-587.8" font-family="Times,serif" font-size="14.00">a</text>
</g>
<!-- 6&#45;&gt;6 -->
<g id="edge19" class="edge"><title>6&#45;&gt;6</title>
<path fill="none" stroke="black" d="M245.664,-642.383C255.625,-644.023 265,-641.562 265,-635 265,-630.796 261.152,-628.275 255.768,-627.438"/>
<polygon fill="black" stroke="black" points="255.6,-623.94 245.664,-627.617 255.725,-630.939 255.6,-623.94"/>
<text text-anchor="middle" x="268.5" y="-631.3" font-family="Times,serif" font-size="14.00">c</text>
</g>
<!-- 6&#45;&gt;10 -->
<g id="edge20" class="edge"><title>6&#45;&gt;10</title>
<path fill="none" stroke="black" d="M244.091,-624.504C264.125,-610.593 297,-582.639 297,-549 297,-549 297,-549 297,-108 297,-62.0834 239.618,-37.1119 204.215,-26.0747"/>
<polygon fill="black" stroke="black" points="205.03,-22.6664 194.449,-23.2067 203.058,-29.3828 205.03,-22.6664"/>
<text text-anchor="middle" x="300.5" y="-326.8" font-family="Times,serif" font-size="14.00">b</text>
</g>
<!-- 7&#45;&gt;7 -->
<g id="edge21" class="edge"><title>7&#45;&gt;7</title>
<path fill="none" stroke="black" d="M70.5808,-117.37C80.8447,-118.528 90,-115.738 90,-109 90,-104.683 86.2427,-101.987 80.8436,-100.911"/>
<polygon fill="black" stroke="black" points="80.6729,-97.405 70.5808,-100.63 80.4812,-104.402 80.6729,-97.405"/>
<text text-anchor="middle" x="98" y="-105.3" font-family="Times,serif" font-size="14.00">a,c</text>
</g>
<!-- 7&#45;&gt;10 -->
<g id="edge22" class="edge"><title>7&#45;&gt;10</title>
<path fill="none" stroke="black" d="M66.8912,-94.4573C81.0762,-83.2547 102.013,-67.113 121,-54 131.256,-46.9167 142.901,-39.5372 152.905,-33.3907"/>
<polygon fill="black" stroke="black" points="154.819,-36.3231 161.545,-28.1364 151.182,-30.3423 154.819,-36.3231"/>
<text text-anchor="middle" x="124.5" y="-57.8" font-family="Times,serif" font-size="14.00">b</text>
</g>
<!-- 8&#45;&gt;2 -->
<g id="edge23" class="edge"><title>8&#45;&gt;2</title>
<path fill="none" stroke="black" d="M127.905,-529.879C125.994,-500.001 122.036,-438.113 119.744,-402.274"/>
<polygon fill="black" stroke="black" points="123.222,-401.808 119.091,-392.052 116.236,-402.255 123.222,-401.808"/>
<text text-anchor="middle" x="128.5" y="-457.3" font-family="Times,serif" font-size="14.00">a</text>
</g>
<!-- 8&#45;&gt;4 -->
<g id="edge24" class="edge"><title>8&#45;&gt;4</title>
<path fill="none" stroke="black" d="M141.15,-534.09C154.147,-520.281 174.932,-498.197 190.075,-482.107"/>
<polygon fill="black" stroke="black" points="192.693,-484.433 196.998,-474.753 187.595,-479.636 192.693,-484.433"/>
<text text-anchor="middle" x="176.5" y="-500.8" font-family="Times,serif" font-size="14.00">b</text>
</g>
<!-- 8&#45;&gt;10 -->
<g id="edge25" class="edge"><title>8&#45;&gt;10</title>
<path fill="none" stroke="black" d="M111.334,-543.9C76.0037,-536.578 0,-514.702 0,-462 0,-462 0,-462 0,-108 0,-42.1497 98.9951,-25.0158 148.916,-20.5619"/>
<polygon fill="black" stroke="black" points="149.356,-24.0383 159.054,-19.7721 148.813,-17.0595 149.356,-24.0383"/>
<text text-anchor="middle" x="3.5" y="-283.3" font-family="Times,serif" font-size="14.00">c</text>
</g>
<!-- 9&#45;&gt;5 -->
<g id="edge26" class="edge"><title>9&#45;&gt;5</title>
<path fill="none" stroke="black" d="M198.432,-358.964C188.366,-345.596 173.066,-325.275 161.413,-309.799"/>
<polygon fill="black" stroke="black" points="164.183,-307.658 155.372,-301.775 158.591,-311.869 164.183,-307.658"/>
<text text-anchor="middle" x="183.5" y="-326.8" font-family="Times,serif" font-size="14.00">b</text>
</g>
<!-- 9&#45;&gt;10 -->
<g id="edge27" class="edge"><title>9&#45;&gt;10</title>
<path fill="none" stroke="black" d="M210.898,-356.091C212.656,-338.956 215,-311.67 215,-288 215,-288 215,-288 215,-108 215,-84.043 203.21,-59.1616 192.765,-41.8184"/>
<polygon fill="black" stroke="black" points="195.493,-39.5851 187.183,-33.0126 189.581,-43.3326 195.493,-39.5851"/>
<text text-anchor="middle" x="223" y="-196.3" font-family="Times,serif" font-size="14.00">a,c</text>
</g>
<!-- 10&#45;&gt;10 -->
<g id="edge28" class="edge"><title>10&#45;&gt;10</title>
<path fill="none" stroke="black" d="M193.664,-25.3828C203.625,-27.0234 213,-24.5625 213,-18 213,-13.7959 209.152,-11.2751 203.768,-10.4375"/>
<polygon fill="black" stroke="black" points="203.6,-6.93988 193.664,-10.6172 203.725,-13.9388 203.6,-6.93988"/>
<text text-anchor="middle" x="226.5" y="-14.3" font-family="Times,serif" font-size="14.00">b,a,c</text>
</g>
</g>
</svg>
