<?xml version="1.0" encoding="UTF-8" standalone="no"?>
<!DOCTYPE svg PUBLIC "-//W3C//DTD SVG 1.1//EN"
 "http://www.w3.org/Graphics/SVG/1.1/DTD/svg11.dtd">
<!-- Generated by graphviz version 2.38.0 (20140413.2041)
 -->
<!-- Title: %3 Pages: 1 -->
<svg width="139pt" height="313pt"
 viewBox="0.00 0.00 139.00 313.00" xmlns="http://www.w3.org/2000/svg" xmlns:xlink="http://www.w3.org/1999/xlink">
<g id="graph0" class="graph" transform="scale(1 1) rotate(0) translate(4 309)">
<title>%3</title>
<!-- 4 -->
<g id="node1" class="node"><title>4</title>
<ellipse fill="lightblue" stroke="black" cx="84" cy="-18" rx="18" ry="18"/>
<text text-anchor="middle" x="84" y="-14.3" font-family="Times,serif" font-size="14.00">4</text>
</g>
<!-- 2 -->
<g id="node2" class="node"><title>2</title>
<ellipse fill="lightblue" stroke="black" cx="18" cy="-200" rx="18" ry="18"/>
<text text-anchor="middle" x="18" y="-196.3" font-family="Times,serif" font-size="14.00">2</text>
</g>
<!-- 2&#45;&gt;2 -->
<g id="edge1" class="edge"><title>2&#45;&gt;2</title>
<path fill="none" stroke="black" d="M34.6641,-207.383C44.625,-209.023 54,-206.562 54,-200 54,-195.796 50.1525,-193.275 44.7682,-192.438"/>
<polygon fill="black" stroke="black" points="44.6002,-188.94 34.6641,-192.617 44.7247,-195.939 44.6002,-188.94"/>
<text text-anchor="middle" x="62.5" y="-196.3" font-family="Times,serif" font-size="14.00">b,a</text>
</g>
<!-- 3 -->
<g id="node3" class="node"><title>3</title>
<ellipse fill="lightblue" stroke="black" cx="84" cy="-109" rx="18" ry="18"/>
<ellipse fill="none" stroke="black" cx="84" cy="-109" rx="22" ry="22"/>
<text text-anchor="middle" x="84" y="-105.3" font-family="Times,serif" font-size="14.00">3</text>
</g>
<!-- 2&#45;&gt;3 -->
<g id="edge2" class="edge"><title>2&#45;&gt;3</title>
<path fill="none" stroke="black" d="M28.3125,-185.094C38.1013,-171.894 53.0522,-151.733 64.9986,-135.623"/>
<polygon fill="black" stroke="black" points="68.1292,-137.277 71.2745,-127.16 62.5066,-133.108 68.1292,-137.277"/>
<text text-anchor="middle" x="58.5" y="-152.8" font-family="Times,serif" font-size="14.00">b</text>
</g>
<!-- 3&#45;&gt;4 -->
<g id="edge3" class="edge"><title>3&#45;&gt;4</title>
<path fill="none" stroke="black" d="M84,-86.9082C84,-74.7803 84,-59.4094 84,-46.3598"/>
<polygon fill="black" stroke="black" points="87.5001,-46.0663 84,-36.0663 80.5001,-46.0663 87.5001,-46.0663"/>
<text text-anchor="middle" x="87.5" y="-57.8" font-family="Times,serif" font-size="14.00">a</text>
</g>
<!-- 3&#45;&gt;3 -->
<g id="edge4" class="edge"><title>3&#45;&gt;3</title>
<path fill="none" stroke="black" d="M104.581,-117.37C114.845,-118.528 124,-115.738 124,-109 124,-104.683 120.243,-101.987 114.844,-100.911"/>
<polygon fill="black" stroke="black" points="114.673,-97.405 104.581,-100.63 114.481,-104.402 114.673,-97.405"/>
<text text-anchor="middle" x="127.5" y="-105.3" font-family="Times,serif" font-size="14.00">b</text>
</g>
<!-- 1 -->
<g id="node4" class="node"><title>1</title>
<ellipse fill="#aaff80" stroke="black" cx="79" cy="-287" rx="18" ry="18"/>
<text text-anchor="middle" x="79" y="-283.3" font-family="Times,serif" font-size="14.00">1</text>
</g>
<!-- 1&#45;&gt;2 -->
<g id="edge5" class="edge"><title>1&#45;&gt;2</title>
<path fill="none" stroke="black" d="M68.9271,-271.964C59.4791,-258.799 45.1911,-238.889 34.1514,-223.506"/>
<polygon fill="black" stroke="black" points="36.7619,-221.141 28.0879,-215.057 31.0748,-225.222 36.7619,-221.141"/>
<text text-anchor="middle" x="56.5" y="-239.8" font-family="Times,serif" font-size="14.00">a</text>
</g>
<!-- 1&#45;&gt;3 -->
<g id="edge6" class="edge"><title>1&#45;&gt;3</title>
<path fill="none" stroke="black" d="M79.4885,-268.804C80.3272,-239.282 82.0525,-178.55 83.1097,-141.338"/>
<polygon fill="black" stroke="black" points="86.6163,-141.154 83.4018,-131.058 79.6191,-140.955 86.6163,-141.154"/>
<text text-anchor="middle" x="85.5" y="-196.3" font-family="Times,serif" font-size="14.00">b</text>
</g>
</g>
</svg>
