<?xml version="1.0" encoding="UTF-8" standalone="no"?>
<!DOCTYPE svg PUBLIC "-//W3C//DTD SVG 1.1//EN"
 "http://www.w3.org/Graphics/SVG/1.1/DTD/svg11.dtd">
<!-- Generated by graphviz version 2.38.0 (20140413.2041)
 -->
<!-- Title: %3 Pages: 1 -->
<svg width="102pt" height="226pt"
 viewBox="0.00 0.00 102.00 226.00" xmlns="http://www.w3.org/2000/svg" xmlns:xlink="http://www.w3.org/1999/xlink">
<g id="graph0" class="graph" transform="scale(1 1) rotate(0) translate(4 222)">
<title>%3</title>
<!-- 2 -->
<g id="node1" class="node"><title>2</title>
<ellipse fill="lightblue" stroke="black" cx="18" cy="-113" rx="18" ry="18"/>
<text text-anchor="middle" x="18" y="-109.3" font-family="Times,serif" font-size="14.00">2</text>
</g>
<!-- 2&#45;&gt;2 -->
<g id="edge1" class="edge"><title>2&#45;&gt;2</title>
<path fill="none" stroke="black" d="M34.6641,-120.383C44.625,-122.023 54,-119.562 54,-113 54,-108.796 50.1525,-106.275 44.7682,-105.438"/>
<polygon fill="black" stroke="black" points="44.6002,-101.94 34.6641,-105.617 44.7247,-108.939 44.6002,-101.94"/>
<text text-anchor="middle" x="57.5" y="-109.3" font-family="Times,serif" font-size="14.00">b</text>
</g>
<!-- 3 -->
<g id="node2" class="node"><title>3</title>
<ellipse fill="lightblue" stroke="black" cx="72" cy="-22" rx="18" ry="18"/>
<ellipse fill="none" stroke="black" cx="72" cy="-22" rx="22" ry="22"/>
<text text-anchor="middle" x="72" y="-18.3" font-family="Times,serif" font-size="14.00">3</text>
</g>
<!-- 2&#45;&gt;3 -->
<g id="edge2" class="edge"><title>2&#45;&gt;3</title>
<path fill="none" stroke="black" d="M26.917,-97.3035C34.7299,-84.4266 46.2815,-65.3878 55.7355,-49.8063"/>
<polygon fill="black" stroke="black" points="58.8203,-51.4693 61.0153,-41.1043 52.8357,-47.8382 58.8203,-51.4693"/>
<text text-anchor="middle" x="51.5" y="-65.8" font-family="Times,serif" font-size="14.00">b</text>
</g>
<!-- 1 -->
<g id="node3" class="node"><title>1</title>
<ellipse fill="#aaff80" stroke="black" cx="72" cy="-200" rx="18" ry="18"/>
<text text-anchor="middle" x="72" y="-196.3" font-family="Times,serif" font-size="14.00">1</text>
</g>
<!-- 1&#45;&gt;2 -->
<g id="edge3" class="edge"><title>1&#45;&gt;2</title>
<path fill="none" stroke="black" d="M62.5939,-184.194C54.3861,-171.274 42.3361,-152.307 32.8308,-137.345"/>
<polygon fill="black" stroke="black" points="35.6149,-135.2 27.2983,-128.636 29.7064,-138.954 35.6149,-135.2"/>
<text text-anchor="middle" x="51.5" y="-152.8" font-family="Times,serif" font-size="14.00">a</text>
</g>
<!-- 1&#45;&gt;3 -->
<g id="edge4" class="edge"><title>1&#45;&gt;3</title>
<path fill="none" stroke="black" d="M72,-181.804C72,-152.282 72,-91.5505 72,-54.3381"/>
<polygon fill="black" stroke="black" points="75.5001,-54.0583 72,-44.0583 68.5001,-54.0583 75.5001,-54.0583"/>
<text text-anchor="middle" x="75.5" y="-109.3" font-family="Times,serif" font-size="14.00">b</text>
</g>
</g>
</svg>
