<?xml version="1.0" encoding="UTF-8" standalone="no"?>
<!DOCTYPE svg PUBLIC "-//W3C//DTD SVG 1.1//EN"
 "http://www.w3.org/Graphics/SVG/1.1/DTD/svg11.dtd">
<!-- Generated by graphviz version 2.38.0 (20140413.2041)
 -->
<!-- Title: %3 Pages: 1 -->
<svg width="155pt" height="329pt"
 viewBox="0.00 0.00 155.28 329.00" xmlns="http://www.w3.org/2000/svg" xmlns:xlink="http://www.w3.org/1999/xlink">
<g id="graph0" class="graph" transform="scale(1 1) rotate(0) translate(4 325)">
<title>%3</title>
<!-- 0 -->
<g id="node1" class="node"><title>0</title>
<ellipse fill="lightblue" stroke="black" cx="69.2813" cy="-18" rx="18" ry="18"/>
<text text-anchor="middle" x="69.2813" y="-14.3" font-family="Times,serif" font-size="14.00">0</text>
</g>
<!-- 0&#45;&gt;0 -->
<g id="edge1" class="edge"><title>0&#45;&gt;0</title>
<path fill="none" stroke="black" d="M85.9453,-25.3828C95.9063,-27.0234 105.281,-24.5625 105.281,-18 105.281,-13.7959 101.434,-11.2751 96.0495,-10.4375"/>
<polygon fill="black" stroke="black" points="95.8815,-6.93988 85.9453,-10.6172 96.006,-13.9388 95.8815,-6.93988"/>
<text text-anchor="middle" x="113.781" y="-14.3" font-family="Times,serif" font-size="14.00">a,b</text>
</g>
<!-- 1 -->
<g id="node2" class="node"><title>1</title>
<ellipse fill="lightblue" stroke="black" cx="45.2813" cy="-204" rx="18" ry="18"/>
<text text-anchor="middle" x="45.2813" y="-200.3" font-family="Times,serif" font-size="14.00">1</text>
</g>
<!-- 1&#45;&gt;0 -->
<g id="edge2" class="edge"><title>1&#45;&gt;0</title>
<path fill="none" stroke="black" d="M34.1752,-189.645C17.5337,-167.923 -10.4281,-123.676 4.28127,-87 12.796,-65.7696 31.4506,-47.4152 46.6009,-35.1449"/>
<polygon fill="black" stroke="black" points="48.8063,-37.8639 54.5706,-28.9744 44.5208,-32.329 48.8063,-37.8639"/>
<text text-anchor="middle" x="7.78127" y="-105.3" font-family="Times,serif" font-size="14.00">a</text>
</g>
<!-- 5 -->
<g id="node6" class="node"><title>5</title>
<ellipse fill="lightblue" stroke="black" cx="42.2813" cy="-109" rx="18" ry="18"/>
<ellipse fill="none" stroke="black" cx="42.2813" cy="-109" rx="22" ry="22"/>
<text text-anchor="middle" x="42.2813" y="-105.3" font-family="Times,serif" font-size="14.00">5</text>
</g>
<!-- 1&#45;&gt;5 -->
<g id="edge3" class="edge"><title>1&#45;&gt;5</title>
<path fill="none" stroke="black" d="M41.5538,-186.003C40.2392,-179.198 38.9279,-171.263 38.2813,-164 37.6183,-156.554 37.7532,-148.523 38.2543,-140.989"/>
<polygon fill="black" stroke="black" points="41.7623,-141.053 39.1614,-130.782 34.7898,-140.433 41.7623,-141.053"/>
<text text-anchor="middle" x="41.7813" y="-152.8" font-family="Times,serif" font-size="14.00">b</text>
</g>
<!-- 2 -->
<g id="node3" class="node"><title>2</title>
<ellipse fill="lightblue" stroke="black" cx="104.281" cy="-109" rx="18" ry="18"/>
<ellipse fill="none" stroke="black" cx="104.281" cy="-109" rx="22" ry="22"/>
<text text-anchor="middle" x="104.281" y="-105.3" font-family="Times,serif" font-size="14.00">2</text>
</g>
<!-- 2&#45;&gt;0 -->
<g id="edge4" class="edge"><title>2&#45;&gt;0</title>
<path fill="none" stroke="black" d="M96.5136,-88.248C91.4574,-75.3908 84.8119,-58.4922 79.3515,-44.6071"/>
<polygon fill="black" stroke="black" points="82.5416,-43.1554 75.6246,-35.1301 76.0272,-45.7173 82.5416,-43.1554"/>
<text text-anchor="middle" x="91.7813" y="-57.8" font-family="Times,serif" font-size="14.00">a</text>
</g>
<!-- 4 -->
<g id="node5" class="node"><title>4</title>
<ellipse fill="lightblue" stroke="black" cx="114.281" cy="-204" rx="18" ry="18"/>
<ellipse fill="none" stroke="black" cx="114.281" cy="-204" rx="22" ry="22"/>
<text text-anchor="middle" x="114.281" y="-200.3" font-family="Times,serif" font-size="14.00">4</text>
</g>
<!-- 2&#45;&gt;4 -->
<g id="edge5" class="edge"><title>2&#45;&gt;4</title>
<path fill="none" stroke="black" d="M106.541,-131.02C107.831,-143.014 109.473,-158.281 110.912,-171.665"/>
<polygon fill="black" stroke="black" points="107.463,-172.328 112.012,-181.897 114.423,-171.58 107.463,-172.328"/>
<text text-anchor="middle" x="112.781" y="-152.8" font-family="Times,serif" font-size="14.00">b</text>
</g>
<!-- 3 -->
<g id="node4" class="node"><title>3</title>
<ellipse fill="#aaff80" stroke="black" cx="84.2813" cy="-299" rx="18" ry="18"/>
<ellipse fill="none" stroke="black" cx="84.2813" cy="-299" rx="22" ry="22"/>
<text text-anchor="middle" x="84.2813" y="-295.3" font-family="Times,serif" font-size="14.00">3</text>
</g>
<!-- 3&#45;&gt;1 -->
<g id="edge6" class="edge"><title>3&#45;&gt;1</title>
<path fill="none" stroke="black" d="M76.0104,-278.277C70.141,-264.281 62.2127,-245.375 55.8794,-230.273"/>
<polygon fill="black" stroke="black" points="59.0806,-228.856 51.9856,-220.987 52.6253,-231.563 59.0806,-228.856"/>
<text text-anchor="middle" x="70.7813" y="-247.8" font-family="Times,serif" font-size="14.00">a</text>
</g>
<!-- 3&#45;&gt;4 -->
<g id="edge7" class="edge"><title>3&#45;&gt;4</title>
<path fill="none" stroke="black" d="M90.7908,-277.82C94.84,-265.268 100.12,-248.9 104.648,-234.862"/>
<polygon fill="black" stroke="black" points="108.045,-235.732 107.784,-225.14 101.383,-233.583 108.045,-235.732"/>
<text text-anchor="middle" x="103.781" y="-247.8" font-family="Times,serif" font-size="14.00">b</text>
</g>
<!-- 4&#45;&gt;0 -->
<g id="edge8" class="edge"><title>4&#45;&gt;0</title>
<path fill="none" stroke="black" d="M124.039,-183.854C134.645,-160.294 148.432,-119.432 135.281,-87 126.57,-65.5173 107.453,-47.0823 92.0248,-34.8484"/>
<polygon fill="black" stroke="black" points="94.0067,-31.9589 83.9224,-28.7098 89.7795,-37.5384 94.0067,-31.9589"/>
<text text-anchor="middle" x="143.781" y="-105.3" font-family="Times,serif" font-size="14.00">b</text>
</g>
<!-- 4&#45;&gt;2 -->
<g id="edge9" class="edge"><title>4&#45;&gt;2</title>
<path fill="none" stroke="black" d="M106.884,-183.024C104.994,-176.997 103.229,-170.305 102.281,-164 101.172,-156.623 100.945,-148.618 101.159,-141.087"/>
<polygon fill="black" stroke="black" points="104.666,-141.046 101.709,-130.872 97.6762,-140.669 104.666,-141.046"/>
<text text-anchor="middle" x="105.781" y="-152.8" font-family="Times,serif" font-size="14.00">a</text>
</g>
<!-- 5&#45;&gt;0 -->
<g id="edge10" class="edge"><title>5&#45;&gt;0</title>
<path fill="none" stroke="black" d="M48.408,-87.8045C52.2267,-75.2169 57.1809,-58.8865 61.3043,-45.2943"/>
<polygon fill="black" stroke="black" points="64.7092,-46.1268 64.2631,-35.5414 58.0107,-44.0946 64.7092,-46.1268"/>
<text text-anchor="middle" x="61.7813" y="-57.8" font-family="Times,serif" font-size="14.00">b</text>
</g>
<!-- 5&#45;&gt;1 -->
<g id="edge11" class="edge"><title>5&#45;&gt;1</title>
<path fill="none" stroke="black" d="M42.9649,-131.194C43.3911,-144.406 43.9438,-161.537 44.4023,-175.753"/>
<polygon fill="black" stroke="black" points="40.9103,-176.06 44.731,-185.942 47.9067,-175.835 40.9103,-176.06"/>
<text text-anchor="middle" x="47.7813" y="-152.8" font-family="Times,serif" font-size="14.00">a</text>
</g>
</g>
</svg>
