<?xml version="1.0" encoding="UTF-8" standalone="no"?>
<!DOCTYPE svg PUBLIC "-//W3C//DTD SVG 1.1//EN"
 "http://www.w3.org/Graphics/SVG/1.1/DTD/svg11.dtd">
<!-- Generated by graphviz version 2.38.0 (20140413.2041)
 -->
<!-- Title: %3 Pages: 1 -->
<svg width="375pt" height="748pt"
 viewBox="0.00 0.00 375.00 748.00" xmlns="http://www.w3.org/2000/svg" xmlns:xlink="http://www.w3.org/1999/xlink">
<g id="graph0" class="graph" transform="scale(1 1) rotate(0) translate(4 744)">
<title>%3</title>
<!-- 0 -->
<g id="node1" class="node"><title>0</title>
<ellipse fill="lightblue" stroke="black" cx="46" cy="-722" rx="18" ry="18"/>
<text text-anchor="middle" x="46" y="-718.3" font-family="Times,serif" font-size="14.00">0</text>
</g>
<!-- 3 -->
<g id="node4" class="node"><title>3</title>
<ellipse fill="lightblue" stroke="black" cx="161" cy="-635" rx="18" ry="18"/>
<text text-anchor="middle" x="161" y="-631.3" font-family="Times,serif" font-size="14.00">3</text>
</g>
<!-- 0&#45;&gt;3 -->
<g id="edge1" class="edge"><title>0&#45;&gt;3</title>
<path fill="none" stroke="black" d="M60.1013,-710.577C79.6726,-696.112 115.281,-669.792 138.535,-652.604"/>
<polygon fill="black" stroke="black" points="140.822,-655.266 146.783,-646.508 136.661,-649.637 140.822,-655.266"/>
<text text-anchor="middle" x="113.5" y="-674.8" font-family="Times,serif" font-size="14.00">a</text>
</g>
<!-- 7 -->
<g id="node8" class="node"><title>7</title>
<ellipse fill="lightblue" stroke="black" cx="177" cy="-18" rx="18" ry="18"/>
<text text-anchor="middle" x="177" y="-14.3" font-family="Times,serif" font-size="14.00">7</text>
</g>
<!-- 0&#45;&gt;7 -->
<g id="edge2" class="edge"><title>0&#45;&gt;7</title>
<path fill="none" stroke="black" d="M33.914,-708.325C20.285,-692.648 0,-664.525 0,-636 0,-636 0,-636 0,-104 0,-38.7362 98.9951,-23.5487 148.916,-20.0391"/>
<polygon fill="black" stroke="black" points="149.278,-23.5239 159.054,-19.44 148.865,-16.5361 149.278,-23.5239"/>
<text text-anchor="middle" x="8.5" y="-362.3" font-family="Times,serif" font-size="14.00">c,b</text>
</g>
<!-- 1 -->
<g id="node2" class="node"><title>1</title>
<ellipse fill="lightblue" stroke="black" cx="197" cy="-544" rx="18" ry="18"/>
<ellipse fill="none" stroke="black" cx="197" cy="-544" rx="22" ry="22"/>
<text text-anchor="middle" x="197" y="-540.3" font-family="Times,serif" font-size="14.00">1</text>
</g>
<!-- 1&#45;&gt;1 -->
<g id="edge3" class="edge"><title>1&#45;&gt;1</title>
<path fill="none" stroke="black" d="M217.581,-552.37C227.845,-553.528 237,-550.738 237,-544 237,-539.683 233.243,-536.987 227.844,-535.911"/>
<polygon fill="black" stroke="black" points="227.673,-532.405 217.581,-535.63 227.481,-539.402 227.673,-532.405"/>
<text text-anchor="middle" x="245" y="-540.3" font-family="Times,serif" font-size="14.00">c,a</text>
</g>
<!-- 9 -->
<g id="node10" class="node"><title>9</title>
<ellipse fill="lightblue" stroke="black" cx="189" cy="-453" rx="18" ry="18"/>
<text text-anchor="middle" x="189" y="-449.3" font-family="Times,serif" font-size="14.00">9</text>
</g>
<!-- 1&#45;&gt;9 -->
<g id="edge4" class="edge"><title>1&#45;&gt;9</title>
<path fill="none" stroke="black" d="M195.104,-521.908C194.014,-509.78 192.632,-494.409 191.459,-481.36"/>
<polygon fill="black" stroke="black" points="194.915,-480.713 190.534,-471.066 187.943,-481.34 194.915,-480.713"/>
<text text-anchor="middle" x="196.5" y="-492.8" font-family="Times,serif" font-size="14.00">b</text>
</g>
<!-- 2 -->
<g id="node3" class="node"><title>2</title>
<ellipse fill="lightblue" stroke="black" cx="55" cy="-366" rx="18" ry="18"/>
<text text-anchor="middle" x="55" y="-362.3" font-family="Times,serif" font-size="14.00">2</text>
</g>
<!-- 2&#45;&gt;0 -->
<g id="edge5" class="edge"><title>2&#45;&gt;0</title>
<path fill="none" stroke="black" d="M52.1523,-383.878C49.5156,-400.99 46,-428.257 46,-452 46,-636 46,-636 46,-636 46,-655.247 46,-676.946 46,-693.603"/>
<polygon fill="black" stroke="black" points="42.5001,-693.744 46,-703.744 49.5001,-693.744 42.5001,-693.744"/>
<text text-anchor="middle" x="49.5" y="-540.3" font-family="Times,serif" font-size="14.00">b</text>
</g>
<!-- 2&#45;&gt;7 -->
<g id="edge6" class="edge"><title>2&#45;&gt;7</title>
<path fill="none" stroke="black" d="M55.3219,-347.744C55.6142,-330.572 56,-303.465 56,-280 56,-280 56,-280 56,-104 56,-58.5538 113.86,-35.3149 149.559,-25.3018"/>
<polygon fill="black" stroke="black" points="150.623,-28.641 159.406,-22.7146 148.844,-21.8707 150.623,-28.641"/>
<text text-anchor="middle" x="64" y="-188.3" font-family="Times,serif" font-size="14.00">c,a</text>
</g>
<!-- 3&#45;&gt;1 -->
<g id="edge7" class="edge"><title>3&#45;&gt;1</title>
<path fill="none" stroke="black" d="M167.436,-618.089C172.333,-605.983 179.21,-588.981 185.099,-574.422"/>
<polygon fill="black" stroke="black" points="188.477,-575.406 188.982,-564.823 181.987,-572.781 188.477,-575.406"/>
<text text-anchor="middle" x="184.5" y="-587.8" font-family="Times,serif" font-size="14.00">c</text>
</g>
<!-- 3&#45;&gt;7 -->
<g id="edge8" class="edge"><title>3&#45;&gt;7</title>
<path fill="none" stroke="black" d="M179.011,-634.095C227.997,-633.32 360,-623.91 360,-545 360,-545 360,-545 360,-104 360,-36.6288 256.719,-22.5108 205.337,-19.6558"/>
<polygon fill="black" stroke="black" points="205.362,-16.1536 195.216,-19.2024 205.049,-23.1465 205.362,-16.1536"/>
<text text-anchor="middle" x="363.5" y="-318.8" font-family="Times,serif" font-size="14.00">a</text>
</g>
<!-- 11 -->
<g id="node12" class="node"><title>11</title>
<ellipse fill="#aaff80" stroke="black" cx="101" cy="-544" rx="18" ry="18"/>
<ellipse fill="none" stroke="black" cx="101" cy="-544" rx="22" ry="22"/>
<text text-anchor="middle" x="101" y="-540.3" font-family="Times,serif" font-size="14.00">11</text>
</g>
<!-- 3&#45;&gt;11 -->
<g id="edge9" class="edge"><title>3&#45;&gt;11</title>
<path fill="none" stroke="black" d="M151.36,-619.701C142.528,-606.599 129.238,-586.886 118.528,-570.999"/>
<polygon fill="black" stroke="black" points="121.38,-568.969 112.888,-562.633 115.576,-572.882 121.38,-568.969"/>
<text text-anchor="middle" x="139.5" y="-587.8" font-family="Times,serif" font-size="14.00">b</text>
</g>
<!-- 4 -->
<g id="node5" class="node"><title>4</title>
<ellipse fill="lightblue" stroke="black" cx="187" cy="-366" rx="18" ry="18"/>
<text text-anchor="middle" x="187" y="-362.3" font-family="Times,serif" font-size="14.00">4</text>
</g>
<!-- 4&#45;&gt;7 -->
<g id="edge10" class="edge"><title>4&#45;&gt;7</title>
<path fill="none" stroke="black" d="M186.504,-347.842C184.888,-291.926 179.764,-114.642 177.788,-46.2655"/>
<polygon fill="black" stroke="black" points="181.286,-46.1564 177.499,-36.2618 174.289,-46.3587 181.286,-46.1564"/>
<text text-anchor="middle" x="190.5" y="-188.3" font-family="Times,serif" font-size="14.00">c,b</text>
</g>
<!-- 8 -->
<g id="node9" class="node"><title>8</title>
<ellipse fill="lightblue" stroke="black" cx="238" cy="-279" rx="18" ry="18"/>
<text text-anchor="middle" x="238" y="-275.3" font-family="Times,serif" font-size="14.00">8</text>
</g>
<!-- 4&#45;&gt;8 -->
<g id="edge11" class="edge"><title>4&#45;&gt;8</title>
<path fill="none" stroke="black" d="M195.884,-350.194C203.588,-337.353 214.877,-318.538 223.829,-303.619"/>
<polygon fill="black" stroke="black" points="226.903,-305.297 229.047,-294.921 220.901,-301.696 226.903,-305.297"/>
<text text-anchor="middle" x="218.5" y="-318.8" font-family="Times,serif" font-size="14.00">a</text>
</g>
<!-- 5 -->
<g id="node6" class="node"><title>5</title>
<ellipse fill="lightblue" stroke="black" cx="238" cy="-192" rx="18" ry="18"/>
<text text-anchor="middle" x="238" y="-188.3" font-family="Times,serif" font-size="14.00">5</text>
</g>
<!-- 6 -->
<g id="node7" class="node"><title>6</title>
<ellipse fill="lightblue" stroke="black" cx="276" cy="-105" rx="18" ry="18"/>
<text text-anchor="middle" x="276" y="-101.3" font-family="Times,serif" font-size="14.00">6</text>
</g>
<!-- 5&#45;&gt;6 -->
<g id="edge12" class="edge"><title>5&#45;&gt;6</title>
<path fill="none" stroke="black" d="M244.878,-175.211C249.188,-165.359 254.877,-152.422 260,-141 261.466,-137.731 263.02,-134.296 264.561,-130.907"/>
<polygon fill="black" stroke="black" points="267.814,-132.209 268.784,-121.659 261.447,-129.302 267.814,-132.209"/>
<text text-anchor="middle" x="263.5" y="-144.8" font-family="Times,serif" font-size="14.00">a</text>
</g>
<!-- 5&#45;&gt;7 -->
<g id="edge13" class="edge"><title>5&#45;&gt;7</title>
<path fill="none" stroke="black" d="M232.621,-174.457C224.151,-148.61 207.016,-97.139 191,-54 189.838,-50.871 188.584,-47.5996 187.32,-44.3668"/>
<polygon fill="black" stroke="black" points="190.528,-42.9639 183.581,-34.9648 184.024,-45.5504 190.528,-42.9639"/>
<text text-anchor="middle" x="223.5" y="-101.3" font-family="Times,serif" font-size="14.00">c,b</text>
</g>
<!-- 6&#45;&gt;1 -->
<g id="edge14" class="edge"><title>6&#45;&gt;1</title>
<path fill="none" stroke="black" d="M289.117,-117.511C295.628,-123.858 303.124,-132.218 308,-141 319.202,-161.176 322,-167.923 322,-191 322,-454 322,-454 322,-454 322,-499.901 265.375,-524.331 228.349,-535.4"/>
<polygon fill="black" stroke="black" points="227.167,-532.096 218.488,-538.174 229.062,-538.835 227.167,-532.096"/>
<text text-anchor="middle" x="325.5" y="-318.8" font-family="Times,serif" font-size="14.00">c</text>
</g>
<!-- 6&#45;&gt;7 -->
<g id="edge15" class="edge"><title>6&#45;&gt;7</title>
<path fill="none" stroke="black" d="M266.689,-89.2051C259.483,-78.5458 248.771,-64.287 237,-54 226.572,-44.8864 213.425,-36.9059 202.097,-30.8761"/>
<polygon fill="black" stroke="black" points="203.608,-27.7174 193.11,-26.2877 200.425,-33.9519 203.608,-27.7174"/>
<text text-anchor="middle" x="259.5" y="-57.8" font-family="Times,serif" font-size="14.00">a,b</text>
</g>
<!-- 7&#45;&gt;7 -->
<g id="edge16" class="edge"><title>7&#45;&gt;7</title>
<path fill="none" stroke="black" d="M193.664,-25.3828C203.625,-27.0234 213,-24.5625 213,-18 213,-13.7959 209.152,-11.2751 203.768,-10.4375"/>
<polygon fill="black" stroke="black" points="203.6,-6.93988 193.664,-10.6172 203.725,-13.9388 203.6,-6.93988"/>
<text text-anchor="middle" x="226.5" y="-14.3" font-family="Times,serif" font-size="14.00">c,a,b</text>
</g>
<!-- 8&#45;&gt;5 -->
<g id="edge17" class="edge"><title>8&#45;&gt;5</title>
<path fill="none" stroke="black" d="M238,-260.799C238,-249.163 238,-233.548 238,-220.237"/>
<polygon fill="black" stroke="black" points="241.5,-220.175 238,-210.175 234.5,-220.175 241.5,-220.175"/>
<text text-anchor="middle" x="241.5" y="-231.8" font-family="Times,serif" font-size="14.00">b</text>
</g>
<!-- 8&#45;&gt;7 -->
<g id="edge18" class="edge"><title>8&#45;&gt;7</title>
<path fill="none" stroke="black" d="M249.301,-264.404C274.068,-232.873 328.924,-152.459 303,-87 287.458,-47.7565 237.099,-30.6557 204.948,-23.5889"/>
<polygon fill="black" stroke="black" points="205.312,-20.0924 194.82,-21.5595 203.937,-26.956 205.312,-20.0924"/>
<text text-anchor="middle" x="316" y="-144.8" font-family="Times,serif" font-size="14.00">c,a</text>
</g>
<!-- 9&#45;&gt;4 -->
<g id="edge19" class="edge"><title>9&#45;&gt;4</title>
<path fill="none" stroke="black" d="M188.595,-434.799C188.321,-423.163 187.954,-407.548 187.641,-394.237"/>
<polygon fill="black" stroke="black" points="191.138,-394.09 187.404,-384.175 184.14,-394.255 191.138,-394.09"/>
<text text-anchor="middle" x="191.5" y="-405.8" font-family="Times,serif" font-size="14.00">b</text>
</g>
<!-- 9&#45;&gt;7 -->
<g id="edge20" class="edge"><title>9&#45;&gt;7</title>
<path fill="none" stroke="black" d="M181.188,-436.32C167.125,-406.603 139,-339.707 139,-280 139,-280 139,-280 139,-104 139,-81.2232 150.512,-57.7685 160.864,-41.2825"/>
<polygon fill="black" stroke="black" points="163.818,-43.1607 166.415,-32.8891 157.979,-39.2993 163.818,-43.1607"/>
<text text-anchor="middle" x="147" y="-231.8" font-family="Times,serif" font-size="14.00">c,a</text>
</g>
<!-- 10 -->
<g id="node11" class="node"><title>10</title>
<ellipse fill="lightblue" stroke="black" cx="101" cy="-453" rx="18" ry="18"/>
<text text-anchor="middle" x="101" y="-449.3" font-family="Times,serif" font-size="14.00">10</text>
</g>
<!-- 10&#45;&gt;2 -->
<g id="edge21" class="edge"><title>10&#45;&gt;2</title>
<path fill="none" stroke="black" d="M92.6689,-436.671C89.3467,-430.553 85.4894,-423.445 82,-417 77.4761,-408.645 72.5346,-399.499 68.1299,-391.34"/>
<polygon fill="black" stroke="black" points="71.0927,-389.461 63.2631,-382.323 64.9326,-392.785 71.0927,-389.461"/>
<text text-anchor="middle" x="85.5" y="-405.8" font-family="Times,serif" font-size="14.00">a</text>
</g>
<!-- 10&#45;&gt;4 -->
<g id="edge22" class="edge"><title>10&#45;&gt;4</title>
<path fill="none" stroke="black" d="M113.322,-439.822C127.371,-425.935 150.538,-403.038 167.145,-386.625"/>
<polygon fill="black" stroke="black" points="170.049,-388.675 174.701,-379.156 165.128,-383.696 170.049,-388.675"/>
<text text-anchor="middle" x="152.5" y="-405.8" font-family="Times,serif" font-size="14.00">b</text>
</g>
<!-- 10&#45;&gt;7 -->
<g id="edge23" class="edge"><title>10&#45;&gt;7</title>
<path fill="none" stroke="black" d="M101,-434.744C101,-417.57 101,-390.464 101,-367 101,-367 101,-367 101,-104 101,-72.509 130.348,-47.3327 152.569,-32.7834"/>
<polygon fill="black" stroke="black" points="154.607,-35.6377 161.253,-27.3862 150.912,-29.6925 154.607,-35.6377"/>
<text text-anchor="middle" x="104.5" y="-231.8" font-family="Times,serif" font-size="14.00">c</text>
</g>
<!-- 11&#45;&gt;10 -->
<g id="edge24" class="edge"><title>11&#45;&gt;10</title>
<path fill="none" stroke="black" d="M101,-521.908C101,-509.78 101,-494.409 101,-481.36"/>
<polygon fill="black" stroke="black" points="104.5,-481.066 101,-471.066 97.5001,-481.066 104.5,-481.066"/>
<text text-anchor="middle" x="104.5" y="-492.8" font-family="Times,serif" font-size="14.00">b</text>
</g>
<!-- 11&#45;&gt;11 -->
<g id="edge25" class="edge"><title>11&#45;&gt;11</title>
<path fill="none" stroke="black" d="M121.581,-552.37C131.845,-553.528 141,-550.738 141,-544 141,-539.683 137.243,-536.987 131.844,-535.911"/>
<polygon fill="black" stroke="black" points="131.673,-532.405 121.581,-535.63 131.481,-539.402 131.673,-532.405"/>
<text text-anchor="middle" x="149" y="-540.3" font-family="Times,serif" font-size="14.00">c,a</text>
</g>
</g>
</svg>
