<?xml version="1.0" encoding="UTF-8" standalone="no"?>
<!DOCTYPE svg PUBLIC "-//W3C//DTD SVG 1.1//EN"
 "http://www.w3.org/Graphics/SVG/1.1/DTD/svg11.dtd">
<!-- Generated by graphviz version 2.38.0 (20140413.2041)
 -->
<!-- Title: %3 Pages: 1 -->
<svg width="123pt" height="131pt"
 viewBox="0.00 0.00 123.00 131.00" xmlns="http://www.w3.org/2000/svg" xmlns:xlink="http://www.w3.org/1999/xlink">
<g id="graph0" class="graph" transform="scale(1 1) rotate(0) translate(4 127)">
<title>%3</title>
<!-- 1 -->
<g id="node1" class="node"><title>1</title>
<ellipse fill="lightblue" stroke="black" cx="18" cy="-105" rx="18" ry="18"/>
<text text-anchor="middle" x="18" y="-101.3" font-family="Times,serif" font-size="14.00">1</text>
</g>
<!-- 3 -->
<g id="node3" class="node"><title>3</title>
<ellipse fill="lightblue" stroke="black" cx="18" cy="-18" rx="18" ry="18"/>
<text text-anchor="middle" x="18" y="-14.3" font-family="Times,serif" font-size="14.00">3</text>
</g>
<!-- 1&#45;&gt;3 -->
<g id="edge1" class="edge"><title>1&#45;&gt;3</title>
<path fill="none" stroke="black" d="M18,-86.799C18,-75.1626 18,-59.5479 18,-46.2368"/>
<polygon fill="black" stroke="black" points="21.5001,-46.1754 18,-36.1754 14.5001,-46.1755 21.5001,-46.1754"/>
<text text-anchor="middle" x="21.5" y="-57.8" font-family="Times,serif" font-size="14.00">a</text>
</g>
<!-- 2 -->
<g id="node2" class="node"><title>2</title>
<ellipse fill="lightblue" stroke="black" cx="72" cy="-105" rx="18" ry="18"/>
<text text-anchor="middle" x="72" y="-101.3" font-family="Times,serif" font-size="14.00">2</text>
</g>
<!-- 2&#45;&gt;2 -->
<g id="edge2" class="edge"><title>2&#45;&gt;2</title>
<path fill="none" stroke="black" d="M88.6641,-112.383C98.625,-114.023 108,-111.562 108,-105 108,-100.796 104.152,-98.2751 98.7682,-97.4375"/>
<polygon fill="black" stroke="black" points="98.6002,-93.9399 88.6641,-97.6172 98.7247,-100.939 98.6002,-93.9399"/>
<text text-anchor="middle" x="111.5" y="-101.3" font-family="Times,serif" font-size="14.00">a</text>
</g>
</g>
</svg>
