<?xml version="1.0" encoding="UTF-8" standalone="no"?>
<!DOCTYPE svg PUBLIC "-//W3C//DTD SVG 1.1//EN"
 "http://www.w3.org/Graphics/SVG/1.1/DTD/svg11.dtd">
<!-- Generated by graphviz version 2.38.0 (20140413.2041)
 -->
<!-- Title: %3 Pages: 1 -->
<svg width="169pt" height="400pt"
 viewBox="0.00 0.00 169.00 400.00" xmlns="http://www.w3.org/2000/svg" xmlns:xlink="http://www.w3.org/1999/xlink">
<g id="graph0" class="graph" transform="scale(1 1) rotate(0) translate(4 396)">
<title>%3</title>
<!-- 0 -->
<g id="node1" class="node"><title>0</title>
<ellipse fill="lightblue" stroke="black" cx="106" cy="-109" rx="18" ry="18"/>
<ellipse fill="none" stroke="black" cx="106" cy="-109" rx="22" ry="22"/>
<text text-anchor="middle" x="106" y="-105.3" font-family="Times,serif" font-size="14.00">0</text>
</g>
<!-- 1 -->
<g id="node2" class="node"><title>1</title>
<ellipse fill="lightblue" stroke="black" cx="77" cy="-18" rx="18" ry="18"/>
<text text-anchor="middle" x="77" y="-14.3" font-family="Times,serif" font-size="14.00">1</text>
</g>
<!-- 0&#45;&gt;1 -->
<g id="edge1" class="edge"><title>0&#45;&gt;1</title>
<path fill="none" stroke="black" d="M99.4195,-87.8045C95.2912,-75.1351 89.9276,-58.6743 85.4817,-45.0299"/>
<polygon fill="black" stroke="black" points="88.7224,-43.678 82.2964,-35.2544 82.0668,-45.8468 88.7224,-43.678"/>
<text text-anchor="middle" x="111.5" y="-57.8" font-family="Times,serif" font-size="14.00">b,a,d,c</text>
</g>
<!-- 1&#45;&gt;1 -->
<g id="edge2" class="edge"><title>1&#45;&gt;1</title>
<path fill="none" stroke="black" d="M93.6641,-25.3828C103.625,-27.0234 113,-24.5625 113,-18 113,-13.7959 109.152,-11.2751 103.768,-10.4375"/>
<polygon fill="black" stroke="black" points="103.6,-6.93988 93.6641,-10.6172 103.725,-13.9388 103.6,-6.93988"/>
<text text-anchor="middle" x="131.5" y="-14.3" font-family="Times,serif" font-size="14.00">b,a,d,c</text>
</g>
<!-- 2 -->
<g id="node3" class="node"><title>2</title>
<ellipse fill="#aaff80" stroke="black" cx="22" cy="-374" rx="18" ry="18"/>
<text text-anchor="middle" x="22" y="-370.3" font-family="Times,serif" font-size="14.00">2</text>
</g>
<!-- 2&#45;&gt;1 -->
<g id="edge3" class="edge"><title>2&#45;&gt;1</title>
<path fill="none" stroke="black" d="M15.2797,-357.024C8.80994,-340.173 0,-312.694 0,-288 0,-288 0,-288 0,-108 0,-75.1722 30.3313,-48.4932 52.9205,-33.1761"/>
<polygon fill="black" stroke="black" points="54.9157,-36.0541 61.4179,-27.6891 51.1184,-30.1735 54.9157,-36.0541"/>
<text text-anchor="middle" x="14" y="-196.3" font-family="Times,serif" font-size="14.00">b,d,c</text>
</g>
<!-- 3 -->
<g id="node4" class="node"><title>3</title>
<ellipse fill="lightblue" stroke="black" cx="56" cy="-287" rx="18" ry="18"/>
<text text-anchor="middle" x="56" y="-283.3" font-family="Times,serif" font-size="14.00">3</text>
</g>
<!-- 2&#45;&gt;3 -->
<g id="edge4" class="edge"><title>2&#45;&gt;3</title>
<path fill="none" stroke="black" d="M28.3951,-357.012C33.2866,-344.784 40.1283,-327.679 45.7766,-313.559"/>
<polygon fill="black" stroke="black" points="49.1692,-314.501 49.6335,-303.916 42.6699,-311.901 49.1692,-314.501"/>
<text text-anchor="middle" x="45.5" y="-326.8" font-family="Times,serif" font-size="14.00">a</text>
</g>
<!-- 3&#45;&gt;1 -->
<g id="edge5" class="edge"><title>3&#45;&gt;1</title>
<path fill="none" stroke="black" d="M57.3456,-268.892C60.9016,-223.68 70.57,-100.753 74.8787,-45.9703"/>
<polygon fill="black" stroke="black" points="78.3707,-46.2094 75.6656,-35.9657 71.3922,-45.6605 78.3707,-46.2094"/>
<text text-anchor="middle" x="80.5" y="-152.8" font-family="Times,serif" font-size="14.00">a,d,c</text>
</g>
<!-- 4 -->
<g id="node5" class="node"><title>4</title>
<ellipse fill="lightblue" stroke="black" cx="106" cy="-200" rx="18" ry="18"/>
<text text-anchor="middle" x="106" y="-196.3" font-family="Times,serif" font-size="14.00">4</text>
</g>
<!-- 3&#45;&gt;4 -->
<g id="edge6" class="edge"><title>3&#45;&gt;4</title>
<path fill="none" stroke="black" d="M64.7093,-271.194C72.2628,-258.353 83.3306,-239.538 92.1065,-224.619"/>
<polygon fill="black" stroke="black" points="95.1692,-226.315 97.2227,-215.921 89.1357,-222.766 95.1692,-226.315"/>
<text text-anchor="middle" x="86.5" y="-239.8" font-family="Times,serif" font-size="14.00">b</text>
</g>
<!-- 4&#45;&gt;0 -->
<g id="edge7" class="edge"><title>4&#45;&gt;0</title>
<path fill="none" stroke="black" d="M106,-181.84C106,-170.441 106,-155.134 106,-141.578"/>
<polygon fill="black" stroke="black" points="109.5,-141.19 106,-131.191 102.5,-141.191 109.5,-141.19"/>
<text text-anchor="middle" x="109.5" y="-152.8" font-family="Times,serif" font-size="14.00">d</text>
</g>
<!-- 4&#45;&gt;1 -->
<g id="edge8" class="edge"><title>4&#45;&gt;1</title>
<path fill="none" stroke="black" d="M115.242,-184.186C131.228,-156.476 159.956,-95.8273 134,-54 126.92,-42.5912 114.608,-34.3483 103.234,-28.7389"/>
<polygon fill="black" stroke="black" points="104.594,-25.5133 94.0361,-24.6346 101.742,-31.9058 104.594,-25.5133"/>
<text text-anchor="middle" x="152.5" y="-105.3" font-family="Times,serif" font-size="14.00">b,a</text>
</g>
<!-- 4&#45;&gt;4 -->
<g id="edge9" class="edge"><title>4&#45;&gt;4</title>
<path fill="none" stroke="black" d="M122.664,-207.383C132.625,-209.023 142,-206.562 142,-200 142,-195.796 138.152,-193.275 132.768,-192.438"/>
<polygon fill="black" stroke="black" points="132.6,-188.94 122.664,-192.617 132.725,-195.939 132.6,-188.94"/>
<text text-anchor="middle" x="145.5" y="-196.3" font-family="Times,serif" font-size="14.00">c</text>
</g>
</g>
</svg>
