<?xml version="1.0" encoding="UTF-8" standalone="no"?>
<!DOCTYPE svg PUBLIC "-//W3C//DTD SVG 1.1//EN"
 "http://www.w3.org/Graphics/SVG/1.1/DTD/svg11.dtd">
<!-- Generated by graphviz version 2.38.0 (20140413.2041)
 -->
<!-- Title: %3 Pages: 1 -->
<svg width="240pt" height="400pt"
 viewBox="0.00 0.00 240.00 400.00" xmlns="http://www.w3.org/2000/svg" xmlns:xlink="http://www.w3.org/1999/xlink">
<g id="graph0" class="graph" transform="scale(1 1) rotate(0) translate(4 396)">
<title>%3</title>
<!-- 0 -->
<g id="node1" class="node"><title>0</title>
<ellipse fill="lightblue" stroke="black" cx="121" cy="-374" rx="18" ry="18"/>
<text text-anchor="middle" x="121" y="-370.3" font-family="Times,serif" font-size="14.00">0</text>
</g>
<!-- 3 -->
<g id="node4" class="node"><title>3</title>
<ellipse fill="lightblue" stroke="black" cx="18" cy="-283" rx="18" ry="18"/>
<text text-anchor="middle" x="18" y="-279.3" font-family="Times,serif" font-size="14.00">3</text>
</g>
<!-- 0&#45;&gt;3 -->
<g id="edge1" class="edge"><title>0&#45;&gt;3</title>
<path fill="none" stroke="black" d="M107.535,-361.365C90.0117,-346.224 59.2156,-319.613 38.71,-301.895"/>
<polygon fill="black" stroke="black" points="40.998,-299.246 31.1431,-295.357 36.4213,-304.543 40.998,-299.246"/>
<text text-anchor="middle" x="87" y="-326.8" font-family="Times,serif" font-size="14.00">c,a</text>
</g>
<!-- 4 -->
<g id="node5" class="node"><title>4</title>
<ellipse fill="#aaff80" stroke="black" cx="121" cy="-283" rx="18" ry="18"/>
<ellipse fill="none" stroke="black" cx="121" cy="-283" rx="22" ry="22"/>
<text text-anchor="middle" x="121" y="-279.3" font-family="Times,serif" font-size="14.00">4</text>
</g>
<!-- 0&#45;&gt;4 -->
<g id="edge2" class="edge"><title>0&#45;&gt;4</title>
<path fill="none" stroke="black" d="M121,-355.84C121,-344.441 121,-329.134 121,-315.578"/>
<polygon fill="black" stroke="black" points="124.5,-315.19 121,-305.191 117.5,-315.191 124.5,-315.19"/>
<text text-anchor="middle" x="124.5" y="-326.8" font-family="Times,serif" font-size="14.00">b</text>
</g>
<!-- 1 -->
<g id="node2" class="node"><title>1</title>
<ellipse fill="lightblue" stroke="black" cx="182" cy="-18" rx="18" ry="18"/>
<text text-anchor="middle" x="182" y="-14.3" font-family="Times,serif" font-size="14.00">1</text>
</g>
<!-- 1&#45;&gt;0 -->
<g id="edge3" class="edge"><title>1&#45;&gt;0</title>
<path fill="none" stroke="black" d="M188.901,-34.6369C195.676,-51.435 205,-79.0811 205,-104 205,-284 205,-284 205,-284 205,-318.854 170.508,-345.584 145.729,-360.291"/>
<polygon fill="black" stroke="black" points="143.788,-357.367 136.8,-365.33 147.229,-363.463 143.788,-357.367"/>
<text text-anchor="middle" x="218.5" y="-188.3" font-family="Times,serif" font-size="14.00">c,a,b</text>
</g>
<!-- 2 -->
<g id="node3" class="node"><title>2</title>
<ellipse fill="lightblue" stroke="black" cx="155" cy="-105" rx="18" ry="18"/>
<text text-anchor="middle" x="155" y="-101.3" font-family="Times,serif" font-size="14.00">2</text>
</g>
<!-- 2&#45;&gt;1 -->
<g id="edge4" class="edge"><title>2&#45;&gt;1</title>
<path fill="none" stroke="black" d="M156.784,-87.0198C158.129,-77.1931 160.379,-64.6931 164,-54 165.234,-50.3556 166.797,-46.6209 168.483,-43.0121"/>
<polygon fill="black" stroke="black" points="171.701,-44.4043 173.096,-33.9016 165.456,-41.2422 171.701,-44.4043"/>
<text text-anchor="middle" x="177.5" y="-57.8" font-family="Times,serif" font-size="14.00">c,a,b</text>
</g>
<!-- 3&#45;&gt;3 -->
<g id="edge5" class="edge"><title>3&#45;&gt;3</title>
<path fill="none" stroke="black" d="M34.2903,-291.016C44.3892,-292.949 54,-290.277 54,-283 54,-278.338 50.0557,-275.566 44.5656,-274.684"/>
<polygon fill="black" stroke="black" points="44.1839,-271.193 34.2903,-274.984 44.3881,-278.19 44.1839,-271.193"/>
<text text-anchor="middle" x="67.5" y="-279.3" font-family="Times,serif" font-size="14.00">c,a,b</text>
</g>
<!-- 4&#45;&gt;4 -->
<g id="edge6" class="edge"><title>4&#45;&gt;4</title>
<path fill="none" stroke="black" d="M141.581,-291.37C151.845,-292.528 161,-289.738 161,-283 161,-278.683 157.243,-275.987 151.844,-274.911"/>
<polygon fill="black" stroke="black" points="151.673,-271.405 141.581,-274.63 151.481,-278.402 151.673,-271.405"/>
<text text-anchor="middle" x="169" y="-279.3" font-family="Times,serif" font-size="14.00">c,a</text>
</g>
<!-- 5 -->
<g id="node6" class="node"><title>5</title>
<ellipse fill="lightblue" stroke="black" cx="144" cy="-192" rx="18" ry="18"/>
<text text-anchor="middle" x="144" y="-188.3" font-family="Times,serif" font-size="14.00">5</text>
</g>
<!-- 4&#45;&gt;5 -->
<g id="edge7" class="edge"><title>4&#45;&gt;5</title>
<path fill="none" stroke="black" d="M126.334,-261.358C129.539,-248.959 133.649,-233.052 137.099,-219.703"/>
<polygon fill="black" stroke="black" points="140.581,-220.22 139.694,-209.662 133.803,-218.468 140.581,-220.22"/>
<text text-anchor="middle" x="138.5" y="-231.8" font-family="Times,serif" font-size="14.00">b</text>
</g>
<!-- 5&#45;&gt;2 -->
<g id="edge8" class="edge"><title>5&#45;&gt;2</title>
<path fill="none" stroke="black" d="M146.226,-173.799C147.742,-162.086 149.779,-146.342 151.509,-132.974"/>
<polygon fill="black" stroke="black" points="155.002,-133.252 152.815,-122.885 148.06,-132.353 155.002,-133.252"/>
<text text-anchor="middle" x="164.5" y="-144.8" font-family="Times,serif" font-size="14.00">c,a,b</text>
</g>
</g>
</svg>
