<?xml version="1.0" encoding="UTF-8" standalone="no"?>
<!DOCTYPE svg PUBLIC "-//W3C//DTD SVG 1.1//EN"
 "http://www.w3.org/Graphics/SVG/1.1/DTD/svg11.dtd">
<!-- Generated by graphviz version 2.38.0 (20140413.2041)
 -->
<!-- Title: %3 Pages: 1 -->
<svg width="210pt" height="400pt"
 viewBox="0.00 0.00 210.00 400.00" xmlns="http://www.w3.org/2000/svg" xmlns:xlink="http://www.w3.org/1999/xlink">
<g id="graph0" class="graph" transform="scale(1 1) rotate(0) translate(4 396)">
<title>%3</title>
<!-- 0 -->
<g id="node1" class="node"><title>0</title>
<ellipse fill="lightblue" stroke="black" cx="61" cy="-196" rx="18" ry="18"/>
<ellipse fill="none" stroke="black" cx="61" cy="-196" rx="22" ry="22"/>
<text text-anchor="middle" x="61" y="-192.3" font-family="Times,serif" font-size="14.00">0</text>
</g>
<!-- 1 -->
<g id="node2" class="node"><title>1</title>
<ellipse fill="lightblue" stroke="black" cx="18" cy="-105" rx="18" ry="18"/>
<text text-anchor="middle" x="18" y="-101.3" font-family="Times,serif" font-size="14.00">1</text>
</g>
<!-- 0&#45;&gt;1 -->
<g id="edge1" class="edge"><title>0&#45;&gt;1</title>
<path fill="none" stroke="black" d="M43.3491,-182.162C35.3932,-175.346 26.737,-166.258 22,-156 18.737,-148.934 17.2648,-140.707 16.7307,-132.992"/>
<polygon fill="black" stroke="black" points="20.2288,-132.863 16.5039,-122.945 13.2306,-133.021 20.2288,-132.863"/>
<text text-anchor="middle" x="25.5" y="-144.8" font-family="Times,serif" font-size="14.00">c</text>
</g>
<!-- 3 -->
<g id="node4" class="node"><title>3</title>
<ellipse fill="lightblue" stroke="black" cx="100" cy="-18" rx="18" ry="18"/>
<text text-anchor="middle" x="100" y="-14.3" font-family="Times,serif" font-size="14.00">3</text>
</g>
<!-- 0&#45;&gt;3 -->
<g id="edge2" class="edge"><title>0&#45;&gt;3</title>
<path fill="none" stroke="black" d="M65.5501,-174.466C72.6154,-142.582 86.2246,-81.1661 94.057,-45.8197"/>
<polygon fill="black" stroke="black" points="97.5423,-46.269 96.2887,-35.7486 90.708,-44.7546 97.5423,-46.269"/>
<text text-anchor="middle" x="98" y="-101.3" font-family="Times,serif" font-size="14.00">d,a,b</text>
</g>
<!-- 1&#45;&gt;0 -->
<g id="edge3" class="edge"><title>1&#45;&gt;0</title>
<path fill="none" stroke="black" d="M25.4555,-121.431C31.422,-133.78 39.954,-151.44 47.1633,-166.361"/>
<polygon fill="black" stroke="black" points="44.1678,-168.207 51.6696,-175.688 50.4707,-165.162 44.1678,-168.207"/>
<text text-anchor="middle" x="45.5" y="-144.8" font-family="Times,serif" font-size="14.00">d</text>
</g>
<!-- 1&#45;&gt;3 -->
<g id="edge4" class="edge"><title>1&#45;&gt;3</title>
<path fill="none" stroke="black" d="M18.9694,-86.6623C20.3509,-76.227 23.5752,-63.2218 31,-54 41.6771,-40.7388 58.6961,-32.0294 73.1597,-26.6153"/>
<polygon fill="black" stroke="black" points="74.3196,-29.9177 82.6553,-23.378 72.0608,-23.2921 74.3196,-29.9177"/>
<text text-anchor="middle" x="44.5" y="-57.8" font-family="Times,serif" font-size="14.00">c,a,b</text>
</g>
<!-- 2 -->
<g id="node3" class="node"><title>2</title>
<ellipse fill="lightblue" stroke="black" cx="128" cy="-287" rx="18" ry="18"/>
<text text-anchor="middle" x="128" y="-283.3" font-family="Times,serif" font-size="14.00">2</text>
</g>
<!-- 2&#45;&gt;0 -->
<g id="edge5" class="edge"><title>2&#45;&gt;0</title>
<path fill="none" stroke="black" d="M117.531,-272.094C107.502,-258.771 92.1352,-238.359 79.9532,-222.177"/>
<polygon fill="black" stroke="black" points="82.7289,-220.044 73.9183,-214.16 77.1364,-224.254 82.7289,-220.044"/>
<text text-anchor="middle" x="103.5" y="-239.8" font-family="Times,serif" font-size="14.00">b</text>
</g>
<!-- 2&#45;&gt;3 -->
<g id="edge6" class="edge"><title>2&#45;&gt;3</title>
<path fill="none" stroke="black" d="M127.561,-268.885C126.507,-234.348 123.2,-153.907 114,-87 112.102,-73.1934 109.062,-57.9868 106.3,-45.4614"/>
<polygon fill="black" stroke="black" points="109.702,-44.6376 104.075,-35.6602 102.875,-46.1868 109.702,-44.6376"/>
<text text-anchor="middle" x="134.5" y="-144.8" font-family="Times,serif" font-size="14.00">d,c,a</text>
</g>
<!-- 3&#45;&gt;3 -->
<g id="edge7" class="edge"><title>3&#45;&gt;3</title>
<path fill="none" stroke="black" d="M116.664,-25.3828C126.625,-27.0234 136,-24.5625 136,-18 136,-13.7959 132.152,-11.2751 126.768,-10.4375"/>
<polygon fill="black" stroke="black" points="126.6,-6.93988 116.664,-10.6172 126.725,-13.9388 126.6,-6.93988"/>
<text text-anchor="middle" x="154.5" y="-14.3" font-family="Times,serif" font-size="14.00">d,c,a,b</text>
</g>
<!-- 4 -->
<g id="node5" class="node"><title>4</title>
<ellipse fill="#aaff80" stroke="black" cx="157" cy="-374" rx="18" ry="18"/>
<text text-anchor="middle" x="157" y="-370.3" font-family="Times,serif" font-size="14.00">4</text>
</g>
<!-- 4&#45;&gt;2 -->
<g id="edge8" class="edge"><title>4&#45;&gt;2</title>
<path fill="none" stroke="black" d="M151.409,-356.611C147.276,-344.499 141.568,-327.768 136.823,-313.86"/>
<polygon fill="black" stroke="black" points="140.116,-312.673 133.574,-304.339 133.491,-314.933 140.116,-312.673"/>
<text text-anchor="middle" x="147.5" y="-326.8" font-family="Times,serif" font-size="14.00">a</text>
</g>
<!-- 4&#45;&gt;3 -->
<g id="edge9" class="edge"><title>4&#45;&gt;3</title>
<path fill="none" stroke="black" d="M162.286,-356.581C167.276,-339.602 174,-312.229 174,-288 174,-288 174,-288 174,-104 174,-72.8744 145.424,-47.6094 123.788,-32.9405"/>
<polygon fill="black" stroke="black" points="125.635,-29.967 115.333,-27.4932 121.844,-35.8515 125.635,-29.967"/>
<text text-anchor="middle" x="188" y="-192.3" font-family="Times,serif" font-size="14.00">d,c,b</text>
</g>
</g>
</svg>
