<?xml version="1.0" encoding="UTF-8" standalone="no"?>
<!DOCTYPE svg PUBLIC "-//W3C//DTD SVG 1.1//EN"
 "http://www.w3.org/Graphics/SVG/1.1/DTD/svg11.dtd">
<!-- Generated by graphviz version 2.38.0 (20140413.2041)
 -->
<!-- Title: %3 Pages: 1 -->
<svg width="77pt" height="226pt"
 viewBox="0.00 0.00 77.00 226.00" xmlns="http://www.w3.org/2000/svg" xmlns:xlink="http://www.w3.org/1999/xlink">
<g id="graph0" class="graph" transform="scale(1 1) rotate(0) translate(4 222)">
<title>%3</title>
<!-- 0 -->
<g id="node1" class="node"><title>0</title>
<ellipse fill="#aaff80" stroke="black" cx="22" cy="-200" rx="18" ry="18"/>
<text text-anchor="middle" x="22" y="-196.3" font-family="Times,serif" font-size="14.00">0</text>
</g>
<!-- 2 -->
<g id="node3" class="node"><title>2</title>
<ellipse fill="lightblue" stroke="black" cx="22" cy="-109" rx="18" ry="18"/>
<ellipse fill="none" stroke="black" cx="22" cy="-109" rx="22" ry="22"/>
<text text-anchor="middle" x="22" y="-105.3" font-family="Times,serif" font-size="14.00">2</text>
</g>
<!-- 0&#45;&gt;2 -->
<g id="edge1" class="edge"><title>0&#45;&gt;2</title>
<path fill="none" stroke="black" d="M22,-181.84C22,-170.441 22,-155.134 22,-141.578"/>
<polygon fill="black" stroke="black" points="25.5001,-141.19 22,-131.191 18.5001,-141.191 25.5001,-141.19"/>
<text text-anchor="middle" x="30.5" y="-152.8" font-family="Times,serif" font-size="14.00">a,b</text>
</g>
<!-- 1 -->
<g id="node2" class="node"><title>1</title>
<ellipse fill="lightblue" stroke="black" cx="22" cy="-18" rx="18" ry="18"/>
<text text-anchor="middle" x="22" y="-14.3" font-family="Times,serif" font-size="14.00">1</text>
</g>
<!-- 1&#45;&gt;1 -->
<g id="edge2" class="edge"><title>1&#45;&gt;1</title>
<path fill="none" stroke="black" d="M38.6641,-25.3828C48.625,-27.0234 58,-24.5625 58,-18 58,-13.7959 54.1525,-11.2751 48.7682,-10.4375"/>
<polygon fill="black" stroke="black" points="48.6002,-6.93988 38.6641,-10.6172 48.7247,-13.9388 48.6002,-6.93988"/>
<text text-anchor="middle" x="61.5" y="-14.3" font-family="Times,serif" font-size="14.00">a</text>
</g>
<!-- 1&#45;&gt;2 -->
<g id="edge3" class="edge"><title>1&#45;&gt;2</title>
<path fill="none" stroke="black" d="M22,-36.0663C22,-47.606 22,-63.1817 22,-76.8886"/>
<polygon fill="black" stroke="black" points="18.5001,-76.9082 22,-86.9082 25.5001,-76.9083 18.5001,-76.9082"/>
<text text-anchor="middle" x="25.5" y="-57.8" font-family="Times,serif" font-size="14.00">b</text>
</g>
<!-- 2&#45;&gt;1 -->
<g id="edge4" class="edge"><title>2&#45;&gt;1</title>
<path fill="none" stroke="black" d="M14.5107,-88.0804C11.5669,-77.9227 9.2587,-65.3482 11,-54 11.4528,-51.0489 12.1086,-48.005 12.8779,-45.0013"/>
<polygon fill="black" stroke="black" points="16.3155,-45.7194 15.8003,-35.1371 9.60382,-43.7309 16.3155,-45.7194"/>
<text text-anchor="middle" x="14.5" y="-57.8" font-family="Times,serif" font-size="14.00">a</text>
</g>
<!-- 2&#45;&gt;2 -->
<g id="edge5" class="edge"><title>2&#45;&gt;2</title>
<path fill="none" stroke="black" d="M42.5808,-117.37C52.8447,-118.528 62,-115.738 62,-109 62,-104.683 58.2427,-101.987 52.8436,-100.911"/>
<polygon fill="black" stroke="black" points="52.6729,-97.405 42.5808,-100.63 52.4812,-104.402 52.6729,-97.405"/>
<text text-anchor="middle" x="65.5" y="-105.3" font-family="Times,serif" font-size="14.00">b</text>
</g>
</g>
</svg>
