<?xml version="1.0" encoding="UTF-8" standalone="no"?>
<!DOCTYPE svg PUBLIC "-//W3C//DTD SVG 1.1//EN"
 "http://www.w3.org/Graphics/SVG/1.1/DTD/svg11.dtd">
<!-- Generated by graphviz version 2.38.0 (20140413.2041)
 -->
<!-- Title: %3 Pages: 1 -->
<svg width="202pt" height="131pt"
 viewBox="0.00 0.00 202.00 131.00" xmlns="http://www.w3.org/2000/svg" xmlns:xlink="http://www.w3.org/1999/xlink">
<g id="graph0" class="graph" transform="scale(1 1) rotate(0) translate(4 127)">
<title>%3</title>
<!-- 4 -->
<g id="node1" class="node"><title>4</title>
<ellipse fill="lightblue" stroke="black" cx="18" cy="-105" rx="18" ry="18"/>
<text text-anchor="middle" x="18" y="-101.3" font-family="Times,serif" font-size="14.00">4</text>
</g>
<!-- 4&#45;&gt;4 -->
<g id="edge1" class="edge"><title>4&#45;&gt;4</title>
<path fill="none" stroke="black" d="M34.6641,-112.383C44.625,-114.023 54,-111.562 54,-105 54,-100.796 50.1525,-98.2751 44.7682,-97.4375"/>
<polygon fill="black" stroke="black" points="44.6002,-93.9399 34.6641,-97.6172 44.7247,-100.939 44.6002,-93.9399"/>
<text text-anchor="middle" x="57.5" y="-101.3" font-family="Times,serif" font-size="14.00">a</text>
</g>
<!-- 2 -->
<g id="node2" class="node"><title>2</title>
<ellipse fill="lightblue" stroke="black" cx="97" cy="-105" rx="18" ry="18"/>
<text text-anchor="middle" x="97" y="-101.3" font-family="Times,serif" font-size="14.00">2</text>
</g>
<!-- 1 -->
<g id="node4" class="node"><title>1</title>
<ellipse fill="lightblue" stroke="black" cx="97" cy="-18" rx="18" ry="18"/>
<text text-anchor="middle" x="97" y="-14.3" font-family="Times,serif" font-size="14.00">1</text>
</g>
<!-- 2&#45;&gt;1 -->
<g id="edge2" class="edge"><title>2&#45;&gt;1</title>
<path fill="none" stroke="black" d="M90.3664,-88.2577C88.201,-82.3321 86.0772,-75.4629 85,-69 83.653,-60.9181 84.8143,-52.2044 86.8585,-44.3508"/>
<polygon fill="black" stroke="black" points="90.2489,-45.237 89.9176,-34.6473 83.5728,-43.1322 90.2489,-45.237"/>
<text text-anchor="middle" x="88.5" y="-57.8" font-family="Times,serif" font-size="14.00">a</text>
</g>
<!-- 3 -->
<g id="node3" class="node"><title>3</title>
<ellipse fill="lightblue" stroke="black" cx="151" cy="-105" rx="18" ry="18"/>
<text text-anchor="middle" x="151" y="-101.3" font-family="Times,serif" font-size="14.00">3</text>
</g>
<!-- 3&#45;&gt;3 -->
<g id="edge3" class="edge"><title>3&#45;&gt;3</title>
<path fill="none" stroke="black" d="M167.664,-112.383C177.625,-114.023 187,-111.562 187,-105 187,-100.796 183.152,-98.2751 177.768,-97.4375"/>
<polygon fill="black" stroke="black" points="177.6,-93.9399 167.664,-97.6172 177.725,-100.939 177.6,-93.9399"/>
<text text-anchor="middle" x="190.5" y="-101.3" font-family="Times,serif" font-size="14.00">a</text>
</g>
<!-- 1&#45;&gt;2 -->
<g id="edge4" class="edge"><title>1&#45;&gt;2</title>
<path fill="none" stroke="black" d="M97,-36.1754C97,-47.806 97,-63.4194 97,-76.7339"/>
<polygon fill="black" stroke="black" points="93.5001,-76.7989 97,-86.799 100.5,-76.799 93.5001,-76.7989"/>
<text text-anchor="middle" x="100.5" y="-57.8" font-family="Times,serif" font-size="14.00">a</text>
</g>
</g>
</svg>
