<?xml version="1.0" encoding="UTF-8" standalone="no"?>
<!DOCTYPE svg PUBLIC "-//W3C//DTD SVG 1.1//EN"
 "http://www.w3.org/Graphics/SVG/1.1/DTD/svg11.dtd">
<!-- Generated by graphviz version 2.38.0 (20140413.2041)
 -->
<!-- Title: %3 Pages: 1 -->
<svg width="136pt" height="313pt"
 viewBox="0.00 0.00 136.00 313.00" xmlns="http://www.w3.org/2000/svg" xmlns:xlink="http://www.w3.org/1999/xlink">
<g id="graph0" class="graph" transform="scale(1 1) rotate(0) translate(4 309)">
<title>%3</title>
<!-- 0 -->
<g id="node1" class="node"><title>0</title>
<ellipse fill="#aaff80" stroke="black" cx="72" cy="-283" rx="18" ry="18"/>
<ellipse fill="none" stroke="black" cx="72" cy="-283" rx="22" ry="22"/>
<text text-anchor="middle" x="72" y="-279.3" font-family="Times,serif" font-size="14.00">0</text>
</g>
<!-- 1 -->
<g id="node2" class="node"><title>1</title>
<ellipse fill="lightblue" stroke="black" cx="18" cy="-192" rx="18" ry="18"/>
<text text-anchor="middle" x="18" y="-188.3" font-family="Times,serif" font-size="14.00">1</text>
</g>
<!-- 0&#45;&gt;1 -->
<g id="edge1" class="edge"><title>0&#45;&gt;1</title>
<path fill="none" stroke="black" d="M60.8112,-263.559C52.5223,-249.898 41.1639,-231.178 32.2295,-216.452"/>
<polygon fill="black" stroke="black" points="35.2085,-214.615 27.0289,-207.881 29.2239,-218.246 35.2085,-214.615"/>
<text text-anchor="middle" x="52.5" y="-231.8" font-family="Times,serif" font-size="14.00">a</text>
</g>
<!-- 3 -->
<g id="node4" class="node"><title>3</title>
<ellipse fill="lightblue" stroke="black" cx="64" cy="-18" rx="18" ry="18"/>
<text text-anchor="middle" x="64" y="-14.3" font-family="Times,serif" font-size="14.00">3</text>
</g>
<!-- 0&#45;&gt;3 -->
<g id="edge2" class="edge"><title>0&#45;&gt;3</title>
<path fill="none" stroke="black" d="M78.5202,-261.942C80.2453,-255.912 81.9242,-249.239 83,-243 94.796,-174.585 97.2347,-156.144 91,-87 89.6613,-72.1531 90.2533,-67.9508 85,-54 83.4549,-49.8967 81.4298,-45.7322 79.2472,-41.776"/>
<polygon fill="black" stroke="black" points="82.1611,-39.8293 74.0199,-33.049 76.1559,-43.4263 82.1611,-39.8293"/>
<text text-anchor="middle" x="103" y="-144.8" font-family="Times,serif" font-size="14.00">b,g</text>
</g>
<!-- 2 -->
<g id="node3" class="node"><title>2</title>
<ellipse fill="lightblue" stroke="black" cx="64" cy="-105" rx="18" ry="18"/>
<text text-anchor="middle" x="64" y="-101.3" font-family="Times,serif" font-size="14.00">2</text>
</g>
<!-- 1&#45;&gt;2 -->
<g id="edge3" class="edge"><title>1&#45;&gt;2</title>
<path fill="none" stroke="black" d="M26.2239,-175.804C33.0923,-163.112 43.0093,-144.787 50.9591,-130.097"/>
<polygon fill="black" stroke="black" points="54.1659,-131.525 55.8473,-121.065 48.0096,-128.194 54.1659,-131.525"/>
<text text-anchor="middle" x="47.5" y="-144.8" font-family="Times,serif" font-size="14.00">g</text>
</g>
<!-- 1&#45;&gt;3 -->
<g id="edge4" class="edge"><title>1&#45;&gt;3</title>
<path fill="none" stroke="black" d="M15.5284,-173.984C13.1109,-153.013 10.9696,-116.531 20,-87 25.2788,-69.7377 36.3278,-52.6885 46.0326,-39.9796"/>
<polygon fill="black" stroke="black" points="48.9556,-41.9276 52.449,-31.9253 43.4805,-37.5659 48.9556,-41.9276"/>
<text text-anchor="middle" x="28.5" y="-101.3" font-family="Times,serif" font-size="14.00">a,b</text>
</g>
<!-- 2&#45;&gt;0 -->
<g id="edge5" class="edge"><title>2&#45;&gt;0</title>
<path fill="none" stroke="black" d="M64.777,-123.094C66.1149,-152.528 68.8726,-213.197 70.5668,-250.469"/>
<polygon fill="black" stroke="black" points="67.0845,-250.94 71.035,-260.77 74.0772,-250.622 67.0845,-250.94"/>
<text text-anchor="middle" x="71.5" y="-188.3" font-family="Times,serif" font-size="14.00">b</text>
</g>
<!-- 2&#45;&gt;3 -->
<g id="edge6" class="edge"><title>2&#45;&gt;3</title>
<path fill="none" stroke="black" d="M64,-86.799C64,-75.1626 64,-59.5479 64,-46.2368"/>
<polygon fill="black" stroke="black" points="67.5001,-46.1754 64,-36.1754 60.5001,-46.1755 67.5001,-46.1754"/>
<text text-anchor="middle" x="72.5" y="-57.8" font-family="Times,serif" font-size="14.00">a,g</text>
</g>
<!-- 3&#45;&gt;3 -->
<g id="edge7" class="edge"><title>3&#45;&gt;3</title>
<path fill="none" stroke="black" d="M80.6641,-25.3828C90.625,-27.0234 100,-24.5625 100,-18 100,-13.7959 96.1525,-11.2751 90.7682,-10.4375"/>
<polygon fill="black" stroke="black" points="90.6002,-6.93988 80.6641,-10.6172 90.7247,-13.9388 90.6002,-6.93988"/>
<text text-anchor="middle" x="114" y="-14.3" font-family="Times,serif" font-size="14.00">a,b,g</text>
</g>
</g>
</svg>
