<?xml version="1.0" encoding="UTF-8" standalone="no"?>
<!DOCTYPE svg PUBLIC "-//W3C//DTD SVG 1.1//EN"
 "http://www.w3.org/Graphics/SVG/1.1/DTD/svg11.dtd">
<!-- Generated by graphviz version 2.38.0 (20140413.2041)
 -->
<!-- Title: %3 Pages: 1 -->
<svg width="152pt" height="226pt"
 viewBox="0.00 0.00 152.00 226.00" xmlns="http://www.w3.org/2000/svg" xmlns:xlink="http://www.w3.org/1999/xlink">
<g id="graph0" class="graph" transform="scale(1 1) rotate(0) translate(4 222)">
<title>%3</title>
<!-- 0 -->
<g id="node1" class="node"><title>0</title>
<ellipse fill="lightblue" stroke="black" cx="71" cy="-200" rx="18" ry="18"/>
<text text-anchor="middle" x="71" y="-196.3" font-family="Times,serif" font-size="14.00">0</text>
</g>
<!-- 1 -->
<g id="node2" class="node"><title>1</title>
<ellipse fill="lightblue" stroke="black" cx="22" cy="-113" rx="18" ry="18"/>
<text text-anchor="middle" x="22" y="-109.3" font-family="Times,serif" font-size="14.00">1</text>
</g>
<!-- 0&#45;&gt;1 -->
<g id="edge1" class="edge"><title>0&#45;&gt;1</title>
<path fill="none" stroke="black" d="M62.2398,-183.804C54.9235,-171.112 44.3596,-152.787 35.8914,-138.097"/>
<polygon fill="black" stroke="black" points="38.711,-135.98 30.6844,-129.065 32.6465,-139.476 38.711,-135.98"/>
<text text-anchor="middle" x="52.5" y="-152.8" font-family="Times,serif" font-size="14.00">a</text>
</g>
<!-- 3 -->
<g id="node4" class="node"><title>3</title>
<ellipse fill="#aaff80" stroke="black" cx="101" cy="-113" rx="18" ry="18"/>
<text text-anchor="middle" x="101" y="-109.3" font-family="Times,serif" font-size="14.00">3</text>
</g>
<!-- 0&#45;&gt;3 -->
<g id="edge2" class="edge"><title>0&#45;&gt;3</title>
<path fill="none" stroke="black" d="M69.5708,-181.818C69.3444,-171.923 70.0944,-159.423 74,-149 75.9362,-143.833 78.9149,-138.807 82.1977,-134.25"/>
<polygon fill="black" stroke="black" points="85.1649,-136.145 88.6911,-126.154 79.7042,-131.765 85.1649,-136.145"/>
<text text-anchor="middle" x="77.5" y="-152.8" font-family="Times,serif" font-size="14.00">b</text>
</g>
<!-- 1&#45;&gt;1 -->
<g id="edge3" class="edge"><title>1&#45;&gt;1</title>
<path fill="none" stroke="black" d="M38.6641,-120.383C48.625,-122.023 58,-119.562 58,-113 58,-108.796 54.1525,-106.275 48.7682,-105.438"/>
<polygon fill="black" stroke="black" points="48.6002,-101.94 38.6641,-105.617 48.7247,-108.939 48.6002,-101.94"/>
<text text-anchor="middle" x="61.5" y="-109.3" font-family="Times,serif" font-size="14.00">a</text>
</g>
<!-- 2 -->
<g id="node3" class="node"><title>2</title>
<ellipse fill="lightblue" stroke="black" cx="22" cy="-22" rx="18" ry="18"/>
<ellipse fill="none" stroke="black" cx="22" cy="-22" rx="22" ry="22"/>
<text text-anchor="middle" x="22" y="-18.3" font-family="Times,serif" font-size="14.00">2</text>
</g>
<!-- 1&#45;&gt;2 -->
<g id="edge4" class="edge"><title>1&#45;&gt;2</title>
<path fill="none" stroke="black" d="M22,-94.8399C22,-83.4407 22,-68.1336 22,-54.5781"/>
<polygon fill="black" stroke="black" points="25.5001,-54.1905 22,-44.1905 18.5001,-54.1906 25.5001,-54.1905"/>
<text text-anchor="middle" x="25.5" y="-65.8" font-family="Times,serif" font-size="14.00">b</text>
</g>
<!-- 2&#45;&gt;2 -->
<g id="edge5" class="edge"><title>2&#45;&gt;2</title>
<path fill="none" stroke="black" d="M42.5808,-30.3702C52.8447,-31.5284 62,-28.7383 62,-22 62,-17.6833 58.2427,-14.9869 52.8436,-13.9109"/>
<polygon fill="black" stroke="black" points="52.6729,-10.405 42.5808,-13.6298 52.4812,-17.4024 52.6729,-10.405"/>
<text text-anchor="middle" x="70.5" y="-18.3" font-family="Times,serif" font-size="14.00">a,b</text>
</g>
<!-- 3&#45;&gt;0 -->
<g id="edge6" class="edge"><title>3&#45;&gt;0</title>
<path fill="none" stroke="black" d="M95.2335,-130.339C90.9632,-142.438 85.059,-159.166 80.1476,-173.082"/>
<polygon fill="black" stroke="black" points="76.8121,-172.016 76.7843,-182.611 83.413,-174.346 76.8121,-172.016"/>
<text text-anchor="middle" x="90.5" y="-152.8" font-family="Times,serif" font-size="14.00">a</text>
</g>
<!-- 3&#45;&gt;3 -->
<g id="edge7" class="edge"><title>3&#45;&gt;3</title>
<path fill="none" stroke="black" d="M117.664,-120.383C127.625,-122.023 137,-119.562 137,-113 137,-108.796 133.152,-106.275 127.768,-105.438"/>
<polygon fill="black" stroke="black" points="127.6,-101.94 117.664,-105.617 127.725,-108.939 127.6,-101.94"/>
<text text-anchor="middle" x="140.5" y="-109.3" font-family="Times,serif" font-size="14.00">b</text>
</g>
</g>
</svg>
