<?xml version="1.0" encoding="UTF-8" standalone="no"?>
<!DOCTYPE svg PUBLIC "-//W3C//DTD SVG 1.1//EN"
 "http://www.w3.org/Graphics/SVG/1.1/DTD/svg11.dtd">
<!-- Generated by graphviz version 2.38.0 (20140413.2041)
 -->
<!-- Title: %3 Pages: 1 -->
<svg width="253pt" height="511pt"
 viewBox="0.00 0.00 253.00 511.00" xmlns="http://www.w3.org/2000/svg" xmlns:xlink="http://www.w3.org/1999/xlink">
<g id="graph0" class="graph" transform="scale(1 1) rotate(0) translate(4 507)">
<title>%3</title>
<!-- 0 -->
<g id="node1" class="node"><title>0</title>
<ellipse fill="lightblue" stroke="black" cx="119" cy="-18" rx="18" ry="18"/>
<text text-anchor="middle" x="119" y="-14.3" font-family="Times,serif" font-size="14.00">0</text>
</g>
<!-- 0&#45;&gt;0 -->
<g id="edge1" class="edge"><title>0&#45;&gt;0</title>
<path fill="none" stroke="black" d="M135.664,-25.3828C145.625,-27.0234 155,-24.5625 155,-18 155,-13.7959 151.152,-11.2751 145.768,-10.4375"/>
<polygon fill="black" stroke="black" points="145.6,-6.93988 135.664,-10.6172 145.725,-13.9388 145.6,-6.93988"/>
<text text-anchor="middle" x="163.5" y="-14.3" font-family="Times,serif" font-size="14.00">a,b</text>
</g>
<!-- 1 -->
<g id="node2" class="node"><title>1</title>
<ellipse fill="lightblue" stroke="black" cx="50" cy="-204" rx="18" ry="18"/>
<text text-anchor="middle" x="50" y="-200.3" font-family="Times,serif" font-size="14.00">1</text>
</g>
<!-- 2 -->
<g id="node3" class="node"><title>2</title>
<ellipse fill="lightblue" stroke="black" cx="78" cy="-299" rx="18" ry="18"/>
<text text-anchor="middle" x="78" y="-295.3" font-family="Times,serif" font-size="14.00">2</text>
</g>
<!-- 1&#45;&gt;2 -->
<g id="edge2" class="edge"><title>1&#45;&gt;2</title>
<path fill="none" stroke="black" d="M54.9625,-221.483C59.1304,-235.326 65.1645,-255.368 70.0118,-271.468"/>
<polygon fill="black" stroke="black" points="66.7598,-272.807 72.9942,-281.373 73.4626,-270.789 66.7598,-272.807"/>
<text text-anchor="middle" x="68.5" y="-247.8" font-family="Times,serif" font-size="14.00">a</text>
</g>
<!-- 7 -->
<g id="node8" class="node"><title>7</title>
<ellipse fill="lightblue" stroke="black" cx="50" cy="-109" rx="18" ry="18"/>
<ellipse fill="none" stroke="black" cx="50" cy="-109" rx="22" ry="22"/>
<text text-anchor="middle" x="50" y="-105.3" font-family="Times,serif" font-size="14.00">7</text>
</g>
<!-- 1&#45;&gt;7 -->
<g id="edge3" class="edge"><title>1&#45;&gt;7</title>
<path fill="none" stroke="black" d="M50,-185.942C50,-173.537 50,-156.381 50,-141.514"/>
<polygon fill="black" stroke="black" points="53.5001,-141.194 50,-131.194 46.5001,-141.194 53.5001,-141.194"/>
<text text-anchor="middle" x="53.5" y="-152.8" font-family="Times,serif" font-size="14.00">b</text>
</g>
<!-- 2&#45;&gt;0 -->
<g id="edge4" class="edge"><title>2&#45;&gt;0</title>
<path fill="none" stroke="black" d="M80.503,-280.967C87.3794,-234.174 106.604,-103.352 114.996,-46.245"/>
<polygon fill="black" stroke="black" points="118.486,-46.5669 116.478,-36.1643 111.561,-45.5491 118.486,-46.5669"/>
<text text-anchor="middle" x="102.5" y="-152.8" font-family="Times,serif" font-size="14.00">b</text>
</g>
<!-- 2&#45;&gt;1 -->
<g id="edge5" class="edge"><title>2&#45;&gt;1</title>
<path fill="none" stroke="black" d="M66.0866,-284.989C60.3609,-277.867 54.0843,-268.562 51,-259 48.2577,-250.499 47.418,-240.847 47.4445,-232.077"/>
<polygon fill="black" stroke="black" points="50.9468,-232.084 47.8368,-221.956 43.952,-231.812 50.9468,-232.084"/>
<text text-anchor="middle" x="54.5" y="-247.8" font-family="Times,serif" font-size="14.00">a</text>
</g>
<!-- 3 -->
<g id="node4" class="node"><title>3</title>
<ellipse fill="#aaff80" stroke="black" cx="27" cy="-485" rx="18" ry="18"/>
<text text-anchor="middle" x="27" y="-481.3" font-family="Times,serif" font-size="14.00">3</text>
</g>
<!-- 3&#45;&gt;0 -->
<g id="edge6" class="edge"><title>3&#45;&gt;0</title>
<path fill="none" stroke="black" d="M19.3351,-468.673C11.3527,-451.268 3.55271e-15,-421.804 0,-395 0,-395 0,-395 0,-108 0,-62.3299 56.9034,-37.264 92.0122,-26.145"/>
<polygon fill="black" stroke="black" points="93.1157,-29.4683 101.696,-23.2536 91.113,-22.7609 93.1157,-29.4683"/>
<text text-anchor="middle" x="3.5" y="-247.8" font-family="Times,serif" font-size="14.00">a</text>
</g>
<!-- 4 -->
<g id="node5" class="node"><title>4</title>
<ellipse fill="lightblue" stroke="black" cx="78" cy="-394" rx="18" ry="18"/>
<ellipse fill="none" stroke="black" cx="78" cy="-394" rx="22" ry="22"/>
<text text-anchor="middle" x="78" y="-390.3" font-family="Times,serif" font-size="14.00">4</text>
</g>
<!-- 3&#45;&gt;4 -->
<g id="edge7" class="edge"><title>3&#45;&gt;4</title>
<path fill="none" stroke="black" d="M35.6515,-468.902C42.9001,-456.253 53.4364,-437.866 62.1858,-422.597"/>
<polygon fill="black" stroke="black" points="65.4221,-423.989 67.3572,-413.573 59.3486,-420.509 65.4221,-423.989"/>
<text text-anchor="middle" x="58.5" y="-437.8" font-family="Times,serif" font-size="14.00">b</text>
</g>
<!-- 4&#45;&gt;2 -->
<g id="edge8" class="edge"><title>4&#45;&gt;2</title>
<path fill="none" stroke="black" d="M78,-371.897C78,-358.743 78,-341.679 78,-327.476"/>
<polygon fill="black" stroke="black" points="81.5001,-327.285 78,-317.285 74.5001,-327.285 81.5001,-327.285"/>
<text text-anchor="middle" x="81.5" y="-342.8" font-family="Times,serif" font-size="14.00">a</text>
</g>
<!-- 8 -->
<g id="node9" class="node"><title>8</title>
<ellipse fill="lightblue" stroke="black" cx="138" cy="-299" rx="18" ry="18"/>
<ellipse fill="none" stroke="black" cx="138" cy="-299" rx="22" ry="22"/>
<text text-anchor="middle" x="138" y="-295.3" font-family="Times,serif" font-size="14.00">8</text>
</g>
<!-- 4&#45;&gt;8 -->
<g id="edge9" class="edge"><title>4&#45;&gt;8</title>
<path fill="none" stroke="black" d="M89.5686,-375.069C98.4501,-361.302 110.851,-342.082 120.88,-326.536"/>
<polygon fill="black" stroke="black" points="123.987,-328.177 126.467,-317.876 118.105,-324.382 123.987,-328.177"/>
<text text-anchor="middle" x="114.5" y="-342.8" font-family="Times,serif" font-size="14.00">b</text>
</g>
<!-- 5 -->
<g id="node6" class="node"><title>5</title>
<ellipse fill="lightblue" stroke="black" cx="202" cy="-204" rx="18" ry="18"/>
<ellipse fill="none" stroke="black" cx="202" cy="-204" rx="22" ry="22"/>
<text text-anchor="middle" x="202" y="-200.3" font-family="Times,serif" font-size="14.00">5</text>
</g>
<!-- 5&#45;&gt;0 -->
<g id="edge10" class="edge"><title>5&#45;&gt;0</title>
<path fill="none" stroke="black" d="M198.018,-182.29C191.629,-152.363 177.176,-96.0117 152,-54 148.563,-48.2647 144.048,-42.6934 139.466,-37.7445"/>
<polygon fill="black" stroke="black" points="141.872,-35.2003 132.354,-30.546 136.892,-40.1198 141.872,-35.2003"/>
<text text-anchor="middle" x="187.5" y="-105.3" font-family="Times,serif" font-size="14.00">a</text>
</g>
<!-- 6 -->
<g id="node7" class="node"><title>6</title>
<ellipse fill="lightblue" stroke="black" cx="227" cy="-109" rx="18" ry="18"/>
<text text-anchor="middle" x="227" y="-105.3" font-family="Times,serif" font-size="14.00">6</text>
</g>
<!-- 5&#45;&gt;6 -->
<g id="edge11" class="edge"><title>5&#45;&gt;6</title>
<path fill="none" stroke="black" d="M207.548,-182.36C211.183,-168.839 215.968,-151.041 219.882,-136.479"/>
<polygon fill="black" stroke="black" points="223.333,-137.122 222.549,-126.556 216.573,-135.305 223.333,-137.122"/>
<text text-anchor="middle" x="218.5" y="-152.8" font-family="Times,serif" font-size="14.00">b</text>
</g>
<!-- 6&#45;&gt;0 -->
<g id="edge12" class="edge"><title>6&#45;&gt;0</title>
<path fill="none" stroke="black" d="M221.462,-91.5232C216.793,-79.7635 209.082,-64.2725 198,-54 183.423,-40.4878 162.772,-31.5868 146.24,-26.1434"/>
<polygon fill="black" stroke="black" points="147.156,-22.7637 136.57,-23.1907 145.112,-29.4585 147.156,-22.7637"/>
<text text-anchor="middle" x="212.5" y="-57.8" font-family="Times,serif" font-size="14.00">a</text>
</g>
<!-- 6&#45;&gt;5 -->
<g id="edge13" class="edge"><title>6&#45;&gt;5</title>
<path fill="none" stroke="black" d="M228.497,-127.37C228.904,-138.13 228.481,-152.116 225,-164 223.723,-168.361 221.849,-172.742 219.714,-176.91"/>
<polygon fill="black" stroke="black" points="216.667,-175.187 214.752,-185.607 222.747,-178.656 216.667,-175.187"/>
<text text-anchor="middle" x="230.5" y="-152.8" font-family="Times,serif" font-size="14.00">b</text>
</g>
<!-- 7&#45;&gt;0 -->
<g id="edge14" class="edge"><title>7&#45;&gt;0</title>
<path fill="none" stroke="black" d="M54.0723,-87.3035C56.9351,-76.5837 61.6099,-63.7374 69,-54 75.726,-45.1376 85.346,-37.6571 94.3545,-31.9159"/>
<polygon fill="black" stroke="black" points="96.216,-34.8812 103.029,-26.7676 92.6435,-28.8614 96.216,-34.8812"/>
<text text-anchor="middle" x="77.5" y="-57.8" font-family="Times,serif" font-size="14.00">a,b</text>
</g>
<!-- 8&#45;&gt;0 -->
<g id="edge15" class="edge"><title>8&#45;&gt;0</title>
<path fill="none" stroke="black" d="M136.572,-277.03C133.182,-227.249 124.651,-101.973 120.862,-46.3453"/>
<polygon fill="black" stroke="black" points="124.342,-45.9304 120.171,-36.1913 117.358,-46.406 124.342,-45.9304"/>
<text text-anchor="middle" x="131.5" y="-152.8" font-family="Times,serif" font-size="14.00">a</text>
</g>
<!-- 8&#45;&gt;5 -->
<g id="edge16" class="edge"><title>8&#45;&gt;5</title>
<path fill="none" stroke="black" d="M150.038,-280.507C159.631,-266.567 173.21,-246.836 184.08,-231.04"/>
<polygon fill="black" stroke="black" points="187.013,-232.952 189.798,-222.73 181.246,-228.984 187.013,-232.952"/>
<text text-anchor="middle" x="176.5" y="-247.8" font-family="Times,serif" font-size="14.00">b</text>
</g>
</g>
</svg>
