<?xml version="1.0" encoding="UTF-8" standalone="no"?>
<!DOCTYPE svg PUBLIC "-//W3C//DTD SVG 1.1//EN"
 "http://www.w3.org/Graphics/SVG/1.1/DTD/svg11.dtd">
<!-- Generated by graphviz version 2.38.0 (20140413.2041)
 -->
<!-- Title: %3 Pages: 1 -->
<svg width="118pt" height="313pt"
 viewBox="0.00 0.00 118.03 313.00" xmlns="http://www.w3.org/2000/svg" xmlns:xlink="http://www.w3.org/1999/xlink">
<g id="graph0" class="graph" transform="scale(1 1) rotate(0) translate(4 309)">
<title>%3</title>
<!-- 0 -->
<g id="node1" class="node"><title>0</title>
<ellipse fill="lightblue" stroke="black" cx="31.0252" cy="-287" rx="18" ry="18"/>
<text text-anchor="middle" x="31.0252" y="-283.3" font-family="Times,serif" font-size="14.00">0</text>
</g>
<!-- 1 -->
<g id="node2" class="node"><title>1</title>
<ellipse fill="lightblue" stroke="black" cx="31.0252" cy="-18" rx="18" ry="18"/>
<text text-anchor="middle" x="31.0252" y="-14.3" font-family="Times,serif" font-size="14.00">1</text>
</g>
<!-- 0&#45;&gt;1 -->
<g id="edge1" class="edge"><title>0&#45;&gt;1</title>
<path fill="none" stroke="black" d="M23.0734,-270.84C16.4908,-257.38 7.65227,-236.963 4.0252,-218 -7.76907,-156.336 10.3876,-82.9614 22.1958,-44.8603"/>
<polygon fill="black" stroke="black" points="25.6086,-45.6793 25.3278,-35.0882 18.9426,-43.5428 25.6086,-45.6793"/>
<text text-anchor="middle" x="9.0252" y="-152.8" font-family="Times,serif" font-size="14.00">c,a</text>
</g>
<!-- 3 -->
<g id="node4" class="node"><title>3</title>
<ellipse fill="lightblue" stroke="black" cx="31.0252" cy="-200" rx="18" ry="18"/>
<text text-anchor="middle" x="31.0252" y="-196.3" font-family="Times,serif" font-size="14.00">3</text>
</g>
<!-- 0&#45;&gt;3 -->
<g id="edge2" class="edge"><title>0&#45;&gt;3</title>
<path fill="none" stroke="black" d="M31.0252,-268.799C31.0252,-257.163 31.0252,-241.548 31.0252,-228.237"/>
<polygon fill="black" stroke="black" points="34.5253,-228.175 31.0252,-218.175 27.5253,-228.175 34.5253,-228.175"/>
<text text-anchor="middle" x="34.5252" y="-239.8" font-family="Times,serif" font-size="14.00">b</text>
</g>
<!-- 1&#45;&gt;1 -->
<g id="edge3" class="edge"><title>1&#45;&gt;1</title>
<path fill="none" stroke="black" d="M47.6893,-25.3828C57.6502,-27.0234 67.0252,-24.5625 67.0252,-18 67.0252,-13.7959 63.1777,-11.2751 57.7934,-10.4375"/>
<polygon fill="black" stroke="black" points="57.6254,-6.93988 47.6893,-10.6172 57.7499,-13.9388 57.6254,-6.93988"/>
<text text-anchor="middle" x="80.5252" y="-14.3" font-family="Times,serif" font-size="14.00">b,c,a</text>
</g>
<!-- 2 -->
<g id="node3" class="node"><title>2</title>
<ellipse fill="#aaff80" stroke="black" cx="88.0252" cy="-109" rx="18" ry="18"/>
<ellipse fill="none" stroke="black" cx="88.0252" cy="-109" rx="22" ry="22"/>
<text text-anchor="middle" x="88.0252" y="-105.3" font-family="Times,serif" font-size="14.00">2</text>
</g>
<!-- 2&#45;&gt;0 -->
<g id="edge4" class="edge"><title>2&#45;&gt;0</title>
<path fill="none" stroke="black" d="M83.0278,-130.5C77.5346,-152.372 68.1373,-187.935 58.0252,-218 53.2004,-232.345 47.0181,-248.067 41.787,-260.777"/>
<polygon fill="black" stroke="black" points="38.4591,-259.664 37.8398,-270.24 44.9196,-262.358 38.4591,-259.664"/>
<text text-anchor="middle" x="72.5252" y="-196.3" font-family="Times,serif" font-size="14.00">a</text>
</g>
<!-- 2&#45;&gt;1 -->
<g id="edge5" class="edge"><title>2&#45;&gt;1</title>
<path fill="none" stroke="black" d="M76.4904,-89.9895C67.6543,-76.1928 55.3975,-57.055 45.8364,-42.1262"/>
<polygon fill="black" stroke="black" points="48.6269,-39.9936 40.2863,-33.4603 42.7322,-43.7689 48.6269,-39.9936"/>
<text text-anchor="middle" x="70.5252" y="-57.8" font-family="Times,serif" font-size="14.00">b,c</text>
</g>
<!-- 3&#45;&gt;1 -->
<g id="edge6" class="edge"><title>3&#45;&gt;1</title>
<path fill="none" stroke="black" d="M31.0252,-181.741C31.0252,-150.427 31.0252,-84.0213 31.0252,-46.434"/>
<polygon fill="black" stroke="black" points="34.5253,-46.2069 31.0252,-36.2069 27.5253,-46.2069 34.5253,-46.2069"/>
<text text-anchor="middle" x="39.5252" y="-105.3" font-family="Times,serif" font-size="14.00">b,a</text>
</g>
<!-- 3&#45;&gt;2 -->
<g id="edge7" class="edge"><title>3&#45;&gt;2</title>
<path fill="none" stroke="black" d="M40.4376,-184.303C48.6846,-171.427 60.8779,-152.388 70.8571,-136.806"/>
<polygon fill="black" stroke="black" points="73.9844,-138.413 76.4303,-128.104 68.0897,-134.638 73.9844,-138.413"/>
<text text-anchor="middle" x="65.5252" y="-152.8" font-family="Times,serif" font-size="14.00">c</text>
</g>
</g>
</svg>
