<?xml version="1.0" encoding="UTF-8" standalone="no"?>
<!DOCTYPE svg PUBLIC "-//W3C//DTD SVG 1.1//EN"
 "http://www.w3.org/Graphics/SVG/1.1/DTD/svg11.dtd">
<!-- Generated by graphviz version 2.38.0 (20140413.2041)
 -->
<!-- Title: %3 Pages: 1 -->
<svg width="211pt" height="400pt"
 viewBox="0.00 0.00 211.00 400.00" xmlns="http://www.w3.org/2000/svg" xmlns:xlink="http://www.w3.org/1999/xlink">
<g id="graph0" class="graph" transform="scale(1 1) rotate(0) translate(4 396)">
<title>%3</title>
<!-- 0 -->
<g id="node1" class="node"><title>0</title>
<ellipse fill="lightblue" stroke="black" cx="181" cy="-374" rx="18" ry="18"/>
<text text-anchor="middle" x="181" y="-370.3" font-family="Times,serif" font-size="14.00">0</text>
</g>
<!-- 5 -->
<g id="node6" class="node"><title>5</title>
<ellipse fill="lightblue" stroke="black" cx="125" cy="-287" rx="18" ry="18"/>
<text text-anchor="middle" x="125" y="-283.3" font-family="Times,serif" font-size="14.00">5</text>
</g>
<!-- 0&#45;&gt;5 -->
<g id="edge1" class="edge"><title>0&#45;&gt;5</title>
<path fill="none" stroke="black" d="M170.305,-359.26C165.479,-352.897 159.799,-345.172 155,-338 149.438,-329.686 143.7,-320.341 138.75,-312"/>
<polygon fill="black" stroke="black" points="141.622,-309.978 133.549,-303.117 135.582,-313.515 141.622,-309.978"/>
<text text-anchor="middle" x="163.5" y="-326.8" font-family="Times,serif" font-size="14.00">a,b</text>
</g>
<!-- 1 -->
<g id="node2" class="node"><title>1</title>
<ellipse fill="lightblue" stroke="black" cx="162" cy="-18" rx="18" ry="18"/>
<text text-anchor="middle" x="162" y="-14.3" font-family="Times,serif" font-size="14.00">1</text>
</g>
<!-- 1&#45;&gt;0 -->
<g id="edge2" class="edge"><title>1&#45;&gt;0</title>
<path fill="none" stroke="black" d="M168.942,-34.7328C176.03,-52.2549 186,-81.5945 186,-108 186,-288 186,-288 186,-288 186,-307.281 184.702,-328.979 183.429,-345.627"/>
<polygon fill="black" stroke="black" points="179.927,-345.511 182.61,-355.761 186.904,-346.076 179.927,-345.511"/>
<text text-anchor="middle" x="194.5" y="-196.3" font-family="Times,serif" font-size="14.00">a,b</text>
</g>
<!-- 2 -->
<g id="node3" class="node"><title>2</title>
<ellipse fill="lightblue" stroke="black" cx="18" cy="-109" rx="18" ry="18"/>
<text text-anchor="middle" x="18" y="-105.3" font-family="Times,serif" font-size="14.00">2</text>
</g>
<!-- 2&#45;&gt;2 -->
<g id="edge3" class="edge"><title>2&#45;&gt;2</title>
<path fill="none" stroke="black" d="M34.2903,-117.016C44.3892,-118.949 54,-116.277 54,-109 54,-104.338 50.0557,-101.566 44.5656,-100.684"/>
<polygon fill="black" stroke="black" points="44.1839,-97.1933 34.2903,-100.984 44.3881,-104.19 44.1839,-97.1933"/>
<text text-anchor="middle" x="62.5" y="-105.3" font-family="Times,serif" font-size="14.00">a,b</text>
</g>
<!-- 3 -->
<g id="node4" class="node"><title>3</title>
<ellipse fill="#aaff80" stroke="black" cx="111" cy="-109" rx="18" ry="18"/>
<ellipse fill="none" stroke="black" cx="111" cy="-109" rx="22" ry="22"/>
<text text-anchor="middle" x="111" y="-105.3" font-family="Times,serif" font-size="14.00">3</text>
</g>
<!-- 3&#45;&gt;1 -->
<g id="edge4" class="edge"><title>3&#45;&gt;1</title>
<path fill="none" stroke="black" d="M121.567,-89.5591C129.322,-76.0268 139.921,-57.5303 148.322,-42.8701"/>
<polygon fill="black" stroke="black" points="151.538,-44.2975 153.473,-33.8809 145.464,-40.8172 151.538,-44.2975"/>
<text text-anchor="middle" x="145.5" y="-57.8" font-family="Times,serif" font-size="14.00">b</text>
</g>
<!-- 3&#45;&gt;3 -->
<g id="edge5" class="edge"><title>3&#45;&gt;3</title>
<path fill="none" stroke="black" d="M131.581,-117.37C141.845,-118.528 151,-115.738 151,-109 151,-104.683 147.243,-101.987 141.844,-100.911"/>
<polygon fill="black" stroke="black" points="141.673,-97.405 131.581,-100.63 141.481,-104.402 141.673,-97.405"/>
<text text-anchor="middle" x="154.5" y="-105.3" font-family="Times,serif" font-size="14.00">a</text>
</g>
<!-- 4 -->
<g id="node5" class="node"><title>4</title>
<ellipse fill="lightblue" stroke="black" cx="111" cy="-200" rx="18" ry="18"/>
<text text-anchor="middle" x="111" y="-196.3" font-family="Times,serif" font-size="14.00">4</text>
</g>
<!-- 4&#45;&gt;2 -->
<g id="edge6" class="edge"><title>4&#45;&gt;2</title>
<path fill="none" stroke="black" d="M98.4576,-186.997C82.9266,-172.134 56.283,-146.636 37.9381,-129.081"/>
<polygon fill="black" stroke="black" points="40.2854,-126.482 30.6407,-122.097 35.4455,-131.54 40.2854,-126.482"/>
<text text-anchor="middle" x="76.5" y="-152.8" font-family="Times,serif" font-size="14.00">a</text>
</g>
<!-- 4&#45;&gt;3 -->
<g id="edge7" class="edge"><title>4&#45;&gt;3</title>
<path fill="none" stroke="black" d="M111,-181.84C111,-170.441 111,-155.134 111,-141.578"/>
<polygon fill="black" stroke="black" points="114.5,-141.19 111,-131.191 107.5,-141.191 114.5,-141.19"/>
<text text-anchor="middle" x="114.5" y="-152.8" font-family="Times,serif" font-size="14.00">b</text>
</g>
<!-- 5&#45;&gt;4 -->
<g id="edge8" class="edge"><title>5&#45;&gt;4</title>
<path fill="none" stroke="black" d="M122.234,-269.207C120.31,-257.525 117.702,-241.692 115.484,-228.222"/>
<polygon fill="black" stroke="black" points="118.887,-227.348 113.808,-218.049 111.98,-228.485 118.887,-227.348"/>
<text text-anchor="middle" x="127.5" y="-239.8" font-family="Times,serif" font-size="14.00">a,b</text>
</g>
</g>
</svg>
