<?xml version="1.0" encoding="UTF-8" standalone="no"?>
<!DOCTYPE svg PUBLIC "-//W3C//DTD SVG 1.1//EN"
 "http://www.w3.org/Graphics/SVG/1.1/DTD/svg11.dtd">
<!-- Generated by graphviz version 2.38.0 (20140413.2041)
 -->
<!-- Title: %3 Pages: 1 -->
<svg width="76pt" height="145pt"
 viewBox="0.00 0.00 75.90 144.80" xmlns="http://www.w3.org/2000/svg" xmlns:xlink="http://www.w3.org/1999/xlink">
<g id="graph0" class="graph" transform="scale(1 1) rotate(0) translate(4 140.803)">
<title>%3</title>
<!-- state_1 -->
<g id="node1" class="node"><title>state_1</title>
<ellipse fill="lightblue" stroke="black" cx="21.4507" cy="-115.352" rx="21.4016" ry="21.4016"/>
<text text-anchor="middle" x="21.4507" y="-111.652" font-family="Times,serif" font-size="14.00">state_1</text>
</g>
<!-- state_1&#45;&gt;state_1 -->
<g id="edge1" class="edge"><title>state_1&#45;&gt;state_1</title>
<path fill="none" stroke="black" d="M41.3435,-123.674C51.6295,-124.954 60.9015,-122.18 60.9015,-115.352 60.9015,-110.978 57.0963,-108.268 51.6569,-107.221"/>
<polygon fill="black" stroke="black" points="51.4064,-103.716 41.3435,-107.03 51.2771,-110.715 51.4064,-103.716"/>
<text text-anchor="middle" x="64.4015" y="-111.652" font-family="Times,serif" font-size="14.00">a</text>
</g>
<!-- state_2 -->
<g id="node2" class="node"><title>state_2</title>
<ellipse fill="lightblue" stroke="black" cx="21.4507" cy="-21.4507" rx="21.4016" ry="21.4016"/>
<text text-anchor="middle" x="21.4507" y="-17.7507" font-family="Times,serif" font-size="14.00">state_2</text>
</g>
<!-- state_1&#45;&gt;state_2 -->
<g id="edge2" class="edge"><title>state_1&#45;&gt;state_2</title>
<path fill="none" stroke="black" d="M21.4507,-93.4984C21.4507,-81.5471 21.4507,-66.3285 21.4507,-53.0447"/>
<polygon fill="black" stroke="black" points="24.9508,-52.9055 21.4507,-42.9055 17.9508,-52.9055 24.9508,-52.9055"/>
<text text-anchor="middle" x="24.9507" y="-64.7015" font-family="Times,serif" font-size="14.00">a</text>
</g>
</g>
</svg>
