<?xml version="1.0" encoding="UTF-8" standalone="no"?>
<!DOCTYPE svg PUBLIC "-//W3C//DTD SVG 1.1//EN"
 "http://www.w3.org/Graphics/SVG/1.1/DTD/svg11.dtd">
<!-- Generated by graphviz version 2.38.0 (20140413.2041)
 -->
<!-- Title: %3 Pages: 1 -->
<svg width="458pt" height="574pt"
 viewBox="0.00 0.00 458.00 574.00" xmlns="http://www.w3.org/2000/svg" xmlns:xlink="http://www.w3.org/1999/xlink">
<g id="graph0" class="graph" transform="scale(1 1) rotate(0) translate(4 570)">
<title>%3</title>
<!-- 0 -->
<g id="node1" class="node"><title>0</title>
<ellipse fill="#aaff80" stroke="black" cx="106" cy="-544" rx="18" ry="18"/>
<ellipse fill="none" stroke="black" cx="106" cy="-544" rx="22" ry="22"/>
<text text-anchor="middle" x="106" y="-540.3" font-family="Times,serif" font-size="14.00">0</text>
</g>
<!-- 1 -->
<g id="node2" class="node"><title>1</title>
<ellipse fill="lightblue" stroke="black" cx="65" cy="-453" rx="18" ry="18"/>
<text text-anchor="middle" x="65" y="-449.3" font-family="Times,serif" font-size="14.00">1</text>
</g>
<!-- 0&#45;&gt;1 -->
<g id="edge1" class="edge"><title>0&#45;&gt;1</title>
<path fill="none" stroke="black" d="M88.7092,-530.114C80.9355,-523.286 72.5095,-514.203 68,-504 64.9415,-497.08 63.6153,-489.089 63.1973,-481.554"/>
<polygon fill="black" stroke="black" points="66.696,-481.339 63.1251,-471.364 59.6962,-481.389 66.696,-481.339"/>
<text text-anchor="middle" x="71.5" y="-492.8" font-family="Times,serif" font-size="14.00">d</text>
</g>
<!-- 2 -->
<g id="node3" class="node"><title>2</title>
<ellipse fill="lightblue" stroke="black" cx="147" cy="-105" rx="18" ry="18"/>
<text text-anchor="middle" x="147" y="-101.3" font-family="Times,serif" font-size="14.00">2</text>
</g>
<!-- 0&#45;&gt;2 -->
<g id="edge2" class="edge"><title>0&#45;&gt;2</title>
<path fill="none" stroke="black" d="M120.968,-527.371C135.378,-510.624 155,-482.574 155,-454 155,-454 155,-454 155,-234.5 155,-199.491 152.005,-159.22 149.681,-133.23"/>
<polygon fill="black" stroke="black" points="153.143,-132.658 148.736,-123.023 146.172,-133.303 153.143,-132.658"/>
<text text-anchor="middle" x="158.5" y="-318.8" font-family="Times,serif" font-size="14.00">a</text>
</g>
<!-- 3 -->
<g id="node4" class="node"><title>3</title>
<ellipse fill="lightblue" stroke="black" cx="308" cy="-453" rx="18" ry="18"/>
<text text-anchor="middle" x="308" y="-449.3" font-family="Times,serif" font-size="14.00">3</text>
</g>
<!-- 0&#45;&gt;3 -->
<g id="edge3" class="edge"><title>0&#45;&gt;3</title>
<path fill="none" stroke="black" d="M126.107,-534.141C163.076,-517.853 241.771,-483.18 282.458,-465.254"/>
<polygon fill="black" stroke="black" points="283.962,-468.416 291.702,-461.181 281.14,-462.01 283.962,-468.416"/>
<text text-anchor="middle" x="227.5" y="-492.8" font-family="Times,serif" font-size="14.00">f</text>
</g>
<!-- 6 -->
<g id="node7" class="node"><title>6</title>
<ellipse fill="lightblue" stroke="black" cx="205" cy="-18" rx="18" ry="18"/>
<text text-anchor="middle" x="205" y="-14.3" font-family="Times,serif" font-size="14.00">6</text>
</g>
<!-- 0&#45;&gt;6 -->
<g id="edge4" class="edge"><title>0&#45;&gt;6</title>
<path fill="none" stroke="black" d="M85.3105,-536.238C54.4626,-524.703 0,-498.094 0,-454 0,-454 0,-454 0,-104 0,-28.3512 120.592,-18.7426 176.793,-18.3723"/>
<polygon fill="black" stroke="black" points="176.798,-21.8722 186.808,-18.4006 176.818,-14.8722 176.798,-21.8722"/>
<text text-anchor="middle" x="14" y="-275.3" font-family="Times,serif" font-size="14.00">g,e,b</text>
</g>
<!-- 1&#45;&gt;0 -->
<g id="edge5" class="edge"><title>1&#45;&gt;0</title>
<path fill="none" stroke="black" d="M72.24,-469.716C77.9302,-482.068 86.0079,-499.603 92.8353,-514.423"/>
<polygon fill="black" stroke="black" points="89.7405,-516.07 97.1036,-523.688 96.0984,-513.141 89.7405,-516.07"/>
<text text-anchor="middle" x="90.5" y="-492.8" font-family="Times,serif" font-size="14.00">e</text>
</g>
<!-- 1&#45;&gt;6 -->
<g id="edge6" class="edge"><title>1&#45;&gt;6</title>
<path fill="none" stroke="black" d="M62.1523,-435.122C59.5156,-418.01 56,-390.743 56,-367 56,-367 56,-367 56,-104 56,-48.9535 133.675,-29.0848 176.859,-22.2922"/>
<polygon fill="black" stroke="black" points="177.626,-25.7182 187.027,-20.8335 176.631,-18.7891 177.626,-25.7182"/>
<text text-anchor="middle" x="79" y="-231.8" font-family="Times,serif" font-size="14.00">a,d,g,f,b</text>
</g>
<!-- 2&#45;&gt;0 -->
<g id="edge7" class="edge"><title>2&#45;&gt;0</title>
<path fill="none" stroke="black" d="M138.323,-120.797C129.463,-137.332 117,-165.179 117,-191 117,-454 117,-454 117,-454 117,-473.468 114.375,-495.153 111.69,-512.243"/>
<polygon fill="black" stroke="black" points="108.217,-511.792 110.034,-522.23 115.123,-512.937 108.217,-511.792"/>
<text text-anchor="middle" x="120.5" y="-318.8" font-family="Times,serif" font-size="14.00">b</text>
</g>
<!-- 2&#45;&gt;6 -->
<g id="edge8" class="edge"><title>2&#45;&gt;6</title>
<path fill="none" stroke="black" d="M142.12,-87.6343C140.022,-77.3208 139.202,-64.0946 145,-54 152.204,-41.4579 165.827,-32.9854 178.274,-27.5223"/>
<polygon fill="black" stroke="black" points="179.826,-30.6736 187.859,-23.7659 177.271,-24.1563 179.826,-30.6736"/>
<text text-anchor="middle" x="168" y="-57.8" font-family="Times,serif" font-size="14.00">a,d,g,f,e</text>
</g>
<!-- 5 -->
<g id="node6" class="node"><title>5</title>
<ellipse fill="lightblue" stroke="black" cx="308" cy="-366" rx="18" ry="18"/>
<text text-anchor="middle" x="308" y="-362.3" font-family="Times,serif" font-size="14.00">5</text>
</g>
<!-- 3&#45;&gt;5 -->
<g id="edge9" class="edge"><title>3&#45;&gt;5</title>
<path fill="none" stroke="black" d="M308,-434.799C308,-423.163 308,-407.548 308,-394.237"/>
<polygon fill="black" stroke="black" points="311.5,-394.175 308,-384.175 304.5,-394.175 311.5,-394.175"/>
<text text-anchor="middle" x="311.5" y="-405.8" font-family="Times,serif" font-size="14.00">g</text>
</g>
<!-- 3&#45;&gt;6 -->
<g id="edge10" class="edge"><title>3&#45;&gt;6</title>
<path fill="none" stroke="black" d="M324.722,-446.053C352.227,-435.074 404,-408.85 404,-367 404,-367 404,-367 404,-104 404,-30.5658 287.981,-19.7172 233.116,-18.6926"/>
<polygon fill="black" stroke="black" points="233.042,-15.1918 223.011,-18.603 232.979,-22.1916 233.042,-15.1918"/>
<text text-anchor="middle" x="427" y="-231.8" font-family="Times,serif" font-size="14.00">a,d,f,e,b</text>
</g>
<!-- 4 -->
<g id="node5" class="node"><title>4</title>
<ellipse fill="lightblue" stroke="black" cx="267" cy="-279" rx="18" ry="18"/>
<text text-anchor="middle" x="267" y="-275.3" font-family="Times,serif" font-size="14.00">4</text>
</g>
<!-- 4&#45;&gt;6 -->
<g id="edge11" class="edge"><title>4&#45;&gt;6</title>
<path fill="none" stroke="black" d="M267.15,-260.906C267.312,-220.225 266.512,-118.698 255,-87 248.434,-68.9228 235.458,-51.5075 224.371,-38.8272"/>
<polygon fill="black" stroke="black" points="226.764,-36.2569 217.444,-31.2188 221.588,-40.9695 226.764,-36.2569"/>
<text text-anchor="middle" x="287" y="-144.8" font-family="Times,serif" font-size="14.00">a,d,f,e,b</text>
</g>
<!-- 7 -->
<g id="node8" class="node"><title>7</title>
<ellipse fill="lightblue" stroke="black" cx="205" cy="-192" rx="18" ry="18"/>
<text text-anchor="middle" x="205" y="-188.3" font-family="Times,serif" font-size="14.00">7</text>
</g>
<!-- 4&#45;&gt;7 -->
<g id="edge12" class="edge"><title>4&#45;&gt;7</title>
<path fill="none" stroke="black" d="M256.762,-263.964C247.159,-250.799 232.637,-230.889 221.416,-215.506"/>
<polygon fill="black" stroke="black" points="223.974,-213.073 215.253,-207.057 218.319,-217.199 223.974,-213.073"/>
<text text-anchor="middle" x="242.5" y="-231.8" font-family="Times,serif" font-size="14.00">g</text>
</g>
<!-- 5&#45;&gt;4 -->
<g id="edge13" class="edge"><title>5&#45;&gt;4</title>
<path fill="none" stroke="black" d="M300.48,-349.41C294.469,-336.949 285.93,-319.244 278.979,-304.835"/>
<polygon fill="black" stroke="black" points="281.969,-302.978 274.472,-295.491 275.665,-306.019 281.969,-302.978"/>
<text text-anchor="middle" x="291.5" y="-318.8" font-family="Times,serif" font-size="14.00">f</text>
</g>
<!-- 5&#45;&gt;6 -->
<g id="edge14" class="edge"><title>5&#45;&gt;6</title>
<path fill="none" stroke="black" d="M314.109,-348.969C319.991,-332.074 328,-304.559 328,-280 328,-280 328,-280 328,-104 328,-57.9313 268.881,-34.8854 232.616,-25.0822"/>
<polygon fill="black" stroke="black" points="233.176,-21.6137 222.623,-22.5568 231.46,-28.4004 233.176,-21.6137"/>
<text text-anchor="middle" x="352" y="-188.3" font-family="Times,serif" font-size="14.00">a,d,g,e,b</text>
</g>
<!-- 6&#45;&gt;6 -->
<g id="edge15" class="edge"><title>6&#45;&gt;6</title>
<path fill="none" stroke="black" d="M221.664,-25.3828C231.625,-27.0234 241,-24.5625 241,-18 241,-13.7959 237.152,-11.2751 231.768,-10.4375"/>
<polygon fill="black" stroke="black" points="231.6,-6.93988 221.664,-10.6172 231.725,-13.9388 231.6,-6.93988"/>
<text text-anchor="middle" x="269" y="-14.3" font-family="Times,serif" font-size="14.00">a,d,g,f,e,b</text>
</g>
<!-- 7&#45;&gt;2 -->
<g id="edge16" class="edge"><title>7&#45;&gt;2</title>
<path fill="none" stroke="black" d="M195.161,-176.581C186.191,-163.436 172.795,-143.803 162.406,-128.578"/>
<polygon fill="black" stroke="black" points="165.221,-126.494 156.694,-120.206 159.439,-130.439 165.221,-126.494"/>
<text text-anchor="middle" x="182.5" y="-144.8" font-family="Times,serif" font-size="14.00">a</text>
</g>
<!-- 7&#45;&gt;6 -->
<g id="edge17" class="edge"><title>7&#45;&gt;6</title>
<path fill="none" stroke="black" d="M205,-173.879C205,-144.001 205,-82.1129 205,-46.2736"/>
<polygon fill="black" stroke="black" points="208.5,-46.0516 205,-36.0516 201.5,-46.0516 208.5,-46.0516"/>
<text text-anchor="middle" x="228" y="-101.3" font-family="Times,serif" font-size="14.00">d,g,f,e,b</text>
</g>
</g>
</svg>
