<?xml version="1.0" encoding="UTF-8" standalone="no"?>
<!DOCTYPE svg PUBLIC "-//W3C//DTD SVG 1.1//EN"
 "http://www.w3.org/Graphics/SVG/1.1/DTD/svg11.dtd">
<!-- Generated by graphviz version 2.38.0 (20140413.2041)
 -->
<!-- Title: %3 Pages: 1 -->
<svg width="316pt" height="188pt"
 viewBox="0.00 0.00 316.00 188.00" xmlns="http://www.w3.org/2000/svg" xmlns:xlink="http://www.w3.org/1999/xlink">
<g id="graph0" class="graph" transform="scale(1 1) rotate(0) translate(4 184)">
<title>%3</title>
<!-- ab -->
<g id="node1" class="node"><title>ab</title>
<ellipse fill="none" stroke="black" cx="27" cy="-90" rx="27" ry="18"/>
<text text-anchor="middle" x="27" y="-86.3" font-family="Times,serif" font-size="14.00" fill="red">ab</text>
</g>
<!-- bb -->
<g id="node2" class="node"><title>bb</title>
<ellipse fill="none" stroke="black" cx="137" cy="-18" rx="27" ry="18"/>
<text text-anchor="middle" x="137" y="-14.3" font-family="Times,serif" font-size="14.00" fill="red">bb</text>
</g>
<!-- ab&#45;&gt;bb -->
<g id="edge1" class="edge"><title>ab&#45;&gt;bb</title>
<path fill="none" stroke="black" d="M46.1605,-76.8069C63.6689,-65.6653 89.7595,-49.0622 109.493,-36.5043"/>
<polygon fill="black" stroke="black" points="111.501,-39.375 118.059,-31.0533 107.743,-33.4693 111.501,-39.375"/>
</g>
<!-- 1 -->
<g id="node3" class="node"><title>1</title>
<ellipse fill="none" stroke="black" cx="82" cy="-162" rx="27" ry="18"/>
<text text-anchor="middle" x="82" y="-158.3" font-family="Times,serif" font-size="14.00" fill="red">1</text>
</g>
<!-- 1&#45;&gt;ab -->
<g id="edge2" class="edge"><title>1&#45;&gt;ab</title>
<path fill="none" stroke="black" d="M70.0658,-145.811C62.7864,-136.546 53.3374,-124.52 45.1456,-114.094"/>
<polygon fill="black" stroke="black" points="47.8413,-111.86 38.9109,-106.159 42.337,-116.185 47.8413,-111.86"/>
</g>
<!-- 1&#45;&gt;bb -->
<g id="edge4" class="edge"><title>1&#45;&gt;bb</title>
<path fill="none" stroke="black" d="M83.6561,-144.012C85.8901,-125.654 90.8264,-95.8305 101,-72 105.389,-61.7188 111.88,-51.3417 118.147,-42.5285"/>
<polygon fill="black" stroke="black" points="121.105,-44.4149 124.252,-34.2982 115.483,-40.2445 121.105,-44.4149"/>
</g>
<!-- ba -->
<g id="node5" class="node"><title>ba</title>
<ellipse fill="none" stroke="black" cx="137" cy="-90" rx="27" ry="18"/>
<text text-anchor="middle" x="137" y="-86.3" font-family="Times,serif" font-size="14.00" fill="red">ba</text>
</g>
<!-- 1&#45;&gt;ba -->
<g id="edge3" class="edge"><title>1&#45;&gt;ba</title>
<path fill="none" stroke="black" d="M93.9342,-145.811C101.214,-136.546 110.663,-124.52 118.854,-114.094"/>
<polygon fill="black" stroke="black" points="121.663,-116.185 125.089,-106.159 116.159,-111.86 121.663,-116.185"/>
</g>
<!-- b -->
<g id="node4" class="node"><title>b</title>
<ellipse fill="none" stroke="black" cx="209" cy="-90" rx="27" ry="18"/>
<text text-anchor="middle" x="209" y="-86.3" font-family="Times,serif" font-size="14.00">b</text>
</g>
<!-- b&#45;&gt;bb -->
<g id="edge5" class="edge"><title>b&#45;&gt;bb</title>
<path fill="none" stroke="black" d="M194.43,-74.8345C184.25,-64.9376 170.476,-51.5462 158.969,-40.3591"/>
<polygon fill="black" stroke="black" points="161.405,-37.8461 151.796,-33.3847 156.526,-42.865 161.405,-37.8461"/>
</g>
<!-- ba&#45;&gt;bb -->
<g id="edge6" class="edge"><title>ba&#45;&gt;bb</title>
<path fill="none" stroke="black" d="M137,-71.6966C137,-63.9827 137,-54.7125 137,-46.1124"/>
<polygon fill="black" stroke="black" points="140.5,-46.1043 137,-36.1043 133.5,-46.1044 140.5,-46.1043"/>
</g>
<!-- a -->
<g id="node6" class="node"><title>a</title>
<ellipse fill="none" stroke="black" cx="281" cy="-90" rx="27" ry="18"/>
<text text-anchor="middle" x="281" y="-86.3" font-family="Times,serif" font-size="14.00">a</text>
</g>
<!-- a&#45;&gt;bb -->
<g id="edge7" class="edge"><title>a&#45;&gt;bb</title>
<path fill="none" stroke="black" d="M259.752,-78.6713C235.398,-66.8324 195.281,-47.3312 167.572,-33.8615"/>
<polygon fill="black" stroke="black" points="168.859,-30.5953 158.335,-29.3711 165.798,-36.8909 168.859,-30.5953"/>
</g>
</g>
</svg>
