<?xml version="1.0" encoding="UTF-8" standalone="no"?>
<!DOCTYPE svg PUBLIC "-//W3C//DTD SVG 1.1//EN"
 "http://www.w3.org/Graphics/SVG/1.1/DTD/svg11.dtd">
<!-- Generated by graphviz version 2.38.0 (20140413.2041)
 -->
<!-- Title: %3 Pages: 1 -->
<svg width="500pt" height="1426pt"
 viewBox="0.00 0.00 500.00 1426.00" xmlns="http://www.w3.org/2000/svg" xmlns:xlink="http://www.w3.org/1999/xlink">
<g id="graph0" class="graph" transform="scale(1 1) rotate(0) translate(4 1422)">
<title>%3</title>
<!-- 0 -->
<g id="node1" class="node"><title>0</title>
<ellipse fill="lightblue" stroke="black" cx="223" cy="-465" rx="18" ry="18"/>
<text text-anchor="middle" x="223" y="-461.3" font-family="Times,serif" font-size="14.00">0</text>
</g>
<!-- 19 -->
<g id="node20" class="node"><title>19</title>
<ellipse fill="lightblue" stroke="black" cx="292" cy="-374" rx="18" ry="18"/>
<text text-anchor="middle" x="292" y="-370.3" font-family="Times,serif" font-size="14.00">19</text>
</g>
<!-- 0&#45;&gt;19 -->
<g id="edge1" class="edge"><title>0&#45;&gt;19</title>
<path fill="none" stroke="black" d="M223.44,-446.538C224.505,-435.21 227.418,-420.635 235,-410 242.665,-399.25 254.764,-391.145 265.848,-385.456"/>
<polygon fill="black" stroke="black" points="267.623,-388.489 275.189,-381.073 264.649,-382.152 267.623,-388.489"/>
<text text-anchor="middle" x="253.5" y="-413.8" font-family="Times,serif" font-size="14.00">d,c,a,b</text>
</g>
<!-- 1 -->
<g id="node2" class="node"><title>1</title>
<ellipse fill="lightblue" stroke="black" cx="149" cy="-18" rx="18" ry="18"/>
<text text-anchor="middle" x="149" y="-14.3" font-family="Times,serif" font-size="14.00">1</text>
</g>
<!-- 1&#45;&gt;1 -->
<g id="edge2" class="edge"><title>1&#45;&gt;1</title>
<path fill="none" stroke="black" d="M165.664,-25.3828C175.625,-27.0234 185,-24.5625 185,-18 185,-13.7959 181.152,-11.2751 175.768,-10.4375"/>
<polygon fill="black" stroke="black" points="175.6,-6.93988 165.664,-10.6172 175.725,-13.9388 175.6,-6.93988"/>
<text text-anchor="middle" x="203.5" y="-14.3" font-family="Times,serif" font-size="14.00">d,c,a,b</text>
</g>
<!-- 2 -->
<g id="node3" class="node"><title>2</title>
<ellipse fill="lightblue" stroke="black" cx="315" cy="-465" rx="18" ry="18"/>
<text text-anchor="middle" x="315" y="-461.3" font-family="Times,serif" font-size="14.00">2</text>
</g>
<!-- 8 -->
<g id="node9" class="node"><title>8</title>
<ellipse fill="lightblue" stroke="black" cx="356" cy="-850" rx="18" ry="18"/>
<ellipse fill="none" stroke="black" cx="356" cy="-850" rx="22" ry="22"/>
<text text-anchor="middle" x="356" y="-846.3" font-family="Times,serif" font-size="14.00">8</text>
</g>
<!-- 2&#45;&gt;8 -->
<g id="edge3" class="edge"><title>2&#45;&gt;8</title>
<path fill="none" stroke="black" d="M316.331,-483.309C318.113,-505.993 321.461,-547.007 325,-582 333.64,-667.428 345.874,-767.985 352.073,-817.792"/>
<polygon fill="black" stroke="black" points="348.624,-818.42 353.336,-827.91 355.57,-817.553 348.624,-818.42"/>
<text text-anchor="middle" x="337.5" y="-647.3" font-family="Times,serif" font-size="14.00">b</text>
</g>
<!-- 2&#45;&gt;19 -->
<g id="edge4" class="edge"><title>2&#45;&gt;19</title>
<path fill="none" stroke="black" d="M310.674,-447.26C307.365,-434.456 302.737,-416.547 298.916,-401.761"/>
<polygon fill="black" stroke="black" points="302.198,-400.471 296.307,-391.665 295.42,-402.223 302.198,-400.471"/>
<text text-anchor="middle" x="317.5" y="-413.8" font-family="Times,serif" font-size="14.00">d,c,a</text>
</g>
<!-- 3 -->
<g id="node4" class="node"><title>3</title>
<ellipse fill="lightblue" stroke="black" cx="455" cy="-651" rx="18" ry="18"/>
<text text-anchor="middle" x="455" y="-647.3" font-family="Times,serif" font-size="14.00">3</text>
</g>
<!-- 5 -->
<g id="node6" class="node"><title>5</title>
<ellipse fill="lightblue" stroke="black" cx="394" cy="-287" rx="18" ry="18"/>
<text text-anchor="middle" x="394" y="-283.3" font-family="Times,serif" font-size="14.00">5</text>
</g>
<!-- 3&#45;&gt;5 -->
<g id="edge5" class="edge"><title>3&#45;&gt;5</title>
<path fill="none" stroke="black" d="M457.749,-632.99C460.396,-615.116 464,-586.159 464,-561 464,-561 464,-561 464,-373 464,-343.058 437.798,-317.937 417.455,-302.946"/>
<polygon fill="black" stroke="black" points="419.388,-300.026 409.189,-297.156 415.372,-305.76 419.388,-300.026"/>
<text text-anchor="middle" x="477.5" y="-461.3" font-family="Times,serif" font-size="14.00">d,c,a</text>
</g>
<!-- 9 -->
<g id="node10" class="node"><title>9</title>
<ellipse fill="lightblue" stroke="black" cx="356" cy="-560" rx="18" ry="18"/>
<ellipse fill="none" stroke="black" cx="356" cy="-560" rx="22" ry="22"/>
<text text-anchor="middle" x="356" y="-556.3" font-family="Times,serif" font-size="14.00">9</text>
</g>
<!-- 3&#45;&gt;9 -->
<g id="edge6" class="edge"><title>3&#45;&gt;9</title>
<path fill="none" stroke="black" d="M442.057,-638.365C426.211,-624.119 399.071,-599.72 379.501,-582.127"/>
<polygon fill="black" stroke="black" points="381.669,-579.37 371.892,-575.287 376.989,-584.575 381.669,-579.37"/>
<text text-anchor="middle" x="417.5" y="-603.8" font-family="Times,serif" font-size="14.00">b</text>
</g>
<!-- 4 -->
<g id="node5" class="node"><title>4</title>
<ellipse fill="lightblue" stroke="black" cx="92" cy="-1131" rx="18" ry="18"/>
<text text-anchor="middle" x="92" y="-1127.3" font-family="Times,serif" font-size="14.00">4</text>
</g>
<!-- 17 -->
<g id="node18" class="node"><title>17</title>
<ellipse fill="lightblue" stroke="black" cx="64" cy="-1040" rx="18" ry="18"/>
<ellipse fill="none" stroke="black" cx="64" cy="-1040" rx="22" ry="22"/>
<text text-anchor="middle" x="64" y="-1036.3" font-family="Times,serif" font-size="14.00">17</text>
</g>
<!-- 4&#45;&gt;17 -->
<g id="edge7" class="edge"><title>4&#45;&gt;17</title>
<path fill="none" stroke="black" d="M86.8644,-1113.68C83.1293,-1101.8 77.9643,-1085.39 73.4882,-1071.16"/>
<polygon fill="black" stroke="black" points="76.7208,-1069.77 70.381,-1061.28 70.0434,-1071.87 76.7208,-1069.77"/>
<text text-anchor="middle" x="98.5" y="-1083.8" font-family="Times,serif" font-size="14.00">d,c,a,b</text>
</g>
<!-- 14 -->
<g id="node15" class="node"><title>14</title>
<ellipse fill="lightblue" stroke="black" cx="222" cy="-200" rx="18" ry="18"/>
<text text-anchor="middle" x="222" y="-196.3" font-family="Times,serif" font-size="14.00">14</text>
</g>
<!-- 5&#45;&gt;14 -->
<g id="edge8" class="edge"><title>5&#45;&gt;14</title>
<path fill="none" stroke="black" d="M383.271,-272.206C373.81,-260.933 359.061,-245.379 343,-236 313.753,-218.921 275.608,-209.697 250.035,-205.075"/>
<polygon fill="black" stroke="black" points="250.351,-201.578 239.908,-203.366 249.186,-208.481 250.351,-201.578"/>
<text text-anchor="middle" x="379.5" y="-239.8" font-family="Times,serif" font-size="14.00">d,c,a,b</text>
</g>
<!-- 6 -->
<g id="node7" class="node"><title>6</title>
<ellipse fill="#aaff80" stroke="black" cx="46" cy="-1396" rx="18" ry="18"/>
<ellipse fill="none" stroke="black" cx="46" cy="-1396" rx="22" ry="22"/>
<text text-anchor="middle" x="46" y="-1392.3" font-family="Times,serif" font-size="14.00">6</text>
</g>
<!-- 6&#45;&gt;1 -->
<g id="edge9" class="edge"><title>6&#45;&gt;1</title>
<path fill="none" stroke="black" d="M31.6975,-1378.9C18.1941,-1361.99 0,-1334 0,-1306 0,-1306 0,-1306 0,-108 0,-52.1883 78.0041,-30.5481 121.133,-22.8486"/>
<polygon fill="black" stroke="black" points="121.73,-26.2976 131.027,-21.217 120.591,-19.3908 121.73,-26.2976"/>
<text text-anchor="middle" x="3.5" y="-690.8" font-family="Times,serif" font-size="14.00">d</text>
</g>
<!-- 6&#45;&gt;6 -->
<g id="edge10" class="edge"><title>6&#45;&gt;6</title>
<path fill="none" stroke="black" d="M66.5808,-1404.37C76.8447,-1405.53 86,-1402.74 86,-1396 86,-1391.68 82.2427,-1388.99 76.8436,-1387.91"/>
<polygon fill="black" stroke="black" points="76.6729,-1384.41 66.5808,-1387.63 76.4812,-1391.4 76.6729,-1384.41"/>
<text text-anchor="middle" x="94" y="-1392.3" font-family="Times,serif" font-size="14.00">c,a</text>
</g>
<!-- 15 -->
<g id="node16" class="node"><title>15</title>
<ellipse fill="lightblue" stroke="black" cx="92" cy="-1305" rx="18" ry="18"/>
<text text-anchor="middle" x="92" y="-1301.3" font-family="Times,serif" font-size="14.00">15</text>
</g>
<!-- 6&#45;&gt;15 -->
<g id="edge11" class="edge"><title>6&#45;&gt;15</title>
<path fill="none" stroke="black" d="M55.7554,-1376.13C62.6783,-1362.73 72.0296,-1344.64 79.4996,-1330.19"/>
<polygon fill="black" stroke="black" points="82.61,-1331.79 84.0923,-1321.3 76.3915,-1328.58 82.61,-1331.79"/>
<text text-anchor="middle" x="76.5" y="-1344.8" font-family="Times,serif" font-size="14.00">b</text>
</g>
<!-- 7 -->
<g id="node8" class="node"><title>7</title>
<ellipse fill="lightblue" stroke="black" cx="172" cy="-945" rx="18" ry="18"/>
<ellipse fill="none" stroke="black" cx="172" cy="-945" rx="22" ry="22"/>
<text text-anchor="middle" x="172" y="-941.3" font-family="Times,serif" font-size="14.00">7</text>
</g>
<!-- 7&#45;&gt;8 -->
<g id="edge12" class="edge"><title>7&#45;&gt;8</title>
<path fill="none" stroke="black" d="M192.977,-938.009C214.85,-931.37 249.81,-919.642 278,-905 296.694,-895.29 316.178,-881.804 330.996,-870.738"/>
<polygon fill="black" stroke="black" points="333.296,-873.387 339.141,-864.55 329.061,-867.813 333.296,-873.387"/>
<text text-anchor="middle" x="310" y="-893.8" font-family="Times,serif" font-size="14.00">c,a</text>
</g>
<!-- 12 -->
<g id="node13" class="node"><title>12</title>
<ellipse fill="lightblue" stroke="black" cx="172" cy="-792" rx="18" ry="18"/>
<text text-anchor="middle" x="172" y="-788.3" font-family="Times,serif" font-size="14.00">12</text>
</g>
<!-- 7&#45;&gt;12 -->
<g id="edge13" class="edge"><title>7&#45;&gt;12</title>
<path fill="none" stroke="black" d="M172,-922.686C172,-895.87 172,-849.778 172,-820.378"/>
<polygon fill="black" stroke="black" points="175.5,-820.003 172,-810.003 168.5,-820.003 175.5,-820.003"/>
<text text-anchor="middle" x="175.5" y="-893.8" font-family="Times,serif" font-size="14.00">b</text>
</g>
<!-- 7&#45;&gt;19 -->
<g id="edge14" class="edge"><title>7&#45;&gt;19</title>
<path fill="none" stroke="black" d="M191.963,-934.854C219.021,-920.924 264,-891.653 264,-851 264,-851 264,-851 264,-693.5 264,-584.998 280.324,-456.501 288.044,-401.801"/>
<polygon fill="black" stroke="black" points="291.513,-402.268 289.466,-391.873 284.583,-401.276 291.513,-402.268"/>
<text text-anchor="middle" x="268.5" y="-647.3" font-family="Times,serif" font-size="14.00">d</text>
</g>
<!-- 8&#45;&gt;5 -->
<g id="edge15" class="edge"><title>8&#45;&gt;5</title>
<path fill="none" stroke="black" d="M363.891,-829.394C366.127,-823.261 368.388,-816.419 370,-810 402.441,-680.789 414,-646.721 414,-513.5 414,-513.5 414,-513.5 414,-373 414,-352.662 408.507,-330.297 403.279,-313.615"/>
<polygon fill="black" stroke="black" points="406.573,-312.426 400.109,-304.031 399.927,-314.624 406.573,-312.426"/>
<text text-anchor="middle" x="416.5" y="-556.3" font-family="Times,serif" font-size="14.00">d</text>
</g>
<!-- 8&#45;&gt;9 -->
<g id="edge16" class="edge"><title>8&#45;&gt;9</title>
<path fill="none" stroke="black" d="M356,-827.823C356,-777.683 356,-651.503 356,-592.425"/>
<polygon fill="black" stroke="black" points="359.5,-592.208 356,-582.208 352.5,-592.208 359.5,-592.208"/>
<text text-anchor="middle" x="364" y="-690.8" font-family="Times,serif" font-size="14.00">c,a</text>
</g>
<!-- 11 -->
<g id="node12" class="node"><title>11</title>
<ellipse fill="lightblue" stroke="black" cx="455" cy="-738" rx="18" ry="18"/>
<text text-anchor="middle" x="455" y="-734.3" font-family="Times,serif" font-size="14.00">11</text>
</g>
<!-- 8&#45;&gt;11 -->
<g id="edge17" class="edge"><title>8&#45;&gt;11</title>
<path fill="none" stroke="black" d="M376.414,-841.132C390.99,-834.643 410.204,-824.196 423,-810 434.436,-797.312 442.378,-779.856 447.489,-765.427"/>
<polygon fill="black" stroke="black" points="450.932,-766.16 450.721,-755.568 444.28,-763.98 450.932,-766.16"/>
<text text-anchor="middle" x="446.5" y="-788.3" font-family="Times,serif" font-size="14.00">b</text>
</g>
<!-- 9&#45;&gt;2 -->
<g id="edge18" class="edge"><title>9&#45;&gt;2</title>
<path fill="none" stroke="black" d="M347.305,-539.277C341.096,-525.193 332.695,-506.138 326.017,-490.99"/>
<polygon fill="black" stroke="black" points="329.154,-489.429 321.917,-481.691 322.749,-492.253 329.154,-489.429"/>
<text text-anchor="middle" x="340.5" y="-508.8" font-family="Times,serif" font-size="14.00">b</text>
</g>
<!-- 13 -->
<g id="node14" class="node"><title>13</title>
<ellipse fill="lightblue" stroke="black" cx="126" cy="-465" rx="18" ry="18"/>
<ellipse fill="none" stroke="black" cx="126" cy="-465" rx="22" ry="22"/>
<text text-anchor="middle" x="126" y="-461.3" font-family="Times,serif" font-size="14.00">13</text>
</g>
<!-- 9&#45;&gt;13 -->
<g id="edge19" class="edge"><title>9&#45;&gt;13</title>
<path fill="none" stroke="black" d="M335.589,-550.747C294.738,-534.229 202.795,-497.052 155.432,-477.901"/>
<polygon fill="black" stroke="black" points="156.62,-474.606 146.037,-474.102 153.996,-481.095 156.62,-474.606"/>
<text text-anchor="middle" x="262" y="-508.8" font-family="Times,serif" font-size="14.00">c,a</text>
</g>
<!-- 9&#45;&gt;14 -->
<g id="edge20" class="edge"><title>9&#45;&gt;14</title>
<path fill="none" stroke="black" d="M354.029,-537.964C351.714,-514.663 347.483,-476.018 342,-443 335.448,-403.545 335.44,-392.46 319,-356 296.295,-305.647 259.643,-252.136 238.492,-223.022"/>
<polygon fill="black" stroke="black" points="241.197,-220.792 232.459,-214.801 235.553,-224.934 241.197,-220.792"/>
<text text-anchor="middle" x="335.5" y="-370.3" font-family="Times,serif" font-size="14.00">d</text>
</g>
<!-- 10 -->
<g id="node11" class="node"><title>10</title>
<ellipse fill="lightblue" stroke="black" cx="92" cy="-109" rx="18" ry="18"/>
<ellipse fill="none" stroke="black" cx="92" cy="-109" rx="22" ry="22"/>
<text text-anchor="middle" x="92" y="-105.3" font-family="Times,serif" font-size="14.00">10</text>
</g>
<!-- 10&#45;&gt;0 -->
<g id="edge21" class="edge"><title>10&#45;&gt;0</title>
<path fill="none" stroke="black" d="M102.894,-128.395C126.023,-168.337 180.112,-266.61 207,-356 215.07,-382.83 219.155,-414.682 221.167,-436.813"/>
<polygon fill="black" stroke="black" points="217.683,-437.154 221.996,-446.831 224.659,-436.576 217.683,-437.154"/>
<text text-anchor="middle" x="192.5" y="-283.3" font-family="Times,serif" font-size="14.00">b</text>
</g>
<!-- 10&#45;&gt;1 -->
<g id="edge22" class="edge"><title>10&#45;&gt;1</title>
<path fill="none" stroke="black" d="M103.535,-89.9895C112.371,-76.1928 124.628,-57.055 134.189,-42.1262"/>
<polygon fill="black" stroke="black" points="137.293,-43.7689 139.739,-33.4603 131.398,-39.9936 137.293,-43.7689"/>
<text text-anchor="middle" x="128.5" y="-57.8" font-family="Times,serif" font-size="14.00">d</text>
</g>
<!-- 10&#45;&gt;10 -->
<g id="edge23" class="edge"><title>10&#45;&gt;10</title>
<path fill="none" stroke="black" d="M112.581,-117.37C122.845,-118.528 132,-115.738 132,-109 132,-104.683 128.243,-101.987 122.844,-100.911"/>
<polygon fill="black" stroke="black" points="122.673,-97.405 112.581,-100.63 122.481,-104.402 122.673,-97.405"/>
<text text-anchor="middle" x="140" y="-105.3" font-family="Times,serif" font-size="14.00">c,a</text>
</g>
<!-- 11&#45;&gt;3 -->
<g id="edge24" class="edge"><title>11&#45;&gt;3</title>
<path fill="none" stroke="black" d="M455,-719.799C455,-708.163 455,-692.548 455,-679.237"/>
<polygon fill="black" stroke="black" points="458.5,-679.175 455,-669.175 451.5,-679.175 458.5,-679.175"/>
<text text-anchor="middle" x="473.5" y="-690.8" font-family="Times,serif" font-size="14.00">d,c,a,b</text>
</g>
<!-- 16 -->
<g id="node17" class="node"><title>16</title>
<ellipse fill="lightblue" stroke="black" cx="172" cy="-651" rx="18" ry="18"/>
<text text-anchor="middle" x="172" y="-647.3" font-family="Times,serif" font-size="14.00">16</text>
</g>
<!-- 12&#45;&gt;16 -->
<g id="edge25" class="edge"><title>12&#45;&gt;16</title>
<path fill="none" stroke="black" d="M172,-773.956C172,-750.404 172,-707.639 172,-679.526"/>
<polygon fill="black" stroke="black" points="175.5,-679.184 172,-669.184 168.5,-679.184 175.5,-679.184"/>
<text text-anchor="middle" x="190.5" y="-734.3" font-family="Times,serif" font-size="14.00">d,c,a,b</text>
</g>
<!-- 13&#45;&gt;1 -->
<g id="edge26" class="edge"><title>13&#45;&gt;1</title>
<path fill="none" stroke="black" d="M130.568,-443.442C141.224,-393.301 166.495,-260.648 162,-149 160.565,-113.345 155.984,-72.4161 152.666,-46.1616"/>
<polygon fill="black" stroke="black" points="156.131,-45.6663 151.378,-36.1976 149.189,-46.5638 156.131,-45.6663"/>
<text text-anchor="middle" x="163.5" y="-239.8" font-family="Times,serif" font-size="14.00">d</text>
</g>
<!-- 13&#45;&gt;7 -->
<g id="edge27" class="edge"><title>13&#45;&gt;7</title>
<path fill="none" stroke="black" d="M124.223,-487.036C122.786,-505.874 121,-534.261 121,-559 121,-851 121,-851 121,-851 121,-877.111 136.647,-902.829 150.607,-920.578"/>
<polygon fill="black" stroke="black" points="148.181,-923.138 157.249,-928.618 153.578,-918.679 148.181,-923.138"/>
<text text-anchor="middle" x="124.5" y="-690.8" font-family="Times,serif" font-size="14.00">b</text>
</g>
<!-- 13&#45;&gt;10 -->
<g id="edge28" class="edge"><title>13&#45;&gt;10</title>
<path fill="none" stroke="black" d="M114.678,-446.015C104.788,-428.559 92,-400.969 92,-375 92,-375 92,-375 92,-199 92,-179.988 92,-158.691 92,-141.697"/>
<polygon fill="black" stroke="black" points="95.5001,-141.219 92,-131.219 88.5001,-141.219 95.5001,-141.219"/>
<text text-anchor="middle" x="100" y="-283.3" font-family="Times,serif" font-size="14.00">c,a</text>
</g>
<!-- 14&#45;&gt;1 -->
<g id="edge29" class="edge"><title>14&#45;&gt;1</title>
<path fill="none" stroke="black" d="M221.667,-181.626C220.39,-153.026 214.681,-95.1096 190,-54 185.529,-46.5528 178.911,-39.9051 172.29,-34.4561"/>
<polygon fill="black" stroke="black" points="174.148,-31.4731 164.064,-28.225 169.922,-37.053 174.148,-31.4731"/>
<text text-anchor="middle" x="228.5" y="-105.3" font-family="Times,serif" font-size="14.00">d,c,a</text>
</g>
<!-- 14&#45;&gt;10 -->
<g id="edge30" class="edge"><title>14&#45;&gt;10</title>
<path fill="none" stroke="black" d="M207.591,-189.135C186.091,-174.416 145.263,-146.465 118.339,-128.032"/>
<polygon fill="black" stroke="black" points="120.017,-124.939 109.789,-122.178 116.063,-130.715 120.017,-124.939"/>
<text text-anchor="middle" x="171.5" y="-152.8" font-family="Times,serif" font-size="14.00">b</text>
</g>
<!-- 20 -->
<g id="node21" class="node"><title>20</title>
<ellipse fill="lightblue" stroke="black" cx="92" cy="-1218" rx="18" ry="18"/>
<text text-anchor="middle" x="92" y="-1214.3" font-family="Times,serif" font-size="14.00">20</text>
</g>
<!-- 15&#45;&gt;20 -->
<g id="edge31" class="edge"><title>15&#45;&gt;20</title>
<path fill="none" stroke="black" d="M92,-1286.8C92,-1275.16 92,-1259.55 92,-1246.24"/>
<polygon fill="black" stroke="black" points="95.5001,-1246.18 92,-1236.18 88.5001,-1246.18 95.5001,-1246.18"/>
<text text-anchor="middle" x="110.5" y="-1257.8" font-family="Times,serif" font-size="14.00">d,c,a,b</text>
</g>
<!-- 18 -->
<g id="node19" class="node"><title>18</title>
<ellipse fill="lightblue" stroke="black" cx="172" cy="-560" rx="18" ry="18"/>
<text text-anchor="middle" x="172" y="-556.3" font-family="Times,serif" font-size="14.00">18</text>
</g>
<!-- 16&#45;&gt;18 -->
<g id="edge32" class="edge"><title>16&#45;&gt;18</title>
<path fill="none" stroke="black" d="M172,-632.84C172,-620.281 172,-602.979 172,-588.502"/>
<polygon fill="black" stroke="black" points="175.5,-588.107 172,-578.107 168.5,-588.107 175.5,-588.107"/>
<text text-anchor="middle" x="190.5" y="-603.8" font-family="Times,serif" font-size="14.00">d,c,a,b</text>
</g>
<!-- 17&#45;&gt;6 -->
<g id="edge33" class="edge"><title>17&#45;&gt;6</title>
<path fill="none" stroke="black" d="M57.5016,-1061.27C52.3457,-1079.16 46,-1106.04 46,-1130 46,-1306 46,-1306 46,-1306 46,-1325.01 46,-1346.31 46,-1363.3"/>
<polygon fill="black" stroke="black" points="42.5001,-1363.78 46,-1373.78 49.5001,-1363.78 42.5001,-1363.78"/>
<text text-anchor="middle" x="49.5" y="-1214.3" font-family="Times,serif" font-size="14.00">d</text>
</g>
<!-- 17&#45;&gt;7 -->
<g id="edge34" class="edge"><title>17&#45;&gt;7</title>
<path fill="none" stroke="black" d="M80.4029,-1024.88C98.4274,-1009.35 127.546,-984.279 148.107,-966.574"/>
<polygon fill="black" stroke="black" points="150.503,-969.13 155.797,-959.953 145.935,-963.826 150.503,-969.13"/>
<text text-anchor="middle" x="127.5" y="-988.8" font-family="Times,serif" font-size="14.00">b</text>
</g>
<!-- 17&#45;&gt;10 -->
<g id="edge35" class="edge"><title>17&#45;&gt;10</title>
<path fill="none" stroke="black" d="M57.7045,-1018.53C52.5138,-999.836 46,-971.326 46,-946 46,-946 46,-946 46,-199 46,-175.154 59.1936,-151.323 71.449,-134.33"/>
<polygon fill="black" stroke="black" points="74.4361,-136.184 77.6975,-126.103 68.8617,-131.95 74.4361,-136.184"/>
<text text-anchor="middle" x="54" y="-556.3" font-family="Times,serif" font-size="14.00">c,a</text>
</g>
<!-- 18&#45;&gt;13 -->
<g id="edge36" class="edge"><title>18&#45;&gt;13</title>
<path fill="none" stroke="black" d="M164.404,-543.643C157.749,-530.187 147.908,-510.293 139.855,-494.011"/>
<polygon fill="black" stroke="black" points="142.928,-492.33 135.357,-484.918 136.654,-495.433 142.928,-492.33"/>
<text text-anchor="middle" x="154.5" y="-508.8" font-family="Times,serif" font-size="14.00">b</text>
</g>
<!-- 18&#45;&gt;14 -->
<g id="edge37" class="edge"><title>18&#45;&gt;14</title>
<path fill="none" stroke="black" d="M173.178,-541.869C174.358,-523.217 176,-492.504 176,-466 176,-466 176,-466 176,-286 176,-261.709 190.71,-237.71 203.493,-221.44"/>
<polygon fill="black" stroke="black" points="206.238,-223.612 209.914,-213.675 200.844,-219.151 206.238,-223.612"/>
<text text-anchor="middle" x="189.5" y="-370.3" font-family="Times,serif" font-size="14.00">d,c,a</text>
</g>
<!-- 19&#45;&gt;5 -->
<g id="edge38" class="edge"><title>19&#45;&gt;5</title>
<path fill="none" stroke="black" d="M305.335,-361.888C322.516,-347.57 352.582,-322.515 372.885,-305.596"/>
<polygon fill="black" stroke="black" points="375.22,-308.206 380.662,-299.115 370.739,-302.828 375.22,-308.206"/>
<text text-anchor="middle" x="367.5" y="-326.8" font-family="Times,serif" font-size="14.00">d,c,a,b</text>
</g>
<!-- 20&#45;&gt;4 -->
<g id="edge39" class="edge"><title>20&#45;&gt;4</title>
<path fill="none" stroke="black" d="M92,-1199.8C92,-1188.16 92,-1172.55 92,-1159.24"/>
<polygon fill="black" stroke="black" points="95.5001,-1159.18 92,-1149.18 88.5001,-1159.18 95.5001,-1159.18"/>
<text text-anchor="middle" x="110.5" y="-1170.8" font-family="Times,serif" font-size="14.00">d,c,a,b</text>
</g>
</g>
</svg>
