<?xml version="1.0" encoding="UTF-8" standalone="no"?>
<!DOCTYPE svg PUBLIC "-//W3C//DTD SVG 1.1//EN"
 "http://www.w3.org/Graphics/SVG/1.1/DTD/svg11.dtd">
<!-- Generated by graphviz version 2.38.0 (20140413.2041)
 -->
<!-- Title: %3 Pages: 1 -->
<svg width="446pt" height="582pt"
 viewBox="0.00 0.00 446.00 582.00" xmlns="http://www.w3.org/2000/svg" xmlns:xlink="http://www.w3.org/1999/xlink">
<g id="graph0" class="graph" transform="scale(1 1) rotate(0) translate(4 578)">
<title>%3</title>
<!-- 0 -->
<g id="node1" class="node"><title>0</title>
<ellipse fill="lightblue" stroke="black" cx="354" cy="-556" rx="18" ry="18"/>
<text text-anchor="middle" x="354" y="-552.3" font-family="Times,serif" font-size="14.00">0</text>
</g>
<!-- 7 -->
<g id="node8" class="node"><title>7</title>
<ellipse fill="lightblue" stroke="black" cx="354" cy="-469" rx="18" ry="18"/>
<text text-anchor="middle" x="354" y="-465.3" font-family="Times,serif" font-size="14.00">7</text>
</g>
<!-- 0&#45;&gt;7 -->
<g id="edge1" class="edge"><title>0&#45;&gt;7</title>
<path fill="none" stroke="black" d="M354,-537.799C354,-526.163 354,-510.548 354,-497.237"/>
<polygon fill="black" stroke="black" points="357.5,-497.175 354,-487.175 350.5,-497.175 357.5,-497.175"/>
<text text-anchor="middle" x="357.5" y="-508.8" font-family="Times,serif" font-size="14.00">a</text>
</g>
<!-- 9 -->
<g id="node10" class="node"><title>9</title>
<ellipse fill="lightblue" stroke="black" cx="215" cy="-22" rx="18" ry="18"/>
<text text-anchor="middle" x="215" y="-18.3" font-family="Times,serif" font-size="14.00">9</text>
</g>
<!-- 0&#45;&gt;9 -->
<g id="edge2" class="edge"><title>0&#45;&gt;9</title>
<path fill="none" stroke="black" d="M368.869,-545.451C388.608,-531.475 421,-503.446 421,-470 421,-470 421,-470 421,-112 421,-35.5057 299.82,-23.9955 243.345,-22.7849"/>
<polygon fill="black" stroke="black" points="243.322,-19.2845 233.281,-22.6645 243.239,-26.284 243.322,-19.2845"/>
<text text-anchor="middle" x="429.5" y="-283.3" font-family="Times,serif" font-size="14.00">c,b</text>
</g>
<!-- 1 -->
<g id="node2" class="node"><title>1</title>
<ellipse fill="lightblue" stroke="black" cx="136" cy="-287" rx="18" ry="18"/>
<text text-anchor="middle" x="136" y="-283.3" font-family="Times,serif" font-size="14.00">1</text>
</g>
<!-- 3 -->
<g id="node4" class="node"><title>3</title>
<ellipse fill="lightblue" stroke="black" cx="102" cy="-200" rx="18" ry="18"/>
<text text-anchor="middle" x="102" y="-196.3" font-family="Times,serif" font-size="14.00">3</text>
</g>
<!-- 1&#45;&gt;3 -->
<g id="edge3" class="edge"><title>1&#45;&gt;3</title>
<path fill="none" stroke="black" d="M129.605,-270.012C124.713,-257.784 117.872,-240.679 112.223,-226.559"/>
<polygon fill="black" stroke="black" points="115.33,-224.901 108.366,-216.916 108.831,-227.501 115.33,-224.901"/>
<text text-anchor="middle" x="125.5" y="-239.8" font-family="Times,serif" font-size="14.00">a</text>
</g>
<!-- 5 -->
<g id="node6" class="node"><title>5</title>
<ellipse fill="lightblue" stroke="black" cx="196" cy="-200" rx="18" ry="18"/>
<text text-anchor="middle" x="196" y="-196.3" font-family="Times,serif" font-size="14.00">5</text>
</g>
<!-- 1&#45;&gt;5 -->
<g id="edge4" class="edge"><title>1&#45;&gt;5</title>
<path fill="none" stroke="black" d="M146.509,-272.132C151.297,-265.743 157,-258.033 162,-251 168.23,-242.237 174.917,-232.483 180.699,-223.933"/>
<polygon fill="black" stroke="black" points="183.66,-225.802 186.338,-215.551 177.852,-221.894 183.66,-225.802"/>
<text text-anchor="middle" x="176.5" y="-239.8" font-family="Times,serif" font-size="14.00">b</text>
</g>
<!-- 1&#45;&gt;9 -->
<g id="edge5" class="edge"><title>1&#45;&gt;9</title>
<path fill="none" stroke="black" d="M140.46,-269.313C150.527,-231.956 176.084,-138.845 201,-62 202.373,-57.7658 203.9,-53.3001 205.426,-48.9621"/>
<polygon fill="black" stroke="black" points="208.832,-49.8356 208.915,-39.2411 202.243,-47.4713 208.832,-49.8356"/>
<text text-anchor="middle" x="178.5" y="-152.8" font-family="Times,serif" font-size="14.00">c</text>
</g>
<!-- 2 -->
<g id="node3" class="node"><title>2</title>
<ellipse fill="lightblue" stroke="black" cx="50" cy="-113" rx="18" ry="18"/>
<text text-anchor="middle" x="50" y="-109.3" font-family="Times,serif" font-size="14.00">2</text>
</g>
<!-- 4 -->
<g id="node5" class="node"><title>4</title>
<ellipse fill="#aaff80" stroke="black" cx="22" cy="-22" rx="18" ry="18"/>
<ellipse fill="none" stroke="black" cx="22" cy="-22" rx="22" ry="22"/>
<text text-anchor="middle" x="22" y="-18.3" font-family="Times,serif" font-size="14.00">4</text>
</g>
<!-- 2&#45;&gt;4 -->
<g id="edge6" class="edge"><title>2&#45;&gt;4</title>
<path fill="none" stroke="black" d="M44.8644,-95.676C41.1293,-83.8039 35.9643,-67.3865 31.4882,-53.159"/>
<polygon fill="black" stroke="black" points="34.7208,-51.7711 28.381,-43.2825 28.0434,-53.8719 34.7208,-51.7711"/>
<text text-anchor="middle" x="42.5" y="-65.8" font-family="Times,serif" font-size="14.00">a</text>
</g>
<!-- 2&#45;&gt;9 -->
<g id="edge7" class="edge"><title>2&#45;&gt;9</title>
<path fill="none" stroke="black" d="M53.7479,-95.3627C57.0495,-84.396 62.9477,-70.5333 73,-62 105.254,-34.62 155.147,-26.3415 186.395,-23.9103"/>
<polygon fill="black" stroke="black" points="186.849,-27.3889 196.611,-23.2725 186.413,-20.4025 186.849,-27.3889"/>
<text text-anchor="middle" x="81.5" y="-65.8" font-family="Times,serif" font-size="14.00">c,b</text>
</g>
<!-- 3&#45;&gt;2 -->
<g id="edge8" class="edge"><title>3&#45;&gt;2</title>
<path fill="none" stroke="black" d="M92.9423,-184.194C85.0385,-171.274 73.4348,-152.307 64.2815,-137.345"/>
<polygon fill="black" stroke="black" points="67.1581,-135.34 58.9539,-128.636 61.1869,-138.993 67.1581,-135.34"/>
<text text-anchor="middle" x="83.5" y="-152.8" font-family="Times,serif" font-size="14.00">b</text>
</g>
<!-- 3&#45;&gt;9 -->
<g id="edge9" class="edge"><title>3&#45;&gt;9</title>
<path fill="none" stroke="black" d="M100.692,-182C99.4692,-153.111 101.486,-94.4252 134,-62 149.058,-46.9828 171.034,-36.903 188.297,-30.759"/>
<polygon fill="black" stroke="black" points="189.445,-34.0659 197.829,-27.5888 187.236,-27.4236 189.445,-34.0659"/>
<text text-anchor="middle" x="121" y="-109.3" font-family="Times,serif" font-size="14.00">c,a</text>
</g>
<!-- 4&#45;&gt;1 -->
<g id="edge10" class="edge"><title>4&#45;&gt;1</title>
<path fill="none" stroke="black" d="M18.981,-44.1621C16.5636,-66.2757 14.7808,-101.757 23,-131 39.0609,-188.143 87.5364,-240.854 115.503,-267.603"/>
<polygon fill="black" stroke="black" points="113.112,-270.159 122.803,-274.441 117.897,-265.05 113.112,-270.159"/>
<text text-anchor="middle" x="39.5" y="-152.8" font-family="Times,serif" font-size="14.00">b</text>
</g>
<!-- 4&#45;&gt;4 -->
<g id="edge11" class="edge"><title>4&#45;&gt;4</title>
<path fill="none" stroke="black" d="M42.5808,-30.3702C52.8447,-31.5284 62,-28.7383 62,-22 62,-17.6833 58.2427,-14.9869 52.8436,-13.9109"/>
<polygon fill="black" stroke="black" points="52.6729,-10.405 42.5808,-13.6298 52.4812,-17.4024 52.6729,-10.405"/>
<text text-anchor="middle" x="70" y="-18.3" font-family="Times,serif" font-size="14.00">c,a</text>
</g>
<!-- 5&#45;&gt;9 -->
<g id="edge12" class="edge"><title>5&#45;&gt;9</title>
<path fill="none" stroke="black" d="M196.648,-181.655C197.54,-160.971 199.455,-125.377 203,-95 204.75,-80.0028 207.471,-63.3691 209.879,-49.871"/>
<polygon fill="black" stroke="black" points="213.363,-50.2756 211.719,-39.8091 206.477,-49.0163 213.363,-50.2756"/>
<text text-anchor="middle" x="211.5" y="-109.3" font-family="Times,serif" font-size="14.00">c,b</text>
</g>
<!-- 10 -->
<g id="node11" class="node"><title>10</title>
<ellipse fill="lightblue" stroke="black" cx="247" cy="-113" rx="18" ry="18"/>
<text text-anchor="middle" x="247" y="-109.3" font-family="Times,serif" font-size="14.00">10</text>
</g>
<!-- 5&#45;&gt;10 -->
<g id="edge13" class="edge"><title>5&#45;&gt;10</title>
<path fill="none" stroke="black" d="M204.884,-184.194C212.588,-171.353 223.877,-152.538 232.829,-137.619"/>
<polygon fill="black" stroke="black" points="235.903,-139.297 238.047,-128.921 229.901,-135.696 235.903,-139.297"/>
<text text-anchor="middle" x="227.5" y="-152.8" font-family="Times,serif" font-size="14.00">a</text>
</g>
<!-- 6 -->
<g id="node7" class="node"><title>6</title>
<ellipse fill="lightblue" stroke="black" cx="291" cy="-378" rx="18" ry="18"/>
<ellipse fill="none" stroke="black" cx="291" cy="-378" rx="22" ry="22"/>
<text text-anchor="middle" x="291" y="-374.3" font-family="Times,serif" font-size="14.00">6</text>
</g>
<!-- 6&#45;&gt;6 -->
<g id="edge14" class="edge"><title>6&#45;&gt;6</title>
<path fill="none" stroke="black" d="M311.581,-386.37C321.845,-387.528 331,-384.738 331,-378 331,-373.683 327.243,-370.987 321.844,-369.911"/>
<polygon fill="black" stroke="black" points="321.673,-366.405 311.581,-369.63 321.481,-373.402 321.673,-366.405"/>
<text text-anchor="middle" x="339" y="-374.3" font-family="Times,serif" font-size="14.00">c,a</text>
</g>
<!-- 8 -->
<g id="node9" class="node"><title>8</title>
<ellipse fill="lightblue" stroke="black" cx="291" cy="-287" rx="18" ry="18"/>
<text text-anchor="middle" x="291" y="-283.3" font-family="Times,serif" font-size="14.00">8</text>
</g>
<!-- 6&#45;&gt;8 -->
<g id="edge15" class="edge"><title>6&#45;&gt;8</title>
<path fill="none" stroke="black" d="M291,-355.908C291,-343.78 291,-328.409 291,-315.36"/>
<polygon fill="black" stroke="black" points="294.5,-315.066 291,-305.066 287.5,-315.066 294.5,-315.066"/>
<text text-anchor="middle" x="294.5" y="-326.8" font-family="Times,serif" font-size="14.00">b</text>
</g>
<!-- 7&#45;&gt;6 -->
<g id="edge16" class="edge"><title>7&#45;&gt;6</title>
<path fill="none" stroke="black" d="M343.878,-453.701C334.545,-440.516 320.473,-420.636 309.191,-404.698"/>
<polygon fill="black" stroke="black" points="311.892,-402.457 303.258,-396.317 306.179,-406.501 311.892,-402.457"/>
<text text-anchor="middle" x="331.5" y="-421.8" font-family="Times,serif" font-size="14.00">c</text>
</g>
<!-- 7&#45;&gt;9 -->
<g id="edge17" class="edge"><title>7&#45;&gt;9</title>
<path fill="none" stroke="black" d="M360.187,-451.866C366.382,-434.239 375,-405.036 375,-379 375,-379 375,-379 375,-112 375,-52.2848 288.834,-32.2839 242.968,-25.8674"/>
<polygon fill="black" stroke="black" points="243.405,-22.3949 233.043,-24.6029 242.52,-29.3388 243.405,-22.3949"/>
<text text-anchor="middle" x="383.5" y="-239.8" font-family="Times,serif" font-size="14.00">a,b</text>
</g>
<!-- 8&#45;&gt;5 -->
<g id="edge18" class="edge"><title>8&#45;&gt;5</title>
<path fill="none" stroke="black" d="M277.791,-274.181C261.98,-260.035 235.317,-236.178 216.748,-219.564"/>
<polygon fill="black" stroke="black" points="218.883,-216.778 209.097,-212.719 214.216,-221.995 218.883,-216.778"/>
<text text-anchor="middle" x="252.5" y="-239.8" font-family="Times,serif" font-size="14.00">b</text>
</g>
<!-- 8&#45;&gt;9 -->
<g id="edge19" class="edge"><title>8&#45;&gt;9</title>
<path fill="none" stroke="black" d="M292.137,-268.841C293.828,-234.708 294.844,-156.304 274,-95 266.781,-73.7682 250.053,-54.3987 236.245,-41.111"/>
<polygon fill="black" stroke="black" points="238.274,-38.2215 228.547,-34.0221 233.532,-43.3708 238.274,-38.2215"/>
<text text-anchor="middle" x="296" y="-152.8" font-family="Times,serif" font-size="14.00">c,a</text>
</g>
<!-- 9&#45;&gt;9 -->
<g id="edge20" class="edge"><title>9&#45;&gt;9</title>
<path fill="none" stroke="black" d="M231.29,-30.0164C241.389,-31.9495 251,-29.2773 251,-22 251,-17.338 247.056,-14.5659 241.566,-13.6838"/>
<polygon fill="black" stroke="black" points="241.184,-10.1933 231.29,-13.9836 241.388,-17.1903 241.184,-10.1933"/>
<text text-anchor="middle" x="264.5" y="-18.3" font-family="Times,serif" font-size="14.00">c,a,b</text>
</g>
<!-- 10&#45;&gt;0 -->
<g id="edge21" class="edge"><title>10&#45;&gt;0</title>
<path fill="none" stroke="black" d="M246.009,-131.082C244.305,-161.983 241,-229.229 241,-286 241,-470 241,-470 241,-470 241,-512.715 293.203,-536.632 326.646,-547.571"/>
<polygon fill="black" stroke="black" points="325.757,-550.96 336.344,-550.556 327.816,-544.269 325.757,-550.96"/>
<text text-anchor="middle" x="244.5" y="-326.8" font-family="Times,serif" font-size="14.00">b</text>
</g>
<!-- 10&#45;&gt;9 -->
<g id="edge22" class="edge"><title>10&#45;&gt;9</title>
<path fill="none" stroke="black" d="M241.131,-95.676C236.439,-82.6285 229.774,-64.0912 224.35,-49.0042"/>
<polygon fill="black" stroke="black" points="227.509,-47.4465 220.832,-39.2205 220.922,-49.8149 227.509,-47.4465"/>
<text text-anchor="middle" x="241" y="-65.8" font-family="Times,serif" font-size="14.00">c,a</text>
</g>
</g>
</svg>
