<?xml version="1.0" encoding="UTF-8" standalone="no"?>
<!DOCTYPE svg PUBLIC "-//W3C//DTD SVG 1.1//EN"
 "http://www.w3.org/Graphics/SVG/1.1/DTD/svg11.dtd">
<!-- Generated by graphviz version 2.38.0 (20140413.2041)
 -->
<!-- Title: %3 Pages: 1 -->
<svg width="111pt" height="226pt"
 viewBox="0.00 0.00 111.00 226.00" xmlns="http://www.w3.org/2000/svg" xmlns:xlink="http://www.w3.org/1999/xlink">
<g id="graph0" class="graph" transform="scale(1 1) rotate(0) translate(4 222)">
<title>%3</title>
<!-- 0 -->
<g id="node1" class="node"><title>0</title>
<ellipse fill="lightblue" stroke="black" cx="47" cy="-200" rx="18" ry="18"/>
<text text-anchor="middle" x="47" y="-196.3" font-family="Times,serif" font-size="14.00">0</text>
</g>
<!-- 2 -->
<g id="node3" class="node"><title>2</title>
<ellipse fill="lightblue" stroke="black" cx="18" cy="-109" rx="18" ry="18"/>
<text text-anchor="middle" x="18" y="-105.3" font-family="Times,serif" font-size="14.00">2</text>
</g>
<!-- 0&#45;&gt;2 -->
<g id="edge1" class="edge"><title>0&#45;&gt;2</title>
<path fill="none" stroke="black" d="M31.1511,-190.577C21.6493,-184.568 10.3947,-175.518 5,-164 0.689456,-154.797 2.13133,-144.019 5.31984,-134.523"/>
<polygon fill="black" stroke="black" points="8.5818,-135.793 9.10698,-125.211 2.09752,-133.156 8.5818,-135.793"/>
<text text-anchor="middle" x="8.5" y="-152.8" font-family="Times,serif" font-size="14.00">a</text>
</g>
<!-- 3 -->
<g id="node4" class="node"><title>3</title>
<ellipse fill="#aaff80" stroke="black" cx="76" cy="-109" rx="18" ry="18"/>
<ellipse fill="none" stroke="black" cx="76" cy="-109" rx="22" ry="22"/>
<text text-anchor="middle" x="76" y="-105.3" font-family="Times,serif" font-size="14.00">3</text>
</g>
<!-- 0&#45;&gt;3 -->
<g id="edge2" class="edge"><title>0&#45;&gt;3</title>
<path fill="none" stroke="black" d="M52.319,-182.676C56.1875,-170.804 61.537,-154.386 66.1729,-140.159"/>
<polygon fill="black" stroke="black" points="69.6207,-140.875 69.3911,-130.282 62.9651,-138.706 69.6207,-140.875"/>
<text text-anchor="middle" x="66.5" y="-152.8" font-family="Times,serif" font-size="14.00">b</text>
</g>
<!-- 1 -->
<g id="node2" class="node"><title>1</title>
<ellipse fill="lightblue" stroke="black" cx="50" cy="-18" rx="18" ry="18"/>
<text text-anchor="middle" x="50" y="-14.3" font-family="Times,serif" font-size="14.00">1</text>
</g>
<!-- 1&#45;&gt;1 -->
<g id="edge3" class="edge"><title>1&#45;&gt;1</title>
<path fill="none" stroke="black" d="M66.6641,-25.3828C76.625,-27.0234 86,-24.5625 86,-18 86,-13.7959 82.1525,-11.2751 76.7682,-10.4375"/>
<polygon fill="black" stroke="black" points="76.6002,-6.93988 66.6641,-10.6172 76.7247,-13.9388 76.6002,-6.93988"/>
<text text-anchor="middle" x="94.5" y="-14.3" font-family="Times,serif" font-size="14.00">a,b</text>
</g>
<!-- 2&#45;&gt;0 -->
<g id="edge4" class="edge"><title>2&#45;&gt;0</title>
<path fill="none" stroke="black" d="M23.2853,-126.22C27.5273,-139.239 33.5658,-157.771 38.4877,-172.876"/>
<polygon fill="black" stroke="black" points="35.255,-174.252 41.681,-182.676 41.9106,-172.084 35.255,-174.252"/>
<text text-anchor="middle" x="38.5" y="-152.8" font-family="Times,serif" font-size="14.00">b</text>
</g>
<!-- 2&#45;&gt;1 -->
<g id="edge5" class="edge"><title>2&#45;&gt;1</title>
<path fill="none" stroke="black" d="M23.8693,-91.676C28.5605,-78.6285 35.2256,-60.0912 40.6502,-45.0042"/>
<polygon fill="black" stroke="black" points="44.078,-45.8149 44.1679,-35.2205 37.4908,-43.4465 44.078,-45.8149"/>
<text text-anchor="middle" x="39.5" y="-57.8" font-family="Times,serif" font-size="14.00">a</text>
</g>
<!-- 3&#45;&gt;0 -->
<g id="edge6" class="edge"><title>3&#45;&gt;0</title>
<path fill="none" stroke="black" d="M75.9401,-131.029C75.3447,-141.238 73.775,-153.529 70,-164 68.4033,-168.429 66.1429,-172.856 63.6567,-177"/>
<polygon fill="black" stroke="black" points="60.6261,-175.237 58.0234,-185.508 66.4626,-179.102 60.6261,-175.237"/>
<text text-anchor="middle" x="76.5" y="-152.8" font-family="Times,serif" font-size="14.00">a</text>
</g>
<!-- 3&#45;&gt;1 -->
<g id="edge7" class="edge"><title>3&#45;&gt;1</title>
<path fill="none" stroke="black" d="M70.1002,-87.8045C66.4229,-75.2169 61.6522,-58.8865 57.6815,-45.2943"/>
<polygon fill="black" stroke="black" points="60.9961,-44.1587 54.8323,-35.5414 54.277,-46.1217 60.9961,-44.1587"/>
<text text-anchor="middle" x="67.5" y="-57.8" font-family="Times,serif" font-size="14.00">b</text>
</g>
</g>
</svg>
