<?xml version="1.0" encoding="UTF-8" standalone="no"?>
<!DOCTYPE svg PUBLIC "-//W3C//DTD SVG 1.1//EN"
 "http://www.w3.org/Graphics/SVG/1.1/DTD/svg11.dtd">
<!-- Generated by graphviz version 2.38.0 (20140413.2041)
 -->
<!-- Title: %3 Pages: 1 -->
<svg width="194pt" height="524pt"
 viewBox="0.00 0.00 194.00 524.00" xmlns="http://www.w3.org/2000/svg" xmlns:xlink="http://www.w3.org/1999/xlink">
<g id="graph0" class="graph" transform="scale(1 1) rotate(0) translate(4 520)">
<title>%3</title>
<!-- 0 -->
<g id="node1" class="node"><title>0</title>
<ellipse fill="lightblue" stroke="black" cx="56" cy="-316" rx="18" ry="18"/>
<text text-anchor="middle" x="56" y="-312.3" font-family="Times,serif" font-size="14.00">0</text>
</g>
<!-- 3 -->
<g id="node4" class="node"><title>3</title>
<ellipse fill="lightblue" stroke="black" cx="22" cy="-200" rx="18" ry="18"/>
<text text-anchor="middle" x="22" y="-196.3" font-family="Times,serif" font-size="14.00">3</text>
</g>
<!-- 0&#45;&gt;3 -->
<g id="edge1" class="edge"><title>0&#45;&gt;3</title>
<path fill="none" stroke="black" d="M41.8237,-304.337C34.7465,-298.112 26.8827,-289.6 23,-280 16.3562,-263.573 16.1632,-243.607 17.6022,-227.857"/>
<polygon fill="black" stroke="black" points="21.102,-228.065 18.8,-217.723 14.1504,-227.243 21.102,-228.065"/>
<text text-anchor="middle" x="26.5" y="-254.3" font-family="Times,serif" font-size="14.00">a</text>
</g>
<!-- 5 -->
<g id="node6" class="node"><title>5</title>
<ellipse fill="lightblue" stroke="black" cx="91" cy="-18" rx="18" ry="18"/>
<text text-anchor="middle" x="91" y="-14.3" font-family="Times,serif" font-size="14.00">5</text>
</g>
<!-- 0&#45;&gt;5 -->
<g id="edge2" class="edge"><title>0&#45;&gt;5</title>
<path fill="none" stroke="black" d="M58.033,-297.806C63.8565,-248.556 80.6367,-106.644 87.7504,-46.4825"/>
<polygon fill="black" stroke="black" points="91.2628,-46.5829 88.9614,-36.2411 84.3112,-45.7609 91.2628,-46.5829"/>
<text text-anchor="middle" x="78.5" y="-152.8" font-family="Times,serif" font-size="14.00">b</text>
</g>
<!-- 1 -->
<g id="node2" class="node"><title>1</title>
<ellipse fill="lightblue" stroke="black" cx="109" cy="-258" rx="18" ry="18"/>
<ellipse fill="none" stroke="black" cx="109" cy="-258" rx="22" ry="22"/>
<text text-anchor="middle" x="109" y="-254.3" font-family="Times,serif" font-size="14.00">1</text>
</g>
<!-- 1&#45;&gt;1 -->
<g id="edge3" class="edge"><title>1&#45;&gt;1</title>
<path fill="none" stroke="black" d="M128.757,-268.426C139.35,-270.198 149,-266.723 149,-258 149,-252.276 144.844,-248.811 138.993,-247.607"/>
<polygon fill="black" stroke="black" points="138.769,-244.106 128.757,-247.574 138.746,-251.106 138.769,-244.106"/>
<text text-anchor="middle" x="152.5" y="-254.3" font-family="Times,serif" font-size="14.00">b</text>
</g>
<!-- 1&#45;&gt;5 -->
<g id="edge4" class="edge"><title>1&#45;&gt;5</title>
<path fill="none" stroke="black" d="M107.403,-235.879C104.138,-192.712 96.7033,-94.4107 93.0726,-46.4039"/>
<polygon fill="black" stroke="black" points="96.5414,-45.8583 92.2971,-36.1508 89.5613,-46.3863 96.5414,-45.8583"/>
<text text-anchor="middle" x="104.5" y="-152.8" font-family="Times,serif" font-size="14.00">a</text>
</g>
<!-- 2 -->
<g id="node3" class="node"><title>2</title>
<ellipse fill="lightblue" stroke="black" cx="22" cy="-109" rx="18" ry="18"/>
<ellipse fill="none" stroke="black" cx="22" cy="-109" rx="22" ry="22"/>
<text text-anchor="middle" x="22" y="-105.3" font-family="Times,serif" font-size="14.00">2</text>
</g>
<!-- 2&#45;&gt;5 -->
<g id="edge5" class="edge"><title>2&#45;&gt;5</title>
<path fill="none" stroke="black" d="M26.0723,-87.3035C28.9351,-76.5837 33.6099,-63.7374 41,-54 47.726,-45.1376 57.346,-37.6571 66.3545,-31.9159"/>
<polygon fill="black" stroke="black" points="68.216,-34.8812 75.0294,-26.7676 64.6435,-28.8614 68.216,-34.8812"/>
<text text-anchor="middle" x="49.5" y="-57.8" font-family="Times,serif" font-size="14.00">a,b</text>
</g>
<!-- 3&#45;&gt;0 -->
<g id="edge6" class="edge"><title>3&#45;&gt;0</title>
<path fill="none" stroke="black" d="M26.9729,-217.674C32.5644,-236.422 41.7145,-267.102 48.2466,-289.003"/>
<polygon fill="black" stroke="black" points="44.9165,-290.084 51.1286,-298.667 51.6245,-288.083 44.9165,-290.084"/>
<text text-anchor="middle" x="48.5" y="-254.3" font-family="Times,serif" font-size="14.00">a</text>
</g>
<!-- 3&#45;&gt;2 -->
<g id="edge7" class="edge"><title>3&#45;&gt;2</title>
<path fill="none" stroke="black" d="M22,-181.84C22,-170.441 22,-155.134 22,-141.578"/>
<polygon fill="black" stroke="black" points="25.5001,-141.19 22,-131.191 18.5001,-141.191 25.5001,-141.19"/>
<text text-anchor="middle" x="25.5" y="-152.8" font-family="Times,serif" font-size="14.00">b</text>
</g>
<!-- 4 -->
<g id="node5" class="node"><title>4</title>
<ellipse fill="lightblue" stroke="black" cx="109" cy="-407" rx="18" ry="18"/>
<ellipse fill="none" stroke="black" cx="109" cy="-407" rx="22" ry="22"/>
<text text-anchor="middle" x="109" y="-403.3" font-family="Times,serif" font-size="14.00">4</text>
</g>
<!-- 4&#45;&gt;0 -->
<g id="edge8" class="edge"><title>4&#45;&gt;0</title>
<path fill="none" stroke="black" d="M95.5619,-389.407C90.3917,-382.657 84.6248,-374.655 80,-367 75.3275,-359.266 70.8556,-350.483 67.0651,-342.46"/>
<polygon fill="black" stroke="black" points="70.1575,-340.806 62.8118,-333.171 63.793,-343.721 70.1575,-340.806"/>
<text text-anchor="middle" x="83.5" y="-355.8" font-family="Times,serif" font-size="14.00">a</text>
</g>
<!-- 4&#45;&gt;1 -->
<g id="edge9" class="edge"><title>4&#45;&gt;1</title>
<path fill="none" stroke="black" d="M109,-384.938C109,-360.159 109,-318.789 109,-290.264"/>
<polygon fill="black" stroke="black" points="112.5,-290.022 109,-280.022 105.5,-290.022 112.5,-290.022"/>
<text text-anchor="middle" x="112.5" y="-355.8" font-family="Times,serif" font-size="14.00">b</text>
</g>
<!-- 5&#45;&gt;5 -->
<g id="edge10" class="edge"><title>5&#45;&gt;5</title>
<path fill="none" stroke="black" d="M107.664,-25.3828C117.625,-27.0234 127,-24.5625 127,-18 127,-13.7959 123.152,-11.2751 117.768,-10.4375"/>
<polygon fill="black" stroke="black" points="117.6,-6.93988 107.664,-10.6172 117.725,-13.9388 117.6,-6.93988"/>
<text text-anchor="middle" x="135.5" y="-14.3" font-family="Times,serif" font-size="14.00">a,b</text>
</g>
<!-- 6 -->
<g id="node7" class="node"><title>6</title>
<ellipse fill="#aaff80" stroke="black" cx="156" cy="-498" rx="18" ry="18"/>
<text text-anchor="middle" x="156" y="-494.3" font-family="Times,serif" font-size="14.00">6</text>
</g>
<!-- 6&#45;&gt;4 -->
<g id="edge11" class="edge"><title>6&#45;&gt;4</title>
<path fill="none" stroke="black" d="M147.813,-481.497C141.149,-468.877 131.573,-450.745 123.601,-435.649"/>
<polygon fill="black" stroke="black" points="126.65,-433.927 118.885,-426.718 120.46,-437.195 126.65,-433.927"/>
<text text-anchor="middle" x="139.5" y="-450.8" font-family="Times,serif" font-size="14.00">a</text>
</g>
<!-- 6&#45;&gt;5 -->
<g id="edge12" class="edge"><title>6&#45;&gt;5</title>
<path fill="none" stroke="black" d="M162.653,-481.239C169.445,-463.693 179,-434.332 179,-408 179,-408 179,-408 179,-108 179,-72.0043 142.152,-45.3267 116.144,-30.9804"/>
<polygon fill="black" stroke="black" points="117.622,-27.8037 107.141,-26.2584 114.371,-34.0028 117.622,-27.8037"/>
<text text-anchor="middle" x="182.5" y="-254.3" font-family="Times,serif" font-size="14.00">b</text>
</g>
</g>
</svg>
