<?xml version="1.0" encoding="UTF-8" standalone="no"?>
<!DOCTYPE svg PUBLIC "-//W3C//DTD SVG 1.1//EN"
 "http://www.w3.org/Graphics/SVG/1.1/DTD/svg11.dtd">
<!-- Generated by graphviz version 2.38.0 (20140413.2041)
 -->
<!-- Title: %3 Pages: 1 -->
<svg width="439pt" height="843pt"
 viewBox="0.00 0.00 439.00 843.00" xmlns="http://www.w3.org/2000/svg" xmlns:xlink="http://www.w3.org/1999/xlink">
<g id="graph0" class="graph" transform="scale(1 1) rotate(0) translate(4 839)">
<title>%3</title>
<!-- 0 -->
<g id="node1" class="node"><title>0</title>
<ellipse fill="lightblue" stroke="black" cx="88" cy="-109" rx="18" ry="18"/>
<ellipse fill="none" stroke="black" cx="88" cy="-109" rx="22" ry="22"/>
<text text-anchor="middle" x="88" y="-105.3" font-family="Times,serif" font-size="14.00">0</text>
</g>
<!-- 0&#45;&gt;0 -->
<g id="edge1" class="edge"><title>0&#45;&gt;0</title>
<path fill="none" stroke="black" d="M108.581,-117.37C118.845,-118.528 128,-115.738 128,-109 128,-104.683 124.243,-101.987 118.844,-100.911"/>
<polygon fill="black" stroke="black" points="118.673,-97.405 108.581,-100.63 118.481,-104.402 118.673,-97.405"/>
<text text-anchor="middle" x="136" y="-105.3" font-family="Times,serif" font-size="14.00">a,c</text>
</g>
<!-- 8 -->
<g id="node9" class="node"><title>8</title>
<ellipse fill="lightblue" stroke="black" cx="253" cy="-18" rx="18" ry="18"/>
<text text-anchor="middle" x="253" y="-14.3" font-family="Times,serif" font-size="14.00">8</text>
</g>
<!-- 0&#45;&gt;8 -->
<g id="edge2" class="edge"><title>0&#45;&gt;8</title>
<path fill="none" stroke="black" d="M103.972,-93.6555C117.773,-81.8184 138.651,-65.2048 159,-54 180.464,-42.1809 206.732,-32.7804 226.038,-26.7106"/>
<polygon fill="black" stroke="black" points="227.158,-30.0282 235.704,-23.766 225.118,-23.332 227.158,-30.0282"/>
<text text-anchor="middle" x="162.5" y="-57.8" font-family="Times,serif" font-size="14.00">b</text>
</g>
<!-- 1 -->
<g id="node2" class="node"><title>1</title>
<ellipse fill="#aaff80" stroke="black" cx="327" cy="-817" rx="18" ry="18"/>
<text text-anchor="middle" x="327" y="-813.3" font-family="Times,serif" font-size="14.00">1</text>
</g>
<!-- 1&#45;&gt;1 -->
<g id="edge3" class="edge"><title>1&#45;&gt;1</title>
<path fill="none" stroke="black" d="M343.664,-824.383C353.625,-826.023 363,-823.562 363,-817 363,-812.796 359.152,-810.275 353.768,-809.438"/>
<polygon fill="black" stroke="black" points="353.6,-805.94 343.664,-809.617 353.725,-812.939 353.6,-805.94"/>
<text text-anchor="middle" x="366.5" y="-813.3" font-family="Times,serif" font-size="14.00">c</text>
</g>
<!-- 5 -->
<g id="node6" class="node"><title>5</title>
<ellipse fill="lightblue" stroke="black" cx="320" cy="-730" rx="18" ry="18"/>
<text text-anchor="middle" x="320" y="-726.3" font-family="Times,serif" font-size="14.00">5</text>
</g>
<!-- 1&#45;&gt;5 -->
<g id="edge4" class="edge"><title>1&#45;&gt;5</title>
<path fill="none" stroke="black" d="M320.366,-800.258C318.201,-794.332 316.077,-787.463 315,-781 313.752,-773.514 313.93,-765.341 314.709,-757.813"/>
<polygon fill="black" stroke="black" points="318.199,-758.129 316.123,-747.739 311.267,-757.155 318.199,-758.129"/>
<text text-anchor="middle" x="318.5" y="-769.8" font-family="Times,serif" font-size="14.00">a</text>
</g>
<!-- 1&#45;&gt;8 -->
<g id="edge5" class="edge"><title>1&#45;&gt;8</title>
<path fill="none" stroke="black" d="M343.896,-810.104C371.687,-799.204 424,-773.095 424,-731 424,-731 424,-731 424,-108 424,-44.3707 329.686,-26.1638 281.144,-21.0069"/>
<polygon fill="black" stroke="black" points="281.262,-17.5025 270.977,-20.0468 280.603,-24.4715 281.262,-17.5025"/>
<text text-anchor="middle" x="427.5" y="-421.8" font-family="Times,serif" font-size="14.00">b</text>
</g>
<!-- 2 -->
<g id="node3" class="node"><title>2</title>
<ellipse fill="lightblue" stroke="black" cx="56" cy="-469" rx="18" ry="18"/>
<text text-anchor="middle" x="56" y="-465.3" font-family="Times,serif" font-size="14.00">2</text>
</g>
<!-- 2&#45;&gt;0 -->
<g id="edge6" class="edge"><title>2&#45;&gt;0</title>
<path fill="none" stroke="black" d="M42.444,-456.888C25.8706,-441.966 0,-413.749 0,-383 0,-383 0,-383 0,-199 0,-164.746 33.3687,-138.93 59.0103,-124.149"/>
<polygon fill="black" stroke="black" points="60.9425,-127.082 68.0314,-119.208 57.5796,-120.942 60.9425,-127.082"/>
<text text-anchor="middle" x="3.5" y="-287.3" font-family="Times,serif" font-size="14.00">a</text>
</g>
<!-- 2&#45;&gt;8 -->
<g id="edge7" class="edge"><title>2&#45;&gt;8</title>
<path fill="none" stroke="black" d="M50.4034,-451.605C45.1194,-434.644 38,-407.286 38,-383 38,-383 38,-383 38,-108 38,-28.1349 166.219,-18.5444 224.623,-18.3187"/>
<polygon fill="black" stroke="black" points="224.651,-21.8187 234.669,-18.3706 224.688,-14.8188 224.651,-21.8187"/>
<text text-anchor="middle" x="41.5" y="-239.8" font-family="Times,serif" font-size="14.00">c</text>
</g>
<!-- 9 -->
<g id="node10" class="node"><title>9</title>
<ellipse fill="lightblue" stroke="black" cx="128" cy="-382" rx="18" ry="18"/>
<text text-anchor="middle" x="128" y="-378.3" font-family="Times,serif" font-size="14.00">9</text>
</g>
<!-- 2&#45;&gt;9 -->
<g id="edge8" class="edge"><title>2&#45;&gt;9</title>
<path fill="none" stroke="black" d="M67.25,-454.719C78.7685,-441.12 96.839,-419.787 110.281,-403.918"/>
<polygon fill="black" stroke="black" points="113.036,-406.081 116.829,-396.188 107.695,-401.556 113.036,-406.081"/>
<text text-anchor="middle" x="100.5" y="-421.8" font-family="Times,serif" font-size="14.00">b</text>
</g>
<!-- 3 -->
<g id="node4" class="node"><title>3</title>
<ellipse fill="lightblue" stroke="black" cx="136" cy="-200" rx="18" ry="18"/>
<text text-anchor="middle" x="136" y="-196.3" font-family="Times,serif" font-size="14.00">3</text>
</g>
<!-- 3&#45;&gt;0 -->
<g id="edge9" class="edge"><title>3&#45;&gt;0</title>
<path fill="none" stroke="black" d="M127.857,-183.902C121.08,-171.335 111.247,-153.105 103.045,-137.895"/>
<polygon fill="black" stroke="black" points="106.017,-136.033 98.1897,-128.893 99.8561,-139.356 106.017,-136.033"/>
<text text-anchor="middle" x="120.5" y="-152.8" font-family="Times,serif" font-size="14.00">a</text>
</g>
<!-- 3&#45;&gt;3 -->
<g id="edge10" class="edge"><title>3&#45;&gt;3</title>
<path fill="none" stroke="black" d="M152.664,-207.383C162.625,-209.023 172,-206.562 172,-200 172,-195.796 168.152,-193.275 162.768,-192.438"/>
<polygon fill="black" stroke="black" points="162.6,-188.94 152.664,-192.617 162.725,-195.939 162.6,-188.94"/>
<text text-anchor="middle" x="175.5" y="-196.3" font-family="Times,serif" font-size="14.00">b</text>
</g>
<!-- 3&#45;&gt;8 -->
<g id="edge11" class="edge"><title>3&#45;&gt;8</title>
<path fill="none" stroke="black" d="M140.251,-182.14C148.197,-153.275 167.592,-93.6713 201,-54 208.543,-45.0427 218.933,-37.4315 228.443,-31.6174"/>
<polygon fill="black" stroke="black" points="230.239,-34.622 237.17,-26.6085 226.755,-28.5509 230.239,-34.622"/>
<text text-anchor="middle" x="181.5" y="-105.3" font-family="Times,serif" font-size="14.00">c</text>
</g>
<!-- 4 -->
<g id="node5" class="node"><title>4</title>
<ellipse fill="lightblue" stroke="black" cx="338" cy="-382" rx="18" ry="18"/>
<text text-anchor="middle" x="338" y="-378.3" font-family="Times,serif" font-size="14.00">4</text>
</g>
<!-- 6 -->
<g id="node7" class="node"><title>6</title>
<ellipse fill="lightblue" stroke="black" cx="296" cy="-291" rx="18" ry="18"/>
<text text-anchor="middle" x="296" y="-287.3" font-family="Times,serif" font-size="14.00">6</text>
</g>
<!-- 4&#45;&gt;6 -->
<g id="edge12" class="edge"><title>4&#45;&gt;6</title>
<path fill="none" stroke="black" d="M330.321,-365.349C327.381,-359.314 324.011,-352.348 321,-346 316.513,-336.54 311.661,-326.108 307.436,-316.955"/>
<polygon fill="black" stroke="black" points="310.505,-315.252 303.144,-307.632 304.147,-318.179 310.505,-315.252"/>
<text text-anchor="middle" x="324.5" y="-334.8" font-family="Times,serif" font-size="14.00">b</text>
</g>
<!-- 4&#45;&gt;8 -->
<g id="edge13" class="edge"><title>4&#45;&gt;8</title>
<path fill="none" stroke="black" d="M339.222,-363.948C340.398,-346.041 342,-317.057 342,-292 342,-292 342,-292 342,-108 342,-71.8015 304.733,-45.1836 278.429,-30.9047"/>
<polygon fill="black" stroke="black" points="279.816,-27.6816 269.324,-26.2074 276.606,-33.9026 279.816,-27.6816"/>
<text text-anchor="middle" x="350" y="-196.3" font-family="Times,serif" font-size="14.00">a,c</text>
</g>
<!-- 5&#45;&gt;1 -->
<g id="edge14" class="edge"><title>5&#45;&gt;1</title>
<path fill="none" stroke="black" d="M321.414,-748.175C322.372,-759.806 323.658,-775.419 324.755,-788.734"/>
<polygon fill="black" stroke="black" points="321.274,-789.12 325.583,-798.799 328.251,-788.545 321.274,-789.12"/>
<text text-anchor="middle" x="326.5" y="-769.8" font-family="Times,serif" font-size="14.00">c</text>
</g>
<!-- 11 -->
<g id="node12" class="node"><title>11</title>
<ellipse fill="lightblue" stroke="black" cx="267" cy="-643" rx="18" ry="18"/>
<text text-anchor="middle" x="267" y="-639.3" font-family="Times,serif" font-size="14.00">11</text>
</g>
<!-- 5&#45;&gt;11 -->
<g id="edge15" class="edge"><title>5&#45;&gt;11</title>
<path fill="none" stroke="black" d="M310.768,-714.194C302.712,-701.274 290.885,-682.307 281.556,-667.345"/>
<polygon fill="black" stroke="black" points="284.387,-665.27 276.126,-658.636 278.447,-668.974 284.387,-665.27"/>
<text text-anchor="middle" x="299.5" y="-682.8" font-family="Times,serif" font-size="14.00">a</text>
</g>
<!-- 12 -->
<g id="node13" class="node"><title>12</title>
<ellipse fill="lightblue" stroke="black" cx="338" cy="-469" rx="18" ry="18"/>
<text text-anchor="middle" x="338" y="-465.3" font-family="Times,serif" font-size="14.00">12</text>
</g>
<!-- 5&#45;&gt;12 -->
<g id="edge16" class="edge"><title>5&#45;&gt;12</title>
<path fill="none" stroke="black" d="M321.181,-712.006C324.232,-668.102 332.398,-550.6 336.113,-497.147"/>
<polygon fill="black" stroke="black" points="339.613,-497.275 336.815,-487.056 332.63,-496.79 339.613,-497.275"/>
<text text-anchor="middle" x="332.5" y="-595.8" font-family="Times,serif" font-size="14.00">b</text>
</g>
<!-- 6&#45;&gt;3 -->
<g id="edge17" class="edge"><title>6&#45;&gt;3</title>
<path fill="none" stroke="black" d="M281.524,-280.093C276.097,-276.488 269.832,-272.453 264,-269 229.056,-248.312 187.301,-226.684 161.21,-213.522"/>
<polygon fill="black" stroke="black" points="162.532,-210.27 152.024,-208.912 159.392,-216.526 162.532,-210.27"/>
<text text-anchor="middle" x="233.5" y="-239.8" font-family="Times,serif" font-size="14.00">a</text>
</g>
<!-- 6&#45;&gt;8 -->
<g id="edge18" class="edge"><title>6&#45;&gt;8</title>
<path fill="none" stroke="black" d="M295.405,-272.836C293.716,-233.523 287.588,-134.166 267,-54 266.17,-50.7672 265.115,-47.4334 263.957,-44.1672"/>
<polygon fill="black" stroke="black" points="267.18,-42.7972 260.301,-34.7395 260.654,-45.3285 267.18,-42.7972"/>
<text text-anchor="middle" x="294.5" y="-152.8" font-family="Times,serif" font-size="14.00">b,c</text>
</g>
<!-- 7 -->
<g id="node8" class="node"><title>7</title>
<ellipse fill="lightblue" stroke="black" cx="88" cy="-291" rx="18" ry="18"/>
<ellipse fill="none" stroke="black" cx="88" cy="-291" rx="22" ry="22"/>
<text text-anchor="middle" x="88" y="-287.3" font-family="Times,serif" font-size="14.00">7</text>
</g>
<!-- 7&#45;&gt;0 -->
<g id="edge19" class="edge"><title>7&#45;&gt;0</title>
<path fill="none" stroke="black" d="M88,-268.999C88,-237.516 88,-177.879 88,-141.265"/>
<polygon fill="black" stroke="black" points="91.5001,-141.145 88,-131.145 84.5001,-141.145 91.5001,-141.145"/>
<text text-anchor="middle" x="96" y="-196.3" font-family="Times,serif" font-size="14.00">a,c</text>
</g>
<!-- 7&#45;&gt;3 -->
<g id="edge20" class="edge"><title>7&#45;&gt;3</title>
<path fill="none" stroke="black" d="M98.1796,-271.125C105.403,-257.731 115.161,-239.638 122.956,-225.186"/>
<polygon fill="black" stroke="black" points="126.082,-226.763 127.749,-216.3 119.921,-223.44 126.082,-226.763"/>
<text text-anchor="middle" x="120.5" y="-239.8" font-family="Times,serif" font-size="14.00">b</text>
</g>
<!-- 8&#45;&gt;8 -->
<g id="edge21" class="edge"><title>8&#45;&gt;8</title>
<path fill="none" stroke="black" d="M269.664,-25.3828C279.625,-27.0234 289,-24.5625 289,-18 289,-13.7959 285.152,-11.2751 279.768,-10.4375"/>
<polygon fill="black" stroke="black" points="279.6,-6.93988 269.664,-10.6172 279.725,-13.9388 279.6,-6.93988"/>
<text text-anchor="middle" x="302.5" y="-14.3" font-family="Times,serif" font-size="14.00">b,a,c</text>
</g>
<!-- 9&#45;&gt;3 -->
<g id="edge22" class="edge"><title>9&#45;&gt;3</title>
<path fill="none" stroke="black" d="M128.767,-363.741C130.159,-332.427 133.11,-266.021 134.781,-228.434"/>
<polygon fill="black" stroke="black" points="138.288,-228.352 135.235,-218.207 131.295,-228.042 138.288,-228.352"/>
<text text-anchor="middle" x="136.5" y="-287.3" font-family="Times,serif" font-size="14.00">b</text>
</g>
<!-- 9&#45;&gt;7 -->
<g id="edge23" class="edge"><title>9&#45;&gt;7</title>
<path fill="none" stroke="black" d="M120.849,-365.089C115.319,-352.784 107.516,-335.423 100.902,-320.708"/>
<polygon fill="black" stroke="black" points="104.056,-319.187 96.7643,-311.5 97.6713,-322.056 104.056,-319.187"/>
<text text-anchor="middle" x="115.5" y="-334.8" font-family="Times,serif" font-size="14.00">a</text>
</g>
<!-- 9&#45;&gt;8 -->
<g id="edge24" class="edge"><title>9&#45;&gt;8</title>
<path fill="none" stroke="black" d="M135.498,-365.461C138.299,-359.439 141.423,-352.453 144,-346 194.613,-219.259 193.359,-182.615 239,-54 240.116,-50.8545 241.343,-47.5732 242.593,-44.3351"/>
<polygon fill="black" stroke="black" points="245.89,-45.5151 246.32,-34.929 239.382,-42.9363 245.89,-45.5151"/>
<text text-anchor="middle" x="202.5" y="-196.3" font-family="Times,serif" font-size="14.00">c</text>
</g>
<!-- 10 -->
<g id="node11" class="node"><title>10</title>
<ellipse fill="lightblue" stroke="black" cx="255" cy="-556" rx="18" ry="18"/>
<text text-anchor="middle" x="255" y="-552.3" font-family="Times,serif" font-size="14.00">10</text>
</g>
<!-- 10&#45;&gt;2 -->
<g id="edge25" class="edge"><title>10&#45;&gt;2</title>
<path fill="none" stroke="black" d="M238.715,-548.044C204.156,-533.283 123.245,-498.723 81.6657,-480.963"/>
<polygon fill="black" stroke="black" points="82.802,-477.642 72.2309,-476.933 80.0523,-484.08 82.802,-477.642"/>
<text text-anchor="middle" x="171.5" y="-508.8" font-family="Times,serif" font-size="14.00">a</text>
</g>
<!-- 10&#45;&gt;8 -->
<g id="edge26" class="edge"><title>10&#45;&gt;8</title>
<path fill="none" stroke="black" d="M254.356,-537.746C253.772,-520.575 253,-493.47 253,-470 253,-470 253,-470 253,-108 253,-87.271 253,-63.8262 253,-46.2048"/>
<polygon fill="black" stroke="black" points="256.5,-46.0619 253,-36.0619 249.5,-46.0619 256.5,-46.0619"/>
<text text-anchor="middle" x="256.5" y="-287.3" font-family="Times,serif" font-size="14.00">c</text>
</g>
<!-- 10&#45;&gt;12 -->
<g id="edge27" class="edge"><title>10&#45;&gt;12</title>
<path fill="none" stroke="black" d="M267.247,-542.458C280.733,-528.647 302.604,-506.249 318.463,-490.008"/>
<polygon fill="black" stroke="black" points="321.221,-492.194 325.703,-482.593 316.212,-487.303 321.221,-492.194"/>
<text text-anchor="middle" x="304.5" y="-508.8" font-family="Times,serif" font-size="14.00">b</text>
</g>
<!-- 11&#45;&gt;1 -->
<g id="edge28" class="edge"><title>11&#45;&gt;1</title>
<path fill="none" stroke="black" d="M268.22,-661.074C270.148,-682.103 274.895,-718.644 286,-748 292.123,-764.186 302.099,-780.848 310.678,-793.629"/>
<polygon fill="black" stroke="black" points="308.032,-795.956 316.602,-802.186 313.788,-791.972 308.032,-795.956"/>
<text text-anchor="middle" x="289.5" y="-726.3" font-family="Times,serif" font-size="14.00">c</text>
</g>
<!-- 11&#45;&gt;10 -->
<g id="edge29" class="edge"><title>11&#45;&gt;10</title>
<path fill="none" stroke="black" d="M264.572,-624.799C262.918,-613.086 260.695,-597.342 258.808,-583.974"/>
<polygon fill="black" stroke="black" points="262.247,-583.298 257.384,-573.885 255.316,-584.276 262.247,-583.298"/>
<text text-anchor="middle" x="265.5" y="-595.8" font-family="Times,serif" font-size="14.00">b</text>
</g>
<!-- 11&#45;&gt;11 -->
<g id="edge30" class="edge"><title>11&#45;&gt;11</title>
<path fill="none" stroke="black" d="M283.664,-650.383C293.625,-652.023 303,-649.562 303,-643 303,-638.796 299.152,-636.275 293.768,-635.438"/>
<polygon fill="black" stroke="black" points="293.6,-631.94 283.664,-635.617 293.725,-638.939 293.6,-631.94"/>
<text text-anchor="middle" x="306.5" y="-639.3" font-family="Times,serif" font-size="14.00">a</text>
</g>
<!-- 12&#45;&gt;4 -->
<g id="edge31" class="edge"><title>12&#45;&gt;4</title>
<path fill="none" stroke="black" d="M338,-450.799C338,-439.163 338,-423.548 338,-410.237"/>
<polygon fill="black" stroke="black" points="341.5,-410.175 338,-400.175 334.5,-410.175 341.5,-410.175"/>
<text text-anchor="middle" x="341.5" y="-421.8" font-family="Times,serif" font-size="14.00">a</text>
</g>
<!-- 12&#45;&gt;8 -->
<g id="edge32" class="edge"><title>12&#45;&gt;8</title>
<path fill="none" stroke="black" d="M350.361,-455.695C364.583,-440.17 386,-411.98 386,-383 386,-383 386,-383 386,-108 386,-57.8437 319.861,-34.1679 280.863,-24.5673"/>
<polygon fill="black" stroke="black" points="281.191,-21.0515 270.661,-22.2224 279.623,-27.8736 281.191,-21.0515"/>
<text text-anchor="middle" x="389.5" y="-239.8" font-family="Times,serif" font-size="14.00">c</text>
</g>
<!-- 12&#45;&gt;12 -->
<g id="edge33" class="edge"><title>12&#45;&gt;12</title>
<path fill="none" stroke="black" d="M354.664,-476.383C364.625,-478.023 374,-475.562 374,-469 374,-464.796 370.152,-462.275 364.768,-461.438"/>
<polygon fill="black" stroke="black" points="364.6,-457.94 354.664,-461.617 364.725,-464.939 364.6,-457.94"/>
<text text-anchor="middle" x="377.5" y="-465.3" font-family="Times,serif" font-size="14.00">b</text>
</g>
</g>
</svg>
