<?xml version="1.0" encoding="UTF-8" standalone="no"?>
<!DOCTYPE svg PUBLIC "-//W3C//DTD SVG 1.1//EN"
 "http://www.w3.org/Graphics/SVG/1.1/DTD/svg11.dtd">
<!-- Generated by graphviz version 2.38.0 (20140413.2041)
 -->
<!-- Title: %3 Pages: 1 -->
<svg width="132pt" height="329pt"
 viewBox="0.00 0.00 132.00 329.00" xmlns="http://www.w3.org/2000/svg" xmlns:xlink="http://www.w3.org/1999/xlink">
<g id="graph0" class="graph" transform="scale(1 1) rotate(0) translate(4 325)">
<title>%3</title>
<!-- 0 -->
<g id="node1" class="node"><title>0</title>
<ellipse fill="lightblue" stroke="black" cx="77" cy="-299" rx="18" ry="18"/>
<ellipse fill="none" stroke="black" cx="77" cy="-299" rx="22" ry="22"/>
<text text-anchor="middle" x="77" y="-295.3" font-family="Times,serif" font-size="14.00">0</text>
</g>
<!-- 0&#45;&gt;0 -->
<g id="edge1" class="edge"><title>0&#45;&gt;0</title>
<path fill="none" stroke="black" d="M97.5808,-307.37C107.845,-308.528 117,-305.738 117,-299 117,-294.683 113.243,-291.987 107.844,-290.911"/>
<polygon fill="black" stroke="black" points="107.673,-287.405 97.5808,-290.63 107.481,-294.402 107.673,-287.405"/>
<text text-anchor="middle" x="120.5" y="-295.3" font-family="Times,serif" font-size="14.00">a</text>
</g>
<!-- 2 -->
<g id="node3" class="node"><title>2</title>
<ellipse fill="lightblue" stroke="black" cx="18" cy="-208" rx="18" ry="18"/>
<text text-anchor="middle" x="18" y="-204.3" font-family="Times,serif" font-size="14.00">2</text>
</g>
<!-- 0&#45;&gt;2 -->
<g id="edge2" class="edge"><title>0&#45;&gt;2</title>
<path fill="none" stroke="black" d="M65.0605,-279.99C55.9144,-266.193 43.2275,-247.055 33.3309,-232.126"/>
<polygon fill="black" stroke="black" points="36.0286,-229.861 27.586,-223.46 30.1942,-233.729 36.0286,-229.861"/>
<text text-anchor="middle" x="55.5" y="-247.8" font-family="Times,serif" font-size="14.00">b</text>
</g>
<!-- 1 -->
<g id="node2" class="node"><title>1</title>
<ellipse fill="#aaff80" stroke="black" cx="72" cy="-22" rx="18" ry="18"/>
<ellipse fill="none" stroke="black" cx="72" cy="-22" rx="22" ry="22"/>
<text text-anchor="middle" x="72" y="-18.3" font-family="Times,serif" font-size="14.00">1</text>
</g>
<!-- 1&#45;&gt;1 -->
<g id="edge3" class="edge"><title>1&#45;&gt;1</title>
<path fill="none" stroke="black" d="M92.5808,-30.3702C102.845,-31.5284 112,-28.7383 112,-22 112,-17.6833 108.243,-14.9869 102.844,-13.9109"/>
<polygon fill="black" stroke="black" points="102.673,-10.405 92.5808,-13.6298 102.481,-17.4024 102.673,-10.405"/>
<text text-anchor="middle" x="115.5" y="-18.3" font-family="Times,serif" font-size="14.00">b</text>
</g>
<!-- 3 -->
<g id="node4" class="node"><title>3</title>
<ellipse fill="lightblue" stroke="black" cx="72" cy="-117" rx="18" ry="18"/>
<ellipse fill="none" stroke="black" cx="72" cy="-117" rx="22" ry="22"/>
<text text-anchor="middle" x="72" y="-113.3" font-family="Times,serif" font-size="14.00">3</text>
</g>
<!-- 1&#45;&gt;3 -->
<g id="edge4" class="edge"><title>1&#45;&gt;3</title>
<path fill="none" stroke="black" d="M72,-44.0196C72,-56.014 72,-71.2806 72,-84.6649"/>
<polygon fill="black" stroke="black" points="68.5001,-84.8968 72,-94.8969 75.5001,-84.8969 68.5001,-84.8968"/>
<text text-anchor="middle" x="75.5" y="-65.8" font-family="Times,serif" font-size="14.00">a</text>
</g>
<!-- 2&#45;&gt;2 -->
<g id="edge5" class="edge"><title>2&#45;&gt;2</title>
<path fill="none" stroke="black" d="M34.6641,-215.383C44.625,-217.023 54,-214.562 54,-208 54,-203.796 50.1525,-201.275 44.7682,-200.438"/>
<polygon fill="black" stroke="black" points="44.6002,-196.94 34.6641,-200.617 44.7247,-203.939 44.6002,-196.94"/>
<text text-anchor="middle" x="57.5" y="-204.3" font-family="Times,serif" font-size="14.00">b</text>
</g>
<!-- 2&#45;&gt;3 -->
<g id="edge6" class="edge"><title>2&#45;&gt;3</title>
<path fill="none" stroke="black" d="M26.917,-192.303C34.7299,-179.427 46.2815,-160.388 55.7355,-144.806"/>
<polygon fill="black" stroke="black" points="58.8203,-146.469 61.0153,-136.104 52.8357,-142.838 58.8203,-146.469"/>
<text text-anchor="middle" x="52.5" y="-160.8" font-family="Times,serif" font-size="14.00">a</text>
</g>
<!-- 3&#45;&gt;0 -->
<g id="edge7" class="edge"><title>3&#45;&gt;0</title>
<path fill="none" stroke="black" d="M72.5874,-139.145C73.4643,-170.715 75.1211,-230.359 76.1362,-266.902"/>
<polygon fill="black" stroke="black" points="72.6402,-267.101 76.4167,-276.999 79.6375,-266.906 72.6402,-267.101"/>
<text text-anchor="middle" x="78.5" y="-204.3" font-family="Times,serif" font-size="14.00">a</text>
</g>
<!-- 3&#45;&gt;1 -->
<g id="edge8" class="edge"><title>3&#45;&gt;1</title>
<path fill="none" stroke="black" d="M64.6531,-96.1011C61.7455,-85.9488 59.4268,-73.3727 61,-62 61.4202,-58.9621 62.0163,-55.8279 62.7162,-52.7183"/>
<polygon fill="black" stroke="black" points="66.1099,-53.5743 65.2171,-43.0172 59.3315,-51.8268 66.1099,-53.5743"/>
<text text-anchor="middle" x="64.5" y="-65.8" font-family="Times,serif" font-size="14.00">b</text>
</g>
</g>
</svg>
