<?xml version="1.0" encoding="UTF-8" standalone="no"?>
<!DOCTYPE svg PUBLIC "-//W3C//DTD SVG 1.1//EN"
 "http://www.w3.org/Graphics/SVG/1.1/DTD/svg11.dtd">
<!-- Generated by graphviz version 2.38.0 (20140413.2041)
 -->
<!-- Title: %3 Pages: 1 -->
<svg width="121pt" height="226pt"
 viewBox="0.00 0.00 121.00 226.00" xmlns="http://www.w3.org/2000/svg" xmlns:xlink="http://www.w3.org/1999/xlink">
<g id="graph0" class="graph" transform="scale(1 1) rotate(0) translate(4 222)">
<title>%3</title>
<!-- 0 -->
<g id="node1" class="node"><title>0</title>
<ellipse fill="lightblue" stroke="black" cx="52" cy="-200" rx="18" ry="18"/>
<text text-anchor="middle" x="52" y="-196.3" font-family="Times,serif" font-size="14.00">0</text>
</g>
<!-- 1 -->
<g id="node2" class="node"><title>1</title>
<ellipse fill="#aaff80" stroke="black" cx="22" cy="-109" rx="18" ry="18"/>
<ellipse fill="none" stroke="black" cx="22" cy="-109" rx="22" ry="22"/>
<text text-anchor="middle" x="22" y="-105.3" font-family="Times,serif" font-size="14.00">1</text>
</g>
<!-- 0&#45;&gt;1 -->
<g id="edge1" class="edge"><title>0&#45;&gt;1</title>
<path fill="none" stroke="black" d="M39.6747,-186.852C34.1419,-180.586 28.1586,-172.487 25,-164 22.3431,-156.861 21.0689,-148.824 20.5678,-141.175"/>
<polygon fill="black" stroke="black" points="24.0648,-141.011 20.3065,-131.105 17.0672,-141.193 24.0648,-141.011"/>
<text text-anchor="middle" x="28.5" y="-152.8" font-family="Times,serif" font-size="14.00">b</text>
</g>
<!-- 2 -->
<g id="node3" class="node"><title>2</title>
<ellipse fill="lightblue" stroke="black" cx="60" cy="-18" rx="18" ry="18"/>
<text text-anchor="middle" x="60" y="-14.3" font-family="Times,serif" font-size="14.00">2</text>
</g>
<!-- 0&#45;&gt;2 -->
<g id="edge2" class="edge"><title>0&#45;&gt;2</title>
<path fill="none" stroke="black" d="M52.7671,-181.741C54.1588,-150.427 57.1102,-84.0213 58.7807,-46.434"/>
<polygon fill="black" stroke="black" points="62.2877,-46.3525 59.2352,-36.2069 55.2946,-46.0416 62.2877,-46.3525"/>
<text text-anchor="middle" x="59.5" y="-105.3" font-family="Times,serif" font-size="14.00">a</text>
</g>
<!-- 1&#45;&gt;0 -->
<g id="edge3" class="edge"><title>1&#45;&gt;0</title>
<path fill="none" stroke="black" d="M28.7279,-129.959C32.9969,-142.624 38.5666,-159.148 43.1868,-172.854"/>
<polygon fill="black" stroke="black" points="39.9866,-174.318 46.4975,-182.676 46.6199,-172.082 39.9866,-174.318"/>
<text text-anchor="middle" x="42.5" y="-152.8" font-family="Times,serif" font-size="14.00">a</text>
</g>
<!-- 1&#45;&gt;2 -->
<g id="edge4" class="edge"><title>1&#45;&gt;2</title>
<path fill="none" stroke="black" d="M30.4334,-88.248C35.9582,-75.3084 43.2307,-58.2754 49.1805,-44.3405"/>
<polygon fill="black" stroke="black" points="52.5272,-45.4153 53.2351,-34.8441 46.0895,-42.6665 52.5272,-45.4153"/>
<text text-anchor="middle" x="47.5" y="-57.8" font-family="Times,serif" font-size="14.00">b</text>
</g>
<!-- 2&#45;&gt;2 -->
<g id="edge5" class="edge"><title>2&#45;&gt;2</title>
<path fill="none" stroke="black" d="M76.6641,-25.3828C86.625,-27.0234 96,-24.5625 96,-18 96,-13.7959 92.1525,-11.2751 86.7682,-10.4375"/>
<polygon fill="black" stroke="black" points="86.6002,-6.93988 76.6641,-10.6172 86.7247,-13.9388 86.6002,-6.93988"/>
<text text-anchor="middle" x="104.5" y="-14.3" font-family="Times,serif" font-size="14.00">b,a</text>
</g>
</g>
</svg>
