<?xml version="1.0" encoding="UTF-8" standalone="no"?>
<!DOCTYPE svg PUBLIC "-//W3C//DTD SVG 1.1//EN"
 "http://www.w3.org/Graphics/SVG/1.1/DTD/svg11.dtd">
<!-- Generated by graphviz version 2.38.0 (20140413.2041)
 -->
<!-- Title: %3 Pages: 1 -->
<svg width="185pt" height="260pt"
 viewBox="0.00 0.00 185.30 260.00" xmlns="http://www.w3.org/2000/svg" xmlns:xlink="http://www.w3.org/1999/xlink">
<g id="graph0" class="graph" transform="scale(1 1) rotate(0) translate(4 256)">
<title>%3</title>
<!-- ab -->
<g id="node1" class="node"><title>ab</title>
<ellipse fill="none" stroke="black" cx="67.3016" cy="-234" rx="27" ry="18"/>
<text text-anchor="middle" x="67.3016" y="-230.3" font-family="Times,serif" font-size="14.00" fill="red">ab</text>
</g>
<!-- 1 -->
<g id="node2" class="node"><title>1</title>
<ellipse fill="none" stroke="black" cx="67.3016" cy="-18" rx="27" ry="18"/>
<text text-anchor="middle" x="67.3016" y="-14.3" font-family="Times,serif" font-size="14.00" fill="red">1</text>
</g>
<!-- ab&#45;&gt;1 -->
<g id="edge1" class="edge"><title>ab&#45;&gt;1</title>
<path fill="none" stroke="black" d="M56.3624,-217.363C41.1556,-194.572 14.3635,-150.321 4.30156,-108 0.600646,-92.4339 -2.4511,-86.5052 4.30156,-72 11.3594,-56.8393 25.1252,-44.4659 37.9933,-35.4988"/>
<polygon fill="black" stroke="black" points="40.2013,-38.2373 46.665,-29.8426 36.3771,-32.3743 40.2013,-38.2373"/>
</g>
<!-- b -->
<g id="node3" class="node"><title>b</title>
<ellipse fill="none" stroke="black" cx="40.3016" cy="-90" rx="27" ry="18"/>
<text text-anchor="middle" x="40.3016" y="-86.3" font-family="Times,serif" font-size="14.00" fill="red">b</text>
</g>
<!-- ab&#45;&gt;b -->
<g id="edge2" class="edge"><title>ab&#45;&gt;b</title>
<path fill="none" stroke="black" d="M64.0447,-215.871C59.4431,-191.67 50.9895,-147.211 45.5101,-118.393"/>
<polygon fill="black" stroke="black" points="48.8764,-117.359 43.5699,-108.189 41.9996,-118.667 48.8764,-117.359"/>
</g>
<!-- a -->
<g id="node4" class="node"><title>a</title>
<ellipse fill="none" stroke="black" cx="150.302" cy="-90" rx="27" ry="18"/>
<text text-anchor="middle" x="150.302" y="-86.3" font-family="Times,serif" font-size="14.00" fill="red">a</text>
</g>
<!-- ab&#45;&gt;a -->
<g id="edge3" class="edge"><title>ab&#45;&gt;a</title>
<path fill="none" stroke="black" d="M87.1514,-221.645C101.632,-212.316 120.537,-197.767 131.302,-180 142.594,-161.362 147.234,-136.972 149.111,-118.438"/>
<polygon fill="black" stroke="black" points="152.614,-118.539 149.927,-108.291 145.637,-117.978 152.614,-118.539"/>
</g>
<!-- ba -->
<g id="node5" class="node"><title>ba</title>
<ellipse fill="none" stroke="black" cx="95.3016" cy="-162" rx="27" ry="18"/>
<text text-anchor="middle" x="95.3016" y="-158.3" font-family="Times,serif" font-size="14.00">ba</text>
</g>
<!-- ab&#45;&gt;ba -->
<g id="edge4" class="edge"><title>ab&#45;&gt;ba</title>
<path fill="none" stroke="black" d="M73.9372,-216.411C77.215,-208.216 81.2458,-198.14 84.9196,-188.955"/>
<polygon fill="black" stroke="black" points="88.2493,-190.055 88.7136,-179.47 81.7499,-187.455 88.2493,-190.055"/>
</g>
<!-- b&#45;&gt;1 -->
<g id="edge5" class="edge"><title>b&#45;&gt;1</title>
<path fill="none" stroke="black" d="M46.7002,-72.411C49.8151,-64.3352 53.6352,-54.4312 57.1362,-45.3547"/>
<polygon fill="black" stroke="black" points="60.428,-46.5458 60.7613,-35.9562 53.897,-44.0267 60.428,-46.5458"/>
</g>
<!-- a&#45;&gt;1 -->
<g id="edge6" class="edge"><title>a&#45;&gt;1</title>
<path fill="none" stroke="black" d="M133.903,-75.1703C121.661,-64.845 104.749,-50.5825 91.0316,-39.0133"/>
<polygon fill="black" stroke="black" points="93.284,-36.3344 83.3832,-32.5628 88.7711,-41.6854 93.284,-36.3344"/>
</g>
<!-- ba&#45;&gt;1 -->
<g id="edge8" class="edge"><title>ba&#45;&gt;1</title>
<path fill="none" stroke="black" d="M91.9241,-143.871C87.131,-119.564 78.3081,-74.8187 72.6281,-46.0132"/>
<polygon fill="black" stroke="black" points="76.0595,-45.3232 70.691,-36.1893 69.1918,-46.6775 76.0595,-45.3232"/>
</g>
<!-- ba&#45;&gt;b -->
<g id="edge7" class="edge"><title>ba&#45;&gt;b</title>
<path fill="none" stroke="black" d="M83.3674,-145.811C76.088,-136.546 66.6389,-124.52 58.4471,-114.094"/>
<polygon fill="black" stroke="black" points="61.1428,-111.86 52.2125,-106.159 55.6386,-116.185 61.1428,-111.86"/>
</g>
<!-- ba&#45;&gt;a -->
<g id="edge9" class="edge"><title>ba&#45;&gt;a</title>
<path fill="none" stroke="black" d="M107.236,-145.811C114.515,-136.546 123.964,-124.52 132.156,-114.094"/>
<polygon fill="black" stroke="black" points="134.965,-116.185 138.391,-106.159 129.46,-111.86 134.965,-116.185"/>
</g>
</g>
</svg>
