<?xml version="1.0" encoding="UTF-8" standalone="no"?>
<!DOCTYPE svg PUBLIC "-//W3C//DTD SVG 1.1//EN"
 "http://www.w3.org/Graphics/SVG/1.1/DTD/svg11.dtd">
<!-- Generated by graphviz version 2.38.0 (20140413.2041)
 -->
<!-- Title: %3 Pages: 1 -->
<svg width="196pt" height="147pt"
 viewBox="0.00 0.00 196.00 147.00" xmlns="http://www.w3.org/2000/svg" xmlns:xlink="http://www.w3.org/1999/xlink">
<g id="graph0" class="graph" transform="scale(1 1) rotate(0) translate(4 143)">
<title>%3</title>
<!-- 0 -->
<g id="node1" class="node"><title>0</title>
<ellipse fill="lightblue" stroke="black" cx="18" cy="-22" rx="18" ry="18"/>
<text text-anchor="middle" x="18" y="-18.3" font-family="Times,serif" font-size="14.00">0</text>
</g>
<!-- 0&#45;&gt;0 -->
<g id="edge1" class="edge"><title>0&#45;&gt;0</title>
<path fill="none" stroke="black" d="M34.2903,-30.0164C44.3892,-31.9495 54,-29.2773 54,-22 54,-17.338 50.0557,-14.5659 44.5656,-13.6838"/>
<polygon fill="black" stroke="black" points="44.1839,-10.1933 34.2903,-13.9836 44.3881,-17.1903 44.1839,-10.1933"/>
<text text-anchor="middle" x="72.5" y="-18.3" font-family="Times,serif" font-size="14.00">d,a,b,c</text>
</g>
<!-- 1 -->
<g id="node2" class="node"><title>1</title>
<ellipse fill="#aaff80" stroke="black" cx="101" cy="-117" rx="18" ry="18"/>
<ellipse fill="none" stroke="black" cx="101" cy="-117" rx="22" ry="22"/>
<text text-anchor="middle" x="101" y="-113.3" font-family="Times,serif" font-size="14.00">1</text>
</g>
<!-- 1&#45;&gt;0 -->
<g id="edge2" class="edge"><title>1&#45;&gt;0</title>
<path fill="none" stroke="black" d="M86.5425,-99.8006C72.6524,-84.2371 51.6036,-60.6522 36.4979,-43.7266"/>
<polygon fill="black" stroke="black" points="38.8871,-41.1472 29.6173,-36.0169 33.6646,-45.8083 38.8871,-41.1472"/>
<text text-anchor="middle" x="68.5" y="-65.8" font-family="Times,serif" font-size="14.00">d</text>
</g>
<!-- 1&#45;&gt;1 -->
<g id="edge3" class="edge"><title>1&#45;&gt;1</title>
<path fill="none" stroke="black" d="M121.581,-125.37C131.845,-126.528 141,-123.738 141,-117 141,-112.683 137.243,-109.987 131.844,-108.911"/>
<polygon fill="black" stroke="black" points="131.673,-105.405 121.581,-108.63 131.481,-112.402 131.673,-105.405"/>
<text text-anchor="middle" x="149" y="-113.3" font-family="Times,serif" font-size="14.00">a,c</text>
</g>
<!-- 2 -->
<g id="node3" class="node"><title>2</title>
<ellipse fill="lightblue" stroke="black" cx="131" cy="-22" rx="18" ry="18"/>
<ellipse fill="none" stroke="black" cx="131" cy="-22" rx="22" ry="22"/>
<text text-anchor="middle" x="131" y="-18.3" font-family="Times,serif" font-size="14.00">2</text>
</g>
<!-- 1&#45;&gt;2 -->
<g id="edge4" class="edge"><title>1&#45;&gt;2</title>
<path fill="none" stroke="black" d="M99.5408,-94.9783C99.486,-84.7716 100.404,-72.4799 104,-62 105.726,-56.9686 108.3,-51.9932 111.185,-47.3661"/>
<polygon fill="black" stroke="black" points="114.176,-49.1931 116.972,-38.9737 108.413,-45.2193 114.176,-49.1931"/>
<text text-anchor="middle" x="107.5" y="-65.8" font-family="Times,serif" font-size="14.00">b</text>
</g>
<!-- 2&#45;&gt;1 -->
<g id="edge5" class="edge"><title>2&#45;&gt;1</title>
<path fill="none" stroke="black" d="M124.503,-43.1402C120.457,-55.6847 115.177,-72.0512 110.647,-86.0938"/>
<polygon fill="black" stroke="black" points="107.249,-85.2288 107.51,-95.8204 113.911,-87.3778 107.249,-85.2288"/>
<text text-anchor="middle" x="125.5" y="-65.8" font-family="Times,serif" font-size="14.00">d,c</text>
</g>
<!-- 2&#45;&gt;2 -->
<g id="edge6" class="edge"><title>2&#45;&gt;2</title>
<path fill="none" stroke="black" d="M151.581,-30.3702C161.845,-31.5284 171,-28.7383 171,-22 171,-17.6833 167.243,-14.9869 161.844,-13.9109"/>
<polygon fill="black" stroke="black" points="161.673,-10.405 151.581,-13.6298 161.481,-17.4024 161.673,-10.405"/>
<text text-anchor="middle" x="179.5" y="-18.3" font-family="Times,serif" font-size="14.00">a,b</text>
</g>
</g>
</svg>
