<?xml version="1.0" encoding="UTF-8" standalone="no"?>
<!DOCTYPE svg PUBLIC "-//W3C//DTD SVG 1.1//EN"
 "http://www.w3.org/Graphics/SVG/1.1/DTD/svg11.dtd">
<!-- Generated by graphviz version 2.38.0 (20140413.2041)
 -->
<!-- Title: %3 Pages: 1 -->
<svg width="214pt" height="487pt"
 viewBox="0.00 0.00 214.00 487.00" xmlns="http://www.w3.org/2000/svg" xmlns:xlink="http://www.w3.org/1999/xlink">
<g id="graph0" class="graph" transform="scale(1 1) rotate(0) translate(4 483)">
<title>%3</title>
<!-- 0 -->
<g id="node1" class="node"><title>0</title>
<ellipse fill="lightblue" stroke="black" cx="69" cy="-200" rx="18" ry="18"/>
<text text-anchor="middle" x="69" y="-196.3" font-family="Times,serif" font-size="14.00">0</text>
</g>
<!-- 3 -->
<g id="node4" class="node"><title>3</title>
<ellipse fill="lightblue" stroke="black" cx="22" cy="-109" rx="18" ry="18"/>
<ellipse fill="none" stroke="black" cx="22" cy="-109" rx="22" ry="22"/>
<text text-anchor="middle" x="22" y="-105.3" font-family="Times,serif" font-size="14.00">3</text>
</g>
<!-- 0&#45;&gt;3 -->
<g id="edge1" class="edge"><title>0&#45;&gt;3</title>
<path fill="none" stroke="black" d="M60.8132,-183.497C54.1485,-170.877 44.5733,-152.745 36.6012,-137.649"/>
<polygon fill="black" stroke="black" points="39.6497,-135.927 31.885,-128.718 33.4598,-139.195 39.6497,-135.927"/>
<text text-anchor="middle" x="53.5" y="-152.8" font-family="Times,serif" font-size="14.00">b</text>
</g>
<!-- 4 -->
<g id="node5" class="node"><title>4</title>
<ellipse fill="lightblue" stroke="black" cx="115" cy="-18" rx="18" ry="18"/>
<text text-anchor="middle" x="115" y="-14.3" font-family="Times,serif" font-size="14.00">4</text>
</g>
<!-- 0&#45;&gt;4 -->
<g id="edge2" class="edge"><title>0&#45;&gt;4</title>
<path fill="none" stroke="black" d="M71.8557,-181.8C76.6129,-154.406 87.0341,-99.3314 101,-54 101.983,-50.8103 103.13,-47.5024 104.336,-44.25"/>
<polygon fill="black" stroke="black" points="107.636,-45.4205 108.03,-34.8329 101.12,-42.864 107.636,-45.4205"/>
<text text-anchor="middle" x="95.5" y="-105.3" font-family="Times,serif" font-size="14.00">a</text>
</g>
<!-- 1 -->
<g id="node2" class="node"><title>1</title>
<ellipse fill="lightblue" stroke="black" cx="115" cy="-287" rx="18" ry="18"/>
<text text-anchor="middle" x="115" y="-283.3" font-family="Times,serif" font-size="14.00">1</text>
</g>
<!-- 1&#45;&gt;0 -->
<g id="edge3" class="edge"><title>1&#45;&gt;0</title>
<path fill="none" stroke="black" d="M105.752,-271.159C101.996,-264.986 97.6828,-257.709 94,-251 89.502,-242.806 84.8499,-233.701 80.7964,-225.529"/>
<polygon fill="black" stroke="black" points="83.9028,-223.914 76.3579,-216.476 77.6175,-226.996 83.9028,-223.914"/>
<text text-anchor="middle" x="97.5" y="-239.8" font-family="Times,serif" font-size="14.00">a</text>
</g>
<!-- 1&#45;&gt;4 -->
<g id="edge4" class="edge"><title>1&#45;&gt;4</title>
<path fill="none" stroke="black" d="M115,-268.892C115,-223.788 115,-101.339 115,-46.3637"/>
<polygon fill="black" stroke="black" points="118.5,-46.3113 115,-36.3113 111.5,-46.3113 118.5,-46.3113"/>
<text text-anchor="middle" x="118.5" y="-152.8" font-family="Times,serif" font-size="14.00">b</text>
</g>
<!-- 2 -->
<g id="node3" class="node"><title>2</title>
<ellipse fill="lightblue" stroke="black" cx="153" cy="-374" rx="18" ry="18"/>
<text text-anchor="middle" x="153" y="-370.3" font-family="Times,serif" font-size="14.00">2</text>
</g>
<!-- 2&#45;&gt;1 -->
<g id="edge5" class="edge"><title>2&#45;&gt;1</title>
<path fill="none" stroke="black" d="M145.852,-357.012C140.298,-344.587 132.492,-327.127 126.122,-312.879"/>
<polygon fill="black" stroke="black" points="129.264,-311.33 121.987,-303.629 122.873,-314.187 129.264,-311.33"/>
<text text-anchor="middle" x="139.5" y="-326.8" font-family="Times,serif" font-size="14.00">a</text>
</g>
<!-- 2&#45;&gt;4 -->
<g id="edge6" class="edge"><title>2&#45;&gt;4</title>
<path fill="none" stroke="black" d="M155.531,-356.11C157.875,-338.99 161,-311.715 161,-288 161,-288 161,-288 161,-108 161,-82.5244 145.942,-57.0662 133.057,-39.9449"/>
<polygon fill="black" stroke="black" points="135.558,-37.4654 126.608,-31.7956 130.069,-41.8092 135.558,-37.4654"/>
<text text-anchor="middle" x="164.5" y="-196.3" font-family="Times,serif" font-size="14.00">b</text>
</g>
<!-- 3&#45;&gt;4 -->
<g id="edge7" class="edge"><title>3&#45;&gt;4</title>
<path fill="none" stroke="black" d="M28.5743,-87.9392C32.9831,-76.889 39.7007,-63.5247 49,-54 59.9746,-42.7594 75.3392,-34.3203 88.4828,-28.5481"/>
<polygon fill="black" stroke="black" points="90.0652,-31.6822 97.9913,-24.6517 87.4109,-25.205 90.0652,-31.6822"/>
<text text-anchor="middle" x="57.5" y="-57.8" font-family="Times,serif" font-size="14.00">a,b</text>
</g>
<!-- 4&#45;&gt;4 -->
<g id="edge8" class="edge"><title>4&#45;&gt;4</title>
<path fill="none" stroke="black" d="M131.664,-25.3828C141.625,-27.0234 151,-24.5625 151,-18 151,-13.7959 147.152,-11.2751 141.768,-10.4375"/>
<polygon fill="black" stroke="black" points="141.6,-6.93988 131.664,-10.6172 141.725,-13.9388 141.6,-6.93988"/>
<text text-anchor="middle" x="159.5" y="-14.3" font-family="Times,serif" font-size="14.00">a,b</text>
</g>
<!-- 5 -->
<g id="node6" class="node"><title>5</title>
<ellipse fill="#aaff80" stroke="black" cx="182" cy="-461" rx="18" ry="18"/>
<text text-anchor="middle" x="182" y="-457.3" font-family="Times,serif" font-size="14.00">5</text>
</g>
<!-- 5&#45;&gt;2 -->
<g id="edge9" class="edge"><title>5&#45;&gt;2</title>
<path fill="none" stroke="black" d="M176.409,-443.611C172.276,-431.499 166.568,-414.768 161.823,-400.86"/>
<polygon fill="black" stroke="black" points="165.116,-399.673 158.574,-391.339 158.491,-401.933 165.116,-399.673"/>
<text text-anchor="middle" x="172.5" y="-413.8" font-family="Times,serif" font-size="14.00">a</text>
</g>
<!-- 5&#45;&gt;4 -->
<g id="edge10" class="edge"><title>5&#45;&gt;4</title>
<path fill="none" stroke="black" d="M187.286,-443.581C192.276,-426.602 199,-399.229 199,-375 199,-375 199,-375 199,-108 199,-73.1464 164.508,-46.4159 139.729,-31.7095"/>
<polygon fill="black" stroke="black" points="141.229,-28.537 130.8,-26.67 137.788,-34.6332 141.229,-28.537"/>
<text text-anchor="middle" x="202.5" y="-239.8" font-family="Times,serif" font-size="14.00">b</text>
</g>
</g>
</svg>
