<?xml version="1.0" encoding="UTF-8" standalone="no"?>
<!DOCTYPE svg PUBLIC "-//W3C//DTD SVG 1.1//EN"
 "http://www.w3.org/Graphics/SVG/1.1/DTD/svg11.dtd">
<!-- Generated by graphviz version 2.38.0 (20140413.2041)
 -->
<!-- Title: %3 Pages: 1 -->
<svg width="346pt" height="479pt"
 viewBox="0.00 0.00 346.00 479.00" xmlns="http://www.w3.org/2000/svg" xmlns:xlink="http://www.w3.org/1999/xlink">
<g id="graph0" class="graph" transform="scale(1 1) rotate(0) translate(4 475)">
<title>%3</title>
<!-- 82 -->
<g id="node1" class="node"><title>82</title>
<ellipse fill="lightblue" stroke="black" cx="18" cy="-453" rx="18" ry="18"/>
<text text-anchor="middle" x="18" y="-449.3" font-family="Times,serif" font-size="14.00">82</text>
</g>
<!-- 82&#45;&gt;82 -->
<g id="edge1" class="edge"><title>82&#45;&gt;82</title>
<path fill="none" stroke="black" d="M34.6641,-460.383C44.625,-462.023 54,-459.562 54,-453 54,-448.796 50.1525,-446.275 44.7682,-445.438"/>
<polygon fill="black" stroke="black" points="44.6002,-441.94 34.6641,-445.617 44.7247,-448.939 44.6002,-441.94"/>
<text text-anchor="middle" x="62.5" y="-449.3" font-family="Times,serif" font-size="14.00">a,b</text>
</g>
<!-- 80 -->
<g id="node7" class="node"><title>80</title>
<ellipse fill="lightblue" stroke="black" cx="82" cy="-366" rx="18" ry="18"/>
<text text-anchor="middle" x="82" y="-362.3" font-family="Times,serif" font-size="14.00">80</text>
</g>
<!-- 82&#45;&gt;80 -->
<g id="edge2" class="edge"><title>82&#45;&gt;80</title>
<path fill="none" stroke="black" d="M28.5683,-437.964C38.6335,-424.596 53.9343,-404.275 65.5866,-388.799"/>
<polygon fill="black" stroke="black" points="68.4093,-390.869 71.6284,-380.775 62.8172,-386.658 68.4093,-390.869"/>
<text text-anchor="middle" x="57.5" y="-405.8" font-family="Times,serif" font-size="14.00">1</text>
</g>
<!-- 92 -->
<g id="node2" class="node"><title>92</title>
<ellipse fill="lightblue" stroke="black" cx="161" cy="-366" rx="18" ry="18"/>
<text text-anchor="middle" x="161" y="-362.3" font-family="Times,serif" font-size="14.00">92</text>
</g>
<!-- 92&#45;&gt;92 -->
<g id="edge3" class="edge"><title>92&#45;&gt;92</title>
<path fill="none" stroke="black" d="M177.664,-373.383C187.625,-375.023 197,-372.562 197,-366 197,-361.796 193.152,-359.275 187.768,-358.438"/>
<polygon fill="black" stroke="black" points="187.6,-354.94 177.664,-358.617 187.725,-361.939 187.6,-354.94"/>
<text text-anchor="middle" x="205.5" y="-362.3" font-family="Times,serif" font-size="14.00">a,b</text>
</g>
<!-- 83 -->
<g id="node3" class="node"><title>83</title>
<ellipse fill="#aaff80" stroke="black" cx="103" cy="-105" rx="18" ry="18"/>
<text text-anchor="middle" x="103" y="-101.3" font-family="Times,serif" font-size="14.00">83</text>
</g>
<!-- 83&#45;&gt;83 -->
<g id="edge4" class="edge"><title>83&#45;&gt;83</title>
<path fill="none" stroke="black" d="M119.664,-112.383C129.625,-114.023 139,-111.562 139,-105 139,-100.796 135.152,-98.2751 129.768,-97.4375"/>
<polygon fill="black" stroke="black" points="129.6,-93.9399 119.664,-97.6172 129.725,-100.939 129.6,-93.9399"/>
<text text-anchor="middle" x="142.5" y="-101.3" font-family="Times,serif" font-size="14.00">a</text>
</g>
<!-- 83&#45;&gt;80 -->
<g id="edge5" class="edge"><title>83&#45;&gt;80</title>
<path fill="none" stroke="black" d="M104.706,-123.123C108.009,-160.97 113.58,-254.38 97,-330 96.2408,-333.463 95.1414,-337.011 93.8778,-340.456"/>
<polygon fill="black" stroke="black" points="90.626,-339.161 90.0274,-349.739 97.0918,-341.843 90.626,-339.161"/>
<text text-anchor="middle" x="112.5" y="-231.8" font-family="Times,serif" font-size="14.00">1</text>
</g>
<!-- 81 -->
<g id="node9" class="node"><title>81</title>
<ellipse fill="lightblue" stroke="black" cx="151" cy="-18" rx="18" ry="18"/>
<text text-anchor="middle" x="151" y="-14.3" font-family="Times,serif" font-size="14.00">81</text>
</g>
<!-- 83&#45;&gt;81 -->
<g id="edge6" class="edge"><title>83&#45;&gt;81</title>
<path fill="none" stroke="black" d="M111.581,-88.8037C118.748,-76.1121 129.097,-57.7871 137.392,-43.0973"/>
<polygon fill="black" stroke="black" points="140.623,-44.4933 142.493,-34.0647 134.528,-41.0512 140.623,-44.4933"/>
<text text-anchor="middle" x="133.5" y="-57.8" font-family="Times,serif" font-size="14.00">b</text>
</g>
<!-- 84 -->
<g id="node4" class="node"><title>84</title>
<ellipse fill="lightblue" stroke="black" cx="66" cy="-192" rx="18" ry="18"/>
<text text-anchor="middle" x="66" y="-188.3" font-family="Times,serif" font-size="14.00">84</text>
</g>
<!-- 84&#45;&gt;82 -->
<g id="edge7" class="edge"><title>84&#45;&gt;82</title>
<path fill="none" stroke="black" d="M52.7578,-204.445C39.5305,-216.835 20.0423,-237.94 12,-261 -7.4398,-316.739 3.04274,-387.268 11.2435,-425.099"/>
<polygon fill="black" stroke="black" points="7.9348,-426.331 13.5744,-435.301 14.7589,-424.772 7.9348,-426.331"/>
<text text-anchor="middle" x="5.5" y="-318.8" font-family="Times,serif" font-size="14.00">a</text>
</g>
<!-- 84&#45;&gt;83 -->
<g id="edge8" class="edge"><title>84&#45;&gt;83</title>
<path fill="none" stroke="black" d="M72.9594,-175.012C78.3341,-162.665 85.8726,-145.347 92.0532,-131.148"/>
<polygon fill="black" stroke="black" points="95.2897,-132.482 96.0718,-121.916 88.8714,-129.688 95.2897,-132.482"/>
<text text-anchor="middle" x="90.5" y="-144.8" font-family="Times,serif" font-size="14.00">b</text>
</g>
<!-- 84&#45;&gt;80 -->
<g id="edge9" class="edge"><title>84&#45;&gt;80</title>
<path fill="none" stroke="black" d="M71.4857,-209.202C73.2392,-215.057 74.9867,-221.762 76,-228 82.1333,-265.757 82.9312,-310.086 82.6751,-337.864"/>
<polygon fill="black" stroke="black" points="79.1736,-337.947 82.5273,-347.997 86.1728,-338.049 79.1736,-337.947"/>
<text text-anchor="middle" x="86.5" y="-275.3" font-family="Times,serif" font-size="14.00">1</text>
</g>
<!-- 90 -->
<g id="node5" class="node"><title>90</title>
<ellipse fill="lightblue" stroke="black" cx="272" cy="-192" rx="18" ry="18"/>
<text text-anchor="middle" x="272" y="-188.3" font-family="Times,serif" font-size="14.00">90</text>
</g>
<!-- 95 -->
<g id="node12" class="node"><title>95</title>
<ellipse fill="lightblue" stroke="black" cx="304" cy="-105" rx="18" ry="18"/>
<text text-anchor="middle" x="304" y="-101.3" font-family="Times,serif" font-size="14.00">95</text>
</g>
<!-- 90&#45;&gt;95 -->
<g id="edge10" class="edge"><title>90&#45;&gt;95</title>
<path fill="none" stroke="black" d="M277.694,-174.734C281.166,-164.93 285.741,-152.212 290,-141 291.185,-137.88 292.454,-134.614 293.726,-131.384"/>
<polygon fill="black" stroke="black" points="297.021,-132.569 297.47,-121.984 290.518,-129.979 297.021,-132.569"/>
<text text-anchor="middle" x="298.5" y="-144.8" font-family="Times,serif" font-size="14.00">a,b</text>
</g>
<!-- 93 -->
<g id="node6" class="node"><title>93</title>
<ellipse fill="lightblue" stroke="black" cx="250" cy="-366" rx="18" ry="18"/>
<text text-anchor="middle" x="250" y="-362.3" font-family="Times,serif" font-size="14.00">93</text>
</g>
<!-- 93&#45;&gt;93 -->
<g id="edge11" class="edge"><title>93&#45;&gt;93</title>
<path fill="none" stroke="black" d="M266.664,-373.383C276.625,-375.023 286,-372.562 286,-366 286,-361.796 282.152,-359.275 276.768,-358.438"/>
<polygon fill="black" stroke="black" points="276.6,-354.94 266.664,-358.617 276.725,-361.939 276.6,-354.94"/>
<text text-anchor="middle" x="289.5" y="-362.3" font-family="Times,serif" font-size="14.00">a</text>
</g>
<!-- 91 -->
<g id="node8" class="node"><title>91</title>
<ellipse fill="lightblue" stroke="black" cx="263" cy="-279" rx="18" ry="18"/>
<text text-anchor="middle" x="263" y="-275.3" font-family="Times,serif" font-size="14.00">91</text>
</g>
<!-- 93&#45;&gt;91 -->
<g id="edge12" class="edge"><title>93&#45;&gt;91</title>
<path fill="none" stroke="black" d="M252.631,-347.799C254.422,-336.086 256.83,-320.342 258.875,-306.974"/>
<polygon fill="black" stroke="black" points="262.365,-307.3 260.418,-296.885 255.446,-306.241 262.365,-307.3"/>
<text text-anchor="middle" x="260.5" y="-318.8" font-family="Times,serif" font-size="14.00">b</text>
</g>
<!-- 80&#45;&gt;80 -->
<g id="edge13" class="edge"><title>80&#45;&gt;80</title>
<path fill="none" stroke="black" d="M98.6641,-373.383C108.625,-375.023 118,-372.562 118,-366 118,-361.796 114.152,-359.275 108.768,-358.438"/>
<polygon fill="black" stroke="black" points="108.6,-354.94 98.6641,-358.617 108.725,-361.939 108.6,-354.94"/>
<text text-anchor="middle" x="121.5" y="-362.3" font-family="Times,serif" font-size="14.00">1</text>
</g>
<!-- 85 -->
<g id="node11" class="node"><title>85</title>
<ellipse fill="lightblue" stroke="black" cx="39" cy="-279" rx="18" ry="18"/>
<text text-anchor="middle" x="39" y="-275.3" font-family="Times,serif" font-size="14.00">85</text>
</g>
<!-- 80&#45;&gt;85 -->
<g id="edge14" class="edge"><title>80&#45;&gt;85</title>
<path fill="none" stroke="black" d="M65.219,-358.299C53.5724,-352.655 38.9485,-343.346 32,-330 28.1292,-322.566 28.1269,-313.709 29.6431,-305.53"/>
<polygon fill="black" stroke="black" points="33.0725,-306.248 32.1988,-295.69 26.2973,-304.488 33.0725,-306.248"/>
<text text-anchor="middle" x="40.5" y="-318.8" font-family="Times,serif" font-size="14.00">a,b</text>
</g>
<!-- 91&#45;&gt;90 -->
<g id="edge15" class="edge"><title>91&#45;&gt;90</title>
<path fill="none" stroke="black" d="M264.821,-260.799C266.053,-249.163 267.707,-233.548 269.116,-220.237"/>
<polygon fill="black" stroke="black" points="272.609,-220.488 270.181,-210.175 265.648,-219.751 272.609,-220.488"/>
<text text-anchor="middle" x="276.5" y="-231.8" font-family="Times,serif" font-size="14.00">a,b</text>
</g>
<!-- 81&#45;&gt;80 -->
<g id="edge16" class="edge"><title>81&#45;&gt;80</title>
<path fill="none" stroke="black" d="M157.901,-34.6369C164.676,-51.435 174,-79.0811 174,-104 174,-280 174,-280 174,-280 174,-316.217 135.061,-341.286 107.849,-354.384"/>
<polygon fill="black" stroke="black" points="106.097,-351.336 98.4478,-358.666 108.999,-357.706 106.097,-351.336"/>
<text text-anchor="middle" x="188" y="-188.3" font-family="Times,serif" font-size="14.00">1,a,b</text>
</g>
<!-- 94 -->
<g id="node10" class="node"><title>94</title>
<ellipse fill="lightblue" stroke="black" cx="250" cy="-453" rx="18" ry="18"/>
<text text-anchor="middle" x="250" y="-449.3" font-family="Times,serif" font-size="14.00">94</text>
</g>
<!-- 94&#45;&gt;92 -->
<g id="edge17" class="edge"><title>94&#45;&gt;92</title>
<path fill="none" stroke="black" d="M237.248,-439.822C222.577,-425.809 198.297,-402.621 181.081,-386.179"/>
<polygon fill="black" stroke="black" points="183.377,-383.531 173.728,-379.156 178.542,-388.594 183.377,-383.531"/>
<text text-anchor="middle" x="213.5" y="-405.8" font-family="Times,serif" font-size="14.00">a</text>
</g>
<!-- 94&#45;&gt;93 -->
<g id="edge18" class="edge"><title>94&#45;&gt;93</title>
<path fill="none" stroke="black" d="M250,-434.799C250,-423.163 250,-407.548 250,-394.237"/>
<polygon fill="black" stroke="black" points="253.5,-394.175 250,-384.175 246.5,-394.175 253.5,-394.175"/>
<text text-anchor="middle" x="253.5" y="-405.8" font-family="Times,serif" font-size="14.00">b</text>
</g>
<!-- 85&#45;&gt;84 -->
<g id="edge19" class="edge"><title>85&#45;&gt;84</title>
<path fill="none" stroke="black" d="M44.2059,-261.611C48.0158,-249.617 53.2647,-233.093 57.6566,-219.266"/>
<polygon fill="black" stroke="black" points="61.1184,-219.929 60.8101,-209.339 54.4469,-217.81 61.1184,-219.929"/>
<text text-anchor="middle" x="63.5" y="-231.8" font-family="Times,serif" font-size="14.00">a,b</text>
</g>
<!-- 85&#45;&gt;80 -->
<g id="edge20" class="edge"><title>85&#45;&gt;80</title>
<path fill="none" stroke="black" d="M46.8369,-295.491C53.1871,-308.044 62.2527,-325.965 69.5883,-340.465"/>
<polygon fill="black" stroke="black" points="66.4759,-342.066 74.1131,-349.41 72.7221,-338.907 66.4759,-342.066"/>
<text text-anchor="middle" x="67.5" y="-318.8" font-family="Times,serif" font-size="14.00">1</text>
</g>
<!-- 95&#45;&gt;94 -->
<g id="edge21" class="edge"><title>95&#45;&gt;94</title>
<path fill="none" stroke="black" d="M309.286,-122.419C314.276,-139.398 321,-166.771 321,-191 321,-367 321,-367 321,-367 321,-397.284 294.126,-422.478 273.445,-437.382"/>
<polygon fill="black" stroke="black" points="271.331,-434.587 265.057,-443.125 275.286,-440.363 271.331,-434.587"/>
<text text-anchor="middle" x="329.5" y="-275.3" font-family="Times,serif" font-size="14.00">a,b</text>
</g>
</g>
</svg>
