<?xml version="1.0" encoding="UTF-8" standalone="no"?>
<!DOCTYPE svg PUBLIC "-//W3C//DTD SVG 1.1//EN"
 "http://www.w3.org/Graphics/SVG/1.1/DTD/svg11.dtd">
<!-- Generated by graphviz version 2.38.0 (20140413.2041)
 -->
<!-- Title: %3 Pages: 1 -->
<svg width="316pt" height="188pt"
 viewBox="0.00 0.00 316.00 188.00" xmlns="http://www.w3.org/2000/svg" xmlns:xlink="http://www.w3.org/1999/xlink">
<g id="graph0" class="graph" transform="scale(1 1) rotate(0) translate(4 184)">
<title>%3</title>
<!-- b -->
<g id="node1" class="node"><title>b</title>
<ellipse fill="none" stroke="black" cx="27" cy="-90" rx="27" ry="18"/>
<text text-anchor="middle" x="27" y="-86.3" font-family="Times,serif" font-size="14.00">b</text>
</g>
<!-- bb -->
<g id="node3" class="node"><title>bb</title>
<ellipse fill="none" stroke="black" cx="137" cy="-18" rx="27" ry="18"/>
<text text-anchor="middle" x="137" y="-14.3" font-family="Times,serif" font-size="14.00" fill="red">bb</text>
</g>
<!-- b&#45;&gt;bb -->
<g id="edge1" class="edge"><title>b&#45;&gt;bb</title>
<path fill="none" stroke="black" d="M46.1605,-76.8069C63.6689,-65.6653 89.7595,-49.0622 109.493,-36.5043"/>
<polygon fill="black" stroke="black" points="111.501,-39.375 118.059,-31.0533 107.743,-33.4693 111.501,-39.375"/>
</g>
<!-- 1 -->
<g id="node2" class="node"><title>1</title>
<ellipse fill="none" stroke="black" cx="137" cy="-162" rx="27" ry="18"/>
<text text-anchor="middle" x="137" y="-158.3" font-family="Times,serif" font-size="14.00" fill="red">1</text>
</g>
<!-- 1&#45;&gt;bb -->
<g id="edge4" class="edge"><title>1&#45;&gt;bb</title>
<path fill="none" stroke="black" d="M123.25,-146.069C115.039,-136.1 105.381,-122.247 101,-108 96.2972,-92.7067 96.2972,-87.2933 101,-72 104.286,-61.3149 110.54,-50.851 116.925,-42.0814"/>
<polygon fill="black" stroke="black" points="119.884,-43.9774 123.25,-33.9312 114.354,-39.6861 119.884,-43.9774"/>
</g>
<!-- ba -->
<g id="node4" class="node"><title>ba</title>
<ellipse fill="none" stroke="black" cx="137" cy="-90" rx="27" ry="18"/>
<text text-anchor="middle" x="137" y="-86.3" font-family="Times,serif" font-size="14.00" fill="red">ba</text>
</g>
<!-- 1&#45;&gt;ba -->
<g id="edge5" class="edge"><title>1&#45;&gt;ba</title>
<path fill="none" stroke="black" d="M137,-143.697C137,-135.983 137,-126.712 137,-118.112"/>
<polygon fill="black" stroke="black" points="140.5,-118.104 137,-108.104 133.5,-118.104 140.5,-118.104"/>
</g>
<!-- ab -->
<g id="node5" class="node"><title>ab</title>
<ellipse fill="none" stroke="black" cx="209" cy="-90" rx="27" ry="18"/>
<text text-anchor="middle" x="209" y="-86.3" font-family="Times,serif" font-size="14.00" fill="red">ab</text>
</g>
<!-- 1&#45;&gt;ab -->
<g id="edge6" class="edge"><title>1&#45;&gt;ab</title>
<path fill="none" stroke="black" d="M151.57,-146.834C161.75,-136.938 175.524,-123.546 187.031,-112.359"/>
<polygon fill="black" stroke="black" points="189.474,-114.865 194.204,-105.385 184.595,-109.846 189.474,-114.865"/>
</g>
<!-- ba&#45;&gt;bb -->
<g id="edge2" class="edge"><title>ba&#45;&gt;bb</title>
<path fill="none" stroke="black" d="M137,-71.6966C137,-63.9827 137,-54.7125 137,-46.1124"/>
<polygon fill="black" stroke="black" points="140.5,-46.1043 137,-36.1043 133.5,-46.1044 140.5,-46.1043"/>
</g>
<!-- ab&#45;&gt;bb -->
<g id="edge3" class="edge"><title>ab&#45;&gt;bb</title>
<path fill="none" stroke="black" d="M194.43,-74.8345C184.25,-64.9376 170.476,-51.5462 158.969,-40.3591"/>
<polygon fill="black" stroke="black" points="161.405,-37.8461 151.796,-33.3847 156.526,-42.865 161.405,-37.8461"/>
</g>
<!-- a -->
<g id="node6" class="node"><title>a</title>
<ellipse fill="none" stroke="black" cx="281" cy="-90" rx="27" ry="18"/>
<text text-anchor="middle" x="281" y="-86.3" font-family="Times,serif" font-size="14.00">a</text>
</g>
<!-- a&#45;&gt;bb -->
<g id="edge7" class="edge"><title>a&#45;&gt;bb</title>
<path fill="none" stroke="black" d="M259.752,-78.6713C235.398,-66.8324 195.281,-47.3312 167.572,-33.8615"/>
<polygon fill="black" stroke="black" points="168.859,-30.5953 158.335,-29.3711 165.798,-36.8909 168.859,-30.5953"/>
</g>
</g>
</svg>
