<?xml version="1.0" encoding="UTF-8" standalone="no"?>
<!DOCTYPE svg PUBLIC "-//W3C//DTD SVG 1.1//EN"
 "http://www.w3.org/Graphics/SVG/1.1/DTD/svg11.dtd">
<!-- Generated by graphviz version 2.38.0 (20140413.2041)
 -->
<!-- Title: %3 Pages: 1 -->
<svg width="213pt" height="408pt"
 viewBox="0.00 0.00 213.00 408.00" xmlns="http://www.w3.org/2000/svg" xmlns:xlink="http://www.w3.org/1999/xlink">
<g id="graph0" class="graph" transform="scale(1 1) rotate(0) translate(4 404)">
<title>%3</title>
<!-- 0 -->
<g id="node1" class="node"><title>0</title>
<ellipse fill="lightblue" stroke="black" cx="89" cy="-378" rx="18" ry="18"/>
<ellipse fill="none" stroke="black" cx="89" cy="-378" rx="22" ry="22"/>
<text text-anchor="middle" x="89" y="-374.3" font-family="Times,serif" font-size="14.00">0</text>
</g>
<!-- 2 -->
<g id="node3" class="node"><title>2</title>
<ellipse fill="lightblue" stroke="black" cx="89" cy="-287" rx="18" ry="18"/>
<text text-anchor="middle" x="89" y="-283.3" font-family="Times,serif" font-size="14.00">2</text>
</g>
<!-- 0&#45;&gt;2 -->
<g id="edge1" class="edge"><title>0&#45;&gt;2</title>
<path fill="none" stroke="black" d="M89,-355.908C89,-343.78 89,-328.409 89,-315.36"/>
<polygon fill="black" stroke="black" points="92.5001,-315.066 89,-305.066 85.5001,-315.066 92.5001,-315.066"/>
<text text-anchor="middle" x="92.5" y="-326.8" font-family="Times,serif" font-size="14.00">b</text>
</g>
<!-- 4 -->
<g id="node5" class="node"><title>4</title>
<ellipse fill="lightblue" stroke="black" cx="61" cy="-18" rx="18" ry="18"/>
<text text-anchor="middle" x="61" y="-14.3" font-family="Times,serif" font-size="14.00">4</text>
</g>
<!-- 0&#45;&gt;4 -->
<g id="edge2" class="edge"><title>0&#45;&gt;4</title>
<path fill="none" stroke="black" d="M69.248,-368.081C43.0279,-354.73 0,-326.896 0,-288 0,-288 0,-288 0,-104 0,-76.2776 21.6821,-51.3982 39.1929,-35.8255"/>
<polygon fill="black" stroke="black" points="41.4762,-38.4784 46.8521,-29.3487 36.9562,-33.1333 41.4762,-38.4784"/>
<text text-anchor="middle" x="3.5" y="-192.3" font-family="Times,serif" font-size="14.00">a</text>
</g>
<!-- 1 -->
<g id="node2" class="node"><title>1</title>
<ellipse fill="lightblue" stroke="black" cx="133" cy="-105" rx="18" ry="18"/>
<text text-anchor="middle" x="133" y="-101.3" font-family="Times,serif" font-size="14.00">1</text>
</g>
<!-- 1&#45;&gt;0 -->
<g id="edge3" class="edge"><title>1&#45;&gt;0</title>
<path fill="none" stroke="black" d="M133.101,-123.01C132.969,-157.69 130.925,-238.875 116,-305 112.697,-319.632 107.093,-335.29 101.843,-348.254"/>
<polygon fill="black" stroke="black" points="98.5713,-347.005 97.9414,-357.581 105.029,-349.707 98.5713,-347.005"/>
<text text-anchor="middle" x="130.5" y="-239.8" font-family="Times,serif" font-size="14.00">b</text>
</g>
<!-- 1&#45;&gt;4 -->
<g id="edge4" class="edge"><title>1&#45;&gt;4</title>
<path fill="none" stroke="black" d="M123.923,-89.4232C117.25,-79.1317 107.691,-65.231 98,-54 93.1096,-48.3328 87.4075,-42.5863 81.9653,-37.4327"/>
<polygon fill="black" stroke="black" points="84.0322,-34.5784 74.3026,-30.3847 79.2933,-39.7305 84.0322,-34.5784"/>
<text text-anchor="middle" x="112.5" y="-57.8" font-family="Times,serif" font-size="14.00">a</text>
</g>
<!-- 2&#45;&gt;4 -->
<g id="edge5" class="edge"><title>2&#45;&gt;4</title>
<path fill="none" stroke="black" d="M80.0294,-271.255C72.4633,-257.899 62.2132,-237.399 58,-218 44.8952,-157.662 51.5476,-84.5951 56.76,-45.9709"/>
<polygon fill="black" stroke="black" points="60.2309,-46.4227 58.1743,-36.0294 53.3007,-45.4367 60.2309,-46.4227"/>
<text text-anchor="middle" x="53.5" y="-144.8" font-family="Times,serif" font-size="14.00">b</text>
</g>
<!-- 5 -->
<g id="node6" class="node"><title>5</title>
<ellipse fill="lightblue" stroke="black" cx="89" cy="-196" rx="18" ry="18"/>
<ellipse fill="none" stroke="black" cx="89" cy="-196" rx="22" ry="22"/>
<text text-anchor="middle" x="89" y="-192.3" font-family="Times,serif" font-size="14.00">5</text>
</g>
<!-- 2&#45;&gt;5 -->
<g id="edge6" class="edge"><title>2&#45;&gt;5</title>
<path fill="none" stroke="black" d="M89,-268.84C89,-257.441 89,-242.134 89,-228.578"/>
<polygon fill="black" stroke="black" points="92.5001,-228.19 89,-218.191 85.5001,-228.191 92.5001,-228.19"/>
<text text-anchor="middle" x="92.5" y="-239.8" font-family="Times,serif" font-size="14.00">a</text>
</g>
<!-- 3 -->
<g id="node4" class="node"><title>3</title>
<ellipse fill="#aaff80" stroke="black" cx="183" cy="-378" rx="18" ry="18"/>
<ellipse fill="none" stroke="black" cx="183" cy="-378" rx="22" ry="22"/>
<text text-anchor="middle" x="183" y="-374.3" font-family="Times,serif" font-size="14.00">3</text>
</g>
<!-- 3&#45;&gt;1 -->
<g id="edge7" class="edge"><title>3&#45;&gt;1</title>
<path fill="none" stroke="black" d="M181.12,-355.875C177.1,-314.236 166.34,-218.844 146,-141 145.164,-137.802 144.146,-134.488 143.05,-131.233"/>
<polygon fill="black" stroke="black" points="146.335,-130.025 139.639,-121.814 139.753,-132.408 146.335,-130.025"/>
<text text-anchor="middle" x="170.5" y="-239.8" font-family="Times,serif" font-size="14.00">a</text>
</g>
<!-- 3&#45;&gt;2 -->
<g id="edge8" class="edge"><title>3&#45;&gt;2</title>
<path fill="none" stroke="black" d="M167.478,-362.303C151.56,-347.233 126.728,-323.721 109.269,-307.191"/>
<polygon fill="black" stroke="black" points="111.492,-304.476 101.824,-300.142 106.679,-309.559 111.492,-304.476"/>
<text text-anchor="middle" x="144.5" y="-326.8" font-family="Times,serif" font-size="14.00">b</text>
</g>
<!-- 4&#45;&gt;4 -->
<g id="edge9" class="edge"><title>4&#45;&gt;4</title>
<path fill="none" stroke="black" d="M77.6641,-25.3828C87.625,-27.0234 97,-24.5625 97,-18 97,-13.7959 93.1525,-11.2751 87.7682,-10.4375"/>
<polygon fill="black" stroke="black" points="87.6002,-6.93988 77.6641,-10.6172 87.7247,-13.9388 87.6002,-6.93988"/>
<text text-anchor="middle" x="105.5" y="-14.3" font-family="Times,serif" font-size="14.00">b,a</text>
</g>
<!-- 5&#45;&gt;1 -->
<g id="edge10" class="edge"><title>5&#45;&gt;1</title>
<path fill="none" stroke="black" d="M98.5473,-175.688C105.078,-162.479 113.791,-144.855 120.821,-130.635"/>
<polygon fill="black" stroke="black" points="124.077,-131.947 125.371,-121.431 117.802,-128.844 124.077,-131.947"/>
<text text-anchor="middle" x="117.5" y="-144.8" font-family="Times,serif" font-size="14.00">a</text>
</g>
<!-- 5&#45;&gt;4 -->
<g id="edge11" class="edge"><title>5&#45;&gt;4</title>
<path fill="none" stroke="black" d="M85.6781,-174.119C80.5975,-142.184 70.8978,-81.2148 65.2911,-45.9725"/>
<polygon fill="black" stroke="black" points="68.7199,-45.2477 63.6921,-35.9218 61.8068,-46.3475 68.7199,-45.2477"/>
<text text-anchor="middle" x="80.5" y="-101.3" font-family="Times,serif" font-size="14.00">b</text>
</g>
</g>
</svg>
