<?xml version="1.0" encoding="UTF-8" standalone="no"?>
<!DOCTYPE svg PUBLIC "-//W3C//DTD SVG 1.1//EN"
 "http://www.w3.org/Graphics/SVG/1.1/DTD/svg11.dtd">
<!-- Generated by graphviz version 2.38.0 (20140413.2041)
 -->
<!-- Title: %3 Pages: 1 -->
<svg width="140pt" height="226pt"
 viewBox="0.00 0.00 140.00 226.00" xmlns="http://www.w3.org/2000/svg" xmlns:xlink="http://www.w3.org/1999/xlink">
<g id="graph0" class="graph" transform="scale(1 1) rotate(0) translate(4 222)">
<title>%3</title>
<!-- 0 -->
<g id="node1" class="node"><title>0</title>
<ellipse fill="#aaff80" stroke="black" cx="84" cy="-200" rx="18" ry="18"/>
<text text-anchor="middle" x="84" y="-196.3" font-family="Times,serif" font-size="14.00">0</text>
</g>
<!-- 1 -->
<g id="node2" class="node"><title>1</title>
<ellipse fill="lightblue" stroke="black" cx="22" cy="-109" rx="18" ry="18"/>
<ellipse fill="none" stroke="black" cx="22" cy="-109" rx="22" ry="22"/>
<text text-anchor="middle" x="22" y="-105.3" font-family="Times,serif" font-size="14.00">1</text>
</g>
<!-- 0&#45;&gt;1 -->
<g id="edge1" class="edge"><title>0&#45;&gt;1</title>
<path fill="none" stroke="black" d="M74.0386,-184.701C64.9119,-171.599 51.1788,-151.886 40.1118,-135.999"/>
<polygon fill="black" stroke="black" points="42.8719,-133.838 34.2839,-127.633 37.1282,-137.839 42.8719,-133.838"/>
<text text-anchor="middle" x="62.5" y="-152.8" font-family="Times,serif" font-size="14.00">a</text>
</g>
<!-- 2 -->
<g id="node3" class="node"><title>2</title>
<ellipse fill="lightblue" stroke="black" cx="79" cy="-18" rx="18" ry="18"/>
<text text-anchor="middle" x="79" y="-14.3" font-family="Times,serif" font-size="14.00">2</text>
</g>
<!-- 0&#45;&gt;2 -->
<g id="edge2" class="edge"><title>0&#45;&gt;2</title>
<path fill="none" stroke="black" d="M83.5206,-181.741C82.6507,-150.427 80.8061,-84.0213 79.7621,-46.434"/>
<polygon fill="black" stroke="black" points="83.2544,-46.1058 79.478,-36.2069 76.2571,-46.3003 83.2544,-46.1058"/>
<text text-anchor="middle" x="86.5" y="-105.3" font-family="Times,serif" font-size="14.00">b</text>
</g>
<!-- 1&#45;&gt;1 -->
<g id="edge3" class="edge"><title>1&#45;&gt;1</title>
<path fill="none" stroke="black" d="M42.5808,-117.37C52.8447,-118.528 62,-115.738 62,-109 62,-104.683 58.2427,-101.987 52.8436,-100.911"/>
<polygon fill="black" stroke="black" points="52.6729,-97.405 42.5808,-100.63 52.4812,-104.402 52.6729,-97.405"/>
<text text-anchor="middle" x="65.5" y="-105.3" font-family="Times,serif" font-size="14.00">b</text>
</g>
<!-- 1&#45;&gt;2 -->
<g id="edge4" class="edge"><title>1&#45;&gt;2</title>
<path fill="none" stroke="black" d="M33.5348,-89.9895C42.3709,-76.1928 54.6277,-57.055 64.1888,-42.1262"/>
<polygon fill="black" stroke="black" points="67.293,-43.7689 69.7389,-33.4603 61.3983,-39.9936 67.293,-43.7689"/>
<text text-anchor="middle" x="59.5" y="-57.8" font-family="Times,serif" font-size="14.00">a</text>
</g>
<!-- 2&#45;&gt;2 -->
<g id="edge5" class="edge"><title>2&#45;&gt;2</title>
<path fill="none" stroke="black" d="M95.6641,-25.3828C105.625,-27.0234 115,-24.5625 115,-18 115,-13.7959 111.152,-11.2751 105.768,-10.4375"/>
<polygon fill="black" stroke="black" points="105.6,-6.93988 95.6641,-10.6172 105.725,-13.9388 105.6,-6.93988"/>
<text text-anchor="middle" x="123.5" y="-14.3" font-family="Times,serif" font-size="14.00">a,b</text>
</g>
</g>
</svg>
