<?xml version="1.0" encoding="UTF-8" standalone="no"?>
<!DOCTYPE svg PUBLIC "-//W3C//DTD SVG 1.1//EN"
 "http://www.w3.org/Graphics/SVG/1.1/DTD/svg11.dtd">
<!-- Generated by graphviz version 2.38.0 (20140413.2041)
 -->
<!-- Title: %3 Pages: 1 -->
<svg width="371pt" height="692pt"
 viewBox="0.00 0.00 370.70 692.00" xmlns="http://www.w3.org/2000/svg" xmlns:xlink="http://www.w3.org/1999/xlink">
<g id="graph0" class="graph" transform="scale(1 1) rotate(0) translate(4 688)">
<title>%3</title>
<!-- All -->
<g id="node1" class="node"><title>All</title>
<ellipse fill="lightgreen" stroke="black" cx="223.345" cy="-666" rx="27" ry="18"/>
<text text-anchor="middle" x="223.345" y="-662.3" font-family="Times,serif" font-size="14.00">All</text>
</g>
<!-- Msol -->
<g id="node2" class="node"><title>Msol</title>
<ellipse fill="lightgreen" stroke="black" cx="186.345" cy="-594" rx="29.4969" ry="18"/>
<text text-anchor="middle" x="186.345" y="-590.3" font-family="Times,serif" font-size="14.00">Msol</text>
</g>
<!-- All&#45;&gt;Msol -->
<g id="edge1" class="edge"><title>All&#45;&gt;Msol</title>
<path fill="none" stroke="black" d="M214.764,-648.765C210.345,-640.404 204.854,-630.016 199.88,-620.606"/>
<polygon fill="black" stroke="black" points="202.905,-618.839 195.137,-611.633 196.716,-622.11 202.905,-618.839"/>
</g>
<!-- W -->
<g id="node17" class="node"><title>W</title>
<ellipse fill="#ff3030" stroke="black" cx="260.345" cy="-594" rx="27" ry="18"/>
<text text-anchor="middle" x="260.345" y="-590.3" font-family="Times,serif" font-size="14.00">W</text>
</g>
<!-- All&#45;&gt;W -->
<g id="edge22" class="edge"><title>All&#45;&gt;W</title>
<path fill="none" stroke="black" d="M231.927,-648.765C236.41,-640.283 241.996,-629.714 247.027,-620.197"/>
<polygon fill="black" stroke="black" points="250.232,-621.624 251.81,-611.147 244.043,-618.353 250.232,-621.624"/>
</g>
<!-- Ap -->
<g id="node3" class="node"><title>Ap</title>
<ellipse fill="lightgreen" stroke="black" cx="112.345" cy="-522" rx="27" ry="18"/>
<text text-anchor="middle" x="112.345" y="-518.3" font-family="Times,serif" font-size="14.00">Ap</text>
</g>
<!-- Msol&#45;&gt;Ap -->
<g id="edge2" class="edge"><title>Msol&#45;&gt;Ap</title>
<path fill="none" stroke="black" d="M171.013,-578.496C160.525,-568.575 146.451,-555.262 134.717,-544.163"/>
<polygon fill="black" stroke="black" points="137.075,-541.575 127.405,-537.246 132.265,-546.661 137.075,-541.575"/>
</g>
<!-- Gsol -->
<g id="node14" class="node"><title>Gsol</title>
<ellipse fill="lightgrey" stroke="black" cx="316.345" cy="-378" rx="27.0966" ry="18"/>
<text text-anchor="middle" x="316.345" y="-374.3" font-family="Times,serif" font-size="14.00">Gsol</text>
</g>
<!-- Msol&#45;&gt;Gsol -->
<g id="edge16" class="edge"><title>Msol&#45;&gt;Gsol</title>
<path fill="none" stroke="black" d="M209.028,-582.147C237.009,-568.6 281.606,-546.423 287.345,-540 320.444,-502.957 321.852,-441.377 319.423,-406.08"/>
<polygon fill="black" stroke="black" points="322.903,-405.697 318.577,-396.026 315.928,-406.284 322.903,-405.697"/>
</g>
<!-- Com -->
<g id="node16" class="node"><title>Com</title>
<ellipse fill="lightgrey" stroke="black" cx="224.345" cy="-378" rx="28.6953" ry="18"/>
<text text-anchor="middle" x="224.345" y="-374.3" font-family="Times,serif" font-size="14.00">Com</text>
</g>
<!-- Msol&#45;&gt;Com -->
<g id="edge19" class="edge"><title>Msol&#45;&gt;Com</title>
<path fill="none" stroke="black" d="M189.391,-575.849C195.98,-538.74 211.605,-450.747 219.541,-406.054"/>
<polygon fill="black" stroke="black" points="223.036,-406.393 221.338,-395.935 216.144,-405.169 223.036,-406.393"/>
</g>
<!-- Σ2 -->
<g id="node4" class="node"><title>Σ2</title>
<ellipse fill="lightgreen" stroke="black" cx="93.3454" cy="-450" rx="27" ry="18"/>
<text text-anchor="middle" x="93.3454" y="-446.3" font-family="Times,serif" font-size="14.00">Σ2</text>
</g>
<!-- Ap&#45;&gt;Σ2 -->
<g id="edge3" class="edge"><title>Ap&#45;&gt;Σ2</title>
<path fill="none" stroke="black" d="M107.746,-504.055C105.599,-496.145 102.992,-486.54 100.589,-477.688"/>
<polygon fill="black" stroke="black" points="103.9,-476.523 97.9025,-467.789 97.1443,-478.357 103.9,-476.523"/>
</g>
<!-- DA -->
<g id="node5" class="node"><title>DA</title>
<ellipse fill="lightgrey" stroke="black" cx="97.3454" cy="-378" rx="27" ry="18"/>
<text text-anchor="middle" x="97.3454" y="-374.3" font-family="Times,serif" font-size="14.00">DA</text>
</g>
<!-- Σ2&#45;&gt;DA -->
<g id="edge4" class="edge"><title>Σ2&#45;&gt;DA</title>
<path fill="none" stroke="black" d="M94.3342,-431.697C94.775,-423.983 95.3047,-414.712 95.7962,-406.112"/>
<polygon fill="black" stroke="black" points="99.2918,-406.288 96.3681,-396.104 92.3032,-405.888 99.2918,-406.288"/>
</g>
<!-- Idempotent -->
<g id="node6" class="node"><title>Idempotent</title>
<ellipse fill="lightgrey" stroke="black" cx="51.3454" cy="-234" rx="51.1914" ry="18"/>
<text text-anchor="middle" x="51.3454" y="-230.3" font-family="Times,serif" font-size="14.00">Idempotent</text>
</g>
<!-- DA&#45;&gt;Idempotent -->
<g id="edge5" class="edge"><title>DA&#45;&gt;Idempotent</title>
<path fill="none" stroke="black" d="M84.1332,-361.887C76.1374,-351.846 66.5162,-337.98 61.3454,-324 54.0301,-304.222 51.6591,-280.422 51.0468,-262.411"/>
<polygon fill="black" stroke="black" points="54.5441,-262.227 50.8648,-252.292 47.5453,-262.353 54.5441,-262.227"/>
</g>
<!-- R -->
<g id="node9" class="node"><title>R</title>
<ellipse fill="lightgrey" stroke="black" cx="97.3454" cy="-306" rx="27" ry="18"/>
<text text-anchor="middle" x="97.3454" y="-302.3" font-family="Times,serif" font-size="14.00">R</text>
</g>
<!-- DA&#45;&gt;R -->
<g id="edge8" class="edge"><title>DA&#45;&gt;R</title>
<path fill="none" stroke="black" d="M97.3454,-359.697C97.3454,-351.983 97.3454,-342.712 97.3454,-334.112"/>
<polygon fill="black" stroke="black" points="100.846,-334.104 97.3454,-324.104 93.8455,-334.104 100.846,-334.104"/>
</g>
<!-- L -->
<g id="node13" class="node"><title>L</title>
<ellipse fill="lightgrey" stroke="black" cx="169.345" cy="-306" rx="27" ry="18"/>
<text text-anchor="middle" x="169.345" y="-302.3" font-family="Times,serif" font-size="14.00">L</text>
</g>
<!-- DA&#45;&gt;L -->
<g id="edge14" class="edge"><title>DA&#45;&gt;L</title>
<path fill="none" stroke="black" d="M111.916,-362.834C122.095,-352.938 135.869,-339.546 147.376,-328.359"/>
<polygon fill="black" stroke="black" points="149.82,-330.865 154.55,-321.385 144.94,-325.846 149.82,-330.865"/>
</g>
<!-- SemiLattice -->
<g id="node7" class="node"><title>SemiLattice</title>
<ellipse fill="lightgrey" stroke="black" cx="170.345" cy="-90" rx="53.8905" ry="18"/>
<text text-anchor="middle" x="170.345" y="-86.3" font-family="Times,serif" font-size="14.00">SemiLattice</text>
</g>
<!-- Idempotent&#45;&gt;SemiLattice -->
<g id="edge6" class="edge"><title>Idempotent&#45;&gt;SemiLattice</title>
<path fill="none" stroke="black" d="M59.3732,-216.126C68.7932,-197.336 85.6522,-166.633 105.345,-144 115.344,-132.509 128.024,-121.559 139.526,-112.627"/>
<polygon fill="black" stroke="black" points="141.767,-115.321 147.637,-106.501 137.548,-109.735 141.767,-115.321"/>
</g>
<!-- Trivial -->
<g id="node8" class="node"><title>Trivial</title>
<ellipse fill="lightgrey" stroke="black" cx="240.345" cy="-18" rx="34.394" ry="18"/>
<text text-anchor="middle" x="240.345" y="-14.3" font-family="Times,serif" font-size="14.00">Trivial</text>
</g>
<!-- SemiLattice&#45;&gt;Trivial -->
<g id="edge7" class="edge"><title>SemiLattice&#45;&gt;Trivial</title>
<path fill="none" stroke="black" d="M186.581,-72.7646C195.941,-63.4047 207.843,-51.5028 218.068,-41.2777"/>
<polygon fill="black" stroke="black" points="220.56,-43.7349 225.156,-34.189 215.611,-38.7852 220.56,-43.7349"/>
</g>
<!-- J -->
<g id="node10" class="node"><title>J</title>
<ellipse fill="lightgrey" stroke="black" cx="155.345" cy="-234" rx="27" ry="18"/>
<text text-anchor="middle" x="155.345" y="-230.3" font-family="Times,serif" font-size="14.00">J</text>
</g>
<!-- R&#45;&gt;J -->
<g id="edge9" class="edge"><title>R&#45;&gt;J</title>
<path fill="none" stroke="black" d="M109.931,-289.811C117.607,-280.546 127.571,-268.52 136.21,-258.094"/>
<polygon fill="black" stroke="black" points="139.1,-260.093 142.785,-250.159 133.71,-255.626 139.1,-260.093"/>
</g>
<!-- ACom -->
<g id="node11" class="node"><title>ACom</title>
<ellipse fill="lightgrey" stroke="black" cx="220.345" cy="-162" rx="34.394" ry="18"/>
<text text-anchor="middle" x="220.345" y="-158.3" font-family="Times,serif" font-size="14.00">ACom</text>
</g>
<!-- J&#45;&gt;ACom -->
<g id="edge10" class="edge"><title>J&#45;&gt;ACom</title>
<path fill="none" stroke="black" d="M169.13,-218.155C177.683,-208.944 188.858,-196.909 198.587,-186.432"/>
<polygon fill="black" stroke="black" points="201.437,-188.506 205.677,-178.797 196.308,-183.743 201.437,-188.506"/>
</g>
<!-- Nil -->
<g id="node12" class="node"><title>Nil</title>
<ellipse fill="lightgrey" stroke="black" cx="141.345" cy="-162" rx="27" ry="18"/>
<text text-anchor="middle" x="141.345" y="-158.3" font-family="Times,serif" font-size="14.00">Nil</text>
</g>
<!-- J&#45;&gt;Nil -->
<g id="edge12" class="edge"><title>J&#45;&gt;Nil</title>
<path fill="none" stroke="black" d="M151.956,-216.055C150.415,-208.346 148.551,-199.027 146.818,-190.364"/>
<polygon fill="black" stroke="black" points="150.194,-189.395 144.801,-180.275 143.33,-190.768 150.194,-189.395"/>
</g>
<!-- ACom&#45;&gt;SemiLattice -->
<g id="edge11" class="edge"><title>ACom&#45;&gt;SemiLattice</title>
<path fill="none" stroke="black" d="M208.749,-144.765C202.653,-136.23 195.047,-125.582 188.216,-116.019"/>
<polygon fill="black" stroke="black" points="190.887,-113.736 182.226,-107.633 185.191,-117.805 190.887,-113.736"/>
</g>
<!-- Nil&#45;&gt;SemiLattice -->
<g id="edge13" class="edge"><title>Nil&#45;&gt;SemiLattice</title>
<path fill="none" stroke="black" d="M148.218,-144.411C151.564,-136.335 155.667,-126.431 159.427,-117.355"/>
<polygon fill="black" stroke="black" points="162.727,-118.534 163.321,-107.956 156.26,-115.855 162.727,-118.534"/>
</g>
<!-- L&#45;&gt;J -->
<g id="edge15" class="edge"><title>L&#45;&gt;J</title>
<path fill="none" stroke="black" d="M165.956,-288.055C164.415,-280.346 162.551,-271.027 160.818,-262.364"/>
<polygon fill="black" stroke="black" points="164.194,-261.395 158.801,-252.275 157.33,-262.768 164.194,-261.395"/>
</g>
<!-- Ab -->
<g id="node15" class="node"><title>Ab</title>
<ellipse fill="lightgrey" stroke="black" cx="282.345" cy="-306" rx="27" ry="18"/>
<text text-anchor="middle" x="282.345" y="-302.3" font-family="Times,serif" font-size="14.00">Ab</text>
</g>
<!-- Gsol&#45;&gt;Ab -->
<g id="edge17" class="edge"><title>Gsol&#45;&gt;Ab</title>
<path fill="none" stroke="black" d="M308.46,-360.765C304.441,-352.491 299.458,-342.232 294.926,-332.9"/>
<polygon fill="black" stroke="black" points="297.942,-331.099 290.425,-323.633 291.645,-334.158 297.942,-331.099"/>
</g>
<!-- Ab&#45;&gt;Trivial -->
<g id="edge18" class="edge"><title>Ab&#45;&gt;Trivial</title>
<path fill="none" stroke="black" d="M280.706,-288.031C277.785,-258.624 271.238,-196.321 263.345,-144 258.219,-110.017 250.817,-71.1159 245.806,-45.8597"/>
<polygon fill="black" stroke="black" points="249.212,-45.0441 243.818,-35.9252 242.348,-46.4175 249.212,-45.0441"/>
</g>
<!-- Com&#45;&gt;ACom -->
<g id="edge21" class="edge"><title>Com&#45;&gt;ACom</title>
<path fill="none" stroke="black" d="M224.025,-359.849C223.333,-322.832 221.695,-235.181 220.857,-190.386"/>
<polygon fill="black" stroke="black" points="224.354,-190.165 220.668,-180.232 217.355,-190.296 224.354,-190.165"/>
</g>
<!-- Com&#45;&gt;Ab -->
<g id="edge20" class="edge"><title>Com&#45;&gt;Ab</title>
<path fill="none" stroke="black" d="M236.931,-361.811C244.607,-352.546 254.571,-340.52 263.21,-330.094"/>
<polygon fill="black" stroke="black" points="266.1,-332.093 269.785,-322.159 260.71,-327.626 266.1,-332.093"/>
</g>
<!-- W&#45;&gt;Gsol -->
<g id="edge23" class="edge"><title>W&#45;&gt;Gsol</title>
<path fill="none" stroke="black" d="M284.688,-585.851C305.733,-578.234 334.833,-563.912 348.345,-540 371.96,-498.211 361.222,-478.241 348.345,-432 345.478,-421.702 340.009,-411.407 334.392,-402.666"/>
<polygon fill="black" stroke="black" points="337.124,-400.461 328.589,-394.185 331.347,-404.414 337.124,-400.461"/>
</g>
<!-- DS -->
<g id="node18" class="node"><title>DS</title>
<ellipse fill="lightgrey" stroke="black" cx="251.345" cy="-522" rx="27" ry="18"/>
<text text-anchor="middle" x="251.345" y="-518.3" font-family="Times,serif" font-size="14.00">DS</text>
</g>
<!-- W&#45;&gt;DS -->
<g id="edge24" class="edge"><title>W&#45;&gt;DS</title>
<path fill="none" stroke="black" d="M258.167,-576.055C257.176,-568.346 255.977,-559.027 254.864,-550.364"/>
<polygon fill="black" stroke="black" points="258.313,-549.747 253.567,-540.275 251.37,-550.64 258.313,-549.747"/>
</g>
<!-- DS&#45;&gt;DA -->
<g id="edge27" class="edge"><title>DS&#45;&gt;DA</title>
<path fill="none" stroke="black" d="M236.016,-506.865C208.804,-481.773 151.934,-429.335 120.126,-400.006"/>
<polygon fill="black" stroke="black" points="122.337,-397.283 112.613,-393.077 117.592,-402.429 122.337,-397.283"/>
</g>
<!-- DS&#45;&gt;Com -->
<g id="edge28" class="edge"><title>DS&#45;&gt;Com</title>
<path fill="none" stroke="black" d="M248.089,-503.871C243.487,-479.67 235.033,-435.211 229.554,-406.393"/>
<polygon fill="black" stroke="black" points="232.92,-405.359 227.614,-396.189 226.043,-406.667 232.92,-405.359"/>
</g>
<!-- G -->
<g id="node19" class="node"><title>G</title>
<ellipse fill="lightgrey" stroke="black" cx="279.345" cy="-450" rx="27" ry="18"/>
<text text-anchor="middle" x="279.345" y="-446.3" font-family="Times,serif" font-size="14.00">G</text>
</g>
<!-- DS&#45;&gt;G -->
<g id="edge25" class="edge"><title>DS&#45;&gt;G</title>
<path fill="none" stroke="black" d="M257.981,-504.411C261.259,-496.216 265.29,-486.14 268.964,-476.955"/>
<polygon fill="black" stroke="black" points="272.293,-478.055 272.757,-467.47 265.794,-475.455 272.293,-478.055"/>
</g>
<!-- G&#45;&gt;Gsol -->
<g id="edge26" class="edge"><title>G&#45;&gt;Gsol</title>
<path fill="none" stroke="black" d="M287.927,-432.765C292.41,-424.283 297.996,-413.714 303.027,-404.197"/>
<polygon fill="black" stroke="black" points="306.232,-405.624 307.81,-395.147 300.043,-402.353 306.232,-405.624"/>
</g>
</g>
</svg>
