<?xml version="1.0" encoding="UTF-8" standalone="no"?>
<!DOCTYPE svg PUBLIC "-//W3C//DTD SVG 1.1//EN"
 "http://www.w3.org/Graphics/SVG/1.1/DTD/svg11.dtd">
<!-- Generated by graphviz version 2.38.0 (20140413.2041)
 -->
<!-- Title: %3 Pages: 1 -->
<svg width="153pt" height="226pt"
 viewBox="0.00 0.00 153.00 226.00" xmlns="http://www.w3.org/2000/svg" xmlns:xlink="http://www.w3.org/1999/xlink">
<g id="graph0" class="graph" transform="scale(1 1) rotate(0) translate(4 222)">
<title>%3</title>
<!-- 0 -->
<g id="node1" class="node"><title>0</title>
<ellipse fill="#aaff80" stroke="black" cx="72" cy="-196" rx="18" ry="18"/>
<ellipse fill="none" stroke="black" cx="72" cy="-196" rx="22" ry="22"/>
<text text-anchor="middle" x="72" y="-192.3" font-family="Times,serif" font-size="14.00">0</text>
</g>
<!-- 1 -->
<g id="node2" class="node"><title>1</title>
<ellipse fill="lightblue" stroke="black" cx="18" cy="-105" rx="18" ry="18"/>
<text text-anchor="middle" x="18" y="-101.3" font-family="Times,serif" font-size="14.00">1</text>
</g>
<!-- 0&#45;&gt;1 -->
<g id="edge1" class="edge"><title>0&#45;&gt;1</title>
<path fill="none" stroke="black" d="M52.7706,-185.267C41.7718,-178.612 28.8393,-168.697 22,-156 18.309,-149.148 16.7076,-140.986 16.1868,-133.264"/>
<polygon fill="black" stroke="black" points="19.6853,-133.123 16.0514,-123.171 12.6859,-133.217 19.6853,-133.123"/>
<text text-anchor="middle" x="25.5" y="-144.8" font-family="Times,serif" font-size="14.00">a</text>
</g>
<!-- 2 -->
<g id="node3" class="node"><title>2</title>
<ellipse fill="lightblue" stroke="black" cx="72" cy="-18" rx="18" ry="18"/>
<text text-anchor="middle" x="72" y="-14.3" font-family="Times,serif" font-size="14.00">2</text>
</g>
<!-- 0&#45;&gt;2 -->
<g id="edge2" class="edge"><title>0&#45;&gt;2</title>
<path fill="none" stroke="black" d="M72,-173.77C72,-141.788 72,-81.2613 72,-46.1242"/>
<polygon fill="black" stroke="black" points="75.5001,-46.0944 72,-36.0944 68.5001,-46.0944 75.5001,-46.0944"/>
<text text-anchor="middle" x="80.5" y="-101.3" font-family="Times,serif" font-size="14.00">b,e</text>
</g>
<!-- 3 -->
<g id="node4" class="node"><title>3</title>
<ellipse fill="lightblue" stroke="black" cx="125" cy="-105" rx="18" ry="18"/>
<text text-anchor="middle" x="125" y="-101.3" font-family="Times,serif" font-size="14.00">3</text>
</g>
<!-- 0&#45;&gt;3 -->
<g id="edge3" class="edge"><title>0&#45;&gt;3</title>
<path fill="none" stroke="black" d="M82.9816,-176.559C91.0402,-163.027 102.055,-144.53 110.785,-129.87"/>
<polygon fill="black" stroke="black" points="114.029,-131.264 116.138,-120.881 108.015,-127.682 114.029,-131.264"/>
<text text-anchor="middle" x="106.5" y="-144.8" font-family="Times,serif" font-size="14.00">d</text>
</g>
<!-- 1&#45;&gt;0 -->
<g id="edge4" class="edge"><title>1&#45;&gt;0</title>
<path fill="none" stroke="black" d="M27.0289,-120.881C34.7931,-133.677 46.189,-152.46 55.5661,-167.914"/>
<polygon fill="black" stroke="black" points="52.6315,-169.825 60.8112,-176.559 58.6161,-166.194 52.6315,-169.825"/>
<text text-anchor="middle" x="51.5" y="-144.8" font-family="Times,serif" font-size="14.00">b</text>
</g>
<!-- 1&#45;&gt;2 -->
<g id="edge5" class="edge"><title>1&#45;&gt;2</title>
<path fill="none" stroke="black" d="M19.8517,-86.7686C21.5579,-76.6227 24.8136,-63.8834 31,-54 35.6087,-46.6372 42.2647,-40.0127 48.8778,-34.5589"/>
<polygon fill="black" stroke="black" points="51.2441,-37.1561 57.0741,-28.3095 46.9998,-31.5895 51.2441,-37.1561"/>
<text text-anchor="middle" x="44.5" y="-57.8" font-family="Times,serif" font-size="14.00">e,a,d</text>
</g>
<!-- 2&#45;&gt;2 -->
<g id="edge6" class="edge"><title>2&#45;&gt;2</title>
<path fill="none" stroke="black" d="M88.6641,-25.3828C98.625,-27.0234 108,-24.5625 108,-18 108,-13.7959 104.152,-11.2751 98.7682,-10.4375"/>
<polygon fill="black" stroke="black" points="98.6002,-6.93988 88.6641,-10.6172 98.7247,-13.9388 98.6002,-6.93988"/>
<text text-anchor="middle" x="126.5" y="-14.3" font-family="Times,serif" font-size="14.00">b,e,a,d</text>
</g>
<!-- 3&#45;&gt;0 -->
<g id="edge7" class="edge"><title>3&#45;&gt;0</title>
<path fill="none" stroke="black" d="M123.353,-123.107C121.8,-133.209 118.796,-145.946 113,-156 108.86,-163.181 102.995,-169.865 96.9923,-175.6"/>
<polygon fill="black" stroke="black" points="94.5806,-173.061 89.4342,-182.321 99.2325,-178.291 94.5806,-173.061"/>
<text text-anchor="middle" x="122.5" y="-144.8" font-family="Times,serif" font-size="14.00">e</text>
</g>
<!-- 3&#45;&gt;2 -->
<g id="edge8" class="edge"><title>3&#45;&gt;2</title>
<path fill="none" stroke="black" d="M115.768,-89.1941C107.712,-76.2744 95.8855,-57.3069 86.5561,-42.3448"/>
<polygon fill="black" stroke="black" points="89.3871,-40.2699 81.1261,-33.6362 83.4472,-43.9737 89.3871,-40.2699"/>
<text text-anchor="middle" x="115" y="-57.8" font-family="Times,serif" font-size="14.00">b,a,d</text>
</g>
</g>
</svg>
