<?xml version="1.0" encoding="UTF-8" standalone="no"?>
<!DOCTYPE svg PUBLIC "-//W3C//DTD SVG 1.1//EN"
 "http://www.w3.org/Graphics/SVG/1.1/DTD/svg11.dtd">
<!-- Generated by graphviz version 2.38.0 (20140413.2041)
 -->
<!-- Title: %3 Pages: 1 -->
<svg width="151pt" height="218pt"
 viewBox="0.00 0.00 151.00 218.00" xmlns="http://www.w3.org/2000/svg" xmlns:xlink="http://www.w3.org/1999/xlink">
<g id="graph0" class="graph" transform="scale(1 1) rotate(0) translate(4 214)">
<title>%3</title>
<!-- 2 -->
<g id="node1" class="node"><title>2</title>
<ellipse fill="lightblue" stroke="black" cx="18" cy="-105" rx="18" ry="18"/>
<text text-anchor="middle" x="18" y="-101.3" font-family="Times,serif" font-size="14.00">2</text>
</g>
<!-- 2&#45;&gt;2 -->
<g id="edge1" class="edge"><title>2&#45;&gt;2</title>
<path fill="none" stroke="black" d="M34.6641,-112.383C44.625,-114.023 54,-111.562 54,-105 54,-100.796 50.1525,-98.2751 44.7682,-97.4375"/>
<polygon fill="black" stroke="black" points="44.6002,-93.9399 34.6641,-97.6172 44.7247,-100.939 44.6002,-93.9399"/>
<text text-anchor="middle" x="57.5" y="-101.3" font-family="Times,serif" font-size="14.00">a</text>
</g>
<!-- 3 -->
<g id="node4" class="node"><title>3</title>
<ellipse fill="lightblue" stroke="black" cx="97" cy="-18" rx="18" ry="18"/>
<text text-anchor="middle" x="97" y="-14.3" font-family="Times,serif" font-size="14.00">3</text>
</g>
<!-- 2&#45;&gt;3 -->
<g id="edge2" class="edge"><title>2&#45;&gt;3</title>
<path fill="none" stroke="black" d="M29.9984,-91.0903C42.833,-77.281 63.3578,-55.1973 78.312,-39.1073"/>
<polygon fill="black" stroke="black" points="80.9034,-41.4603 85.1475,-31.7527 75.776,-36.6948 80.9034,-41.4603"/>
<text text-anchor="middle" x="65.5" y="-57.8" font-family="Times,serif" font-size="14.00">b</text>
</g>
<!-- 1 -->
<g id="node2" class="node"><title>1</title>
<ellipse fill="lightblue" stroke="black" cx="93" cy="-192" rx="18" ry="18"/>
<text text-anchor="middle" x="93" y="-188.3" font-family="Times,serif" font-size="14.00">1</text>
</g>
<!-- 1&#45;&gt;2 -->
<g id="edge3" class="edge"><title>1&#45;&gt;2</title>
<path fill="none" stroke="black" d="M81.2812,-177.719C69.2828,-164.12 50.4593,-142.787 36.4574,-126.918"/>
<polygon fill="black" stroke="black" points="38.8772,-124.371 29.6365,-119.188 33.6283,-129.002 38.8772,-124.371"/>
<text text-anchor="middle" x="62.5" y="-144.8" font-family="Times,serif" font-size="14.00">b</text>
</g>
<!-- 0 -->
<g id="node3" class="node"><title>0</title>
<ellipse fill="lightblue" stroke="black" cx="97" cy="-105" rx="18" ry="18"/>
<text text-anchor="middle" x="97" y="-101.3" font-family="Times,serif" font-size="14.00">0</text>
</g>
<!-- 1&#45;&gt;0 -->
<g id="edge4" class="edge"><title>1&#45;&gt;0</title>
<path fill="none" stroke="black" d="M85.5166,-175.276C81.7618,-165.448 78.493,-152.514 81,-141 81.7622,-137.499 82.9072,-133.929 84.2411,-130.473"/>
<polygon fill="black" stroke="black" points="87.5051,-131.746 88.3398,-121.184 81.1008,-128.92 87.5051,-131.746"/>
<text text-anchor="middle" x="84.5" y="-144.8" font-family="Times,serif" font-size="14.00">c</text>
</g>
<!-- 1&#45;&gt;3 -->
<g id="edge5" class="edge"><title>1&#45;&gt;3</title>
<path fill="none" stroke="black" d="M103.567,-177.326C107.949,-171.103 112.757,-163.47 116,-156 122.01,-142.157 122.21,-137.985 124,-123 127.652,-92.435 128.848,-82.8077 118,-54 116.455,-49.8967 114.43,-45.7322 112.247,-41.776"/>
<polygon fill="black" stroke="black" points="115.161,-39.8293 107.02,-33.049 109.156,-43.4263 115.161,-39.8293"/>
<text text-anchor="middle" x="134.5" y="-101.3" font-family="Times,serif" font-size="14.00">a,d</text>
</g>
<!-- 0&#45;&gt;1 -->
<g id="edge6" class="edge"><title>0&#45;&gt;1</title>
<path fill="none" stroke="black" d="M96.1917,-123.175C95.6444,-134.806 94.9097,-150.419 94.2831,-163.734"/>
<polygon fill="black" stroke="black" points="90.7835,-163.645 93.8095,-173.799 97.7758,-163.975 90.7835,-163.645"/>
<text text-anchor="middle" x="103.5" y="-144.8" font-family="Times,serif" font-size="14.00">a,b</text>
</g>
<!-- 0&#45;&gt;3 -->
<g id="edge7" class="edge"><title>0&#45;&gt;3</title>
<path fill="none" stroke="black" d="M97,-86.799C97,-75.1626 97,-59.5479 97,-46.2368"/>
<polygon fill="black" stroke="black" points="100.5,-46.1754 97,-36.1754 93.5001,-46.1755 100.5,-46.1754"/>
<text text-anchor="middle" x="105.5" y="-57.8" font-family="Times,serif" font-size="14.00">d,c</text>
</g>
</g>
</svg>
