<?xml version="1.0" encoding="UTF-8" standalone="no"?>
<!DOCTYPE svg PUBLIC "-//W3C//DTD SVG 1.1//EN"
 "http://www.w3.org/Graphics/SVG/1.1/DTD/svg11.dtd">
<!-- Generated by graphviz version 2.38.0 (20140413.2041)
 -->
<!-- Title: %3 Pages: 1 -->
<svg width="50pt" height="137pt"
 viewBox="0.00 0.00 50.43 137.43" xmlns="http://www.w3.org/2000/svg" xmlns:xlink="http://www.w3.org/1999/xlink">
<g id="graph0" class="graph" transform="scale(1 1) rotate(0) translate(4 133.426)">
<title>%3</title>
<!-- 1\n0.b -->
<g id="node1" class="node"><title>1\n0.b</title>
<ellipse fill="lightblue" stroke="black" cx="21.2132" cy="-21.2132" rx="21.4286" ry="21.4286"/>
<text text-anchor="middle" x="21.2132" y="-25.0132" font-family="Times,serif" font-size="14.00">1</text>
<text text-anchor="middle" x="21.2132" y="-10.0132" font-family="Times,serif" font-size="14.00">0.b</text>
</g>
<!-- 0 -->
<g id="node2" class="node"><title>0</title>
<ellipse fill="#aaff80" stroke="black" cx="21.2132" cy="-111.426" rx="18" ry="18"/>
<text text-anchor="middle" x="21.2132" y="-107.726" font-family="Times,serif" font-size="14.00">0</text>
</g>
<!-- 0&#45;&gt;1\n0.b -->
<g id="edge1" class="edge"><title>0&#45;&gt;1\n0.b</title>
<path fill="none" stroke="black" d="M21.2132,-93.418C21.2132,-81.9615 21.2132,-66.5226 21.2132,-52.9494"/>
<polygon fill="black" stroke="black" points="24.7133,-52.5757 21.2132,-42.5757 17.7133,-52.5757 24.7133,-52.5757"/>
<text text-anchor="middle" x="24.7132" y="-64.2264" font-family="Times,serif" font-size="14.00">a</text>
</g>
</g>
</svg>
