<?xml version="1.0" encoding="UTF-8" standalone="no"?>
<!DOCTYPE svg PUBLIC "-//W3C//DTD SVG 1.1//EN"
 "http://www.w3.org/Graphics/SVG/1.1/DTD/svg11.dtd">
<!-- Generated by graphviz version 2.38.0 (20140413.2041)
 -->
<!-- Title: %3 Pages: 1 -->
<svg width="196pt" height="139pt"
 viewBox="0.00 0.00 196.00 139.00" xmlns="http://www.w3.org/2000/svg" xmlns:xlink="http://www.w3.org/1999/xlink">
<g id="graph0" class="graph" transform="scale(1 1) rotate(0) translate(4 135)">
<title>%3</title>
<!-- 0 -->
<g id="node1" class="node"><title>0</title>
<ellipse fill="lightblue" stroke="black" cx="18" cy="-22" rx="18" ry="18"/>
<text text-anchor="middle" x="18" y="-18.3" font-family="Times,serif" font-size="14.00">0</text>
</g>
<!-- 0&#45;&gt;0 -->
<g id="edge1" class="edge"><title>0&#45;&gt;0</title>
<path fill="none" stroke="black" d="M34.2903,-30.0164C44.3892,-31.9495 54,-29.2773 54,-22 54,-17.338 50.0557,-14.5659 44.5656,-13.6838"/>
<polygon fill="black" stroke="black" points="44.1839,-10.1933 34.2903,-13.9836 44.3881,-17.1903 44.1839,-10.1933"/>
<text text-anchor="middle" x="67.5" y="-18.3" font-family="Times,serif" font-size="14.00">c,b,a</text>
</g>
<!-- 1 -->
<g id="node2" class="node"><title>1</title>
<ellipse fill="lightblue" stroke="black" cx="121" cy="-22" rx="18" ry="18"/>
<ellipse fill="none" stroke="black" cx="121" cy="-22" rx="22" ry="22"/>
<text text-anchor="middle" x="121" y="-18.3" font-family="Times,serif" font-size="14.00">1</text>
</g>
<!-- 1&#45;&gt;1 -->
<g id="edge2" class="edge"><title>1&#45;&gt;1</title>
<path fill="none" stroke="black" d="M141.581,-30.3702C151.845,-31.5284 161,-28.7383 161,-22 161,-17.6833 157.243,-14.9869 151.844,-13.9109"/>
<polygon fill="black" stroke="black" points="151.673,-10.405 141.581,-13.6298 151.481,-17.4024 151.673,-10.405"/>
<text text-anchor="middle" x="174.5" y="-18.3" font-family="Times,serif" font-size="14.00">c,b,a</text>
</g>
<!-- 2 -->
<g id="node3" class="node"><title>2</title>
<ellipse fill="#aaff80" stroke="black" cx="69" cy="-113" rx="18" ry="18"/>
<text text-anchor="middle" x="69" y="-109.3" font-family="Times,serif" font-size="14.00">2</text>
</g>
<!-- 2&#45;&gt;0 -->
<g id="edge3" class="edge"><title>2&#45;&gt;0</title>
<path fill="none" stroke="black" d="M60.3485,-96.9024C52.4614,-83.1385 40.6818,-62.582 31.5471,-46.6409"/>
<polygon fill="black" stroke="black" points="34.5324,-44.8109 26.5237,-37.8747 28.4589,-48.2913 34.5324,-44.8109"/>
<text text-anchor="middle" x="57.5" y="-65.8" font-family="Times,serif" font-size="14.00">c,b</text>
</g>
<!-- 2&#45;&gt;1 -->
<g id="edge4" class="edge"><title>2&#45;&gt;1</title>
<path fill="none" stroke="black" d="M77.8211,-96.9024C85.2598,-84.1707 96.0944,-65.6269 105.049,-50.3003"/>
<polygon fill="black" stroke="black" points="108.312,-51.6538 110.335,-41.2538 102.268,-48.1224 108.312,-51.6538"/>
<text text-anchor="middle" x="101.5" y="-65.8" font-family="Times,serif" font-size="14.00">a</text>
</g>
</g>
</svg>
