<?xml version="1.0" encoding="UTF-8" standalone="no"?>
<!DOCTYPE svg PUBLIC "-//W3C//DTD SVG 1.1//EN"
 "http://www.w3.org/Graphics/SVG/1.1/DTD/svg11.dtd">
<!-- Generated by graphviz version 2.38.0 (20140413.2041)
 -->
<!-- Title: %3 Pages: 1 -->
<svg width="313pt" height="574pt"
 viewBox="0.00 0.00 313.00 574.00" xmlns="http://www.w3.org/2000/svg" xmlns:xlink="http://www.w3.org/1999/xlink">
<g id="graph0" class="graph" transform="scale(1 1) rotate(0) translate(4 570)">
<title>%3</title>
<!-- 0 -->
<g id="node1" class="node"><title>0</title>
<ellipse fill="lightblue" stroke="black" cx="129" cy="-287" rx="18" ry="18"/>
<text text-anchor="middle" x="129" y="-283.3" font-family="Times,serif" font-size="14.00">0</text>
</g>
<!-- 1 -->
<g id="node2" class="node"><title>1</title>
<ellipse fill="lightblue" stroke="black" cx="80" cy="-200" rx="18" ry="18"/>
<text text-anchor="middle" x="80" y="-196.3" font-family="Times,serif" font-size="14.00">1</text>
</g>
<!-- 0&#45;&gt;1 -->
<g id="edge1" class="edge"><title>0&#45;&gt;1</title>
<path fill="none" stroke="black" d="M119.908,-271.07C116.176,-264.884 111.839,-257.621 108,-251 103.141,-242.62 97.9284,-233.383 93.3335,-225.152"/>
<polygon fill="black" stroke="black" points="96.3782,-223.425 88.4601,-216.386 90.2601,-226.826 96.3782,-223.425"/>
<text text-anchor="middle" x="111.5" y="-239.8" font-family="Times,serif" font-size="14.00">d</text>
</g>
<!-- 5 -->
<g id="node6" class="node"><title>5</title>
<ellipse fill="lightblue" stroke="black" cx="155" cy="-18" rx="18" ry="18"/>
<text text-anchor="middle" x="155" y="-14.3" font-family="Times,serif" font-size="14.00">5</text>
</g>
<!-- 0&#45;&gt;5 -->
<g id="edge2" class="edge"><title>0&#45;&gt;5</title>
<path fill="none" stroke="black" d="M128.947,-268.652C129.023,-242.605 129.771,-191.871 134,-149 137.55,-113.006 144.732,-71.8523 149.702,-45.6621"/>
<polygon fill="black" stroke="black" points="153.158,-46.2233 151.614,-35.7415 146.285,-44.8981 153.158,-46.2233"/>
<text text-anchor="middle" x="147.5" y="-152.8" font-family="Times,serif" font-size="14.00">c,a,b</text>
</g>
<!-- 3 -->
<g id="node4" class="node"><title>3</title>
<ellipse fill="lightblue" stroke="black" cx="22" cy="-109" rx="18" ry="18"/>
<ellipse fill="none" stroke="black" cx="22" cy="-109" rx="22" ry="22"/>
<text text-anchor="middle" x="22" y="-105.3" font-family="Times,serif" font-size="14.00">3</text>
</g>
<!-- 1&#45;&gt;3 -->
<g id="edge3" class="edge"><title>1&#45;&gt;3</title>
<path fill="none" stroke="black" d="M70.4225,-184.303C61.977,-171.344 49.4643,-152.143 39.2743,-136.507"/>
<polygon fill="black" stroke="black" points="41.9834,-134.254 33.5912,-127.787 36.1188,-138.076 41.9834,-134.254"/>
<text text-anchor="middle" x="60.5" y="-152.8" font-family="Times,serif" font-size="14.00">d</text>
</g>
<!-- 1&#45;&gt;5 -->
<g id="edge4" class="edge"><title>1&#45;&gt;5</title>
<path fill="none" stroke="black" d="M79.2593,-181.924C78.9064,-159.283 80.4867,-118.518 94,-87 102.568,-67.0168 119.453,-48.9352 133.29,-36.4493"/>
<polygon fill="black" stroke="black" points="135.732,-38.965 140.999,-29.7724 131.149,-33.6738 135.732,-38.965"/>
<text text-anchor="middle" x="107.5" y="-105.3" font-family="Times,serif" font-size="14.00">c,a,b</text>
</g>
<!-- 2 -->
<g id="node3" class="node"><title>2</title>
<ellipse fill="lightblue" stroke="black" cx="175" cy="-374" rx="18" ry="18"/>
<text text-anchor="middle" x="175" y="-370.3" font-family="Times,serif" font-size="14.00">2</text>
</g>
<!-- 2&#45;&gt;0 -->
<g id="edge5" class="edge"><title>2&#45;&gt;0</title>
<path fill="none" stroke="black" d="M165.752,-358.159C161.996,-351.986 157.683,-344.709 154,-338 149.502,-329.806 144.85,-320.701 140.796,-312.529"/>
<polygon fill="black" stroke="black" points="143.903,-310.914 136.358,-303.476 137.618,-313.996 143.903,-310.914"/>
<text text-anchor="middle" x="157.5" y="-326.8" font-family="Times,serif" font-size="14.00">c</text>
</g>
<!-- 2&#45;&gt;5 -->
<g id="edge6" class="edge"><title>2&#45;&gt;5</title>
<path fill="none" stroke="black" d="M175,-355.744C175,-338.57 175,-311.464 175,-288 175,-288 175,-288 175,-108 175,-86.2888 169.264,-62.3075 163.936,-44.7139"/>
<polygon fill="black" stroke="black" points="167.263,-43.6246 160.892,-35.1586 160.593,-45.7492 167.263,-43.6246"/>
<text text-anchor="middle" x="189" y="-196.3" font-family="Times,serif" font-size="14.00">d,a,b</text>
</g>
<!-- 3&#45;&gt;5 -->
<g id="edge7" class="edge"><title>3&#45;&gt;5</title>
<path fill="none" stroke="black" d="M19.5413,-87.0642C19.4079,-76.0114 21.2582,-62.9276 29,-54 53.136,-26.167 97.299,-19.5563 126.403,-18.4466"/>
<polygon fill="black" stroke="black" points="126.812,-21.9398 136.746,-18.2578 126.684,-14.941 126.812,-21.9398"/>
<text text-anchor="middle" x="47.5" y="-57.8" font-family="Times,serif" font-size="14.00">d,c,a,b</text>
</g>
<!-- 4 -->
<g id="node5" class="node"><title>4</title>
<ellipse fill="lightblue" stroke="black" cx="231" cy="-461" rx="18" ry="18"/>
<text text-anchor="middle" x="231" y="-457.3" font-family="Times,serif" font-size="14.00">4</text>
</g>
<!-- 4&#45;&gt;2 -->
<g id="edge8" class="edge"><title>4&#45;&gt;2</title>
<path fill="none" stroke="black" d="M221.5,-445.581C212.892,-432.515 200.061,-413.039 190.057,-397.854"/>
<polygon fill="black" stroke="black" points="192.971,-395.915 184.546,-389.49 187.125,-399.766 192.971,-395.915"/>
<text text-anchor="middle" x="209.5" y="-413.8" font-family="Times,serif" font-size="14.00">b</text>
</g>
<!-- 4&#45;&gt;5 -->
<g id="edge9" class="edge"><title>4&#45;&gt;5</title>
<path fill="none" stroke="black" d="M231,-442.744C231,-425.57 231,-398.464 231,-375 231,-375 231,-375 231,-108 231,-75.354 201.063,-48.6286 178.767,-33.2517"/>
<polygon fill="black" stroke="black" points="180.659,-30.3072 170.38,-27.7408 176.815,-36.1573 180.659,-30.3072"/>
<text text-anchor="middle" x="244.5" y="-239.8" font-family="Times,serif" font-size="14.00">d,c,a</text>
</g>
<!-- 5&#45;&gt;5 -->
<g id="edge10" class="edge"><title>5&#45;&gt;5</title>
<path fill="none" stroke="black" d="M171.664,-25.3828C181.625,-27.0234 191,-24.5625 191,-18 191,-13.7959 187.152,-11.2751 181.768,-10.4375"/>
<polygon fill="black" stroke="black" points="181.6,-6.93988 171.664,-10.6172 181.725,-13.9388 181.6,-6.93988"/>
<text text-anchor="middle" x="209.5" y="-14.3" font-family="Times,serif" font-size="14.00">d,c,a,b</text>
</g>
<!-- 6 -->
<g id="node7" class="node"><title>6</title>
<ellipse fill="#aaff80" stroke="black" cx="260" cy="-548" rx="18" ry="18"/>
<text text-anchor="middle" x="260" y="-544.3" font-family="Times,serif" font-size="14.00">6</text>
</g>
<!-- 6&#45;&gt;4 -->
<g id="edge11" class="edge"><title>6&#45;&gt;4</title>
<path fill="none" stroke="black" d="M254.409,-530.611C250.276,-518.499 244.568,-501.768 239.823,-487.86"/>
<polygon fill="black" stroke="black" points="243.116,-486.673 236.574,-478.339 236.491,-488.933 243.116,-486.673"/>
<text text-anchor="middle" x="250.5" y="-500.8" font-family="Times,serif" font-size="14.00">a</text>
</g>
<!-- 6&#45;&gt;5 -->
<g id="edge12" class="edge"><title>6&#45;&gt;5</title>
<path fill="none" stroke="black" d="M265.286,-530.581C270.276,-513.602 277,-486.229 277,-462 277,-462 277,-462 277,-108 277,-61.4689 218.362,-36.6792 182.391,-25.8497"/>
<polygon fill="black" stroke="black" points="183.055,-22.4002 172.48,-23.0433 181.148,-29.1354 183.055,-22.4002"/>
<text text-anchor="middle" x="291" y="-283.3" font-family="Times,serif" font-size="14.00">d,c,b</text>
</g>
</g>
</svg>
