<?xml version="1.0" encoding="UTF-8" standalone="no"?>
<!DOCTYPE svg PUBLIC "-//W3C//DTD SVG 1.1//EN"
 "http://www.w3.org/Graphics/SVG/1.1/DTD/svg11.dtd">
<!-- Generated by graphviz version 2.38.0 (20140413.2041)
 -->
<!-- Title: %3 Pages: 1 -->
<svg width="2356pt" height="1009pt"
 viewBox="0.00 0.00 2356.00 1009.00" xmlns="http://www.w3.org/2000/svg" xmlns:xlink="http://www.w3.org/1999/xlink">
<g id="graph0" class="graph" transform="scale(1 1) rotate(0) translate(4 1005)">
<title>%3</title>
<!-- 0 -->
<g id="node1" class="node"><title>0</title>
<ellipse fill="lightblue" stroke="black" cx="114" cy="-548" rx="18" ry="18"/>
<text text-anchor="middle" x="114" y="-544.3" font-family="Times,serif" font-size="14.00">0</text>
</g>
<!-- 34 -->
<g id="node35" class="node"><title>34</title>
<ellipse fill="lightblue" stroke="black" cx="266" cy="-461" rx="18" ry="18"/>
<text text-anchor="middle" x="266" y="-457.3" font-family="Times,serif" font-size="14.00">34</text>
</g>
<!-- 0&#45;&gt;34 -->
<g id="edge1" class="edge"><title>0&#45;&gt;34</title>
<path fill="none" stroke="black" d="M129.411,-538.382C155.813,-523.618 209.898,-493.373 241.513,-475.693"/>
<polygon fill="black" stroke="black" points="243.528,-478.576 250.548,-470.641 240.112,-472.467 243.528,-478.576"/>
<text text-anchor="middle" x="203.5" y="-500.8" font-family="Times,serif" font-size="14.00">c</text>
</g>
<!-- 43 -->
<g id="node44" class="node"><title>43</title>
<ellipse fill="lightblue" stroke="black" cx="1115" cy="-18" rx="18" ry="18"/>
<text text-anchor="middle" x="1115" y="-14.3" font-family="Times,serif" font-size="14.00">43</text>
</g>
<!-- 0&#45;&gt;43 -->
<g id="edge2" class="edge"><title>0&#45;&gt;43</title>
<path fill="none" stroke="black" d="M114.966,-529.75C115.843,-512.581 117,-485.478 117,-462 117,-462 117,-462 117,-108 117,-74.9882 137.931,-67.625 168,-54 253.434,-15.2876 938.117,-17.7718 1086.64,-18.776"/>
<polygon fill="black" stroke="black" points="1086.74,-22.2767 1096.77,-18.848 1086.79,-15.2769 1086.74,-22.2767"/>
<text text-anchor="middle" x="135.5" y="-283.3" font-family="Times,serif" font-size="14.00">e,d,a,b</text>
</g>
<!-- 1 -->
<g id="node2" class="node"><title>1</title>
<ellipse fill="lightblue" stroke="black" cx="486" cy="-896" rx="18" ry="18"/>
<text text-anchor="middle" x="486" y="-892.3" font-family="Times,serif" font-size="14.00">1</text>
</g>
<!-- 13 -->
<g id="node14" class="node"><title>13</title>
<ellipse fill="lightblue" stroke="black" cx="160" cy="-809" rx="18" ry="18"/>
<text text-anchor="middle" x="160" y="-805.3" font-family="Times,serif" font-size="14.00">13</text>
</g>
<!-- 1&#45;&gt;13 -->
<g id="edge3" class="edge"><title>1&#45;&gt;13</title>
<path fill="none" stroke="black" d="M468.473,-890.43C414.728,-876.417 251.97,-833.98 187.105,-817.067"/>
<polygon fill="black" stroke="black" points="187.778,-813.626 177.218,-814.489 186.012,-820.399 187.778,-813.626"/>
<text text-anchor="middle" x="345.5" y="-848.8" font-family="Times,serif" font-size="14.00">c</text>
</g>
<!-- 31 -->
<g id="node32" class="node"><title>31</title>
<ellipse fill="lightblue" stroke="black" cx="334" cy="-809" rx="18" ry="18"/>
<text text-anchor="middle" x="334" y="-805.3" font-family="Times,serif" font-size="14.00">31</text>
</g>
<!-- 1&#45;&gt;31 -->
<g id="edge4" class="edge"><title>1&#45;&gt;31</title>
<path fill="none" stroke="black" d="M470.589,-886.382C444.187,-871.618 390.102,-841.373 358.487,-823.693"/>
<polygon fill="black" stroke="black" points="359.888,-820.467 349.452,-818.641 356.472,-826.576 359.888,-820.467"/>
<text text-anchor="middle" x="422.5" y="-848.8" font-family="Times,serif" font-size="14.00">d</text>
</g>
<!-- 1&#45;&gt;43 -->
<g id="edge5" class="edge"><title>1&#45;&gt;43</title>
<path fill="none" stroke="black" d="M498.869,-883.112C513.978,-867.795 537,-839.6 537,-810 537,-810 537,-810 537,-416.5 537,-342.933 531.043,-150.019 569,-87 582.738,-64.1918 593.784,-62.5501 619,-54 706.594,-24.2989 995.082,-19.7976 1086.76,-19.1192"/>
<polygon fill="black" stroke="black" points="1086.97,-22.6181 1096.94,-19.054 1086.92,-15.6183 1086.97,-22.6181"/>
<text text-anchor="middle" x="550.5" y="-457.3" font-family="Times,serif" font-size="14.00">e,a,b</text>
</g>
<!-- 2 -->
<g id="node3" class="node"><title>2</title>
<ellipse fill="lightblue" stroke="black" cx="1873" cy="-548" rx="18" ry="18"/>
<text text-anchor="middle" x="1873" y="-544.3" font-family="Times,serif" font-size="14.00">2</text>
</g>
<!-- 41 -->
<g id="node42" class="node"><title>41</title>
<ellipse fill="lightblue" stroke="black" cx="1873" cy="-461" rx="18" ry="18"/>
<text text-anchor="middle" x="1873" y="-457.3" font-family="Times,serif" font-size="14.00">41</text>
</g>
<!-- 2&#45;&gt;41 -->
<g id="edge6" class="edge"><title>2&#45;&gt;41</title>
<path fill="none" stroke="black" d="M1873,-529.799C1873,-518.163 1873,-502.548 1873,-489.237"/>
<polygon fill="black" stroke="black" points="1876.5,-489.175 1873,-479.175 1869.5,-489.175 1876.5,-489.175"/>
<text text-anchor="middle" x="1876.5" y="-500.8" font-family="Times,serif" font-size="14.00">d</text>
</g>
<!-- 2&#45;&gt;43 -->
<g id="edge7" class="edge"><title>2&#45;&gt;43</title>
<path fill="none" stroke="black" d="M1880.58,-531.463C1886.84,-517.934 1895.4,-497.621 1900,-479 1915.1,-417.816 1911.66,-400.932 1915,-338 1921.91,-207.746 1958.98,-109.626 1841,-54 1777.09,-23.8677 1269.3,-19.6702 1143.25,-19.0915"/>
<polygon fill="black" stroke="black" points="1143.23,-15.5915 1133.22,-19.0496 1143.2,-22.5914 1143.23,-15.5915"/>
<text text-anchor="middle" x="1938.5" y="-283.3" font-family="Times,serif" font-size="14.00">e,c,a,b</text>
</g>
<!-- 3 -->
<g id="node4" class="node"><title>3</title>
<ellipse fill="lightblue" stroke="black" cx="1622" cy="-548" rx="18" ry="18"/>
<text text-anchor="middle" x="1622" y="-544.3" font-family="Times,serif" font-size="14.00">3</text>
</g>
<!-- 32 -->
<g id="node33" class="node"><title>32</title>
<ellipse fill="lightblue" stroke="black" cx="1576" cy="-461" rx="18" ry="18"/>
<text text-anchor="middle" x="1576" y="-457.3" font-family="Times,serif" font-size="14.00">32</text>
</g>
<!-- 3&#45;&gt;32 -->
<g id="edge8" class="edge"><title>3&#45;&gt;32</title>
<path fill="none" stroke="black" d="M1612.75,-532.159C1609,-525.986 1604.68,-518.709 1601,-512 1596.5,-503.806 1591.85,-494.701 1587.8,-486.529"/>
<polygon fill="black" stroke="black" points="1590.9,-484.914 1583.36,-477.476 1584.62,-487.996 1590.9,-484.914"/>
<text text-anchor="middle" x="1604.5" y="-500.8" font-family="Times,serif" font-size="14.00">c</text>
</g>
<!-- 3&#45;&gt;43 -->
<g id="edge9" class="edge"><title>3&#45;&gt;43</title>
<path fill="none" stroke="black" d="M1622,-529.744C1622,-512.57 1622,-485.464 1622,-462 1622,-462 1622,-462 1622,-329.5 1622,-201.095 1651.89,-107.155 1535,-54 1464.88,-22.113 1226,-19.0021 1143.39,-18.9026"/>
<polygon fill="black" stroke="black" points="1143.23,-15.4025 1133.23,-18.9051 1143.24,-22.4025 1143.23,-15.4025"/>
<text text-anchor="middle" x="1641.5" y="-283.3" font-family="Times,serif" font-size="14.00">e,d,a,b</text>
</g>
<!-- 4 -->
<g id="node5" class="node"><title>4</title>
<ellipse fill="lightblue" stroke="black" cx="81" cy="-635" rx="18" ry="18"/>
<text text-anchor="middle" x="81" y="-631.3" font-family="Times,serif" font-size="14.00">4</text>
</g>
<!-- 4&#45;&gt;0 -->
<g id="edge10" class="edge"><title>4&#45;&gt;0</title>
<path fill="none" stroke="black" d="M87.207,-618.012C91.9546,-605.784 98.5951,-588.679 104.077,-574.559"/>
<polygon fill="black" stroke="black" points="107.464,-575.505 107.821,-564.916 100.939,-572.972 107.464,-575.505"/>
<text text-anchor="middle" x="103.5" y="-587.8" font-family="Times,serif" font-size="14.00">d</text>
</g>
<!-- 4&#45;&gt;43 -->
<g id="edge11" class="edge"><title>4&#45;&gt;43</title>
<path fill="none" stroke="black" d="M76.0252,-617.559C71.3284,-600.563 65,-573.176 65,-549 65,-549 65,-549 65,-108 65,-68.7075 98.0413,-67.3399 135,-54 226.49,-20.9777 935.608,-19.0214 1086.73,-18.9818"/>
<polygon fill="black" stroke="black" points="1087.01,-22.4817 1097.01,-18.982 1087.01,-15.4817 1087.01,-22.4817"/>
<text text-anchor="middle" x="83.5" y="-326.8" font-family="Times,serif" font-size="14.00">e,c,a,b</text>
</g>
<!-- 5 -->
<g id="node6" class="node"><title>5</title>
<ellipse fill="lightblue" stroke="black" cx="1153" cy="-200" rx="18" ry="18"/>
<text text-anchor="middle" x="1153" y="-196.3" font-family="Times,serif" font-size="14.00">5</text>
</g>
<!-- 7 -->
<g id="node8" class="node"><title>7</title>
<ellipse fill="lightblue" stroke="black" cx="1166" cy="-109" rx="18" ry="18"/>
<ellipse fill="none" stroke="black" cx="1166" cy="-109" rx="22" ry="22"/>
<text text-anchor="middle" x="1166" y="-105.3" font-family="Times,serif" font-size="14.00">7</text>
</g>
<!-- 5&#45;&gt;7 -->
<g id="edge12" class="edge"><title>5&#45;&gt;7</title>
<path fill="none" stroke="black" d="M1155.51,-181.84C1157.2,-170.247 1159.48,-154.613 1161.49,-140.89"/>
<polygon fill="black" stroke="black" points="1164.97,-141.267 1162.95,-130.867 1158.04,-140.256 1164.97,-141.267"/>
<text text-anchor="middle" x="1163.5" y="-152.8" font-family="Times,serif" font-size="14.00">c</text>
</g>
<!-- 5&#45;&gt;43 -->
<g id="edge13" class="edge"><title>5&#45;&gt;43</title>
<path fill="none" stroke="black" d="M1139.52,-187.608C1126.05,-175.26 1106.2,-154.189 1098,-131 1087.83,-102.251 1096.22,-67.2405 1104.41,-44.0997"/>
<polygon fill="black" stroke="black" points="1107.71,-45.2566 1107.98,-34.665 1101.17,-42.7824 1107.71,-45.2566"/>
<text text-anchor="middle" x="1116.5" y="-105.3" font-family="Times,serif" font-size="14.00">e,d,a,b</text>
</g>
<!-- 6 -->
<g id="node7" class="node"><title>6</title>
<ellipse fill="#aaff80" stroke="black" cx="1473" cy="-983" rx="18" ry="18"/>
<text text-anchor="middle" x="1473" y="-979.3" font-family="Times,serif" font-size="14.00">6</text>
</g>
<!-- 6&#45;&gt;1 -->
<g id="edge14" class="edge"><title>6&#45;&gt;1</title>
<path fill="none" stroke="black" d="M1455.03,-980.452C1335.98,-970.2 661.417,-912.107 514.323,-899.439"/>
<polygon fill="black" stroke="black" points="514.183,-895.914 503.92,-898.543 513.583,-902.888 514.183,-895.914"/>
<text text-anchor="middle" x="1041.5" y="-935.8" font-family="Times,serif" font-size="14.00">c</text>
</g>
<!-- 17 -->
<g id="node18" class="node"><title>17</title>
<ellipse fill="lightblue" stroke="black" cx="796" cy="-722" rx="18" ry="18"/>
<text text-anchor="middle" x="796" y="-718.3" font-family="Times,serif" font-size="14.00">17</text>
</g>
<!-- 6&#45;&gt;17 -->
<g id="edge15" class="edge"><title>6&#45;&gt;17</title>
<path fill="none" stroke="black" d="M1456.27,-975.598C1365.63,-940.925 933.58,-775.634 822.227,-733.034"/>
<polygon fill="black" stroke="black" points="823.346,-729.715 812.756,-729.41 820.845,-736.252 823.346,-729.715"/>
<text text-anchor="middle" x="1153.5" y="-848.8" font-family="Times,serif" font-size="14.00">a</text>
</g>
<!-- 37 -->
<g id="node38" class="node"><title>37</title>
<ellipse fill="lightblue" stroke="black" cx="1473" cy="-722" rx="18" ry="18"/>
<text text-anchor="middle" x="1473" y="-718.3" font-family="Times,serif" font-size="14.00">37</text>
</g>
<!-- 6&#45;&gt;37 -->
<g id="edge16" class="edge"><title>6&#45;&gt;37</title>
<path fill="none" stroke="black" d="M1473,-964.604C1473,-920.462 1473,-803.829 1473,-750.415"/>
<polygon fill="black" stroke="black" points="1476.5,-750.32 1473,-740.32 1469.5,-750.32 1476.5,-750.32"/>
<text text-anchor="middle" x="1476.5" y="-848.8" font-family="Times,serif" font-size="14.00">b</text>
</g>
<!-- 6&#45;&gt;43 -->
<g id="edge17" class="edge"><title>6&#45;&gt;43</title>
<path fill="none" stroke="black" d="M1490.36,-977.258C1553.93,-958.927 1775.65,-886.319 1878,-740 1961.32,-620.879 2004.4,-203.159 1917,-87 1901.21,-66.0199 1892.93,-62.2486 1868,-54 1798.28,-30.9289 1271.94,-21.4082 1143.3,-19.4123"/>
<polygon fill="black" stroke="black" points="1143.14,-15.9096 1133.09,-19.2569 1143.03,-22.9088 1143.14,-15.9096"/>
<text text-anchor="middle" x="1955.5" y="-500.8" font-family="Times,serif" font-size="14.00">e</text>
</g>
<!-- 50 -->
<g id="node51" class="node"><title>50</title>
<ellipse fill="lightblue" stroke="black" cx="1971" cy="-896" rx="18" ry="18"/>
<text text-anchor="middle" x="1971" y="-892.3" font-family="Times,serif" font-size="14.00">50</text>
</g>
<!-- 6&#45;&gt;50 -->
<g id="edge18" class="edge"><title>6&#45;&gt;50</title>
<path fill="none" stroke="black" d="M1491.1,-981.35C1559.29,-978.759 1800.49,-968.258 1874,-947 1900.75,-939.266 1928.75,-923.935 1947.75,-912.278"/>
<polygon fill="black" stroke="black" points="1949.71,-915.183 1956.31,-906.9 1945.98,-909.255 1949.71,-915.183"/>
<text text-anchor="middle" x="1913.5" y="-935.8" font-family="Times,serif" font-size="14.00">d</text>
</g>
<!-- 7&#45;&gt;43 -->
<g id="edge19" class="edge"><title>7&#45;&gt;43</title>
<path fill="none" stroke="black" d="M1155.43,-89.5591C1147.68,-76.0268 1137.08,-57.5303 1128.68,-42.8701"/>
<polygon fill="black" stroke="black" points="1131.54,-40.8172 1123.53,-33.8809 1125.46,-44.2975 1131.54,-40.8172"/>
<text text-anchor="middle" x="1166.5" y="-57.8" font-family="Times,serif" font-size="14.00">e,d,c,a,b</text>
</g>
<!-- 8 -->
<g id="node9" class="node"><title>8</title>
<ellipse fill="lightblue" stroke="black" cx="1248" cy="-287" rx="18" ry="18"/>
<text text-anchor="middle" x="1248" y="-283.3" font-family="Times,serif" font-size="14.00">8</text>
</g>
<!-- 8&#45;&gt;5 -->
<g id="edge20" class="edge"><title>8&#45;&gt;5</title>
<path fill="none" stroke="black" d="M1237.29,-272.497C1228.61,-261.973 1215.77,-247.299 1203,-236 1194.87,-228.809 1185.24,-221.769 1176.62,-215.911"/>
<polygon fill="black" stroke="black" points="1178.37,-212.872 1168.1,-210.277 1174.51,-218.712 1178.37,-212.872"/>
<text text-anchor="middle" x="1220.5" y="-239.8" font-family="Times,serif" font-size="14.00">c</text>
</g>
<!-- 8&#45;&gt;43 -->
<g id="edge21" class="edge"><title>8&#45;&gt;43</title>
<path fill="none" stroke="black" d="M1250.76,-268.919C1257.26,-226.71 1271.81,-118.622 1256,-87 1234.91,-44.8142 1177.61,-28.5745 1142.89,-22.4896"/>
<polygon fill="black" stroke="black" points="1143.33,-19.0157 1132.91,-20.9098 1142.24,-25.9297 1143.33,-19.0157"/>
<text text-anchor="middle" x="1280.5" y="-152.8" font-family="Times,serif" font-size="14.00">e,d,a,b</text>
</g>
<!-- 9 -->
<g id="node10" class="node"><title>9</title>
<ellipse fill="lightblue" stroke="black" cx="1729" cy="-374" rx="18" ry="18"/>
<text text-anchor="middle" x="1729" y="-370.3" font-family="Times,serif" font-size="14.00">9</text>
</g>
<!-- 9&#45;&gt;8 -->
<g id="edge22" class="edge"><title>9&#45;&gt;8</title>
<path fill="none" stroke="black" d="M1711.31,-369.412C1669.23,-360.919 1559.8,-339.091 1468,-323 1398.96,-310.899 1317.42,-298.391 1275.67,-292.117"/>
<polygon fill="black" stroke="black" points="1276.12,-288.644 1265.71,-290.624 1275.08,-295.567 1276.12,-288.644"/>
<text text-anchor="middle" x="1550.5" y="-326.8" font-family="Times,serif" font-size="14.00">e</text>
</g>
<!-- 9&#45;&gt;43 -->
<g id="edge23" class="edge"><title>9&#45;&gt;43</title>
<path fill="none" stroke="black" d="M1729.06,-355.9C1728.88,-295.7 1724.89,-94.9984 1680,-54 1640.14,-17.5966 1252.55,-17.8985 1143.45,-18.7159"/>
<polygon fill="black" stroke="black" points="1143.19,-15.2178 1133.22,-18.8004 1143.25,-22.2176 1143.19,-15.2178"/>
<text text-anchor="middle" x="1741.5" y="-196.3" font-family="Times,serif" font-size="14.00">d,c,a,b</text>
</g>
<!-- 10 -->
<g id="node11" class="node"><title>10</title>
<ellipse fill="lightblue" stroke="black" cx="2061" cy="-461" rx="18" ry="18"/>
<text text-anchor="middle" x="2061" y="-457.3" font-family="Times,serif" font-size="14.00">10</text>
</g>
<!-- 39 -->
<g id="node40" class="node"><title>39</title>
<ellipse fill="lightblue" stroke="black" cx="2015" cy="-374" rx="18" ry="18"/>
<text text-anchor="middle" x="2015" y="-370.3" font-family="Times,serif" font-size="14.00">39</text>
</g>
<!-- 10&#45;&gt;39 -->
<g id="edge24" class="edge"><title>10&#45;&gt;39</title>
<path fill="none" stroke="black" d="M2051.75,-445.159C2048,-438.986 2043.68,-431.709 2040,-425 2035.5,-416.806 2030.85,-407.701 2026.8,-399.529"/>
<polygon fill="black" stroke="black" points="2029.9,-397.914 2022.36,-390.476 2023.62,-400.996 2029.9,-397.914"/>
<text text-anchor="middle" x="2043.5" y="-413.8" font-family="Times,serif" font-size="14.00">c</text>
</g>
<!-- 10&#45;&gt;43 -->
<g id="edge25" class="edge"><title>10&#45;&gt;43</title>
<path fill="none" stroke="black" d="M2061.08,-442.843C2061.28,-386.207 2061.48,-207.361 2056,-182 2042.78,-120.77 2050.22,-87.0381 1997,-54 1959.92,-30.9838 1290.36,-21.2145 1143.37,-19.3424"/>
<polygon fill="black" stroke="black" points="1143.01,-15.8377 1132.97,-19.212 1142.92,-22.8371 1143.01,-15.8377"/>
<text text-anchor="middle" x="2077.5" y="-239.8" font-family="Times,serif" font-size="14.00">e,d,a,b</text>
</g>
<!-- 11 -->
<g id="node12" class="node"><title>11</title>
<ellipse fill="lightblue" stroke="black" cx="2187" cy="-809" rx="18" ry="18"/>
<text text-anchor="middle" x="2187" y="-805.3" font-family="Times,serif" font-size="14.00">11</text>
</g>
<!-- 23 -->
<g id="node24" class="node"><title>23</title>
<ellipse fill="lightblue" stroke="black" cx="2187" cy="-722" rx="18" ry="18"/>
<text text-anchor="middle" x="2187" y="-718.3" font-family="Times,serif" font-size="14.00">23</text>
</g>
<!-- 11&#45;&gt;23 -->
<g id="edge26" class="edge"><title>11&#45;&gt;23</title>
<path fill="none" stroke="black" d="M2187,-790.799C2187,-779.163 2187,-763.548 2187,-750.237"/>
<polygon fill="black" stroke="black" points="2190.5,-750.175 2187,-740.175 2183.5,-750.175 2190.5,-750.175"/>
<text text-anchor="middle" x="2190.5" y="-761.8" font-family="Times,serif" font-size="14.00">e</text>
</g>
<!-- 11&#45;&gt;43 -->
<g id="edge27" class="edge"><title>11&#45;&gt;43</title>
<path fill="none" stroke="black" d="M2203.2,-800.36C2227.1,-787.835 2269,-760.523 2269,-723 2269,-723 2269,-723 2269,-108 2269,-102.393 2182.4,-61.3251 2151,-54 2050.56,-30.57 1299.22,-21.0359 1143.28,-19.2992"/>
<polygon fill="black" stroke="black" points="1143.14,-15.7975 1133.1,-19.1875 1143.06,-22.7971 1143.14,-15.7975"/>
<text text-anchor="middle" x="2287.5" y="-413.8" font-family="Times,serif" font-size="14.00">d,c,a,b</text>
</g>
<!-- 12 -->
<g id="node13" class="node"><title>12</title>
<ellipse fill="lightblue" stroke="black" cx="931" cy="-548" rx="18" ry="18"/>
<text text-anchor="middle" x="931" y="-544.3" font-family="Times,serif" font-size="14.00">12</text>
</g>
<!-- 38 -->
<g id="node39" class="node"><title>38</title>
<ellipse fill="lightblue" stroke="black" cx="931" cy="-461" rx="18" ry="18"/>
<text text-anchor="middle" x="931" y="-457.3" font-family="Times,serif" font-size="14.00">38</text>
</g>
<!-- 12&#45;&gt;38 -->
<g id="edge28" class="edge"><title>12&#45;&gt;38</title>
<path fill="none" stroke="black" d="M931,-529.799C931,-518.163 931,-502.548 931,-489.237"/>
<polygon fill="black" stroke="black" points="934.5,-489.175 931,-479.175 927.5,-489.175 934.5,-489.175"/>
<text text-anchor="middle" x="934.5" y="-500.8" font-family="Times,serif" font-size="14.00">d</text>
</g>
<!-- 12&#45;&gt;43 -->
<g id="edge29" class="edge"><title>12&#45;&gt;43</title>
<path fill="none" stroke="black" d="M948.91,-544.422C986.046,-537.96 1068,-517.422 1068,-462 1068,-462 1068,-462 1068,-242.5 1068,-173.216 1039.11,-153.934 1057,-87 1062.53,-66.324 1078.94,-48.188 1092.89,-35.8572"/>
<polygon fill="black" stroke="black" points="1095.31,-38.3974 1100.73,-29.2924 1090.82,-33.0317 1095.31,-38.3974"/>
<text text-anchor="middle" x="1086.5" y="-283.3" font-family="Times,serif" font-size="14.00">e,c,a,b</text>
</g>
<!-- 35 -->
<g id="node36" class="node"><title>35</title>
<ellipse fill="lightblue" stroke="black" cx="81" cy="-722" rx="18" ry="18"/>
<text text-anchor="middle" x="81" y="-718.3" font-family="Times,serif" font-size="14.00">35</text>
</g>
<!-- 13&#45;&gt;35 -->
<g id="edge30" class="edge"><title>13&#45;&gt;35</title>
<path fill="none" stroke="black" d="M148.002,-795.09C135.167,-781.281 114.642,-759.197 99.688,-743.107"/>
<polygon fill="black" stroke="black" points="102.224,-740.695 92.8525,-735.753 97.0966,-745.46 102.224,-740.695"/>
<text text-anchor="middle" x="129.5" y="-761.8" font-family="Times,serif" font-size="14.00">e</text>
</g>
<!-- 13&#45;&gt;43 -->
<g id="edge31" class="edge"><title>13&#45;&gt;43</title>
<path fill="none" stroke="black" d="M160,-790.744C160,-773.57 160,-746.464 160,-723 160,-723 160,-723 160,-460 160,-437.773 159.377,-432.167 161,-410 166.416,-336.053 182,-318.645 182,-244.5 182,-244.5 182,-244.5 182,-108 182,-73.7432 205.556,-67.5933 237,-54 316.495,-19.6347 945.815,-18.6968 1086.97,-18.9234"/>
<polygon fill="black" stroke="black" points="1086.98,-22.4233 1096.99,-18.9429 1086.99,-15.4234 1086.98,-22.4233"/>
<text text-anchor="middle" x="179.5" y="-413.8" font-family="Times,serif" font-size="14.00">d,c,a,b</text>
</g>
<!-- 14 -->
<g id="node15" class="node"><title>14</title>
<ellipse fill="lightblue" stroke="black" cx="1143" cy="-287" rx="18" ry="18"/>
<text text-anchor="middle" x="1143" y="-283.3" font-family="Times,serif" font-size="14.00">14</text>
</g>
<!-- 14&#45;&gt;5 -->
<g id="edge32" class="edge"><title>14&#45;&gt;5</title>
<path fill="none" stroke="black" d="M1145.02,-268.799C1146.39,-257.163 1148.23,-241.548 1149.8,-228.237"/>
<polygon fill="black" stroke="black" points="1153.29,-228.516 1150.98,-218.175 1146.33,-227.698 1153.29,-228.516"/>
<text text-anchor="middle" x="1151.5" y="-239.8" font-family="Times,serif" font-size="14.00">d</text>
</g>
<!-- 14&#45;&gt;43 -->
<g id="edge33" class="edge"><title>14&#45;&gt;43</title>
<path fill="none" stroke="black" d="M1135.2,-270.609C1124.37,-249.781 1103.66,-211.8 1082,-182 1075.71,-173.342 1069.8,-174.005 1066,-164 1049.64,-120.969 1077.87,-69.7709 1097.82,-41.1683"/>
<polygon fill="black" stroke="black" points="1100.91,-42.8669 1103.94,-32.7147 1095.24,-38.7611 1100.91,-42.8669"/>
<text text-anchor="middle" x="1084.5" y="-152.8" font-family="Times,serif" font-size="14.00">e,c,a,b</text>
</g>
<!-- 15 -->
<g id="node16" class="node"><title>15</title>
<ellipse fill="lightblue" stroke="black" cx="2107" cy="-548" rx="18" ry="18"/>
<text text-anchor="middle" x="2107" y="-544.3" font-family="Times,serif" font-size="14.00">15</text>
</g>
<!-- 15&#45;&gt;10 -->
<g id="edge34" class="edge"><title>15&#45;&gt;10</title>
<path fill="none" stroke="black" d="M2097.75,-532.159C2094,-525.986 2089.68,-518.709 2086,-512 2081.5,-503.806 2076.85,-494.701 2072.8,-486.529"/>
<polygon fill="black" stroke="black" points="2075.9,-484.914 2068.36,-477.476 2069.62,-487.996 2075.9,-484.914"/>
<text text-anchor="middle" x="2089.5" y="-500.8" font-family="Times,serif" font-size="14.00">d</text>
</g>
<!-- 15&#45;&gt;43 -->
<g id="edge35" class="edge"><title>15&#45;&gt;43</title>
<path fill="none" stroke="black" d="M2107,-529.744C2107,-512.57 2107,-485.464 2107,-462 2107,-462 2107,-462 2107,-329.5 2107,-201.095 2137.66,-105.422 2020,-54 1938.12,-18.2143 1288.03,-18.3849 1143.43,-18.8721"/>
<polygon fill="black" stroke="black" points="1143.17,-15.3729 1133.18,-18.9102 1143.19,-22.3729 1143.17,-15.3729"/>
<text text-anchor="middle" x="2126.5" y="-283.3" font-family="Times,serif" font-size="14.00">e,c,a,b</text>
</g>
<!-- 16 -->
<g id="node17" class="node"><title>16</title>
<ellipse fill="lightblue" stroke="black" cx="733" cy="-548" rx="18" ry="18"/>
<text text-anchor="middle" x="733" y="-544.3" font-family="Times,serif" font-size="14.00">16</text>
</g>
<!-- 20 -->
<g id="node21" class="node"><title>20</title>
<ellipse fill="lightblue" stroke="black" cx="773" cy="-461" rx="18" ry="18"/>
<text text-anchor="middle" x="773" y="-457.3" font-family="Times,serif" font-size="14.00">20</text>
</g>
<!-- 16&#45;&gt;20 -->
<g id="edge36" class="edge"><title>16&#45;&gt;20</title>
<path fill="none" stroke="black" d="M740.337,-531.41C746.201,-518.949 754.532,-501.244 761.313,-486.835"/>
<polygon fill="black" stroke="black" points="764.619,-488.03 765.71,-477.491 758.285,-485.049 764.619,-488.03"/>
<text text-anchor="middle" x="758.5" y="-500.8" font-family="Times,serif" font-size="14.00">c</text>
</g>
<!-- 16&#45;&gt;43 -->
<g id="edge37" class="edge"><title>16&#45;&gt;43</title>
<path fill="none" stroke="black" d="M729.83,-530.057C722.732,-492.568 704.71,-399.829 686,-323 684.035,-314.933 682.121,-313.227 681,-305 678.839,-289.147 679.737,-284.95 681,-269 687.465,-187.346 677.151,-162.034 710,-87 717.488,-69.8954 719.594,-62.9156 736,-54 796.318,-21.221 1008.4,-18.595 1086.15,-18.7686"/>
<polygon fill="black" stroke="black" points="1086.6,-22.2704 1096.61,-18.8113 1086.62,-15.2704 1086.6,-22.2704"/>
<text text-anchor="middle" x="699.5" y="-283.3" font-family="Times,serif" font-size="14.00">e,d,a,b</text>
</g>
<!-- 27 -->
<g id="node28" class="node"><title>27</title>
<ellipse fill="lightblue" stroke="black" cx="828" cy="-635" rx="18" ry="18"/>
<text text-anchor="middle" x="828" y="-631.3" font-family="Times,serif" font-size="14.00">27</text>
</g>
<!-- 17&#45;&gt;27 -->
<g id="edge38" class="edge"><title>17&#45;&gt;27</title>
<path fill="none" stroke="black" d="M802.019,-705.012C806.594,-692.861 812.98,-675.896 818.277,-661.827"/>
<polygon fill="black" stroke="black" points="821.651,-662.797 821.899,-652.205 815.1,-660.331 821.651,-662.797"/>
<text text-anchor="middle" x="816.5" y="-674.8" font-family="Times,serif" font-size="14.00">d</text>
</g>
<!-- 28 -->
<g id="node29" class="node"><title>28</title>
<ellipse fill="lightblue" stroke="black" cx="733" cy="-635" rx="18" ry="18"/>
<text text-anchor="middle" x="733" y="-631.3" font-family="Times,serif" font-size="14.00">28</text>
</g>
<!-- 17&#45;&gt;28 -->
<g id="edge39" class="edge"><title>17&#45;&gt;28</title>
<path fill="none" stroke="black" d="M785.597,-706.964C775.839,-693.799 761.083,-673.889 749.681,-658.506"/>
<polygon fill="black" stroke="black" points="752.185,-656.007 743.419,-650.057 746.561,-660.175 752.185,-656.007"/>
<text text-anchor="middle" x="771.5" y="-674.8" font-family="Times,serif" font-size="14.00">c</text>
</g>
<!-- 17&#45;&gt;43 -->
<g id="edge40" class="edge"><title>17&#45;&gt;43</title>
<path fill="none" stroke="black" d="M777.896,-721.566C727.97,-722.099 592,-716.189 592,-636 592,-636 592,-636 592,-503.5 592,-426.951 583,-408.049 583,-331.5 583,-331.5 583,-331.5 583,-108 583,-102.269 630.182,-60.4722 646,-54 726.523,-21.0535 997.998,-18.7057 1086.7,-18.8438"/>
<polygon fill="black" stroke="black" points="1086.81,-22.344 1096.82,-18.872 1086.83,-15.344 1086.81,-22.344"/>
<text text-anchor="middle" x="598.5" y="-370.3" font-family="Times,serif" font-size="14.00">e,a,b</text>
</g>
<!-- 18 -->
<g id="node19" class="node"><title>18</title>
<ellipse fill="lightblue" stroke="black" cx="2158" cy="-635" rx="18" ry="18"/>
<text text-anchor="middle" x="2158" y="-631.3" font-family="Times,serif" font-size="14.00">18</text>
</g>
<!-- 18&#45;&gt;15 -->
<g id="edge41" class="edge"><title>18&#45;&gt;15</title>
<path fill="none" stroke="black" d="M2149.12,-619.194C2141.41,-606.353 2130.12,-587.538 2121.17,-572.619"/>
<polygon fill="black" stroke="black" points="2124.1,-570.696 2115.95,-563.921 2118.1,-574.297 2124.1,-570.696"/>
<text text-anchor="middle" x="2138.5" y="-587.8" font-family="Times,serif" font-size="14.00">d</text>
</g>
<!-- 18&#45;&gt;43 -->
<g id="edge42" class="edge"><title>18&#45;&gt;43</title>
<path fill="none" stroke="black" d="M2158,-616.744C2158,-599.57 2158,-572.464 2158,-549 2158,-549 2158,-549 2158,-373 2158,-350.773 2156.96,-345.133 2159,-323 2162.25,-287.786 2172,-279.864 2172,-244.5 2172,-244.5 2172,-244.5 2172,-108 2172,-47.4821 2106.02,-67.3639 2047,-54 1957.15,-33.6575 1290.55,-21.8238 1143.6,-19.4464"/>
<polygon fill="black" stroke="black" points="1143.25,-15.9404 1133.2,-19.2799 1143.14,-22.9395 1143.25,-15.9404"/>
<text text-anchor="middle" x="2177.5" y="-326.8" font-family="Times,serif" font-size="14.00">e,c,a,b</text>
</g>
<!-- 19 -->
<g id="node20" class="node"><title>19</title>
<ellipse fill="lightblue" stroke="black" cx="1653" cy="-635" rx="18" ry="18"/>
<text text-anchor="middle" x="1653" y="-631.3" font-family="Times,serif" font-size="14.00">19</text>
</g>
<!-- 19&#45;&gt;2 -->
<g id="edge43" class="edge"><title>19&#45;&gt;2</title>
<path fill="none" stroke="black" d="M1669.54,-627.611C1707.44,-612.966 1800.85,-576.875 1846.72,-559.152"/>
<polygon fill="black" stroke="black" points="1848.21,-562.332 1856.27,-555.463 1845.68,-555.802 1848.21,-562.332"/>
<text text-anchor="middle" x="1779.5" y="-587.8" font-family="Times,serif" font-size="14.00">c</text>
</g>
<!-- 19&#45;&gt;3 -->
<g id="edge44" class="edge"><title>19&#45;&gt;3</title>
<path fill="none" stroke="black" d="M1647.02,-617.611C1642.58,-605.422 1636.43,-588.554 1631.33,-574.593"/>
<polygon fill="black" stroke="black" points="1634.57,-573.246 1627.85,-565.05 1627.99,-575.644 1634.57,-573.246"/>
<text text-anchor="middle" x="1642.5" y="-587.8" font-family="Times,serif" font-size="14.00">d</text>
</g>
<!-- 19&#45;&gt;43 -->
<g id="edge45" class="edge"><title>19&#45;&gt;43</title>
<path fill="none" stroke="black" d="M1661.68,-619.203C1670.54,-602.668 1683,-574.821 1683,-549 1683,-549 1683,-549 1683,-373 1683,-221.366 1705.64,-102.594 1562,-54 1483.86,-27.5656 1228.74,-20.9118 1143.23,-19.4044"/>
<polygon fill="black" stroke="black" points="1143.27,-15.9047 1133.21,-19.238 1143.15,-22.9037 1143.27,-15.9047"/>
<text text-anchor="middle" x="1696.5" y="-326.8" font-family="Times,serif" font-size="14.00">e,a,b</text>
</g>
<!-- 20&#45;&gt;43 -->
<g id="edge46" class="edge"><title>20&#45;&gt;43</title>
<path fill="none" stroke="black" d="M771.004,-442.852C763.254,-372.714 738.256,-108.798 794,-54 814.719,-33.6325 1012.38,-23.3003 1086.82,-20.1065"/>
<polygon fill="black" stroke="black" points="1087.03,-23.601 1096.88,-19.6868 1086.74,-16.6071 1087.03,-23.601"/>
<text text-anchor="middle" x="776.5" y="-239.8" font-family="Times,serif" font-size="14.00">e,d,c,b</text>
</g>
<!-- 48 -->
<g id="node49" class="node"><title>48</title>
<ellipse fill="lightblue" stroke="black" cx="868" cy="-374" rx="18" ry="18"/>
<text text-anchor="middle" x="868" y="-370.3" font-family="Times,serif" font-size="14.00">48</text>
</g>
<!-- 20&#45;&gt;48 -->
<g id="edge47" class="edge"><title>20&#45;&gt;48</title>
<path fill="none" stroke="black" d="M786.209,-448.181C802.02,-434.035 828.683,-410.178 847.252,-393.564"/>
<polygon fill="black" stroke="black" points="849.784,-395.995 854.903,-386.719 845.117,-390.778 849.784,-395.995"/>
<text text-anchor="middle" x="829.5" y="-413.8" font-family="Times,serif" font-size="14.00">a</text>
</g>
<!-- 21 -->
<g id="node22" class="node"><title>21</title>
<ellipse fill="lightblue" stroke="black" cx="419" cy="-548" rx="18" ry="18"/>
<text text-anchor="middle" x="419" y="-544.3" font-family="Times,serif" font-size="14.00">21</text>
</g>
<!-- 33 -->
<g id="node34" class="node"><title>33</title>
<ellipse fill="lightblue" stroke="black" cx="483" cy="-461" rx="18" ry="18"/>
<text text-anchor="middle" x="483" y="-457.3" font-family="Times,serif" font-size="14.00">33</text>
</g>
<!-- 21&#45;&gt;33 -->
<g id="edge48" class="edge"><title>21&#45;&gt;33</title>
<path fill="none" stroke="black" d="M429.568,-532.964C439.634,-519.596 454.934,-499.275 466.587,-483.799"/>
<polygon fill="black" stroke="black" points="469.409,-485.869 472.628,-475.775 463.817,-481.658 469.409,-485.869"/>
<text text-anchor="middle" x="457.5" y="-500.8" font-family="Times,serif" font-size="14.00">c</text>
</g>
<!-- 21&#45;&gt;43 -->
<g id="edge49" class="edge"><title>21&#45;&gt;43</title>
<path fill="none" stroke="black" d="M416.795,-529.978C411.038,-484.018 396,-353.525 396,-244.5 396,-244.5 396,-244.5 396,-108 396,-64.7334 435.949,-67.6679 477,-54 592.492,-15.5471 978.848,-17.3014 1086.78,-18.5855"/>
<polygon fill="black" stroke="black" points="1086.85,-22.0866 1096.89,-18.7145 1086.94,-15.0871 1086.85,-22.0866"/>
<text text-anchor="middle" x="415.5" y="-283.3" font-family="Times,serif" font-size="14.00">e,d,a,b</text>
</g>
<!-- 22 -->
<g id="node23" class="node"><title>22</title>
<ellipse fill="lightblue" stroke="black" cx="1427" cy="-635" rx="18" ry="18"/>
<text text-anchor="middle" x="1427" y="-631.3" font-family="Times,serif" font-size="14.00">22</text>
</g>
<!-- 36 -->
<g id="node37" class="node"><title>36</title>
<ellipse fill="lightblue" stroke="black" cx="1381" cy="-548" rx="18" ry="18"/>
<text text-anchor="middle" x="1381" y="-544.3" font-family="Times,serif" font-size="14.00">36</text>
</g>
<!-- 22&#45;&gt;36 -->
<g id="edge50" class="edge"><title>22&#45;&gt;36</title>
<path fill="none" stroke="black" d="M1417.75,-619.159C1414,-612.986 1409.68,-605.709 1406,-599 1401.5,-590.806 1396.85,-581.701 1392.8,-573.529"/>
<polygon fill="black" stroke="black" points="1395.9,-571.914 1388.36,-564.476 1389.62,-574.996 1395.9,-571.914"/>
<text text-anchor="middle" x="1409.5" y="-587.8" font-family="Times,serif" font-size="14.00">c</text>
</g>
<!-- 22&#45;&gt;43 -->
<g id="edge51" class="edge"><title>22&#45;&gt;43</title>
<path fill="none" stroke="black" d="M1427,-616.744C1427,-599.57 1427,-572.464 1427,-549 1427,-549 1427,-549 1427,-373 1427,-350.773 1427.16,-345.211 1428,-323 1428.3,-314.993 1428.78,-313.009 1429,-305 1431.8,-204.061 1426.09,-167.402 1365,-87 1350.43,-67.8185 1344.08,-63.6255 1322,-54 1261.88,-27.7981 1184.02,-21.1382 1143.05,-19.4938"/>
<polygon fill="black" stroke="black" points="1143.1,-15.9937 1132.99,-19.1628 1142.87,-22.9899 1143.1,-15.9937"/>
<text text-anchor="middle" x="1446.5" y="-326.8" font-family="Times,serif" font-size="14.00">e,d,a,b</text>
</g>
<!-- 23&#45;&gt;18 -->
<g id="edge52" class="edge"><title>23&#45;&gt;18</title>
<path fill="none" stroke="black" d="M2181.41,-704.611C2177.28,-692.499 2171.57,-675.768 2166.82,-661.86"/>
<polygon fill="black" stroke="black" points="2170.12,-660.673 2163.57,-652.339 2163.49,-662.933 2170.12,-660.673"/>
<text text-anchor="middle" x="2177.5" y="-674.8" font-family="Times,serif" font-size="14.00">c</text>
</g>
<!-- 23&#45;&gt;43 -->
<g id="edge53" class="edge"><title>23&#45;&gt;43</title>
<path fill="none" stroke="black" d="M2192.29,-704.581C2197.28,-687.602 2204,-660.229 2204,-636 2204,-636 2204,-636 2204,-416.5 2204,-359.327 2210,-345.173 2210,-288 2210,-288 2210,-288 2210,-108 2210,-79.3856 2150.55,-62.9154 2112,-54 2015.59,-31.7029 1296.79,-21.3231 1143.64,-19.3523"/>
<polygon fill="black" stroke="black" points="1143.27,-15.8474 1133.23,-19.2201 1143.18,-22.8468 1143.27,-15.8474"/>
<text text-anchor="middle" x="2224.5" y="-370.3" font-family="Times,serif" font-size="14.00">e,d,a,b</text>
</g>
<!-- 24 -->
<g id="node25" class="node"><title>24</title>
<ellipse fill="lightblue" stroke="black" cx="453" cy="-374" rx="18" ry="18"/>
<text text-anchor="middle" x="453" y="-370.3" font-family="Times,serif" font-size="14.00">24</text>
</g>
<!-- 40 -->
<g id="node41" class="node"><title>40</title>
<ellipse fill="lightblue" stroke="black" cx="959" cy="-287" rx="18" ry="18"/>
<text text-anchor="middle" x="959" y="-283.3" font-family="Times,serif" font-size="14.00">40</text>
</g>
<!-- 24&#45;&gt;40 -->
<g id="edge54" class="edge"><title>24&#45;&gt;40</title>
<path fill="none" stroke="black" d="M470.712,-370.025C546.007,-357.376 839.835,-308.018 931.518,-292.617"/>
<polygon fill="black" stroke="black" points="932.15,-296.06 941.432,-290.951 930.99,-289.156 932.15,-296.06"/>
<text text-anchor="middle" x="739.5" y="-326.8" font-family="Times,serif" font-size="14.00">e</text>
</g>
<!-- 24&#45;&gt;43 -->
<g id="edge55" class="edge"><title>24&#45;&gt;43</title>
<path fill="none" stroke="black" d="M452.205,-355.673C449.828,-294.707 445.638,-91.74 493,-54 539.861,-16.6592 971.669,-17.739 1086.87,-18.7034"/>
<polygon fill="black" stroke="black" points="1086.97,-22.2044 1097,-18.7951 1087.03,-15.2047 1086.97,-22.2044"/>
<text text-anchor="middle" x="473.5" y="-196.3" font-family="Times,serif" font-size="14.00">d,c,a,b</text>
</g>
<!-- 25 -->
<g id="node26" class="node"><title>25</title>
<ellipse fill="lightblue" stroke="black" cx="732" cy="-374" rx="18" ry="18"/>
<text text-anchor="middle" x="732" y="-370.3" font-family="Times,serif" font-size="14.00">25</text>
</g>
<!-- 25&#45;&gt;14 -->
<g id="edge56" class="edge"><title>25&#45;&gt;14</title>
<path fill="none" stroke="black" d="M749.734,-370.145C771.293,-366.694 808.791,-360.759 841,-356 960.947,-338.279 995.035,-346.39 1109,-305 1112.1,-303.874 1115.29,-302.539 1118.41,-301.12"/>
<polygon fill="black" stroke="black" points="1119.96,-304.257 1127.42,-296.735 1116.9,-297.963 1119.96,-304.257"/>
<text text-anchor="middle" x="1051.5" y="-326.8" font-family="Times,serif" font-size="14.00">e</text>
</g>
<!-- 25&#45;&gt;43 -->
<g id="edge57" class="edge"><title>25&#45;&gt;43</title>
<path fill="none" stroke="black" d="M730.087,-355.827C727.011,-327.268 721.101,-268.184 719,-218 715.875,-143.345 698.529,-101.752 756,-54 781.243,-33.0255 1005.89,-22.9321 1086.43,-19.9642"/>
<polygon fill="black" stroke="black" points="1086.93,-23.4485 1096.8,-19.5923 1086.68,-16.453 1086.93,-23.4485"/>
<text text-anchor="middle" x="737.5" y="-196.3" font-family="Times,serif" font-size="14.00">d,c,a,b</text>
</g>
<!-- 26 -->
<g id="node27" class="node"><title>26</title>
<ellipse fill="lightblue" stroke="black" cx="1296" cy="-374" rx="18" ry="18"/>
<text text-anchor="middle" x="1296" y="-370.3" font-family="Times,serif" font-size="14.00">26</text>
</g>
<!-- 26&#45;&gt;8 -->
<g id="edge58" class="edge"><title>26&#45;&gt;8</title>
<path fill="none" stroke="black" d="M1280.19,-365.249C1269.94,-359.311 1257.37,-350.084 1251,-338 1247.38,-331.124 1245.92,-322.954 1245.55,-315.233"/>
<polygon fill="black" stroke="black" points="1249.06,-315.173 1245.64,-305.145 1242.06,-315.117 1249.06,-315.173"/>
<text text-anchor="middle" x="1254.5" y="-326.8" font-family="Times,serif" font-size="14.00">d</text>
</g>
<!-- 26&#45;&gt;43 -->
<g id="edge59" class="edge"><title>26&#45;&gt;43</title>
<path fill="none" stroke="black" d="M1299.41,-356.139C1306.4,-318.432 1320.34,-224.659 1303,-149 1296.16,-119.162 1288.73,-113.26 1273,-87 1263.68,-71.4427 1263.98,-64.2211 1249,-54 1216.95,-32.1302 1172.05,-23.9247 1143.25,-20.8467"/>
<polygon fill="black" stroke="black" points="1143.34,-17.3399 1133.06,-19.9003 1142.69,-24.31 1143.34,-17.3399"/>
<text text-anchor="middle" x="1329.5" y="-196.3" font-family="Times,serif" font-size="14.00">e,c,a,b</text>
</g>
<!-- 27&#45;&gt;12 -->
<g id="edge60" class="edge"><title>27&#45;&gt;12</title>
<path fill="none" stroke="black" d="M841.465,-622.888C858.815,-608.57 889.176,-583.515 909.678,-566.596"/>
<polygon fill="black" stroke="black" points="912.046,-569.179 917.531,-560.115 907.591,-563.78 912.046,-569.179"/>
<text text-anchor="middle" x="888.5" y="-587.8" font-family="Times,serif" font-size="14.00">d</text>
</g>
<!-- 27&#45;&gt;43 -->
<g id="edge61" class="edge"><title>27&#45;&gt;43</title>
<path fill="none" stroke="black" d="M825.999,-617.033C818.521,-548.923 795.348,-289.316 850,-87 854.155,-71.6193 851.356,-63.6932 864,-54 898.362,-27.6573 1028.25,-21.1323 1086.47,-19.5232"/>
<polygon fill="black" stroke="black" points="1086.87,-23.0143 1096.78,-19.2694 1086.7,-16.0164 1086.87,-23.0143"/>
<text text-anchor="middle" x="834.5" y="-326.8" font-family="Times,serif" font-size="14.00">e,c,a,b</text>
</g>
<!-- 28&#45;&gt;16 -->
<g id="edge62" class="edge"><title>28&#45;&gt;16</title>
<path fill="none" stroke="black" d="M733,-616.799C733,-605.163 733,-589.548 733,-576.237"/>
<polygon fill="black" stroke="black" points="736.5,-576.175 733,-566.175 729.5,-576.175 736.5,-576.175"/>
<text text-anchor="middle" x="736.5" y="-587.8" font-family="Times,serif" font-size="14.00">c</text>
</g>
<!-- 28&#45;&gt;43 -->
<g id="edge63" class="edge"><title>28&#45;&gt;43</title>
<path fill="none" stroke="black" d="M716.016,-627.823C688.691,-616.664 638,-590.385 638,-549 638,-549 638,-549 638,-416.5 638,-339.683 621,-321.317 621,-244.5 621,-244.5 621,-244.5 621,-108 621,-60.2041 668.433,-68.424 714,-54 783.677,-31.9444 1007.19,-22.565 1086.64,-19.8712"/>
<polygon fill="black" stroke="black" points="1086.98,-23.3618 1096.86,-19.5348 1086.75,-16.3656 1086.98,-23.3618"/>
<text text-anchor="middle" x="648.5" y="-326.8" font-family="Times,serif" font-size="14.00">e,d,a,b</text>
</g>
<!-- 29 -->
<g id="node30" class="node"><title>29</title>
<ellipse fill="lightblue" stroke="black" cx="1208" cy="-200" rx="18" ry="18"/>
<text text-anchor="middle" x="1208" y="-196.3" font-family="Times,serif" font-size="14.00">29</text>
</g>
<!-- 29&#45;&gt;7 -->
<g id="edge64" class="edge"><title>29&#45;&gt;7</title>
<path fill="none" stroke="black" d="M1200.68,-183.497C1194.86,-171.159 1186.55,-153.554 1179.53,-138.667"/>
<polygon fill="black" stroke="black" points="1182.57,-136.91 1175.14,-129.36 1176.24,-139.897 1182.57,-136.91"/>
<text text-anchor="middle" x="1193.5" y="-152.8" font-family="Times,serif" font-size="14.00">d</text>
</g>
<!-- 29&#45;&gt;43 -->
<g id="edge65" class="edge"><title>29&#45;&gt;43</title>
<path fill="none" stroke="black" d="M1211.45,-181.905C1216.33,-152.684 1221.82,-92.5584 1194,-54 1181.97,-37.3221 1160.17,-28.4696 1142.51,-23.844"/>
<polygon fill="black" stroke="black" points="1143.23,-20.418 1132.7,-21.5818 1141.66,-27.2391 1143.23,-20.418"/>
<text text-anchor="middle" x="1233.5" y="-105.3" font-family="Times,serif" font-size="14.00">e,c,a,b</text>
</g>
<!-- 30 -->
<g id="node31" class="node"><title>30</title>
<ellipse fill="lightblue" stroke="black" cx="1828" cy="-287" rx="18" ry="18"/>
<text text-anchor="middle" x="1828" y="-283.3" font-family="Times,serif" font-size="14.00">30</text>
</g>
<!-- 30&#45;&gt;29 -->
<g id="edge66" class="edge"><title>30&#45;&gt;29</title>
<path fill="none" stroke="black" d="M1810.17,-284.076C1727.89,-275.154 1384.36,-237.423 1278,-218 1263.63,-215.376 1247.81,-211.609 1234.84,-208.287"/>
<polygon fill="black" stroke="black" points="1235.7,-204.894 1225.14,-205.749 1233.93,-211.666 1235.7,-204.894"/>
<text text-anchor="middle" x="1511.5" y="-239.8" font-family="Times,serif" font-size="14.00">c</text>
</g>
<!-- 30&#45;&gt;43 -->
<g id="edge67" class="edge"><title>30&#45;&gt;43</title>
<path fill="none" stroke="black" d="M1828.67,-268.901C1830.16,-220.065 1831.4,-81.6851 1799,-54 1773.69,-32.3763 1269.11,-21.7992 1143.25,-19.491"/>
<polygon fill="black" stroke="black" points="1143.29,-15.9913 1133.23,-19.3102 1143.17,-22.9902 1143.29,-15.9913"/>
<text text-anchor="middle" x="1845.5" y="-152.8" font-family="Times,serif" font-size="14.00">e,d,a,b</text>
</g>
<!-- 31&#45;&gt;43 -->
<g id="edge68" class="edge"><title>31&#45;&gt;43</title>
<path fill="none" stroke="black" d="M316.686,-803.747C284.795,-794.763 220,-770.647 220,-723 220,-723 220,-723 220,-108 220,-75.2918 240.305,-67.7129 270,-54 345.438,-19.1633 948.176,-18.5689 1086.69,-18.898"/>
<polygon fill="black" stroke="black" points="1086.89,-22.3985 1096.9,-18.9261 1086.91,-15.3985 1086.89,-22.3985"/>
<text text-anchor="middle" x="238.5" y="-413.8" font-family="Times,serif" font-size="14.00">d,c,a,b</text>
</g>
<!-- 46 -->
<g id="node47" class="node"><title>46</title>
<ellipse fill="lightblue" stroke="black" cx="334" cy="-722" rx="18" ry="18"/>
<text text-anchor="middle" x="334" y="-718.3" font-family="Times,serif" font-size="14.00">46</text>
</g>
<!-- 31&#45;&gt;46 -->
<g id="edge69" class="edge"><title>31&#45;&gt;46</title>
<path fill="none" stroke="black" d="M334,-790.799C334,-779.163 334,-763.548 334,-750.237"/>
<polygon fill="black" stroke="black" points="337.5,-750.175 334,-740.175 330.5,-750.175 337.5,-750.175"/>
<text text-anchor="middle" x="337.5" y="-761.8" font-family="Times,serif" font-size="14.00">e</text>
</g>
<!-- 32&#45;&gt;43 -->
<g id="edge70" class="edge"><title>32&#45;&gt;43</title>
<path fill="none" stroke="black" d="M1576.22,-442.843C1576.88,-386.205 1578.5,-207.354 1573,-182 1559.65,-120.413 1565.12,-87.9094 1512,-54 1481.06,-34.2493 1228.64,-23.1936 1143.17,-19.9886"/>
<polygon fill="black" stroke="black" points="1143.05,-16.4819 1132.93,-19.6124 1142.79,-23.4772 1143.05,-16.4819"/>
<text text-anchor="middle" x="1594.5" y="-239.8" font-family="Times,serif" font-size="14.00">e,d,c,a</text>
</g>
<!-- 47 -->
<g id="node48" class="node"><title>47</title>
<ellipse fill="lightblue" stroke="black" cx="1536" cy="-374" rx="18" ry="18"/>
<text text-anchor="middle" x="1536" y="-370.3" font-family="Times,serif" font-size="14.00">47</text>
</g>
<!-- 32&#45;&gt;47 -->
<g id="edge71" class="edge"><title>32&#45;&gt;47</title>
<path fill="none" stroke="black" d="M1568.66,-444.41C1562.8,-431.949 1554.47,-414.244 1547.69,-399.835"/>
<polygon fill="black" stroke="black" points="1550.71,-398.049 1543.29,-390.491 1544.38,-401.03 1550.71,-398.049"/>
<text text-anchor="middle" x="1561.5" y="-413.8" font-family="Times,serif" font-size="14.00">b</text>
</g>
<!-- 33&#45;&gt;25 -->
<g id="edge72" class="edge"><title>33&#45;&gt;25</title>
<path fill="none" stroke="black" d="M498.345,-451.109C503.535,-448.303 509.428,-445.33 515,-443 581.346,-415.262 663.134,-392.571 704.804,-381.787"/>
<polygon fill="black" stroke="black" points="705.916,-385.116 714.737,-379.247 704.182,-378.334 705.916,-385.116"/>
<text text-anchor="middle" x="605.5" y="-413.8" font-family="Times,serif" font-size="14.00">d</text>
</g>
<!-- 33&#45;&gt;43 -->
<g id="edge73" class="edge"><title>33&#45;&gt;43</title>
<path fill="none" stroke="black" d="M483.708,-442.805C486.928,-368.824 501.329,-80.1804 531,-54 572.967,-16.97 975.578,-17.7591 1086.71,-18.6942"/>
<polygon fill="black" stroke="black" points="1086.79,-22.195 1096.82,-18.7867 1086.85,-15.1953 1086.79,-22.195"/>
<text text-anchor="middle" x="514.5" y="-239.8" font-family="Times,serif" font-size="14.00">e,c,a,b</text>
</g>
<!-- 34&#45;&gt;24 -->
<g id="edge74" class="edge"><title>34&#45;&gt;24</title>
<path fill="none" stroke="black" d="M282.268,-452.606C314.953,-437.749 388.793,-404.185 427.786,-386.461"/>
<polygon fill="black" stroke="black" points="429.248,-389.641 436.903,-382.317 426.351,-383.269 429.248,-389.641"/>
<text text-anchor="middle" x="373.5" y="-413.8" font-family="Times,serif" font-size="14.00">c</text>
</g>
<!-- 34&#45;&gt;43 -->
<g id="edge75" class="edge"><title>34&#45;&gt;43</title>
<path fill="none" stroke="black" d="M264.264,-442.977C261.911,-418.393 258,-371.51 258,-331.5 258,-331.5 258,-331.5 258,-108 258,-78.6532 270.248,-68.0734 296,-54 366.523,-15.4592 950.226,-17.6825 1086.59,-18.739"/>
<polygon fill="black" stroke="black" points="1086.64,-22.2394 1096.66,-18.8214 1086.69,-15.2396 1086.64,-22.2394"/>
<text text-anchor="middle" x="276.5" y="-239.8" font-family="Times,serif" font-size="14.00">e,d,a,b</text>
</g>
<!-- 35&#45;&gt;4 -->
<g id="edge76" class="edge"><title>35&#45;&gt;4</title>
<path fill="none" stroke="black" d="M81,-703.799C81,-692.163 81,-676.548 81,-663.237"/>
<polygon fill="black" stroke="black" points="84.5001,-663.175 81,-653.175 77.5001,-663.175 84.5001,-663.175"/>
<text text-anchor="middle" x="84.5" y="-674.8" font-family="Times,serif" font-size="14.00">d</text>
</g>
<!-- 35&#45;&gt;43 -->
<g id="edge77" class="edge"><title>35&#45;&gt;43</title>
<path fill="none" stroke="black" d="M64.997,-713.307C41.3911,-700.71 0,-673.303 0,-636 0,-636 0,-636 0,-108 0,-62.4905 43.4533,-67.2211 87,-54 184.931,-24.2673 931.842,-19.7187 1086.88,-19.0927"/>
<polygon fill="black" stroke="black" points="1087.01,-22.5923 1097,-19.0541 1086.99,-15.5923 1087.01,-22.5923"/>
<text text-anchor="middle" x="18.5" y="-370.3" font-family="Times,serif" font-size="14.00">e,c,a,b</text>
</g>
<!-- 36&#45;&gt;43 -->
<g id="edge78" class="edge"><title>36&#45;&gt;43</title>
<path fill="none" stroke="black" d="M1383.21,-530.1C1385.27,-512.971 1388,-485.691 1388,-462 1388,-462 1388,-462 1388,-329.5 1388,-219.455 1401.41,-176.937 1338,-87 1324.12,-67.3116 1316.96,-63.8958 1295,-54 1244.63,-31.3048 1179.83,-23.2955 1143.31,-20.4905"/>
<polygon fill="black" stroke="black" points="1143.15,-16.9713 1132.94,-19.7766 1142.67,-23.9548 1143.15,-16.9713"/>
<text text-anchor="middle" x="1406.5" y="-283.3" font-family="Times,serif" font-size="14.00">e,d,a,b</text>
</g>
<!-- 49 -->
<g id="node50" class="node"><title>49</title>
<ellipse fill="lightblue" stroke="black" cx="1342" cy="-461" rx="18" ry="18"/>
<text text-anchor="middle" x="1342" y="-457.3" font-family="Times,serif" font-size="14.00">49</text>
</g>
<!-- 36&#45;&gt;49 -->
<g id="edge79" class="edge"><title>36&#45;&gt;49</title>
<path fill="none" stroke="black" d="M1373.85,-531.41C1368.17,-519.026 1360.11,-501.465 1353.52,-487.106"/>
<polygon fill="black" stroke="black" points="1356.59,-485.409 1349.24,-477.779 1350.23,-488.328 1356.59,-485.409"/>
<text text-anchor="middle" x="1366.5" y="-500.8" font-family="Times,serif" font-size="14.00">c</text>
</g>
<!-- 37&#45;&gt;19 -->
<g id="edge80" class="edge"><title>37&#45;&gt;19</title>
<path fill="none" stroke="black" d="M1488.97,-713.457C1520.33,-698.65 1590.15,-665.679 1627.79,-647.904"/>
<polygon fill="black" stroke="black" points="1629.51,-650.961 1637.06,-643.526 1626.52,-644.632 1629.51,-650.961"/>
<text text-anchor="middle" x="1576.5" y="-674.8" font-family="Times,serif" font-size="14.00">c</text>
</g>
<!-- 37&#45;&gt;22 -->
<g id="edge81" class="edge"><title>37&#45;&gt;22</title>
<path fill="none" stroke="black" d="M1463.75,-706.159C1460,-699.986 1455.68,-692.709 1452,-686 1447.5,-677.806 1442.85,-668.701 1438.8,-660.529"/>
<polygon fill="black" stroke="black" points="1441.9,-658.914 1434.36,-651.476 1435.62,-661.996 1441.9,-658.914"/>
<text text-anchor="middle" x="1455.5" y="-674.8" font-family="Times,serif" font-size="14.00">d</text>
</g>
<!-- 37&#45;&gt;43 -->
<g id="edge82" class="edge"><title>37&#45;&gt;43</title>
<path fill="none" stroke="black" d="M1473,-703.744C1473,-686.57 1473,-659.464 1473,-636 1473,-636 1473,-636 1473,-416.5 1473,-336.247 1498.37,-313.624 1478,-236 1458.7,-162.47 1444.45,-143.866 1394,-87 1377.54,-68.4476 1371.93,-63.4432 1349,-54 1279,-25.1746 1188.5,-19.7133 1143.31,-18.9152"/>
<polygon fill="black" stroke="black" points="1143.13,-15.4131 1133.09,-18.8025 1143.05,-22.4127 1143.13,-15.4131"/>
<text text-anchor="middle" x="1490.5" y="-370.3" font-family="Times,serif" font-size="14.00">e,a,b</text>
</g>
<!-- 42 -->
<g id="node43" class="node"><title>42</title>
<ellipse fill="lightblue" stroke="black" cx="960" cy="-374" rx="18" ry="18"/>
<text text-anchor="middle" x="960" y="-370.3" font-family="Times,serif" font-size="14.00">42</text>
</g>
<!-- 38&#45;&gt;42 -->
<g id="edge83" class="edge"><title>38&#45;&gt;42</title>
<path fill="none" stroke="black" d="M936.591,-443.611C940.724,-431.499 946.432,-414.768 951.177,-400.86"/>
<polygon fill="black" stroke="black" points="954.509,-401.933 954.426,-391.339 947.884,-399.673 954.509,-401.933"/>
<text text-anchor="middle" x="950.5" y="-413.8" font-family="Times,serif" font-size="14.00">a</text>
</g>
<!-- 38&#45;&gt;43 -->
<g id="edge84" class="edge"><title>38&#45;&gt;43</title>
<path fill="none" stroke="black" d="M926.834,-443.202C914.343,-389.823 880.324,-219.774 918,-87 922.561,-70.9279 922.523,-63.8733 936,-54 959.657,-36.6689 1042.79,-26.0944 1086.95,-21.5722"/>
<polygon fill="black" stroke="black" points="1087.41,-25.0433 1097.02,-20.5766 1086.72,-18.0773 1087.41,-25.0433"/>
<text text-anchor="middle" x="919.5" y="-239.8" font-family="Times,serif" font-size="14.00">e,d,c,b</text>
</g>
<!-- 39&#45;&gt;30 -->
<g id="edge85" class="edge"><title>39&#45;&gt;30</title>
<path fill="none" stroke="black" d="M1998.73,-365.606C1966.05,-350.749 1892.21,-317.185 1853.21,-299.461"/>
<polygon fill="black" stroke="black" points="1854.65,-296.269 1844.1,-295.317 1851.75,-302.641 1854.65,-296.269"/>
<text text-anchor="middle" x="1935.5" y="-326.8" font-family="Times,serif" font-size="14.00">e</text>
</g>
<!-- 39&#45;&gt;43 -->
<g id="edge86" class="edge"><title>39&#45;&gt;43</title>
<path fill="none" stroke="black" d="M2015.77,-355.91C2018.1,-295.744 2022.35,-95.1421 1978,-54 1946.73,-24.9892 1289.08,-19.8986 1143.41,-19.1257"/>
<polygon fill="black" stroke="black" points="1143.1,-15.6242 1133.08,-19.0738 1143.07,-22.6241 1143.1,-15.6242"/>
<text text-anchor="middle" x="2033.5" y="-196.3" font-family="Times,serif" font-size="14.00">d,c,a,b</text>
</g>
<!-- 40&#45;&gt;29 -->
<g id="edge87" class="edge"><title>40&#45;&gt;29</title>
<path fill="none" stroke="black" d="M976.629,-282.367C994.18,-278.795 1021.91,-273.272 1046,-269 1096.07,-260.122 1113.82,-274.336 1159,-251 1171.65,-244.464 1182.99,-233.435 1191.57,-223.395"/>
<polygon fill="black" stroke="black" points="1194.53,-225.295 1198.09,-215.315 1189.08,-220.899 1194.53,-225.295"/>
<text text-anchor="middle" x="1182.5" y="-239.8" font-family="Times,serif" font-size="14.00">d</text>
</g>
<!-- 40&#45;&gt;43 -->
<g id="edge88" class="edge"><title>40&#45;&gt;43</title>
<path fill="none" stroke="black" d="M956.733,-268.786C955.336,-259.104 953.361,-246.822 951,-236 933.757,-156.965 895.378,-110.776 953,-54 971.666,-35.6077 1045.78,-25.6695 1086.99,-21.466"/>
<polygon fill="black" stroke="black" points="1087.33,-24.9494 1096.95,-20.4968 1086.65,-17.9823 1087.33,-24.9494"/>
<text text-anchor="middle" x="948.5" y="-152.8" font-family="Times,serif" font-size="14.00">e,c,a,b</text>
</g>
<!-- 41&#45;&gt;43 -->
<g id="edge89" class="edge"><title>41&#45;&gt;43</title>
<path fill="none" stroke="black" d="M1873.19,-442.944C1873.8,-382.048 1875.27,-177.448 1868,-149 1856.18,-102.773 1858.22,-79.6684 1818,-54 1760.44,-17.2669 1267.53,-17.9961 1143.32,-18.7731"/>
<polygon fill="black" stroke="black" points="1143.08,-15.2745 1133.11,-18.8425 1143.13,-22.2743 1143.08,-15.2745"/>
<text text-anchor="middle" x="1891.5" y="-239.8" font-family="Times,serif" font-size="14.00">e,d,c,a</text>
</g>
<!-- 44 -->
<g id="node45" class="node"><title>44</title>
<ellipse fill="lightblue" stroke="black" cx="1828" cy="-374" rx="18" ry="18"/>
<text text-anchor="middle" x="1828" y="-370.3" font-family="Times,serif" font-size="14.00">44</text>
</g>
<!-- 41&#45;&gt;44 -->
<g id="edge90" class="edge"><title>41&#45;&gt;44</title>
<path fill="none" stroke="black" d="M1864.95,-444.804C1858.28,-432.19 1848.65,-414.013 1840.9,-399.37"/>
<polygon fill="black" stroke="black" points="1843.9,-397.552 1836.13,-390.351 1837.71,-400.827 1843.9,-397.552"/>
<text text-anchor="middle" x="1856.5" y="-413.8" font-family="Times,serif" font-size="14.00">b</text>
</g>
<!-- 42&#45;&gt;40 -->
<g id="edge91" class="edge"><title>42&#45;&gt;40</title>
<path fill="none" stroke="black" d="M959.798,-355.799C959.661,-344.163 959.477,-328.548 959.32,-315.237"/>
<polygon fill="black" stroke="black" points="962.82,-315.134 959.202,-305.175 955.82,-315.216 962.82,-315.134"/>
<text text-anchor="middle" x="962.5" y="-326.8" font-family="Times,serif" font-size="14.00">d</text>
</g>
<!-- 42&#45;&gt;43 -->
<g id="edge92" class="edge"><title>42&#45;&gt;43</title>
<path fill="none" stroke="black" d="M967.691,-357.519C973.958,-344.025 982.348,-323.732 986,-305 996.676,-250.242 956.892,-98.1477 991,-54 1002.72,-38.826 1054.36,-28.2785 1087.19,-22.9663"/>
<polygon fill="black" stroke="black" points="1087.77,-26.4184 1097.11,-21.4263 1086.7,-19.5012 1087.77,-26.4184"/>
<text text-anchor="middle" x="1001.5" y="-196.3" font-family="Times,serif" font-size="14.00">e,c,a,b</text>
</g>
<!-- 43&#45;&gt;43 -->
<g id="edge93" class="edge"><title>43&#45;&gt;43</title>
<path fill="none" stroke="black" d="M1131.66,-25.3828C1141.62,-27.0234 1151,-24.5625 1151,-18 1151,-13.7959 1147.15,-11.2751 1141.77,-10.4375"/>
<polygon fill="black" stroke="black" points="1141.6,-6.93988 1131.66,-10.6172 1141.72,-13.9388 1141.6,-6.93988"/>
<text text-anchor="middle" x="1174.5" y="-14.3" font-family="Times,serif" font-size="14.00">e,d,c,a,b</text>
</g>
<!-- 44&#45;&gt;30 -->
<g id="edge94" class="edge"><title>44&#45;&gt;30</title>
<path fill="none" stroke="black" d="M1828,-355.799C1828,-344.163 1828,-328.548 1828,-315.237"/>
<polygon fill="black" stroke="black" points="1831.5,-315.175 1828,-305.175 1824.5,-315.175 1831.5,-315.175"/>
<text text-anchor="middle" x="1831.5" y="-326.8" font-family="Times,serif" font-size="14.00">c</text>
</g>
<!-- 44&#45;&gt;43 -->
<g id="edge95" class="edge"><title>44&#45;&gt;43</title>
<path fill="none" stroke="black" d="M1821.32,-357.195C1815.62,-343.498 1807.37,-323.09 1801,-305 1760.98,-191.43 1802.1,-116.209 1699,-54 1651.13,-25.1176 1253.64,-20.0268 1143.31,-19.1676"/>
<polygon fill="black" stroke="black" points="1143.29,-15.6675 1133.26,-19.0951 1143.24,-22.6673 1143.29,-15.6675"/>
<text text-anchor="middle" x="1799.5" y="-196.3" font-family="Times,serif" font-size="14.00">e,d,a,b</text>
</g>
<!-- 45 -->
<g id="node46" class="node"><title>45</title>
<ellipse fill="lightblue" stroke="black" cx="364" cy="-635" rx="18" ry="18"/>
<text text-anchor="middle" x="364" y="-631.3" font-family="Times,serif" font-size="14.00">45</text>
</g>
<!-- 45&#45;&gt;21 -->
<g id="edge96" class="edge"><title>45&#45;&gt;21</title>
<path fill="none" stroke="black" d="M373.33,-619.581C381.706,-606.637 394.151,-587.403 403.936,-572.281"/>
<polygon fill="black" stroke="black" points="407.13,-573.787 409.624,-563.49 401.253,-569.984 407.13,-573.787"/>
<text text-anchor="middle" x="397.5" y="-587.8" font-family="Times,serif" font-size="14.00">c</text>
</g>
<!-- 45&#45;&gt;43 -->
<g id="edge97" class="edge"><title>45&#45;&gt;43</title>
<path fill="none" stroke="black" d="M362.948,-616.923C359.692,-562.559 350,-388.627 350,-244.5 350,-244.5 350,-244.5 350,-108 350,-68.7075 383.14,-67.6096 420,-54 483.258,-30.6437 964.787,-21.4057 1086.91,-19.4249"/>
<polygon fill="black" stroke="black" points="1087.02,-22.9237 1096.97,-19.2652 1086.91,-15.9245 1087.02,-22.9237"/>
<text text-anchor="middle" x="369.5" y="-326.8" font-family="Times,serif" font-size="14.00">e,d,a,b</text>
</g>
<!-- 46&#45;&gt;43 -->
<g id="edge98" class="edge"><title>46&#45;&gt;43</title>
<path fill="none" stroke="black" d="M327.28,-705.024C320.81,-688.173 312,-660.694 312,-636 312,-636 312,-636 312,-503.5 312,-453.936 310.444,-441.562 310,-392 308.78,-255.958 274.457,-208.331 336,-87 345.968,-67.3487 352.601,-62.331 373,-54 439.923,-26.6689 958.803,-20.3648 1086.62,-19.2207"/>
<polygon fill="black" stroke="black" points="1086.81,-22.7193 1096.78,-19.1334 1086.75,-15.7195 1086.81,-22.7193"/>
<text text-anchor="middle" x="328.5" y="-370.3" font-family="Times,serif" font-size="14.00">e,c,a,b</text>
</g>
<!-- 46&#45;&gt;45 -->
<g id="edge99" class="edge"><title>46&#45;&gt;45</title>
<path fill="none" stroke="black" d="M339.784,-704.611C344.059,-692.499 349.964,-675.768 354.873,-661.86"/>
<polygon fill="black" stroke="black" points="358.206,-662.933 358.233,-652.339 351.605,-660.604 358.206,-662.933"/>
<text text-anchor="middle" x="353.5" y="-674.8" font-family="Times,serif" font-size="14.00">d</text>
</g>
<!-- 47&#45;&gt;14 -->
<g id="edge100" class="edge"><title>47&#45;&gt;14</title>
<path fill="none" stroke="black" d="M1520.82,-363.661C1515.65,-360.824 1509.72,-357.947 1504,-356 1458.77,-340.594 1445.05,-346.379 1398,-338 1319.22,-323.968 1299.44,-320.856 1221,-305 1204.17,-301.597 1185.35,-297.505 1170.42,-294.189"/>
<polygon fill="black" stroke="black" points="1170.84,-290.696 1160.32,-291.932 1169.31,-297.528 1170.84,-290.696"/>
<text text-anchor="middle" x="1401.5" y="-326.8" font-family="Times,serif" font-size="14.00">c</text>
</g>
<!-- 47&#45;&gt;43 -->
<g id="edge101" class="edge"><title>47&#45;&gt;43</title>
<path fill="none" stroke="black" d="M1536.36,-355.967C1537.23,-295.996 1536.76,-95.9716 1493,-54 1467.88,-29.9071 1226.84,-21.7441 1143.32,-19.6261"/>
<polygon fill="black" stroke="black" points="1143.36,-16.1261 1133.28,-19.3816 1143.19,-23.1241 1143.36,-16.1261"/>
<text text-anchor="middle" x="1550.5" y="-196.3" font-family="Times,serif" font-size="14.00">e,d,a,b</text>
</g>
<!-- 48&#45;&gt;8 -->
<g id="edge102" class="edge"><title>48&#45;&gt;8</title>
<path fill="none" stroke="black" d="M884.937,-367.744C897.955,-363.906 916.454,-358.888 933,-356 1020.92,-340.656 1046.53,-360.075 1133,-338 1165.67,-329.66 1200.9,-313.111 1223.64,-301.338"/>
<polygon fill="black" stroke="black" points="1225.36,-304.385 1232.57,-296.623 1222.09,-298.195 1225.36,-304.385"/>
<text text-anchor="middle" x="1178.5" y="-326.8" font-family="Times,serif" font-size="14.00">c</text>
</g>
<!-- 48&#45;&gt;43 -->
<g id="edge103" class="edge"><title>48&#45;&gt;43</title>
<path fill="none" stroke="black" d="M865.718,-356.115C858.082,-296.641 836.135,-98.0869 877,-54 904.872,-23.9302 1029.99,-19.3972 1086.79,-18.9174"/>
<polygon fill="black" stroke="black" points="1086.9,-22.417 1096.88,-18.8694 1086.86,-15.4171 1086.9,-22.417"/>
<text text-anchor="middle" x="871.5" y="-196.3" font-family="Times,serif" font-size="14.00">e,d,a,b</text>
</g>
<!-- 49&#45;&gt;26 -->
<g id="edge104" class="edge"><title>49&#45;&gt;26</title>
<path fill="none" stroke="black" d="M1332.75,-445.159C1329,-438.986 1324.68,-431.709 1321,-425 1316.5,-416.806 1311.85,-407.701 1307.8,-399.529"/>
<polygon fill="black" stroke="black" points="1310.9,-397.914 1303.36,-390.476 1304.62,-400.996 1310.9,-397.914"/>
<text text-anchor="middle" x="1324.5" y="-413.8" font-family="Times,serif" font-size="14.00">b</text>
</g>
<!-- 49&#45;&gt;43 -->
<g id="edge105" class="edge"><title>49&#45;&gt;43</title>
<path fill="none" stroke="black" d="M1342.07,-442.834C1342.33,-405.282 1343.53,-313.038 1349,-236 1350.7,-212.044 1356.95,-205.267 1351,-182 1334.32,-116.777 1327.88,-88.3791 1270,-54 1230.15,-30.3315 1175.85,-22.6547 1143.22,-20.1737"/>
<polygon fill="black" stroke="black" points="1143.25,-16.6681 1133.04,-19.5158 1142.8,-23.6535 1143.25,-16.6681"/>
<text text-anchor="middle" x="1367.5" y="-239.8" font-family="Times,serif" font-size="14.00">e,d,c,a</text>
</g>
<!-- 50&#45;&gt;9 -->
<g id="edge106" class="edge"><title>50&#45;&gt;9</title>
<path fill="none" stroke="black" d="M1961.25,-880.463C1943.39,-853.501 1904.82,-793.602 1878,-740 1816.32,-616.757 1759.49,-461.583 1738.04,-400.949"/>
<polygon fill="black" stroke="black" points="1741.3,-399.67 1734.68,-391.399 1734.7,-401.994 1741.3,-399.67"/>
<text text-anchor="middle" x="1839.5" y="-631.3" font-family="Times,serif" font-size="14.00">d</text>
</g>
<!-- 50&#45;&gt;11 -->
<g id="edge107" class="edge"><title>50&#45;&gt;11</title>
<path fill="none" stroke="black" d="M1987.59,-888.471C2024.97,-873.762 2116.01,-837.936 2160.98,-820.238"/>
<polygon fill="black" stroke="black" points="2162.33,-823.47 2170.35,-816.551 2159.77,-816.956 2162.33,-823.47"/>
<text text-anchor="middle" x="2094.5" y="-848.8" font-family="Times,serif" font-size="14.00">c</text>
</g>
<!-- 50&#45;&gt;43 -->
<g id="edge108" class="edge"><title>50&#45;&gt;43</title>
<path fill="none" stroke="black" d="M1989.32,-894.527C2061.34,-892.18 2321,-878.939 2321,-810 2321,-810 2321,-810 2321,-108 2321,-83.5568 2253.05,-66.3674 2184,-54 1975.59,-16.6698 1290.21,-18.0736 1143.01,-18.8255"/>
<polygon fill="black" stroke="black" points="1142.96,-15.3256 1132.98,-18.8801 1143,-22.3254 1142.96,-15.3256"/>
<text text-anchor="middle" x="2334.5" y="-457.3" font-family="Times,serif" font-size="14.00">e,a,b</text>
</g>
</g>
</svg>
