<?xml version="1.0" encoding="UTF-8" standalone="no"?>
<!DOCTYPE svg PUBLIC "-//W3C//DTD SVG 1.1//EN"
 "http://www.w3.org/Graphics/SVG/1.1/DTD/svg11.dtd">
<!-- Generated by graphviz version 2.38.0 (20140413.2041)
 -->
<!-- Title: %3 Pages: 1 -->
<svg width="298pt" height="804pt"
 viewBox="0.00 0.00 298.00 804.00" xmlns="http://www.w3.org/2000/svg" xmlns:xlink="http://www.w3.org/1999/xlink">
<g id="graph0" class="graph" transform="scale(1 1) rotate(0) translate(4 800)">
<title>%3</title>
<!-- 0 -->
<g id="node1" class="node"><title>0</title>
<ellipse fill="lightblue" stroke="black" cx="150" cy="-584" rx="18" ry="18"/>
<ellipse fill="none" stroke="black" cx="150" cy="-584" rx="22" ry="22"/>
<text text-anchor="middle" x="150" y="-580.3" font-family="Times,serif" font-size="14.00">0</text>
</g>
<!-- 0&#45;&gt;0 -->
<g id="edge1" class="edge"><title>0&#45;&gt;0</title>
<path fill="none" stroke="black" d="M170.581,-592.37C180.845,-593.528 190,-590.738 190,-584 190,-579.683 186.243,-576.987 180.844,-575.911"/>
<polygon fill="black" stroke="black" points="180.673,-572.405 170.581,-575.63 180.481,-579.402 180.673,-572.405"/>
<text text-anchor="middle" x="193.5" y="-580.3" font-family="Times,serif" font-size="14.00">b</text>
</g>
<!-- 7 -->
<g id="node8" class="node"><title>7</title>
<ellipse fill="lightblue" stroke="black" cx="109" cy="-489" rx="18" ry="18"/>
<ellipse fill="none" stroke="black" cx="109" cy="-489" rx="22" ry="22"/>
<text text-anchor="middle" x="109" y="-485.3" font-family="Times,serif" font-size="14.00">7</text>
</g>
<!-- 0&#45;&gt;7 -->
<g id="edge2" class="edge"><title>0&#45;&gt;7</title>
<path fill="none" stroke="black" d="M141.305,-563.277C135.614,-550.367 128.081,-533.28 121.721,-518.854"/>
<polygon fill="black" stroke="black" points="124.779,-517.114 117.542,-509.376 118.373,-519.938 124.779,-517.114"/>
<text text-anchor="middle" x="134.5" y="-532.8" font-family="Times,serif" font-size="14.00">a</text>
</g>
<!-- 1 -->
<g id="node2" class="node"><title>1</title>
<ellipse fill="#aaff80" stroke="black" cx="120" cy="-774" rx="18" ry="18"/>
<ellipse fill="none" stroke="black" cx="120" cy="-774" rx="22" ry="22"/>
<text text-anchor="middle" x="120" y="-770.3" font-family="Times,serif" font-size="14.00">1</text>
</g>
<!-- 1&#45;&gt;7 -->
<g id="edge3" class="edge"><title>1&#45;&gt;7</title>
<path fill="none" stroke="black" d="M119.173,-751.729C117.249,-702.235 112.466,-579.165 110.212,-521.171"/>
<polygon fill="black" stroke="black" points="113.707,-520.988 109.821,-511.132 106.713,-521.26 113.707,-520.988"/>
<text text-anchor="middle" x="117.5" y="-627.8" font-family="Times,serif" font-size="14.00">a</text>
</g>
<!-- 8 -->
<g id="node9" class="node"><title>8</title>
<ellipse fill="lightblue" stroke="black" cx="150" cy="-679" rx="18" ry="18"/>
<ellipse fill="none" stroke="black" cx="150" cy="-679" rx="22" ry="22"/>
<text text-anchor="middle" x="150" y="-675.3" font-family="Times,serif" font-size="14.00">8</text>
</g>
<!-- 1&#45;&gt;8 -->
<g id="edge4" class="edge"><title>1&#45;&gt;8</title>
<path fill="none" stroke="black" d="M126.51,-752.82C130.559,-740.268 135.839,-723.9 140.367,-709.862"/>
<polygon fill="black" stroke="black" points="143.764,-710.732 143.503,-700.14 137.102,-708.583 143.764,-710.732"/>
<text text-anchor="middle" x="139.5" y="-722.8" font-family="Times,serif" font-size="14.00">b</text>
</g>
<!-- 2 -->
<g id="node3" class="node"><title>2</title>
<ellipse fill="lightblue" stroke="black" cx="162" cy="-204" rx="18" ry="18"/>
<ellipse fill="none" stroke="black" cx="162" cy="-204" rx="22" ry="22"/>
<text text-anchor="middle" x="162" y="-200.3" font-family="Times,serif" font-size="14.00">2</text>
</g>
<!-- 2&#45;&gt;2 -->
<g id="edge5" class="edge"><title>2&#45;&gt;2</title>
<path fill="none" stroke="black" d="M182.581,-212.37C192.845,-213.528 202,-210.738 202,-204 202,-199.683 198.243,-196.987 192.844,-195.911"/>
<polygon fill="black" stroke="black" points="192.673,-192.405 182.581,-195.63 192.481,-199.402 192.673,-192.405"/>
<text text-anchor="middle" x="205.5" y="-200.3" font-family="Times,serif" font-size="14.00">a</text>
</g>
<!-- 12 -->
<g id="node13" class="node"><title>12</title>
<ellipse fill="lightblue" stroke="black" cx="115" cy="-18" rx="18" ry="18"/>
<text text-anchor="middle" x="115" y="-14.3" font-family="Times,serif" font-size="14.00">12</text>
</g>
<!-- 2&#45;&gt;12 -->
<g id="edge6" class="edge"><title>2&#45;&gt;12</title>
<path fill="none" stroke="black" d="M158.461,-181.992C153.308,-152.886 142.824,-98.8121 129,-54 128.016,-50.8106 126.869,-47.503 125.662,-44.2507"/>
<polygon fill="black" stroke="black" points="128.878,-42.8646 121.967,-34.8337 122.361,-45.4213 128.878,-42.8646"/>
<text text-anchor="middle" x="151.5" y="-105.3" font-family="Times,serif" font-size="14.00">b</text>
</g>
<!-- 3 -->
<g id="node4" class="node"><title>3</title>
<ellipse fill="lightblue" stroke="black" cx="44" cy="-299" rx="18" ry="18"/>
<text text-anchor="middle" x="44" y="-295.3" font-family="Times,serif" font-size="14.00">3</text>
</g>
<!-- 3&#45;&gt;3 -->
<g id="edge7" class="edge"><title>3&#45;&gt;3</title>
<path fill="none" stroke="black" d="M60.2903,-307.016C70.3892,-308.949 80,-306.277 80,-299 80,-294.338 76.0557,-291.566 70.5656,-290.684"/>
<polygon fill="black" stroke="black" points="70.1839,-287.193 60.2903,-290.984 70.3881,-294.19 70.1839,-287.193"/>
<text text-anchor="middle" x="83.5" y="-295.3" font-family="Times,serif" font-size="14.00">b</text>
</g>
<!-- 9 -->
<g id="node10" class="node"><title>9</title>
<ellipse fill="lightblue" stroke="black" cx="44" cy="-204" rx="18" ry="18"/>
<text text-anchor="middle" x="44" y="-200.3" font-family="Times,serif" font-size="14.00">9</text>
</g>
<!-- 3&#45;&gt;9 -->
<g id="edge8" class="edge"><title>3&#45;&gt;9</title>
<path fill="none" stroke="black" d="M44,-280.942C44,-267.394 44,-248.18 44,-232.469"/>
<polygon fill="black" stroke="black" points="47.5001,-232.264 44,-222.264 40.5001,-232.264 47.5001,-232.264"/>
<text text-anchor="middle" x="47.5" y="-247.8" font-family="Times,serif" font-size="14.00">a</text>
</g>
<!-- 4 -->
<g id="node5" class="node"><title>4</title>
<ellipse fill="lightblue" stroke="black" cx="103" cy="-394" rx="18" ry="18"/>
<text text-anchor="middle" x="103" y="-390.3" font-family="Times,serif" font-size="14.00">4</text>
</g>
<!-- 4&#45;&gt;3 -->
<g id="edge9" class="edge"><title>4&#45;&gt;3</title>
<path fill="none" stroke="black" d="M93.7812,-378.469C84.3976,-363.678 69.7077,-340.522 58.7134,-323.192"/>
<polygon fill="black" stroke="black" points="61.6612,-321.305 53.3487,-314.736 55.7503,-325.055 61.6612,-321.305"/>
<text text-anchor="middle" x="80.5" y="-342.8" font-family="Times,serif" font-size="14.00">b</text>
</g>
<!-- 4&#45;&gt;12 -->
<g id="edge10" class="edge"><title>4&#45;&gt;12</title>
<path fill="none" stroke="black" d="M106.471,-376.283C110.015,-357.731 115,-326.861 115,-300 115,-300 115,-300 115,-108 115,-87.271 115,-63.8262 115,-46.2048"/>
<polygon fill="black" stroke="black" points="118.5,-46.0619 115,-36.0619 111.5,-46.0619 118.5,-46.0619"/>
<text text-anchor="middle" x="118.5" y="-200.3" font-family="Times,serif" font-size="14.00">a</text>
</g>
<!-- 5 -->
<g id="node6" class="node"><title>5</title>
<ellipse fill="lightblue" stroke="black" cx="233" cy="-489" rx="18" ry="18"/>
<ellipse fill="none" stroke="black" cx="233" cy="-489" rx="22" ry="22"/>
<text text-anchor="middle" x="233" y="-485.3" font-family="Times,serif" font-size="14.00">5</text>
</g>
<!-- 6 -->
<g id="node7" class="node"><title>6</title>
<ellipse fill="lightblue" stroke="black" cx="161" cy="-394" rx="18" ry="18"/>
<ellipse fill="none" stroke="black" cx="161" cy="-394" rx="22" ry="22"/>
<text text-anchor="middle" x="161" y="-390.3" font-family="Times,serif" font-size="14.00">6</text>
</g>
<!-- 5&#45;&gt;6 -->
<g id="edge11" class="edge"><title>5&#45;&gt;6</title>
<path fill="none" stroke="black" d="M219.794,-470.942C208.731,-456.653 192.79,-436.062 180.297,-419.925"/>
<polygon fill="black" stroke="black" points="183.012,-417.714 174.122,-411.949 177.476,-421.999 183.012,-417.714"/>
<text text-anchor="middle" x="204.5" y="-437.8" font-family="Times,serif" font-size="14.00">a</text>
</g>
<!-- 13 -->
<g id="node14" class="node"><title>13</title>
<ellipse fill="lightblue" stroke="black" cx="244" cy="-394" rx="18" ry="18"/>
<text text-anchor="middle" x="244" y="-390.3" font-family="Times,serif" font-size="14.00">13</text>
</g>
<!-- 5&#45;&gt;13 -->
<g id="edge12" class="edge"><title>5&#45;&gt;13</title>
<path fill="none" stroke="black" d="M235.496,-466.897C237.062,-453.658 239.096,-436.457 240.783,-422.2"/>
<polygon fill="black" stroke="black" points="244.292,-422.327 241.991,-411.985 237.341,-421.505 244.292,-422.327"/>
<text text-anchor="middle" x="242.5" y="-437.8" font-family="Times,serif" font-size="14.00">b</text>
</g>
<!-- 6&#45;&gt;2 -->
<g id="edge13" class="edge"><title>6&#45;&gt;2</title>
<path fill="none" stroke="black" d="M161.113,-371.799C161.289,-338.708 161.63,-274.601 161.834,-236.219"/>
<polygon fill="black" stroke="black" points="165.334,-236.142 161.888,-226.123 158.334,-236.104 165.334,-236.142"/>
<text text-anchor="middle" x="164.5" y="-295.3" font-family="Times,serif" font-size="14.00">b</text>
</g>
<!-- 6&#45;&gt;6 -->
<g id="edge14" class="edge"><title>6&#45;&gt;6</title>
<path fill="none" stroke="black" d="M181.581,-402.37C191.845,-403.528 201,-400.738 201,-394 201,-389.683 197.243,-386.987 191.844,-385.911"/>
<polygon fill="black" stroke="black" points="191.673,-382.405 181.581,-385.63 191.481,-389.402 191.673,-382.405"/>
<text text-anchor="middle" x="204.5" y="-390.3" font-family="Times,serif" font-size="14.00">a</text>
</g>
<!-- 7&#45;&gt;4 -->
<g id="edge15" class="edge"><title>7&#45;&gt;4</title>
<path fill="none" stroke="black" d="M107.639,-466.897C106.784,-453.658 105.675,-436.457 104.755,-422.2"/>
<polygon fill="black" stroke="black" points="108.232,-421.739 104.096,-411.985 101.247,-422.19 108.232,-421.739"/>
<text text-anchor="middle" x="109.5" y="-437.8" font-family="Times,serif" font-size="14.00">b</text>
</g>
<!-- 7&#45;&gt;6 -->
<g id="edge16" class="edge"><title>7&#45;&gt;6</title>
<path fill="none" stroke="black" d="M119.523,-469.18C127.043,-455.73 137.28,-437.423 145.701,-422.361"/>
<polygon fill="black" stroke="black" points="148.845,-423.911 150.67,-413.475 142.735,-420.495 148.845,-423.911"/>
<text text-anchor="middle" x="141.5" y="-437.8" font-family="Times,serif" font-size="14.00">a</text>
</g>
<!-- 8&#45;&gt;0 -->
<g id="edge17" class="edge"><title>8&#45;&gt;0</title>
<path fill="none" stroke="black" d="M150,-656.897C150,-644.887 150,-629.617 150,-616.242"/>
<polygon fill="black" stroke="black" points="153.5,-616.02 150,-606.02 146.5,-616.02 153.5,-616.02"/>
<text text-anchor="middle" x="153.5" y="-627.8" font-family="Times,serif" font-size="14.00">b</text>
</g>
<!-- 8&#45;&gt;5 -->
<g id="edge18" class="edge"><title>8&#45;&gt;5</title>
<path fill="none" stroke="black" d="M165.089,-662.764C177.842,-649.036 195.642,-627.728 206,-606 218.944,-578.848 225.896,-545.097 229.486,-521.014"/>
<polygon fill="black" stroke="black" points="232.966,-521.395 230.867,-511.01 226.032,-520.438 232.966,-521.395"/>
<text text-anchor="middle" x="223.5" y="-580.3" font-family="Times,serif" font-size="14.00">a</text>
</g>
<!-- 11 -->
<g id="node12" class="node"><title>11</title>
<ellipse fill="lightblue" stroke="black" cx="22" cy="-109" rx="18" ry="18"/>
<ellipse fill="none" stroke="black" cx="22" cy="-109" rx="22" ry="22"/>
<text text-anchor="middle" x="22" y="-105.3" font-family="Times,serif" font-size="14.00">11</text>
</g>
<!-- 9&#45;&gt;11 -->
<g id="edge19" class="edge"><title>9&#45;&gt;11</title>
<path fill="none" stroke="black" d="M40.0668,-186.373C37.0743,-173.723 32.8718,-155.958 29.2728,-140.744"/>
<polygon fill="black" stroke="black" points="32.6081,-139.639 26.9,-130.714 25.7962,-141.251 32.6081,-139.639"/>
<text text-anchor="middle" x="38.5" y="-152.8" font-family="Times,serif" font-size="14.00">a</text>
</g>
<!-- 9&#45;&gt;12 -->
<g id="edge20" class="edge"><title>9&#45;&gt;12</title>
<path fill="none" stroke="black" d="M50.0778,-186.874C60.4132,-159.504 82.1293,-102.232 101,-54 102.216,-50.8918 103.503,-47.6329 104.785,-44.4067"/>
<polygon fill="black" stroke="black" points="108.079,-45.5948 108.537,-35.0099 101.578,-42.9991 108.079,-45.5948"/>
<text text-anchor="middle" x="90.5" y="-105.3" font-family="Times,serif" font-size="14.00">b</text>
</g>
<!-- 10 -->
<g id="node11" class="node"><title>10</title>
<ellipse fill="lightblue" stroke="black" cx="208" cy="-299" rx="18" ry="18"/>
<ellipse fill="none" stroke="black" cx="208" cy="-299" rx="22" ry="22"/>
<text text-anchor="middle" x="208" y="-295.3" font-family="Times,serif" font-size="14.00">10</text>
</g>
<!-- 10&#45;&gt;2 -->
<g id="edge21" class="edge"><title>10&#45;&gt;2</title>
<path fill="none" stroke="black" d="M198.469,-278.73C191.949,-265.55 183.201,-247.863 175.907,-233.116"/>
<polygon fill="black" stroke="black" points="178.932,-231.338 171.362,-223.927 172.658,-234.442 178.932,-231.338"/>
<text text-anchor="middle" x="190.5" y="-247.8" font-family="Times,serif" font-size="14.00">a</text>
</g>
<!-- 10&#45;&gt;10 -->
<g id="edge22" class="edge"><title>10&#45;&gt;10</title>
<path fill="none" stroke="black" d="M228.581,-307.37C238.845,-308.528 248,-305.738 248,-299 248,-294.683 244.243,-291.987 238.844,-290.911"/>
<polygon fill="black" stroke="black" points="238.673,-287.405 228.581,-290.63 238.481,-294.402 238.673,-287.405"/>
<text text-anchor="middle" x="251.5" y="-295.3" font-family="Times,serif" font-size="14.00">b</text>
</g>
<!-- 11&#45;&gt;12 -->
<g id="edge23" class="edge"><title>11&#45;&gt;12</title>
<path fill="none" stroke="black" d="M28.5743,-87.9392C32.9831,-76.889 39.7007,-63.5247 49,-54 59.9746,-42.7594 75.3392,-34.3203 88.4828,-28.5481"/>
<polygon fill="black" stroke="black" points="90.0652,-31.6822 97.9913,-24.6517 87.4109,-25.205 90.0652,-31.6822"/>
<text text-anchor="middle" x="57.5" y="-57.8" font-family="Times,serif" font-size="14.00">a,b</text>
</g>
<!-- 12&#45;&gt;12 -->
<g id="edge24" class="edge"><title>12&#45;&gt;12</title>
<path fill="none" stroke="black" d="M131.664,-25.3828C141.625,-27.0234 151,-24.5625 151,-18 151,-13.7959 147.152,-11.2751 141.768,-10.4375"/>
<polygon fill="black" stroke="black" points="141.6,-6.93988 131.664,-10.6172 141.725,-13.9388 141.6,-6.93988"/>
<text text-anchor="middle" x="159.5" y="-14.3" font-family="Times,serif" font-size="14.00">a,b</text>
</g>
<!-- 13&#45;&gt;10 -->
<g id="edge25" class="edge"><title>13&#45;&gt;10</title>
<path fill="none" stroke="black" d="M237.729,-376.801C232.706,-363.823 225.523,-345.268 219.476,-329.647"/>
<polygon fill="black" stroke="black" points="222.575,-327.956 215.701,-319.894 216.047,-330.483 222.575,-327.956"/>
<text text-anchor="middle" x="231.5" y="-342.8" font-family="Times,serif" font-size="14.00">b</text>
</g>
<!-- 13&#45;&gt;12 -->
<g id="edge26" class="edge"><title>13&#45;&gt;12</title>
<path fill="none" stroke="black" d="M254.043,-378.952C265.599,-361.376 283,-329.939 283,-300 283,-300 283,-300 283,-108 283,-45.4008 190.793,-26.7064 143.001,-21.2212"/>
<polygon fill="black" stroke="black" points="143.285,-17.732 132.979,-20.1901 142.568,-24.6952 143.285,-17.732"/>
<text text-anchor="middle" x="286.5" y="-200.3" font-family="Times,serif" font-size="14.00">a</text>
</g>
</g>
</svg>
