<?xml version="1.0" encoding="UTF-8" standalone="no"?>
<!DOCTYPE svg PUBLIC "-//W3C//DTD SVG 1.1//EN"
 "http://www.w3.org/Graphics/SVG/1.1/DTD/svg11.dtd">
<!-- Generated by graphviz version 2.38.0 (20140413.2041)
 -->
<!-- Title: %3 Pages: 1 -->
<svg width="44pt" height="131pt"
 viewBox="0.00 0.00 44.00 131.00" xmlns="http://www.w3.org/2000/svg" xmlns:xlink="http://www.w3.org/1999/xlink">
<g id="graph0" class="graph" transform="scale(1 1) rotate(0) translate(4 127)">
<title>%3</title>
<!-- 2 -->
<g id="node1" class="node"><title>2</title>
<ellipse fill="lightblue" stroke="black" cx="18" cy="-105" rx="18" ry="18"/>
<text text-anchor="middle" x="18" y="-101.3" font-family="Times,serif" font-size="14.00">2</text>
</g>
<!-- 1 -->
<g id="node2" class="node"><title>1</title>
<ellipse fill="lightblue" stroke="black" cx="18" cy="-18" rx="18" ry="18"/>
<text text-anchor="middle" x="18" y="-14.3" font-family="Times,serif" font-size="14.00">1</text>
</g>
<!-- 2&#45;&gt;1 -->
<g id="edge1" class="edge"><title>2&#45;&gt;1</title>
<path fill="none" stroke="black" d="M11.3664,-88.2577C9.20098,-82.3321 7.07716,-75.4629 6,-69 4.65302,-60.9181 5.81432,-52.2044 7.8585,-44.3508"/>
<polygon fill="black" stroke="black" points="11.2489,-45.237 10.9176,-34.6473 4.57279,-43.1322 11.2489,-45.237"/>
<text text-anchor="middle" x="9.5" y="-57.8" font-family="Times,serif" font-size="14.00">a</text>
</g>
<!-- 1&#45;&gt;2 -->
<g id="edge2" class="edge"><title>1&#45;&gt;2</title>
<path fill="none" stroke="black" d="M18,-36.1754C18,-47.806 18,-63.4194 18,-76.7339"/>
<polygon fill="black" stroke="black" points="14.5001,-76.7989 18,-86.799 21.5001,-76.799 14.5001,-76.7989"/>
<text text-anchor="middle" x="21.5" y="-57.8" font-family="Times,serif" font-size="14.00">a</text>
</g>
</g>
</svg>
