<?xml version="1.0" encoding="UTF-8" standalone="no"?>
<!DOCTYPE svg PUBLIC "-//W3C//DTD SVG 1.1//EN"
 "http://www.w3.org/Graphics/SVG/1.1/DTD/svg11.dtd">
<!-- Generated by graphviz version 2.38.0 (20140413.2041)
 -->
<!-- Title: %3 Pages: 1 -->
<svg width="50pt" height="137pt"
 viewBox="0.00 0.00 49.80 136.80" xmlns="http://www.w3.org/2000/svg" xmlns:xlink="http://www.w3.org/1999/xlink">
<g id="graph0" class="graph" transform="scale(1 1) rotate(0) translate(4 132.801)">
<title>%3</title>
<!-- q1q0.b -->
<g id="node1" class="node"><title>q1q0.b</title>
<ellipse fill="lightblue" stroke="black" cx="20.9007" cy="-20.9007" rx="20.8019" ry="20.8019"/>
<text text-anchor="middle" x="20.9007" y="-17.2007" font-family="Times,serif" font-size="14.00">q1q0.b</text>
</g>
<!-- q0 -->
<g id="node2" class="node"><title>q0</title>
<ellipse fill="lightblue" stroke="black" cx="20.9007" cy="-110.801" rx="18" ry="18"/>
<text text-anchor="middle" x="20.9007" y="-107.101" font-family="Times,serif" font-size="14.00">q0</text>
</g>
<!-- q0&#45;&gt;q1q0.b -->
<g id="edge1" class="edge"><title>q0&#45;&gt;q1q0.b</title>
<path fill="none" stroke="black" d="M20.9007,-92.4351C20.9007,-80.9861 20.9007,-65.6819 20.9007,-52.2555"/>
<polygon fill="black" stroke="black" points="24.4008,-51.9997 20.9007,-41.9998 17.4008,-51.9998 24.4008,-51.9997"/>
<text text-anchor="middle" x="24.4007" y="-63.6015" font-family="Times,serif" font-size="14.00">a</text>
</g>
</g>
</svg>
