<?xml version="1.0" encoding="UTF-8" standalone="no"?>
<!DOCTYPE svg PUBLIC "-//W3C//DTD SVG 1.1//EN"
 "http://www.w3.org/Graphics/SVG/1.1/DTD/svg11.dtd">
<!-- Generated by graphviz version 2.38.0 (20140413.2041)
 -->
<!-- Title: %3 Pages: 1 -->
<svg width="108pt" height="226pt"
 viewBox="0.00 0.00 108.00 226.00" xmlns="http://www.w3.org/2000/svg" xmlns:xlink="http://www.w3.org/1999/xlink">
<g id="graph0" class="graph" transform="scale(1 1) rotate(0) translate(4 222)">
<title>%3</title>
<!-- 0 -->
<g id="node1" class="node"><title>0</title>
<ellipse fill="#aaff80" stroke="black" cx="48" cy="-200" rx="18" ry="18"/>
<text text-anchor="middle" x="48" y="-196.3" font-family="Times,serif" font-size="14.00">0</text>
</g>
<!-- 0&#45;&gt;0 -->
<g id="edge1" class="edge"><title>0&#45;&gt;0</title>
<path fill="none" stroke="black" d="M64.6641,-207.383C74.625,-209.023 84,-206.562 84,-200 84,-195.796 80.1525,-193.275 74.7682,-192.438"/>
<polygon fill="black" stroke="black" points="74.6002,-188.94 64.6641,-192.617 74.7247,-195.939 74.6002,-188.94"/>
<text text-anchor="middle" x="87.5" y="-196.3" font-family="Times,serif" font-size="14.00">b</text>
</g>
<!-- 1 -->
<g id="node2" class="node"><title>1</title>
<ellipse fill="lightblue" stroke="black" cx="18" cy="-113" rx="18" ry="18"/>
<text text-anchor="middle" x="18" y="-109.3" font-family="Times,serif" font-size="14.00">1</text>
</g>
<!-- 0&#45;&gt;1 -->
<g id="edge2" class="edge"><title>0&#45;&gt;1</title>
<path fill="none" stroke="black" d="M35.6911,-186.846C30.1621,-180.579 24.1774,-172.48 21,-164 18.3454,-156.915 17.1486,-148.871 16.7254,-141.338"/>
<polygon fill="black" stroke="black" points="20.2227,-141.128 16.5708,-131.182 13.2235,-141.235 20.2227,-141.128"/>
<text text-anchor="middle" x="24.5" y="-152.8" font-family="Times,serif" font-size="14.00">a</text>
</g>
<!-- 1&#45;&gt;0 -->
<g id="edge3" class="edge"><title>1&#45;&gt;0</title>
<path fill="none" stroke="black" d="M23.7665,-130.339C28.0368,-142.438 33.941,-159.166 38.8524,-173.082"/>
<polygon fill="black" stroke="black" points="35.587,-174.346 42.2157,-182.611 42.1879,-172.016 35.587,-174.346"/>
<text text-anchor="middle" x="37.5" y="-152.8" font-family="Times,serif" font-size="14.00">b</text>
</g>
<!-- 2 -->
<g id="node3" class="node"><title>2</title>
<ellipse fill="lightblue" stroke="black" cx="53" cy="-22" rx="18" ry="18"/>
<ellipse fill="none" stroke="black" cx="53" cy="-22" rx="22" ry="22"/>
<text text-anchor="middle" x="53" y="-18.3" font-family="Times,serif" font-size="14.00">2</text>
</g>
<!-- 1&#45;&gt;2 -->
<g id="edge4" class="edge"><title>1&#45;&gt;2</title>
<path fill="none" stroke="black" d="M24.2573,-96.0886C29.0181,-83.9825 35.704,-66.9813 41.4296,-52.422"/>
<polygon fill="black" stroke="black" points="44.8019,-53.41 45.2045,-42.8228 38.2875,-50.8481 44.8019,-53.41"/>
<text text-anchor="middle" x="40.5" y="-65.8" font-family="Times,serif" font-size="14.00">a</text>
</g>
<!-- 2&#45;&gt;0 -->
<g id="edge5" class="edge"><title>2&#45;&gt;0</title>
<path fill="none" stroke="black" d="M52.4018,-44.0583C51.4956,-75.9566 49.7748,-136.529 48.7742,-171.748"/>
<polygon fill="black" stroke="black" points="45.274,-171.709 48.4885,-181.804 52.2712,-171.907 45.274,-171.709"/>
<text text-anchor="middle" x="53.5" y="-109.3" font-family="Times,serif" font-size="14.00">b</text>
</g>
<!-- 2&#45;&gt;2 -->
<g id="edge6" class="edge"><title>2&#45;&gt;2</title>
<path fill="none" stroke="black" d="M73.5808,-30.3702C83.8447,-31.5284 93,-28.7383 93,-22 93,-17.6833 89.2427,-14.9869 83.8436,-13.9109"/>
<polygon fill="black" stroke="black" points="83.6729,-10.405 73.5808,-13.6298 83.4812,-17.4024 83.6729,-10.405"/>
<text text-anchor="middle" x="96.5" y="-18.3" font-family="Times,serif" font-size="14.00">a</text>
</g>
</g>
</svg>
