<?xml version="1.0" encoding="UTF-8" standalone="no"?>
<!DOCTYPE svg PUBLIC "-//W3C//DTD SVG 1.1//EN"
 "http://www.w3.org/Graphics/SVG/1.1/DTD/svg11.dtd">
<!-- Generated by graphviz version 2.38.0 (20140413.2041)
 -->
<!-- Title: %3 Pages: 1 -->
<svg width="224pt" height="899pt"
 viewBox="0.00 0.00 224.00 899.00" xmlns="http://www.w3.org/2000/svg" xmlns:xlink="http://www.w3.org/1999/xlink">
<g id="graph0" class="graph" transform="scale(1 1) rotate(0) translate(4 895)">
<title>%3</title>
<!-- 0 -->
<g id="node1" class="node"><title>0</title>
<ellipse fill="lightblue" stroke="black" cx="169" cy="-774" rx="18" ry="18"/>
<ellipse fill="none" stroke="black" cx="169" cy="-774" rx="22" ry="22"/>
<text text-anchor="middle" x="169" y="-770.3" font-family="Times,serif" font-size="14.00">0</text>
</g>
<!-- 5 -->
<g id="node6" class="node"><title>5</title>
<ellipse fill="lightblue" stroke="black" cx="57" cy="-679" rx="18" ry="18"/>
<ellipse fill="none" stroke="black" cx="57" cy="-679" rx="22" ry="22"/>
<text text-anchor="middle" x="57" y="-675.3" font-family="Times,serif" font-size="14.00">5</text>
</g>
<!-- 0&#45;&gt;5 -->
<g id="edge1" class="edge"><title>0&#45;&gt;5</title>
<path fill="none" stroke="black" d="M152.474,-759.278C133.697,-743.686 102.874,-718.092 81.3453,-700.215"/>
<polygon fill="black" stroke="black" points="83.5232,-697.474 73.5938,-693.779 79.0513,-702.86 83.5232,-697.474"/>
<text text-anchor="middle" x="123.5" y="-722.8" font-family="Times,serif" font-size="14.00">b</text>
</g>
<!-- 9 -->
<g id="node10" class="node"><title>9</title>
<ellipse fill="lightblue" stroke="black" cx="88" cy="-394" rx="18" ry="18"/>
<ellipse fill="none" stroke="black" cx="88" cy="-394" rx="22" ry="22"/>
<text text-anchor="middle" x="88" y="-390.3" font-family="Times,serif" font-size="14.00">9</text>
</g>
<!-- 0&#45;&gt;9 -->
<g id="edge2" class="edge"><title>0&#45;&gt;9</title>
<path fill="none" stroke="black" d="M175.539,-752.922C181.035,-734.248 188,-705.543 188,-680 188,-680 188,-680 188,-488 188,-449.064 146.846,-421.811 117.34,-407.275"/>
<polygon fill="black" stroke="black" points="118.776,-404.083 108.236,-403.004 115.803,-410.42 118.776,-404.083"/>
<text text-anchor="middle" x="191.5" y="-580.3" font-family="Times,serif" font-size="14.00">a</text>
</g>
<!-- 1 -->
<g id="node2" class="node"><title>1</title>
<ellipse fill="lightblue" stroke="black" cx="38" cy="-204" rx="18" ry="18"/>
<ellipse fill="none" stroke="black" cx="38" cy="-204" rx="22" ry="22"/>
<text text-anchor="middle" x="38" y="-200.3" font-family="Times,serif" font-size="14.00">1</text>
</g>
<!-- 2 -->
<g id="node3" class="node"><title>2</title>
<ellipse fill="lightblue" stroke="black" cx="38" cy="-109" rx="18" ry="18"/>
<ellipse fill="none" stroke="black" cx="38" cy="-109" rx="22" ry="22"/>
<text text-anchor="middle" x="38" y="-105.3" font-family="Times,serif" font-size="14.00">2</text>
</g>
<!-- 1&#45;&gt;2 -->
<g id="edge3" class="edge"><title>1&#45;&gt;2</title>
<path fill="none" stroke="black" d="M38,-181.897C38,-169.887 38,-154.617 38,-141.242"/>
<polygon fill="black" stroke="black" points="41.5001,-141.02 38,-131.02 34.5001,-141.02 41.5001,-141.02"/>
<text text-anchor="middle" x="41.5" y="-152.8" font-family="Times,serif" font-size="14.00">a</text>
</g>
<!-- 1&#45;&gt;5 -->
<g id="edge4" class="edge"><title>1&#45;&gt;5</title>
<path fill="none" stroke="black" d="M25.9766,-222.653C14.8438,-240.742 0,-270.093 0,-298 0,-585 0,-585 0,-585 0,-612.425 18.2412,-638.583 34.0854,-656.131"/>
<polygon fill="black" stroke="black" points="31.7048,-658.707 41.1223,-663.561 36.7873,-653.894 31.7048,-658.707"/>
<text text-anchor="middle" x="3.5" y="-437.8" font-family="Times,serif" font-size="14.00">b</text>
</g>
<!-- 2&#45;&gt;2 -->
<g id="edge5" class="edge"><title>2&#45;&gt;2</title>
<path fill="none" stroke="black" d="M58.5808,-117.37C68.8447,-118.528 78,-115.738 78,-109 78,-104.683 74.2427,-101.987 68.8436,-100.911"/>
<polygon fill="black" stroke="black" points="68.6729,-97.405 58.5808,-100.63 68.4812,-104.402 68.6729,-97.405"/>
<text text-anchor="middle" x="81.5" y="-105.3" font-family="Times,serif" font-size="14.00">a</text>
</g>
<!-- 8 -->
<g id="node9" class="node"><title>8</title>
<ellipse fill="lightblue" stroke="black" cx="113" cy="-18" rx="18" ry="18"/>
<text text-anchor="middle" x="113" y="-14.3" font-family="Times,serif" font-size="14.00">8</text>
</g>
<!-- 2&#45;&gt;8 -->
<g id="edge6" class="edge"><title>2&#45;&gt;8</title>
<path fill="none" stroke="black" d="M51.7562,-91.676C64.0001,-77.1466 81.9809,-55.8093 95.2949,-40.01"/>
<polygon fill="black" stroke="black" points="98.0092,-42.2205 101.777,-32.3182 92.6564,-37.7097 98.0092,-42.2205"/>
<text text-anchor="middle" x="86.5" y="-57.8" font-family="Times,serif" font-size="14.00">b</text>
</g>
<!-- 3 -->
<g id="node4" class="node"><title>3</title>
<ellipse fill="lightblue" stroke="black" cx="88" cy="-489" rx="18" ry="18"/>
<ellipse fill="none" stroke="black" cx="88" cy="-489" rx="22" ry="22"/>
<text text-anchor="middle" x="88" y="-485.3" font-family="Times,serif" font-size="14.00">3</text>
</g>
<!-- 3&#45;&gt;8 -->
<g id="edge7" class="edge"><title>3&#45;&gt;8</title>
<path fill="none" stroke="black" d="M106.539,-476.327C128.749,-460.74 163,-430.884 163,-395 163,-395 163,-395 163,-108 163,-81.6512 146.137,-55.8895 131.996,-38.9196"/>
<polygon fill="black" stroke="black" points="134.577,-36.5542 125.36,-31.3311 129.308,-41.1626 134.577,-36.5542"/>
<text text-anchor="middle" x="166.5" y="-247.8" font-family="Times,serif" font-size="14.00">b</text>
</g>
<!-- 3&#45;&gt;9 -->
<g id="edge8" class="edge"><title>3&#45;&gt;9</title>
<path fill="none" stroke="black" d="M88,-466.897C88,-454.887 88,-439.617 88,-426.242"/>
<polygon fill="black" stroke="black" points="91.5001,-426.02 88,-416.02 84.5001,-426.02 91.5001,-426.02"/>
<text text-anchor="middle" x="91.5" y="-437.8" font-family="Times,serif" font-size="14.00">a</text>
</g>
<!-- 4 -->
<g id="node5" class="node"><title>4</title>
<ellipse fill="#aaff80" stroke="black" cx="169" cy="-869" rx="18" ry="18"/>
<ellipse fill="none" stroke="black" cx="169" cy="-869" rx="22" ry="22"/>
<text text-anchor="middle" x="169" y="-865.3" font-family="Times,serif" font-size="14.00">4</text>
</g>
<!-- 4&#45;&gt;0 -->
<g id="edge9" class="edge"><title>4&#45;&gt;0</title>
<path fill="none" stroke="black" d="M169,-846.897C169,-834.887 169,-819.617 169,-806.242"/>
<polygon fill="black" stroke="black" points="172.5,-806.02 169,-796.02 165.5,-806.02 172.5,-806.02"/>
<text text-anchor="middle" x="172.5" y="-817.8" font-family="Times,serif" font-size="14.00">a</text>
</g>
<!-- 4&#45;&gt;4 -->
<g id="edge10" class="edge"><title>4&#45;&gt;4</title>
<path fill="none" stroke="black" d="M189.581,-877.37C199.845,-878.528 209,-875.738 209,-869 209,-864.683 205.243,-861.987 199.844,-860.911"/>
<polygon fill="black" stroke="black" points="199.673,-857.405 189.581,-860.63 199.481,-864.402 199.673,-857.405"/>
<text text-anchor="middle" x="212.5" y="-865.3" font-family="Times,serif" font-size="14.00">b</text>
</g>
<!-- 5&#45;&gt;1 -->
<g id="edge11" class="edge"><title>5&#45;&gt;1</title>
<path fill="none" stroke="black" d="M50.4613,-657.922C44.9653,-639.248 38,-610.543 38,-585 38,-585 38,-585 38,-298 38,-277.446 38,-254.337 38,-236.297"/>
<polygon fill="black" stroke="black" points="41.5001,-236.053 38,-226.053 34.5001,-236.053 41.5001,-236.053"/>
<text text-anchor="middle" x="41.5" y="-437.8" font-family="Times,serif" font-size="14.00">a</text>
</g>
<!-- 7 -->
<g id="node8" class="node"><title>7</title>
<ellipse fill="lightblue" stroke="black" cx="88" cy="-584" rx="18" ry="18"/>
<ellipse fill="none" stroke="black" cx="88" cy="-584" rx="22" ry="22"/>
<text text-anchor="middle" x="88" y="-580.3" font-family="Times,serif" font-size="14.00">7</text>
</g>
<!-- 5&#45;&gt;7 -->
<g id="edge12" class="edge"><title>5&#45;&gt;7</title>
<path fill="none" stroke="black" d="M63.7265,-657.82C67.9107,-645.268 73.3667,-628.9 78.0459,-614.862"/>
<polygon fill="black" stroke="black" points="81.4446,-615.734 81.2866,-605.14 74.8039,-613.52 81.4446,-615.734"/>
<text text-anchor="middle" x="78.5" y="-627.8" font-family="Times,serif" font-size="14.00">b</text>
</g>
<!-- 6 -->
<g id="node7" class="node"><title>6</title>
<ellipse fill="lightblue" stroke="black" cx="88" cy="-299" rx="18" ry="18"/>
<ellipse fill="none" stroke="black" cx="88" cy="-299" rx="22" ry="22"/>
<text text-anchor="middle" x="88" y="-295.3" font-family="Times,serif" font-size="14.00">6</text>
</g>
<!-- 6&#45;&gt;1 -->
<g id="edge13" class="edge"><title>6&#45;&gt;1</title>
<path fill="none" stroke="black" d="M77.8818,-279.18C70.698,-265.818 60.9366,-247.662 52.8692,-232.657"/>
<polygon fill="black" stroke="black" points="55.9213,-230.942 48.1032,-223.792 49.7559,-234.257 55.9213,-230.942"/>
<text text-anchor="middle" x="69.5" y="-247.8" font-family="Times,serif" font-size="14.00">a</text>
</g>
<!-- 6&#45;&gt;8 -->
<g id="edge14" class="edge"><title>6&#45;&gt;8</title>
<path fill="none" stroke="black" d="M89.8791,-277.03C94.3397,-227.249 105.565,-101.973 110.55,-46.3453"/>
<polygon fill="black" stroke="black" points="114.053,-46.4638 111.46,-36.1913 107.081,-45.839 114.053,-46.4638"/>
<text text-anchor="middle" x="105.5" y="-152.8" font-family="Times,serif" font-size="14.00">b</text>
</g>
<!-- 7&#45;&gt;3 -->
<g id="edge15" class="edge"><title>7&#45;&gt;3</title>
<path fill="none" stroke="black" d="M88,-561.897C88,-549.887 88,-534.617 88,-521.242"/>
<polygon fill="black" stroke="black" points="91.5001,-521.02 88,-511.02 84.5001,-521.02 91.5001,-521.02"/>
<text text-anchor="middle" x="91.5" y="-532.8" font-family="Times,serif" font-size="14.00">a</text>
</g>
<!-- 7&#45;&gt;7 -->
<g id="edge16" class="edge"><title>7&#45;&gt;7</title>
<path fill="none" stroke="black" d="M108.581,-592.37C118.845,-593.528 128,-590.738 128,-584 128,-579.683 124.243,-576.987 118.844,-575.911"/>
<polygon fill="black" stroke="black" points="118.673,-572.405 108.581,-575.63 118.481,-579.402 118.673,-572.405"/>
<text text-anchor="middle" x="131.5" y="-580.3" font-family="Times,serif" font-size="14.00">b</text>
</g>
<!-- 8&#45;&gt;8 -->
<g id="edge17" class="edge"><title>8&#45;&gt;8</title>
<path fill="none" stroke="black" d="M129.664,-25.3828C139.625,-27.0234 149,-24.5625 149,-18 149,-13.7959 145.152,-11.2751 139.768,-10.4375"/>
<polygon fill="black" stroke="black" points="139.6,-6.93988 129.664,-10.6172 139.725,-13.9388 139.6,-6.93988"/>
<text text-anchor="middle" x="157.5" y="-14.3" font-family="Times,serif" font-size="14.00">a,b</text>
</g>
<!-- 9&#45;&gt;6 -->
<g id="edge18" class="edge"><title>9&#45;&gt;6</title>
<path fill="none" stroke="black" d="M88,-371.897C88,-359.887 88,-344.617 88,-331.242"/>
<polygon fill="black" stroke="black" points="91.5001,-331.02 88,-321.02 84.5001,-331.02 91.5001,-331.02"/>
<text text-anchor="middle" x="91.5" y="-342.8" font-family="Times,serif" font-size="14.00">b</text>
</g>
<!-- 9&#45;&gt;9 -->
<g id="edge19" class="edge"><title>9&#45;&gt;9</title>
<path fill="none" stroke="black" d="M108.581,-402.37C118.845,-403.528 128,-400.738 128,-394 128,-389.683 124.243,-386.987 118.844,-385.911"/>
<polygon fill="black" stroke="black" points="118.673,-382.405 108.581,-385.63 118.481,-389.402 118.673,-382.405"/>
<text text-anchor="middle" x="131.5" y="-390.3" font-family="Times,serif" font-size="14.00">a</text>
</g>
</g>
</svg>
