<?xml version="1.0" encoding="UTF-8" standalone="no"?>
<!DOCTYPE svg PUBLIC "-//W3C//DTD SVG 1.1//EN"
 "http://www.w3.org/Graphics/SVG/1.1/DTD/svg11.dtd">
<!-- Generated by graphviz version 2.38.0 (20140413.2041)
 -->
<!-- Title: %3 Pages: 1 -->
<svg width="316pt" height="188pt"
 viewBox="0.00 0.00 316.00 188.00" xmlns="http://www.w3.org/2000/svg" xmlns:xlink="http://www.w3.org/1999/xlink">
<g id="graph0" class="graph" transform="scale(1 1) rotate(0) translate(4 184)">
<title>%3</title>
<!-- ba -->
<g id="node1" class="node"><title>ba</title>
<ellipse fill="none" stroke="black" cx="99" cy="-90" rx="27" ry="18"/>
<text text-anchor="middle" x="99" y="-86.3" font-family="Times,serif" font-size="14.00" fill="red">ba</text>
</g>
<!-- aa -->
<g id="node2" class="node"><title>aa</title>
<ellipse fill="none" stroke="black" cx="154" cy="-18" rx="27" ry="18"/>
<text text-anchor="middle" x="154" y="-14.3" font-family="Times,serif" font-size="14.00" fill="red">aa</text>
</g>
<!-- ba&#45;&gt;aa -->
<g id="edge1" class="edge"><title>ba&#45;&gt;aa</title>
<path fill="none" stroke="black" d="M110.934,-73.811C118.214,-64.5464 127.663,-52.5203 135.854,-42.0944"/>
<polygon fill="black" stroke="black" points="138.663,-44.1849 142.089,-34.1593 133.159,-39.8601 138.663,-44.1849"/>
</g>
<!-- a -->
<g id="node3" class="node"><title>a</title>
<ellipse fill="none" stroke="black" cx="27" cy="-90" rx="27" ry="18"/>
<text text-anchor="middle" x="27" y="-86.3" font-family="Times,serif" font-size="14.00">a</text>
</g>
<!-- a&#45;&gt;aa -->
<g id="edge2" class="edge"><title>a&#45;&gt;aa</title>
<path fill="none" stroke="black" d="M47.1235,-77.9083C67.9937,-66.405 100.838,-48.3017 124.612,-35.1983"/>
<polygon fill="black" stroke="black" points="126.482,-38.164 133.55,-30.2716 123.103,-32.0336 126.482,-38.164"/>
</g>
<!-- 1 -->
<g id="node4" class="node"><title>1</title>
<ellipse fill="none" stroke="black" cx="154" cy="-162" rx="27" ry="18"/>
<text text-anchor="middle" x="154" y="-158.3" font-family="Times,serif" font-size="14.00" fill="red">1</text>
</g>
<!-- 1&#45;&gt;ba -->
<g id="edge3" class="edge"><title>1&#45;&gt;ba</title>
<path fill="none" stroke="black" d="M142.066,-145.811C134.786,-136.546 125.337,-124.52 117.146,-114.094"/>
<polygon fill="black" stroke="black" points="119.841,-111.86 110.911,-106.159 114.337,-116.185 119.841,-111.86"/>
</g>
<!-- 1&#45;&gt;aa -->
<g id="edge4" class="edge"><title>1&#45;&gt;aa</title>
<path fill="none" stroke="black" d="M154,-143.871C154,-119.67 154,-75.2108 154,-46.3932"/>
<polygon fill="black" stroke="black" points="157.5,-46.1892 154,-36.1893 150.5,-46.1893 157.5,-46.1892"/>
</g>
<!-- ab -->
<g id="node5" class="node"><title>ab</title>
<ellipse fill="none" stroke="black" cx="209" cy="-90" rx="27" ry="18"/>
<text text-anchor="middle" x="209" y="-86.3" font-family="Times,serif" font-size="14.00" fill="red">ab</text>
</g>
<!-- 1&#45;&gt;ab -->
<g id="edge5" class="edge"><title>1&#45;&gt;ab</title>
<path fill="none" stroke="black" d="M165.934,-145.811C173.214,-136.546 182.663,-124.52 190.854,-114.094"/>
<polygon fill="black" stroke="black" points="193.663,-116.185 197.089,-106.159 188.159,-111.86 193.663,-116.185"/>
</g>
<!-- ab&#45;&gt;aa -->
<g id="edge6" class="edge"><title>ab&#45;&gt;aa</title>
<path fill="none" stroke="black" d="M197.066,-73.811C189.786,-64.5464 180.337,-52.5203 172.146,-42.0944"/>
<polygon fill="black" stroke="black" points="174.841,-39.8601 165.911,-34.1593 169.337,-44.1849 174.841,-39.8601"/>
</g>
<!-- b -->
<g id="node6" class="node"><title>b</title>
<ellipse fill="none" stroke="black" cx="281" cy="-90" rx="27" ry="18"/>
<text text-anchor="middle" x="281" y="-86.3" font-family="Times,serif" font-size="14.00">b</text>
</g>
<!-- b&#45;&gt;aa -->
<g id="edge7" class="edge"><title>b&#45;&gt;aa</title>
<path fill="none" stroke="black" d="M260.876,-77.9083C240.006,-66.405 207.162,-48.3017 183.388,-35.1983"/>
<polygon fill="black" stroke="black" points="184.897,-32.0336 174.45,-30.2716 181.518,-38.164 184.897,-32.0336"/>
</g>
</g>
</svg>
