<?xml version="1.0" encoding="UTF-8" standalone="no"?>
<!DOCTYPE svg PUBLIC "-//W3C//DTD SVG 1.1//EN"
 "http://www.w3.org/Graphics/SVG/1.1/DTD/svg11.dtd">
<!-- Generated by graphviz version 2.38.0 (20140413.2041)
 -->
<!-- Title: %3 Pages: 1 -->
<svg width="141pt" height="313pt"
 viewBox="0.00 0.00 141.00 313.00" xmlns="http://www.w3.org/2000/svg" xmlns:xlink="http://www.w3.org/1999/xlink">
<g id="graph0" class="graph" transform="scale(1 1) rotate(0) translate(4 309)">
<title>%3</title>
<!-- 2 -->
<g id="node1" class="node"><title>2</title>
<ellipse fill="lightblue" stroke="black" cx="82" cy="-287" rx="18" ry="18"/>
<text text-anchor="middle" x="82" y="-283.3" font-family="Times,serif" font-size="14.00">2</text>
</g>
<!-- 2&#45;&gt;2 -->
<g id="edge1" class="edge"><title>2&#45;&gt;2</title>
<path fill="none" stroke="black" d="M98.6641,-294.383C108.625,-296.023 118,-293.562 118,-287 118,-282.796 114.152,-280.275 108.768,-279.438"/>
<polygon fill="black" stroke="black" points="108.6,-275.94 98.6641,-279.617 108.725,-282.939 108.6,-275.94"/>
<text text-anchor="middle" x="121.5" y="-283.3" font-family="Times,serif" font-size="14.00">a</text>
</g>
<!-- 0 -->
<g id="node3" class="node"><title>0</title>
<ellipse fill="#aaff80" stroke="black" cx="22" cy="-196" rx="18" ry="18"/>
<ellipse fill="none" stroke="black" cx="22" cy="-196" rx="22" ry="22"/>
<text text-anchor="middle" x="22" y="-192.3" font-family="Times,serif" font-size="14.00">0</text>
</g>
<!-- 2&#45;&gt;0 -->
<g id="edge2" class="edge"><title>2&#45;&gt;0</title>
<path fill="none" stroke="black" d="M72.36,-271.701C63.5277,-258.599 50.2375,-238.886 39.5275,-222.999"/>
<polygon fill="black" stroke="black" points="42.3798,-220.969 33.8877,-214.633 36.5755,-224.882 42.3798,-220.969"/>
<text text-anchor="middle" x="60.5" y="-239.8" font-family="Times,serif" font-size="14.00">d</text>
</g>
<!-- 3 -->
<g id="node4" class="node"><title>3</title>
<ellipse fill="lightblue" stroke="black" cx="60" cy="-18" rx="18" ry="18"/>
<text text-anchor="middle" x="60" y="-14.3" font-family="Times,serif" font-size="14.00">3</text>
</g>
<!-- 2&#45;&gt;3 -->
<g id="edge3" class="edge"><title>2&#45;&gt;3</title>
<path fill="none" stroke="black" d="M86.5979,-269.397C87.9822,-263.622 89.3151,-257.07 90,-251 90.7475,-244.375 90.0671,-242.666 90,-236 89.3333,-169.768 93.612,-152.905 87,-87 85.5119,-72.1673 86.2533,-67.9508 81,-54 79.4549,-49.8967 77.4298,-45.7322 75.2472,-41.776"/>
<polygon fill="black" stroke="black" points="78.1611,-39.8293 70.0199,-33.049 72.1559,-43.4263 78.1611,-39.8293"/>
<text text-anchor="middle" x="98.5" y="-144.8" font-family="Times,serif" font-size="14.00">b,c</text>
</g>
<!-- 1 -->
<g id="node2" class="node"><title>1</title>
<ellipse fill="lightblue" stroke="black" cx="60" cy="-105" rx="18" ry="18"/>
<text text-anchor="middle" x="60" y="-101.3" font-family="Times,serif" font-size="14.00">1</text>
</g>
<!-- 1&#45;&gt;2 -->
<g id="edge4" class="edge"><title>1&#45;&gt;2</title>
<path fill="none" stroke="black" d="M62.0802,-123.02C65.9045,-154.31 74.0807,-221.206 78.6803,-258.839"/>
<polygon fill="black" stroke="black" points="75.2429,-259.565 79.9303,-269.066 82.1912,-258.715 75.2429,-259.565"/>
<text text-anchor="middle" x="76.5" y="-192.3" font-family="Times,serif" font-size="14.00">b</text>
</g>
<!-- 1&#45;&gt;0 -->
<g id="edge5" class="edge"><title>1&#45;&gt;0</title>
<path fill="none" stroke="black" d="M53.2351,-121.844C48.0089,-134.085 40.6334,-151.359 34.3618,-166.047"/>
<polygon fill="black" stroke="black" points="31.1413,-164.677 30.4334,-175.248 37.5791,-167.426 31.1413,-164.677"/>
<text text-anchor="middle" x="47.5" y="-144.8" font-family="Times,serif" font-size="14.00">c</text>
</g>
<!-- 1&#45;&gt;3 -->
<g id="edge6" class="edge"><title>1&#45;&gt;3</title>
<path fill="none" stroke="black" d="M60,-86.799C60,-75.1626 60,-59.5479 60,-46.2368"/>
<polygon fill="black" stroke="black" points="63.5001,-46.1754 60,-36.1754 56.5001,-46.1755 63.5001,-46.1754"/>
<text text-anchor="middle" x="68.5" y="-57.8" font-family="Times,serif" font-size="14.00">a,d</text>
</g>
<!-- 0&#45;&gt;1 -->
<g id="edge7" class="edge"><title>0&#45;&gt;1</title>
<path fill="none" stroke="black" d="M15.3272,-174.888C12.9876,-164.333 12.0276,-151.459 17,-141 21.04,-132.502 28.2641,-125.391 35.6517,-119.847"/>
<polygon fill="black" stroke="black" points="37.8852,-122.562 44.2182,-114.068 33.9707,-116.759 37.8852,-122.562"/>
<text text-anchor="middle" x="25.5" y="-144.8" font-family="Times,serif" font-size="14.00">b,a</text>
</g>
<!-- 0&#45;&gt;3 -->
<g id="edge8" class="edge"><title>0&#45;&gt;3</title>
<path fill="none" stroke="black" d="M13.9884,-175.069C11.9411,-169.043 10.0289,-162.34 9,-156 5.6025,-135.064 13.857,-92.8415 16,-87 22.1383,-70.2675 32.9845,-53.4345 42.3718,-40.7024"/>
<polygon fill="black" stroke="black" points="45.2755,-42.6668 48.562,-32.5946 39.7117,-38.419 45.2755,-42.6668"/>
<text text-anchor="middle" x="24.5" y="-101.3" font-family="Times,serif" font-size="14.00">d,c</text>
</g>
<!-- 3&#45;&gt;3 -->
<g id="edge9" class="edge"><title>3&#45;&gt;3</title>
<path fill="none" stroke="black" d="M76.6641,-25.3828C86.625,-27.0234 96,-24.5625 96,-18 96,-13.7959 92.1525,-11.2751 86.7682,-10.4375"/>
<polygon fill="black" stroke="black" points="86.6002,-6.93988 76.6641,-10.6172 86.7247,-13.9388 86.6002,-6.93988"/>
<text text-anchor="middle" x="114.5" y="-14.3" font-family="Times,serif" font-size="14.00">b,a,d,c</text>
</g>
</g>
</svg>
