<?xml version="1.0" encoding="UTF-8" standalone="no"?>
<!DOCTYPE svg PUBLIC "-//W3C//DTD SVG 1.1//EN"
 "http://www.w3.org/Graphics/SVG/1.1/DTD/svg11.dtd">
<!-- Generated by graphviz version 2.38.0 (20140413.2041)
 -->
<!-- Title: %3 Pages: 1 -->
<svg width="112pt" height="321pt"
 viewBox="0.00 0.00 112.00 321.00" xmlns="http://www.w3.org/2000/svg" xmlns:xlink="http://www.w3.org/1999/xlink">
<g id="graph0" class="graph" transform="scale(1 1) rotate(0) translate(4 317)">
<title>%3</title>
<!-- 0 -->
<g id="node1" class="node"><title>0</title>
<ellipse fill="#aaff80" stroke="black" cx="50" cy="-295" rx="18" ry="18"/>
<text text-anchor="middle" x="50" y="-291.3" font-family="Times,serif" font-size="14.00">0</text>
</g>
<!-- 1 -->
<g id="node2" class="node"><title>1</title>
<ellipse fill="lightblue" stroke="black" cx="22" cy="-204" rx="18" ry="18"/>
<ellipse fill="none" stroke="black" cx="22" cy="-204" rx="22" ry="22"/>
<text text-anchor="middle" x="22" y="-200.3" font-family="Times,serif" font-size="14.00">1</text>
</g>
<!-- 0&#45;&gt;1 -->
<g id="edge1" class="edge"><title>0&#45;&gt;1</title>
<path fill="none" stroke="black" d="M37.5375,-281.902C31.9721,-275.648 26.0011,-267.544 23,-259 20.4791,-251.823 19.4554,-243.772 19.2333,-236.122"/>
<polygon fill="black" stroke="black" points="22.7338,-236.101 19.3619,-226.057 15.7343,-236.012 22.7338,-236.101"/>
<text text-anchor="middle" x="26.5" y="-247.8" font-family="Times,serif" font-size="14.00">a</text>
</g>
<!-- 2 -->
<g id="node3" class="node"><title>2</title>
<ellipse fill="lightblue" stroke="black" cx="51" cy="-18" rx="18" ry="18"/>
<text text-anchor="middle" x="51" y="-14.3" font-family="Times,serif" font-size="14.00">2</text>
</g>
<!-- 0&#45;&gt;2 -->
<g id="edge2" class="edge"><title>0&#45;&gt;2</title>
<path fill="none" stroke="black" d="M50.8426,-276.787C52.6354,-239.126 56.765,-146.578 58,-69 58.1061,-62.3342 58.6569,-60.6342 58,-54 57.7289,-51.2617 57.3411,-48.4202 56.8855,-45.5938"/>
<polygon fill="black" stroke="black" points="60.3017,-44.8205 55.0241,-35.6337 53.4208,-46.1065 60.3017,-44.8205"/>
<text text-anchor="middle" x="58.5" y="-152.8" font-family="Times,serif" font-size="14.00">b</text>
</g>
<!-- 1&#45;&gt;0 -->
<g id="edge3" class="edge"><title>1&#45;&gt;0</title>
<path fill="none" stroke="black" d="M28.381,-225.282C32.3588,-237.926 37.5166,-254.321 41.7966,-267.925"/>
<polygon fill="black" stroke="black" points="38.5246,-269.187 44.8644,-277.676 45.2019,-267.087 38.5246,-269.187"/>
<text text-anchor="middle" x="41.5" y="-247.8" font-family="Times,serif" font-size="14.00">a</text>
</g>
<!-- 3 -->
<g id="node4" class="node"><title>3</title>
<ellipse fill="lightblue" stroke="black" cx="22" cy="-109" rx="18" ry="18"/>
<ellipse fill="none" stroke="black" cx="22" cy="-109" rx="22" ry="22"/>
<text text-anchor="middle" x="22" y="-105.3" font-family="Times,serif" font-size="14.00">3</text>
</g>
<!-- 1&#45;&gt;3 -->
<g id="edge4" class="edge"><title>1&#45;&gt;3</title>
<path fill="none" stroke="black" d="M22,-181.897C22,-169.887 22,-154.617 22,-141.242"/>
<polygon fill="black" stroke="black" points="25.5001,-141.02 22,-131.02 18.5001,-141.02 25.5001,-141.02"/>
<text text-anchor="middle" x="25.5" y="-152.8" font-family="Times,serif" font-size="14.00">b</text>
</g>
<!-- 2&#45;&gt;2 -->
<g id="edge5" class="edge"><title>2&#45;&gt;2</title>
<path fill="none" stroke="black" d="M67.6641,-25.3828C77.625,-27.0234 87,-24.5625 87,-18 87,-13.7959 83.1525,-11.2751 77.7682,-10.4375"/>
<polygon fill="black" stroke="black" points="77.6002,-6.93988 67.6641,-10.6172 77.7247,-13.9388 77.6002,-6.93988"/>
<text text-anchor="middle" x="95.5" y="-14.3" font-family="Times,serif" font-size="14.00">a,b</text>
</g>
<!-- 3&#45;&gt;2 -->
<g id="edge6" class="edge"><title>3&#45;&gt;2</title>
<path fill="none" stroke="black" d="M28.5805,-87.8045C32.7088,-75.1351 38.0724,-58.6743 42.5183,-45.0299"/>
<polygon fill="black" stroke="black" points="45.9332,-45.8468 45.7036,-35.2544 39.2776,-43.678 45.9332,-45.8468"/>
<text text-anchor="middle" x="47.5" y="-57.8" font-family="Times,serif" font-size="14.00">a,b</text>
</g>
</g>
</svg>
