<?xml version="1.0" encoding="UTF-8" standalone="no"?>
<!DOCTYPE svg PUBLIC "-//W3C//DTD SVG 1.1//EN"
 "http://www.w3.org/Graphics/SVG/1.1/DTD/svg11.dtd">
<!-- Generated by graphviz version 2.38.0 (20140413.2041)
 -->
<!-- Title: %3 Pages: 1 -->
<svg width="96pt" height="313pt"
 viewBox="0.00 0.00 96.00 313.00" xmlns="http://www.w3.org/2000/svg" xmlns:xlink="http://www.w3.org/1999/xlink">
<g id="graph0" class="graph" transform="scale(1 1) rotate(0) translate(4 309)">
<title>%3</title>
<!-- 0 -->
<g id="node1" class="node"><title>0</title>
<ellipse fill="lightblue" stroke="black" cx="54" cy="-287" rx="18" ry="18"/>
<text text-anchor="middle" x="54" y="-283.3" font-family="Times,serif" font-size="14.00">0</text>
</g>
<!-- 2 -->
<g id="node3" class="node"><title>2</title>
<ellipse fill="lightblue" stroke="black" cx="18" cy="-18" rx="18" ry="18"/>
<text text-anchor="middle" x="18" y="-14.3" font-family="Times,serif" font-size="14.00">2</text>
</g>
<!-- 0&#45;&gt;2 -->
<g id="edge1" class="edge"><title>0&#45;&gt;2</title>
<path fill="none" stroke="black" d="M43.6655,-272.026C34.6173,-258.858 22.1369,-238.189 17,-218 1.737,-158.015 8.32674,-84.5258 13.6581,-45.8123"/>
<polygon fill="black" stroke="black" points="17.1304,-46.2557 15.1092,-35.8554 10.2035,-45.2461 17.1304,-46.2557"/>
<text text-anchor="middle" x="11.5" y="-144.8" font-family="Times,serif" font-size="14.00">a</text>
</g>
<!-- 3 -->
<g id="node4" class="node"><title>3</title>
<ellipse fill="#aaff80" stroke="black" cx="48" cy="-196" rx="18" ry="18"/>
<ellipse fill="none" stroke="black" cx="48" cy="-196" rx="22" ry="22"/>
<text text-anchor="middle" x="48" y="-192.3" font-family="Times,serif" font-size="14.00">3</text>
</g>
<!-- 0&#45;&gt;3 -->
<g id="edge2" class="edge"><title>0&#45;&gt;3</title>
<path fill="none" stroke="black" d="M47.3664,-270.258C45.201,-264.332 43.0772,-257.463 42,-251 40.742,-243.452 40.8838,-235.265 41.6646,-227.602"/>
<polygon fill="black" stroke="black" points="45.1466,-227.972 43.0539,-217.586 38.213,-227.011 45.1466,-227.972"/>
<text text-anchor="middle" x="45.5" y="-239.8" font-family="Times,serif" font-size="14.00">b</text>
</g>
<!-- 1 -->
<g id="node2" class="node"><title>1</title>
<ellipse fill="lightblue" stroke="black" cx="48" cy="-105" rx="18" ry="18"/>
<text text-anchor="middle" x="48" y="-101.3" font-family="Times,serif" font-size="14.00">1</text>
</g>
<!-- 1&#45;&gt;0 -->
<g id="edge3" class="edge"><title>1&#45;&gt;0</title>
<path fill="none" stroke="black" d="M56.9706,-120.745C64.5367,-134.101 74.7868,-154.601 79,-174 83.1505,-193.11 82.427,-198.747 79,-218 76.3737,-232.755 70.7766,-248.505 65.543,-261.128"/>
<polygon fill="black" stroke="black" points="62.2458,-259.935 61.4873,-270.503 68.6703,-262.714 62.2458,-259.935"/>
<text text-anchor="middle" x="84.5" y="-192.3" font-family="Times,serif" font-size="14.00">b</text>
</g>
<!-- 1&#45;&gt;2 -->
<g id="edge4" class="edge"><title>1&#45;&gt;2</title>
<path fill="none" stroke="black" d="M42.2157,-87.6111C37.9409,-75.4993 32.0358,-58.7682 27.1272,-44.8603"/>
<polygon fill="black" stroke="black" points="30.3953,-43.6036 23.7665,-35.3385 23.7943,-45.9333 30.3953,-43.6036"/>
<text text-anchor="middle" x="37.5" y="-57.8" font-family="Times,serif" font-size="14.00">a</text>
</g>
<!-- 2&#45;&gt;2 -->
<g id="edge5" class="edge"><title>2&#45;&gt;2</title>
<path fill="none" stroke="black" d="M34.6641,-25.3828C44.625,-27.0234 54,-24.5625 54,-18 54,-13.7959 50.1525,-11.2751 44.7682,-10.4375"/>
<polygon fill="black" stroke="black" points="44.6002,-6.93988 34.6641,-10.6172 44.7247,-13.9388 44.6002,-6.93988"/>
<text text-anchor="middle" x="62.5" y="-14.3" font-family="Times,serif" font-size="14.00">a,b</text>
</g>
<!-- 3&#45;&gt;0 -->
<g id="edge6" class="edge"><title>3&#45;&gt;0</title>
<path fill="none" stroke="black" d="M49.4286,-218.191C50.2439,-230.284 51.2749,-245.578 52.1514,-258.579"/>
<polygon fill="black" stroke="black" points="48.6783,-259.098 52.8431,-268.84 55.6625,-258.627 48.6783,-259.098"/>
<text text-anchor="middle" x="54.5" y="-239.8" font-family="Times,serif" font-size="14.00">b</text>
</g>
<!-- 3&#45;&gt;1 -->
<g id="edge7" class="edge"><title>3&#45;&gt;1</title>
<path fill="none" stroke="black" d="M48,-173.908C48,-161.78 48,-146.409 48,-133.36"/>
<polygon fill="black" stroke="black" points="51.5001,-133.066 48,-123.066 44.5001,-133.066 51.5001,-133.066"/>
<text text-anchor="middle" x="51.5" y="-144.8" font-family="Times,serif" font-size="14.00">a</text>
</g>
</g>
</svg>
