<?xml version="1.0" encoding="UTF-8" standalone="no"?>
<!DOCTYPE svg PUBLIC "-//W3C//DTD SVG 1.1//EN"
 "http://www.w3.org/Graphics/SVG/1.1/DTD/svg11.dtd">
<!-- Generated by graphviz version 2.38.0 (20140413.2041)
 -->
<!-- Title: %3 Pages: 1 -->
<svg width="132pt" height="313pt"
 viewBox="0.00 0.00 132.00 313.00" xmlns="http://www.w3.org/2000/svg" xmlns:xlink="http://www.w3.org/1999/xlink">
<g id="graph0" class="graph" transform="scale(1 1) rotate(0) translate(4 309)">
<title>%3</title>
<!-- 0 -->
<g id="node1" class="node"><title>0</title>
<ellipse fill="#aaff80" stroke="black" cx="18" cy="-287" rx="18" ry="18"/>
<text text-anchor="middle" x="18" y="-283.3" font-family="Times,serif" font-size="14.00">0</text>
</g>
<!-- 2 -->
<g id="node3" class="node"><title>2</title>
<ellipse fill="lightblue" stroke="black" cx="48" cy="-18" rx="18" ry="18"/>
<text text-anchor="middle" x="48" y="-14.3" font-family="Times,serif" font-size="14.00">2</text>
</g>
<!-- 0&#45;&gt;2 -->
<g id="edge1" class="edge"><title>0&#45;&gt;2</title>
<path fill="none" stroke="black" d="M15.4569,-268.969C10.8074,-234.253 2.66454,-153.005 17,-87 20.3574,-71.5417 27.5483,-55.3838 34.1596,-42.699"/>
<polygon fill="black" stroke="black" points="37.3263,-44.202 39.0294,-33.7449 31.1769,-40.8576 37.3263,-44.202"/>
<text text-anchor="middle" x="17.5" y="-152.8" font-family="Times,serif" font-size="14.00">b,c</text>
</g>
<!-- 3 -->
<g id="node4" class="node"><title>3</title>
<ellipse fill="lightblue" stroke="black" cx="48" cy="-200" rx="18" ry="18"/>
<text text-anchor="middle" x="48" y="-196.3" font-family="Times,serif" font-size="14.00">3</text>
</g>
<!-- 0&#45;&gt;3 -->
<g id="edge2" class="edge"><title>0&#45;&gt;3</title>
<path fill="none" stroke="black" d="M23.7843,-269.611C28.0591,-257.499 33.9642,-240.768 38.8728,-226.86"/>
<polygon fill="black" stroke="black" points="42.2057,-227.933 42.2335,-217.339 35.6047,-225.604 42.2057,-227.933"/>
<text text-anchor="middle" x="37.5" y="-239.8" font-family="Times,serif" font-size="14.00">a</text>
</g>
<!-- 1 -->
<g id="node2" class="node"><title>1</title>
<ellipse fill="lightblue" stroke="black" cx="48" cy="-109" rx="18" ry="18"/>
<ellipse fill="none" stroke="black" cx="48" cy="-109" rx="22" ry="22"/>
<text text-anchor="middle" x="48" y="-105.3" font-family="Times,serif" font-size="14.00">1</text>
</g>
<!-- 1&#45;&gt;1 -->
<g id="edge3" class="edge"><title>1&#45;&gt;1</title>
<path fill="none" stroke="black" d="M68.5808,-117.37C78.8447,-118.528 88,-115.738 88,-109 88,-104.683 84.2427,-101.987 78.8436,-100.911"/>
<polygon fill="black" stroke="black" points="78.6729,-97.405 68.5808,-100.63 78.4812,-104.402 78.6729,-97.405"/>
<text text-anchor="middle" x="91.5" y="-105.3" font-family="Times,serif" font-size="14.00">c</text>
</g>
<!-- 1&#45;&gt;2 -->
<g id="edge4" class="edge"><title>1&#45;&gt;2</title>
<path fill="none" stroke="black" d="M48,-86.9082C48,-74.7803 48,-59.4094 48,-46.3598"/>
<polygon fill="black" stroke="black" points="51.5001,-46.0663 48,-36.0663 44.5001,-46.0663 51.5001,-46.0663"/>
<text text-anchor="middle" x="56.5" y="-57.8" font-family="Times,serif" font-size="14.00">b,a</text>
</g>
<!-- 2&#45;&gt;2 -->
<g id="edge5" class="edge"><title>2&#45;&gt;2</title>
<path fill="none" stroke="black" d="M64.6641,-25.3828C74.625,-27.0234 84,-24.5625 84,-18 84,-13.7959 80.1525,-11.2751 74.7682,-10.4375"/>
<polygon fill="black" stroke="black" points="74.6002,-6.93988 64.6641,-10.6172 74.7247,-13.9388 74.6002,-6.93988"/>
<text text-anchor="middle" x="97.5" y="-14.3" font-family="Times,serif" font-size="14.00">b,a,c</text>
</g>
<!-- 3&#45;&gt;1 -->
<g id="edge6" class="edge"><title>3&#45;&gt;1</title>
<path fill="none" stroke="black" d="M48,-181.84C48,-170.441 48,-155.134 48,-141.578"/>
<polygon fill="black" stroke="black" points="51.5001,-141.19 48,-131.191 44.5001,-141.191 51.5001,-141.19"/>
<text text-anchor="middle" x="51.5" y="-152.8" font-family="Times,serif" font-size="14.00">b</text>
</g>
<!-- 3&#45;&gt;2 -->
<g id="edge7" class="edge"><title>3&#45;&gt;2</title>
<path fill="none" stroke="black" d="M61.4689,-187.888C75.1807,-175.616 95.5819,-154.464 104,-131 110.604,-112.593 110.604,-105.407 104,-87 97.0287,-67.5688 81.8396,-49.7232 69.0371,-37.1935"/>
<polygon fill="black" stroke="black" points="71.1624,-34.3889 61.4689,-30.1123 66.3798,-39.5003 71.1624,-34.3889"/>
<text text-anchor="middle" x="116" y="-105.3" font-family="Times,serif" font-size="14.00">a,c</text>
</g>
</g>
</svg>
