<?xml version="1.0" encoding="UTF-8" standalone="no"?>
<!DOCTYPE svg PUBLIC "-//W3C//DTD SVG 1.1//EN"
 "http://www.w3.org/Graphics/SVG/1.1/DTD/svg11.dtd">
<!-- Generated by graphviz version 2.38.0 (20140413.2041)
 -->
<!-- Title: %3 Pages: 1 -->
<svg width="219pt" height="226pt"
 viewBox="0.00 0.00 219.00 226.00" xmlns="http://www.w3.org/2000/svg" xmlns:xlink="http://www.w3.org/1999/xlink">
<g id="graph0" class="graph" transform="scale(1 1) rotate(0) translate(4 222)">
<title>%3</title>
<!-- 0 -->
<g id="node1" class="node"><title>0</title>
<ellipse fill="lightblue" stroke="black" cx="22" cy="-109" rx="18" ry="18"/>
<ellipse fill="none" stroke="black" cx="22" cy="-109" rx="22" ry="22"/>
<text text-anchor="middle" x="22" y="-105.3" font-family="Times,serif" font-size="14.00">0</text>
</g>
<!-- 0&#45;&gt;0 -->
<g id="edge1" class="edge"><title>0&#45;&gt;0</title>
<path fill="none" stroke="black" d="M42.5808,-117.37C52.8447,-118.528 62,-115.738 62,-109 62,-104.683 58.2427,-101.987 52.8436,-100.911"/>
<polygon fill="black" stroke="black" points="52.6729,-97.405 42.5808,-100.63 52.4812,-104.402 52.6729,-97.405"/>
<text text-anchor="middle" x="65.5" y="-105.3" font-family="Times,serif" font-size="14.00">a</text>
</g>
<!-- 1 -->
<g id="node2" class="node"><title>1</title>
<ellipse fill="lightblue" stroke="black" cx="41" cy="-18" rx="18" ry="18"/>
<text text-anchor="middle" x="41" y="-14.3" font-family="Times,serif" font-size="14.00">1</text>
</g>
<!-- 0&#45;&gt;1 -->
<g id="edge2" class="edge"><title>0&#45;&gt;1</title>
<path fill="none" stroke="black" d="M19.6124,-86.9309C19.0684,-76.8244 19.3004,-64.6314 22,-54 23.005,-50.042 24.5577,-46.0474 26.3517,-42.2436"/>
<polygon fill="black" stroke="black" points="29.4996,-43.7793 31.1343,-33.3113 23.3284,-40.4751 29.4996,-43.7793"/>
<text text-anchor="middle" x="30.5" y="-57.8" font-family="Times,serif" font-size="14.00">c,b</text>
</g>
<!-- 1&#45;&gt;0 -->
<g id="edge3" class="edge"><title>1&#45;&gt;0</title>
<path fill="none" stroke="black" d="M41.8702,-36.3321C41.9705,-46.0518 41.4477,-58.3309 39,-69 38.1995,-72.4893 37.0927,-76.0554 35.8243,-79.544"/>
<polygon fill="black" stroke="black" points="32.4855,-78.4621 31.9419,-89.0429 38.9652,-81.1105 32.4855,-78.4621"/>
<text text-anchor="middle" x="45.5" y="-57.8" font-family="Times,serif" font-size="14.00">a</text>
</g>
<!-- 1&#45;&gt;1 -->
<g id="edge4" class="edge"><title>1&#45;&gt;1</title>
<path fill="none" stroke="black" d="M57.6641,-25.3828C67.625,-27.0234 77,-24.5625 77,-18 77,-13.7959 73.1525,-11.2751 67.7682,-10.4375"/>
<polygon fill="black" stroke="black" points="67.6002,-6.93988 57.6641,-10.6172 67.7247,-13.9388 67.6002,-6.93988"/>
<text text-anchor="middle" x="85.5" y="-14.3" font-family="Times,serif" font-size="14.00">c,b</text>
</g>
<!-- 2 -->
<g id="node3" class="node"><title>2</title>
<ellipse fill="lightblue" stroke="black" cx="109" cy="-109" rx="18" ry="18"/>
<ellipse fill="none" stroke="black" cx="109" cy="-109" rx="22" ry="22"/>
<text text-anchor="middle" x="109" y="-105.3" font-family="Times,serif" font-size="14.00">2</text>
</g>
<!-- 3 -->
<g id="node4" class="node"><title>3</title>
<ellipse fill="lightblue" stroke="black" cx="148" cy="-18" rx="18" ry="18"/>
<text text-anchor="middle" x="148" y="-14.3" font-family="Times,serif" font-size="14.00">3</text>
</g>
<!-- 2&#45;&gt;3 -->
<g id="edge5" class="edge"><title>2&#45;&gt;3</title>
<path fill="none" stroke="black" d="M114.105,-87.5361C117.006,-77.2398 121.05,-64.7054 126,-54 127.864,-49.9692 130.112,-45.8422 132.449,-41.901"/>
<polygon fill="black" stroke="black" points="135.575,-43.505 137.928,-33.1748 129.646,-39.7829 135.575,-43.505"/>
<text text-anchor="middle" x="139.5" y="-57.8" font-family="Times,serif" font-size="14.00">c,b,a</text>
</g>
<!-- 3&#45;&gt;3 -->
<g id="edge6" class="edge"><title>3&#45;&gt;3</title>
<path fill="none" stroke="black" d="M164.664,-25.3828C174.625,-27.0234 184,-24.5625 184,-18 184,-13.7959 180.152,-11.2751 174.768,-10.4375"/>
<polygon fill="black" stroke="black" points="174.6,-6.93988 164.664,-10.6172 174.725,-13.9388 174.6,-6.93988"/>
<text text-anchor="middle" x="197.5" y="-14.3" font-family="Times,serif" font-size="14.00">c,b,a</text>
</g>
<!-- 4 -->
<g id="node5" class="node"><title>4</title>
<ellipse fill="#aaff80" stroke="black" cx="109" cy="-200" rx="18" ry="18"/>
<text text-anchor="middle" x="109" y="-196.3" font-family="Times,serif" font-size="14.00">4</text>
</g>
<!-- 4&#45;&gt;0 -->
<g id="edge7" class="edge"><title>4&#45;&gt;0</title>
<path fill="none" stroke="black" d="M96.903,-186.625C83.2988,-172.708 60.9201,-149.815 44.1599,-132.669"/>
<polygon fill="black" stroke="black" points="46.3995,-129.953 36.9064,-125.249 41.3938,-134.847 46.3995,-129.953"/>
<text text-anchor="middle" x="77.5" y="-152.8" font-family="Times,serif" font-size="14.00">a</text>
</g>
<!-- 4&#45;&gt;2 -->
<g id="edge8" class="edge"><title>4&#45;&gt;2</title>
<path fill="none" stroke="black" d="M109,-181.84C109,-170.441 109,-155.134 109,-141.578"/>
<polygon fill="black" stroke="black" points="112.5,-141.19 109,-131.191 105.5,-141.191 112.5,-141.19"/>
<text text-anchor="middle" x="112.5" y="-152.8" font-family="Times,serif" font-size="14.00">c</text>
</g>
<!-- 4&#45;&gt;3 -->
<g id="edge9" class="edge"><title>4&#45;&gt;3</title>
<path fill="none" stroke="black" d="M117.146,-183.728C124.073,-170.197 133.849,-149.737 140,-131 148.782,-104.25 150.096,-97.0046 153,-69 153.771,-61.5687 153.466,-53.5138 152.72,-46.0842"/>
<polygon fill="black" stroke="black" points="156.186,-45.5979 151.436,-36.1276 149.243,-46.4931 156.186,-45.5979"/>
<text text-anchor="middle" x="153.5" y="-105.3" font-family="Times,serif" font-size="14.00">b</text>
</g>
</g>
</svg>
