<?xml version="1.0" encoding="UTF-8" standalone="no"?>
<!DOCTYPE svg PUBLIC "-//W3C//DTD SVG 1.1//EN"
 "http://www.w3.org/Graphics/SVG/1.1/DTD/svg11.dtd">
<!-- Generated by graphviz version 2.38.0 (20140413.2041)
 -->
<!-- Title: %3 Pages: 1 -->
<svg width="178pt" height="329pt"
 viewBox="0.00 0.00 178.00 329.00" xmlns="http://www.w3.org/2000/svg" xmlns:xlink="http://www.w3.org/1999/xlink">
<g id="graph0" class="graph" transform="scale(1 1) rotate(0) translate(4 325)">
<title>%3</title>
<!-- 0 -->
<g id="node1" class="node"><title>0</title>
<ellipse fill="lightblue" stroke="black" cx="123" cy="-299" rx="18" ry="18"/>
<ellipse fill="none" stroke="black" cx="123" cy="-299" rx="22" ry="22"/>
<text text-anchor="middle" x="123" y="-295.3" font-family="Times,serif" font-size="14.00">0</text>
</g>
<!-- 0&#45;&gt;0 -->
<g id="edge1" class="edge"><title>0&#45;&gt;0</title>
<path fill="none" stroke="black" d="M143.581,-307.37C153.845,-308.528 163,-305.738 163,-299 163,-294.683 159.243,-291.987 153.844,-290.911"/>
<polygon fill="black" stroke="black" points="153.673,-287.405 143.581,-290.63 153.481,-294.402 153.673,-287.405"/>
<text text-anchor="middle" x="166.5" y="-295.3" font-family="Times,serif" font-size="14.00">a</text>
</g>
<!-- 2 -->
<g id="node3" class="node"><title>2</title>
<ellipse fill="lightblue" stroke="black" cx="94" cy="-208" rx="18" ry="18"/>
<text text-anchor="middle" x="94" y="-204.3" font-family="Times,serif" font-size="14.00">2</text>
</g>
<!-- 0&#45;&gt;2 -->
<g id="edge2" class="edge"><title>0&#45;&gt;2</title>
<path fill="none" stroke="black" d="M116.419,-277.805C112.291,-265.135 106.928,-248.674 102.482,-235.03"/>
<polygon fill="black" stroke="black" points="105.722,-233.678 99.2964,-225.254 99.0668,-235.847 105.722,-233.678"/>
<text text-anchor="middle" x="113.5" y="-247.8" font-family="Times,serif" font-size="14.00">b</text>
</g>
<!-- 1 -->
<g id="node2" class="node"><title>1</title>
<ellipse fill="#aaff80" stroke="black" cx="22" cy="-117" rx="18" ry="18"/>
<ellipse fill="none" stroke="black" cx="22" cy="-117" rx="22" ry="22"/>
<text text-anchor="middle" x="22" y="-113.3" font-family="Times,serif" font-size="14.00">1</text>
</g>
<!-- 1&#45;&gt;1 -->
<g id="edge3" class="edge"><title>1&#45;&gt;1</title>
<path fill="none" stroke="black" d="M42.5808,-125.37C52.8447,-126.528 62,-123.738 62,-117 62,-112.683 58.2427,-109.987 52.8436,-108.911"/>
<polygon fill="black" stroke="black" points="52.6729,-105.405 42.5808,-108.63 52.4812,-112.402 52.6729,-105.405"/>
<text text-anchor="middle" x="65.5" y="-113.3" font-family="Times,serif" font-size="14.00">b</text>
</g>
<!-- 3 -->
<g id="node4" class="node"><title>3</title>
<ellipse fill="lightblue" stroke="black" cx="98" cy="-22" rx="18" ry="18"/>
<ellipse fill="none" stroke="black" cx="98" cy="-22" rx="22" ry="22"/>
<text text-anchor="middle" x="98" y="-18.3" font-family="Times,serif" font-size="14.00">3</text>
</g>
<!-- 1&#45;&gt;3 -->
<g id="edge4" class="edge"><title>1&#45;&gt;3</title>
<path fill="none" stroke="black" d="M26.9531,-95.3183C30.2452,-84.6026 35.3903,-71.7556 43,-62 50.3311,-52.6015 60.532,-44.5093 70.1599,-38.1713"/>
<polygon fill="black" stroke="black" points="72.0829,-41.0972 78.7419,-32.8566 68.3973,-35.146 72.0829,-41.0972"/>
<text text-anchor="middle" x="46.5" y="-65.8" font-family="Times,serif" font-size="14.00">a</text>
</g>
<!-- 2&#45;&gt;1 -->
<g id="edge5" class="edge"><title>2&#45;&gt;1</title>
<path fill="none" stroke="black" d="M83.0647,-193.483C72.2108,-180.066 55.3221,-159.19 42.0546,-142.79"/>
<polygon fill="black" stroke="black" points="44.5083,-140.258 35.4978,-134.685 39.0662,-144.661 44.5083,-140.258"/>
<text text-anchor="middle" x="68.5" y="-160.8" font-family="Times,serif" font-size="14.00">b</text>
</g>
<!-- 2&#45;&gt;3 -->
<g id="edge6" class="edge"><title>2&#45;&gt;3</title>
<path fill="none" stroke="black" d="M94.3763,-189.69C95.0501,-158.698 96.471,-93.3322 97.3196,-54.2975"/>
<polygon fill="black" stroke="black" points="100.824,-54.1101 97.5427,-44.0364 93.8261,-53.9579 100.824,-54.1101"/>
<text text-anchor="middle" x="99.5" y="-113.3" font-family="Times,serif" font-size="14.00">a</text>
</g>
<!-- 3&#45;&gt;0 -->
<g id="edge7" class="edge"><title>3&#45;&gt;0</title>
<path fill="none" stroke="black" d="M105.058,-43.0341C106.938,-49.0634 108.783,-55.7416 110,-62 124.071,-134.342 124.797,-221.337 123.977,-266.818"/>
<polygon fill="black" stroke="black" points="120.476,-266.853 123.756,-276.928 127.474,-267.007 120.476,-266.853"/>
<text text-anchor="middle" x="125.5" y="-160.8" font-family="Times,serif" font-size="14.00">a</text>
</g>
<!-- 3&#45;&gt;1 -->
<g id="edge8" class="edge"><title>3&#45;&gt;1</title>
<path fill="none" stroke="black" d="M84.5304,-39.4826C72.7866,-53.8533 55.5839,-74.9039 42.1932,-91.2899"/>
<polygon fill="black" stroke="black" points="39.205,-89.4154 35.5873,-99.3735 44.6253,-93.8449 39.205,-89.4154"/>
<text text-anchor="middle" x="68.5" y="-65.8" font-family="Times,serif" font-size="14.00">b</text>
</g>
</g>
</svg>
