<?xml version="1.0" encoding="UTF-8" standalone="no"?>
<!DOCTYPE svg PUBLIC "-//W3C//DTD SVG 1.1//EN"
 "http://www.w3.org/Graphics/SVG/1.1/DTD/svg11.dtd">
<!-- Generated by graphviz version 2.38.0 (20140413.2041)
 -->
<!-- Title: %3 Pages: 1 -->
<svg width="166pt" height="139pt"
 viewBox="0.00 0.00 166.00 139.00" xmlns="http://www.w3.org/2000/svg" xmlns:xlink="http://www.w3.org/1999/xlink">
<g id="graph0" class="graph" transform="scale(1 1) rotate(0) translate(4 135)">
<title>%3</title>
<!-- 0 -->
<g id="node1" class="node"><title>0</title>
<ellipse fill="lightblue" stroke="black" cx="18" cy="-22" rx="18" ry="18"/>
<text text-anchor="middle" x="18" y="-18.3" font-family="Times,serif" font-size="14.00">0</text>
</g>
<!-- 0&#45;&gt;0 -->
<g id="edge1" class="edge"><title>0&#45;&gt;0</title>
<path fill="none" stroke="black" d="M34.2903,-30.0164C44.3892,-31.9495 54,-29.2773 54,-22 54,-17.338 50.0557,-14.5659 44.5656,-13.6838"/>
<polygon fill="black" stroke="black" points="44.1839,-10.1933 34.2903,-13.9836 44.3881,-17.1903 44.1839,-10.1933"/>
<text text-anchor="middle" x="62.5" y="-18.3" font-family="Times,serif" font-size="14.00">b,a</text>
</g>
<!-- 1 -->
<g id="node2" class="node"><title>1</title>
<ellipse fill="lightblue" stroke="black" cx="81" cy="-113" rx="18" ry="18"/>
<text text-anchor="middle" x="81" y="-109.3" font-family="Times,serif" font-size="14.00">1</text>
</g>
<!-- 1&#45;&gt;0 -->
<g id="edge2" class="edge"><title>1&#45;&gt;0</title>
<path fill="none" stroke="black" d="M70.878,-97.7006C60.9584,-83.6873 45.6837,-62.1087 34.097,-45.7403"/>
<polygon fill="black" stroke="black" points="36.7313,-43.4038 28.0969,-37.2639 31.0179,-47.4482 36.7313,-43.4038"/>
<text text-anchor="middle" x="58.5" y="-65.8" font-family="Times,serif" font-size="14.00">b</text>
</g>
<!-- 2 -->
<g id="node3" class="node"><title>2</title>
<ellipse fill="#aaff80" stroke="black" cx="111" cy="-22" rx="18" ry="18"/>
<ellipse fill="none" stroke="black" cx="111" cy="-22" rx="22" ry="22"/>
<text text-anchor="middle" x="111" y="-18.3" font-family="Times,serif" font-size="14.00">2</text>
</g>
<!-- 1&#45;&gt;2 -->
<g id="edge3" class="edge"><title>1&#45;&gt;2</title>
<path fill="none" stroke="black" d="M79.7732,-94.8904C79.6142,-85.0206 80.3642,-72.5206 84,-62 85.7375,-56.9724 88.3171,-51.999 91.2033,-47.3725"/>
<polygon fill="black" stroke="black" points="94.1949,-49.1995 96.9905,-38.9802 88.4322,-45.2257 94.1949,-49.1995"/>
<text text-anchor="middle" x="87.5" y="-65.8" font-family="Times,serif" font-size="14.00">a</text>
</g>
<!-- 2&#45;&gt;1 -->
<g id="edge4" class="edge"><title>2&#45;&gt;1</title>
<path fill="none" stroke="black" d="M104.272,-42.9595C100.003,-55.6242 94.4334,-72.1476 89.8132,-85.8541"/>
<polygon fill="black" stroke="black" points="86.3801,-85.0819 86.5025,-95.676 93.0134,-87.3179 86.3801,-85.0819"/>
<text text-anchor="middle" x="100.5" y="-65.8" font-family="Times,serif" font-size="14.00">b</text>
</g>
<!-- 2&#45;&gt;2 -->
<g id="edge5" class="edge"><title>2&#45;&gt;2</title>
<path fill="none" stroke="black" d="M131.581,-30.3702C141.845,-31.5284 151,-28.7383 151,-22 151,-17.6833 147.243,-14.9869 141.844,-13.9109"/>
<polygon fill="black" stroke="black" points="141.673,-10.405 131.581,-13.6298 141.481,-17.4024 141.673,-10.405"/>
<text text-anchor="middle" x="154.5" y="-18.3" font-family="Times,serif" font-size="14.00">a</text>
</g>
</g>
</svg>
