<?xml version="1.0" encoding="UTF-8" standalone="no"?>
<!DOCTYPE svg PUBLIC "-//W3C//DTD SVG 1.1//EN"
 "http://www.w3.org/Graphics/SVG/1.1/DTD/svg11.dtd">
<!-- Generated by graphviz version 2.38.0 (20140413.2041)
 -->
<!-- Title: %3 Pages: 1 -->
<svg width="160pt" height="883pt"
 viewBox="0.00 0.00 160.00 883.00" xmlns="http://www.w3.org/2000/svg" xmlns:xlink="http://www.w3.org/1999/xlink">
<g id="graph0" class="graph" transform="scale(1 1) rotate(0) translate(4 879)">
<title>%3</title>
<!-- 0 -->
<g id="node1" class="node"><title>0</title>
<ellipse fill="#aaff80" stroke="black" cx="33" cy="-857" rx="18" ry="18"/>
<text text-anchor="middle" x="33" y="-853.3" font-family="Times,serif" font-size="14.00">0</text>
</g>
<!-- 3 -->
<g id="node4" class="node"><title>3</title>
<ellipse fill="lightblue" stroke="black" cx="56" cy="-766" rx="18" ry="18"/>
<ellipse fill="none" stroke="black" cx="56" cy="-766" rx="22" ry="22"/>
<text text-anchor="middle" x="56" y="-762.3" font-family="Times,serif" font-size="14.00">3</text>
</g>
<!-- 0&#45;&gt;3 -->
<g id="edge1" class="edge"><title>0&#45;&gt;3</title>
<path fill="none" stroke="black" d="M32.2996,-838.591C32.3383,-828.847 33.1102,-816.569 36,-806 37.0755,-802.066 38.5773,-798.07 40.2797,-794.211"/>
<polygon fill="black" stroke="black" points="43.5314,-795.529 44.7962,-785.01 37.2477,-792.444 43.5314,-795.529"/>
<text text-anchor="middle" x="39.5" y="-809.8" font-family="Times,serif" font-size="14.00">b</text>
</g>
<!-- 5 -->
<g id="node6" class="node"><title>5</title>
<ellipse fill="lightblue" stroke="black" cx="86" cy="-18" rx="18" ry="18"/>
<text text-anchor="middle" x="86" y="-14.3" font-family="Times,serif" font-size="14.00">5</text>
</g>
<!-- 0&#45;&gt;5 -->
<g id="edge2" class="edge"><title>0&#45;&gt;5</title>
<path fill="none" stroke="black" d="M23.8077,-841.187C14.0432,-824.01 0,-794.521 0,-767 0,-767 0,-767 0,-104 0,-69.5631 35.3129,-44.3577 60.6822,-30.6932"/>
<polygon fill="black" stroke="black" points="62.5091,-33.6904 69.8241,-26.026 59.3261,-27.4558 62.5091,-33.6904"/>
<text text-anchor="middle" x="3.5" y="-429.8" font-family="Times,serif" font-size="14.00">a</text>
</g>
<!-- 1 -->
<g id="node2" class="node"><title>1</title>
<ellipse fill="lightblue" stroke="black" cx="51" cy="-105" rx="18" ry="18"/>
<text text-anchor="middle" x="51" y="-101.3" font-family="Times,serif" font-size="14.00">1</text>
</g>
<!-- 1&#45;&gt;5 -->
<g id="edge3" class="edge"><title>1&#45;&gt;5</title>
<path fill="none" stroke="black" d="M57.5832,-88.0122C62.6185,-75.7836 69.6614,-58.6793 75.4759,-44.5586"/>
<polygon fill="black" stroke="black" points="78.8751,-45.4956 79.4463,-34.9162 72.4024,-42.8303 78.8751,-45.4956"/>
<text text-anchor="middle" x="73.5" y="-57.8" font-family="Times,serif" font-size="14.00">a</text>
</g>
<!-- 7 -->
<g id="node8" class="node"><title>7</title>
<ellipse fill="lightblue" stroke="black" cx="81" cy="-196" rx="18" ry="18"/>
<ellipse fill="none" stroke="black" cx="81" cy="-196" rx="22" ry="22"/>
<text text-anchor="middle" x="81" y="-192.3" font-family="Times,serif" font-size="14.00">7</text>
</g>
<!-- 1&#45;&gt;7 -->
<g id="edge4" class="edge"><title>1&#45;&gt;7</title>
<path fill="none" stroke="black" d="M56.479,-122.254C60.5274,-134.265 66.153,-150.954 70.9948,-165.318"/>
<polygon fill="black" stroke="black" points="67.6816,-166.446 74.1925,-174.805 74.3149,-164.21 67.6816,-166.446"/>
<text text-anchor="middle" x="70.5" y="-144.8" font-family="Times,serif" font-size="14.00">b</text>
</g>
<!-- 2 -->
<g id="node3" class="node"><title>2</title>
<ellipse fill="lightblue" stroke="black" cx="109" cy="-576" rx="18" ry="18"/>
<ellipse fill="none" stroke="black" cx="109" cy="-576" rx="22" ry="22"/>
<text text-anchor="middle" x="109" y="-572.3" font-family="Times,serif" font-size="14.00">2</text>
</g>
<!-- 2&#45;&gt;5 -->
<g id="edge5" class="edge"><title>2&#45;&gt;5</title>
<path fill="none" stroke="black" d="M120.589,-556.919C131.113,-538.737 145,-509.528 145,-482 145,-482 145,-482 145,-104 145,-76.9846 124.638,-52.3757 107.838,-36.6692"/>
<polygon fill="black" stroke="black" points="109.786,-33.7185 99.9822,-29.7023 105.142,-38.9559 109.786,-33.7185"/>
<text text-anchor="middle" x="148.5" y="-287.3" font-family="Times,serif" font-size="14.00">b</text>
</g>
<!-- 8 -->
<g id="node9" class="node"><title>8</title>
<ellipse fill="lightblue" stroke="black" cx="95" cy="-481" rx="18" ry="18"/>
<ellipse fill="none" stroke="black" cx="95" cy="-481" rx="22" ry="22"/>
<text text-anchor="middle" x="95" y="-477.3" font-family="Times,serif" font-size="14.00">8</text>
</g>
<!-- 2&#45;&gt;8 -->
<g id="edge6" class="edge"><title>2&#45;&gt;8</title>
<path fill="none" stroke="black" d="M97.5489,-557.054C94.0914,-550.663 90.7503,-543.249 89,-536 87.1887,-528.498 87.1479,-520.277 87.9309,-512.561"/>
<polygon fill="black" stroke="black" points="91.4228,-512.872 89.4205,-502.468 84.4978,-511.85 91.4228,-512.872"/>
<text text-anchor="middle" x="92.5" y="-524.8" font-family="Times,serif" font-size="14.00">a</text>
</g>
<!-- 3&#45;&gt;0 -->
<g id="edge7" class="edge"><title>3&#45;&gt;0</title>
<path fill="none" stroke="black" d="M50.7242,-787.415C47.4898,-799.931 43.3152,-816.085 39.8299,-829.571"/>
<polygon fill="black" stroke="black" points="36.4396,-828.702 37.3261,-839.26 43.2169,-830.454 36.4396,-828.702"/>
<text text-anchor="middle" x="48.5" y="-809.8" font-family="Times,serif" font-size="14.00">b</text>
</g>
<!-- 9 -->
<g id="node10" class="node"><title>9</title>
<ellipse fill="lightblue" stroke="black" cx="56" cy="-671" rx="18" ry="18"/>
<ellipse fill="none" stroke="black" cx="56" cy="-671" rx="22" ry="22"/>
<text text-anchor="middle" x="56" y="-667.3" font-family="Times,serif" font-size="14.00">9</text>
</g>
<!-- 3&#45;&gt;9 -->
<g id="edge8" class="edge"><title>3&#45;&gt;9</title>
<path fill="none" stroke="black" d="M56,-743.897C56,-731.887 56,-716.617 56,-703.242"/>
<polygon fill="black" stroke="black" points="59.5001,-703.02 56,-693.02 52.5001,-703.02 59.5001,-703.02"/>
<text text-anchor="middle" x="59.5" y="-714.8" font-family="Times,serif" font-size="14.00">a</text>
</g>
<!-- 4 -->
<g id="node5" class="node"><title>4</title>
<ellipse fill="lightblue" stroke="black" cx="81" cy="-291" rx="18" ry="18"/>
<ellipse fill="none" stroke="black" cx="81" cy="-291" rx="22" ry="22"/>
<text text-anchor="middle" x="81" y="-287.3" font-family="Times,serif" font-size="14.00">4</text>
</g>
<!-- 4&#45;&gt;7 -->
<g id="edge9" class="edge"><title>4&#45;&gt;7</title>
<path fill="none" stroke="black" d="M81,-268.897C81,-256.887 81,-241.617 81,-228.242"/>
<polygon fill="black" stroke="black" points="84.5001,-228.02 81,-218.02 77.5001,-228.02 84.5001,-228.02"/>
<text text-anchor="middle" x="84.5" y="-239.8" font-family="Times,serif" font-size="14.00">b</text>
</g>
<!-- 4&#45;&gt;8 -->
<g id="edge10" class="edge"><title>4&#45;&gt;8</title>
<path fill="none" stroke="black" d="M82.573,-313.123C85.0337,-346.166 89.8072,-410.269 92.6685,-448.691"/>
<polygon fill="black" stroke="black" points="89.1882,-449.087 93.4212,-458.799 96.1689,-448.567 89.1882,-449.087"/>
<text text-anchor="middle" x="92.5" y="-382.3" font-family="Times,serif" font-size="14.00">a</text>
</g>
<!-- 5&#45;&gt;5 -->
<g id="edge11" class="edge"><title>5&#45;&gt;5</title>
<path fill="none" stroke="black" d="M102.664,-25.3828C112.625,-27.0234 122,-24.5625 122,-18 122,-13.7959 118.152,-11.2751 112.768,-10.4375"/>
<polygon fill="black" stroke="black" points="112.6,-6.93988 102.664,-10.6172 112.725,-13.9388 112.6,-6.93988"/>
<text text-anchor="middle" x="130.5" y="-14.3" font-family="Times,serif" font-size="14.00">a,b</text>
</g>
<!-- 6 -->
<g id="node7" class="node"><title>6</title>
<ellipse fill="lightblue" stroke="black" cx="50" cy="-386" rx="18" ry="18"/>
<ellipse fill="none" stroke="black" cx="50" cy="-386" rx="22" ry="22"/>
<text text-anchor="middle" x="50" y="-382.3" font-family="Times,serif" font-size="14.00">6</text>
</g>
<!-- 6&#45;&gt;4 -->
<g id="edge12" class="edge"><title>6&#45;&gt;4</title>
<path fill="none" stroke="black" d="M56.7265,-364.82C60.9107,-352.268 66.3667,-335.9 71.0459,-321.862"/>
<polygon fill="black" stroke="black" points="74.4446,-322.734 74.2866,-312.14 67.8039,-320.52 74.4446,-322.734"/>
<text text-anchor="middle" x="70.5" y="-334.8" font-family="Times,serif" font-size="14.00">a</text>
</g>
<!-- 6&#45;&gt;9 -->
<g id="edge13" class="edge"><title>6&#45;&gt;9</title>
<path fill="none" stroke="black" d="M50.448,-408.132C51.4944,-457.488 54.1035,-580.55 55.3357,-638.666"/>
<polygon fill="black" stroke="black" points="51.8377,-638.805 55.549,-648.729 58.8362,-638.657 51.8377,-638.805"/>
<text text-anchor="middle" x="56.5" y="-524.8" font-family="Times,serif" font-size="14.00">b</text>
</g>
<!-- 7&#45;&gt;1 -->
<g id="edge14" class="edge"><title>7&#45;&gt;1</title>
<path fill="none" stroke="black" d="M66.9905,-179.02C61.9704,-172.355 56.8512,-164.25 54,-156 51.5288,-148.849 50.3908,-140.784 49.9652,-133.252"/>
<polygon fill="black" stroke="black" points="53.4619,-133.041 49.7732,-123.11 46.4632,-133.174 53.4619,-133.041"/>
<text text-anchor="middle" x="57.5" y="-144.8" font-family="Times,serif" font-size="14.00">a</text>
</g>
<!-- 7&#45;&gt;5 -->
<g id="edge15" class="edge"><title>7&#45;&gt;5</title>
<path fill="none" stroke="black" d="M81.6031,-173.77C82.5117,-141.788 84.2312,-81.2613 85.2294,-46.1242"/>
<polygon fill="black" stroke="black" points="88.7289,-46.1898 85.5144,-36.0944 81.7317,-45.991 88.7289,-46.1898"/>
<text text-anchor="middle" x="86.5" y="-101.3" font-family="Times,serif" font-size="14.00">b</text>
</g>
<!-- 8&#45;&gt;2 -->
<g id="edge16" class="edge"><title>8&#45;&gt;2</title>
<path fill="none" stroke="black" d="M98.1642,-503.02C99.9699,-515.014 102.268,-530.281 104.283,-543.665"/>
<polygon fill="black" stroke="black" points="100.873,-544.529 105.823,-553.897 107.796,-543.487 100.873,-544.529"/>
<text text-anchor="middle" x="105.5" y="-524.8" font-family="Times,serif" font-size="14.00">a</text>
</g>
<!-- 8&#45;&gt;6 -->
<g id="edge17" class="edge"><title>8&#45;&gt;6</title>
<path fill="none" stroke="black" d="M85.676,-460.73C79.3406,-447.637 70.8534,-430.097 63.7465,-415.409"/>
<polygon fill="black" stroke="black" points="66.8183,-413.722 59.3121,-406.245 60.5172,-416.771 66.8183,-413.722"/>
<text text-anchor="middle" x="78.5" y="-429.8" font-family="Times,serif" font-size="14.00">b</text>
</g>
<!-- 9&#45;&gt;2 -->
<g id="edge18" class="edge"><title>9&#45;&gt;2</title>
<path fill="none" stroke="black" d="M66.4711,-651.626C74.1158,-638.212 84.6111,-619.796 93.2627,-604.615"/>
<polygon fill="black" stroke="black" points="96.4587,-606.075 98.3692,-595.654 90.377,-602.609 96.4587,-606.075"/>
<text text-anchor="middle" x="88.5" y="-619.8" font-family="Times,serif" font-size="14.00">a</text>
</g>
<!-- 9&#45;&gt;9 -->
<g id="edge19" class="edge"><title>9&#45;&gt;9</title>
<path fill="none" stroke="black" d="M76.5808,-679.37C86.8447,-680.528 96,-677.738 96,-671 96,-666.683 92.2427,-663.987 86.8436,-662.911"/>
<polygon fill="black" stroke="black" points="86.6729,-659.405 76.5808,-662.63 86.4812,-666.402 86.6729,-659.405"/>
<text text-anchor="middle" x="99.5" y="-667.3" font-family="Times,serif" font-size="14.00">b</text>
</g>
</g>
</svg>
