<?xml version="1.0" encoding="UTF-8" standalone="no"?>
<!DOCTYPE svg PUBLIC "-//W3C//DTD SVG 1.1//EN"
 "http://www.w3.org/Graphics/SVG/1.1/DTD/svg11.dtd">
<!-- Generated by graphviz version 2.38.0 (20140413.2041)
 -->
<!-- Title: %3 Pages: 1 -->
<svg width="131pt" height="313pt"
 viewBox="0.00 0.00 131.00 313.00" xmlns="http://www.w3.org/2000/svg" xmlns:xlink="http://www.w3.org/1999/xlink">
<g id="graph0" class="graph" transform="scale(1 1) rotate(0) translate(4 309)">
<title>%3</title>
<!-- 4 -->
<g id="node1" class="node"><title>4</title>
<ellipse fill="lightblue" stroke="black" cx="18" cy="-105" rx="18" ry="18"/>
<text text-anchor="middle" x="18" y="-101.3" font-family="Times,serif" font-size="14.00">4</text>
</g>
<!-- 4&#45;&gt;4 -->
<g id="edge1" class="edge"><title>4&#45;&gt;4</title>
<path fill="none" stroke="black" d="M34.6641,-112.383C44.625,-114.023 54,-111.562 54,-105 54,-100.796 50.1525,-98.2751 44.7682,-97.4375"/>
<polygon fill="black" stroke="black" points="44.6002,-93.9399 34.6641,-97.6172 44.7247,-100.939 44.6002,-93.9399"/>
<text text-anchor="middle" x="57.5" y="-101.3" font-family="Times,serif" font-size="14.00">a</text>
</g>
<!-- 5 -->
<g id="node5" class="node"><title>5</title>
<ellipse fill="lightblue" stroke="black" cx="18" cy="-18" rx="18" ry="18"/>
<text text-anchor="middle" x="18" y="-14.3" font-family="Times,serif" font-size="14.00">5</text>
</g>
<!-- 4&#45;&gt;5 -->
<g id="edge2" class="edge"><title>4&#45;&gt;5</title>
<path fill="none" stroke="black" d="M18,-86.799C18,-75.1626 18,-59.5479 18,-46.2368"/>
<polygon fill="black" stroke="black" points="21.5001,-46.1754 18,-36.1754 14.5001,-46.1755 21.5001,-46.1754"/>
<text text-anchor="middle" x="21.5" y="-57.8" font-family="Times,serif" font-size="14.00">b</text>
</g>
<!-- 2 -->
<g id="node2" class="node"><title>2</title>
<ellipse fill="lightblue" stroke="black" cx="71" cy="-287" rx="18" ry="18"/>
<text text-anchor="middle" x="71" y="-283.3" font-family="Times,serif" font-size="14.00">2</text>
</g>
<!-- 3 -->
<g id="node3" class="node"><title>3</title>
<ellipse fill="lightblue" stroke="black" cx="18" cy="-196" rx="18" ry="18"/>
<text text-anchor="middle" x="18" y="-192.3" font-family="Times,serif" font-size="14.00">3</text>
</g>
<!-- 2&#45;&gt;3 -->
<g id="edge3" class="edge"><title>2&#45;&gt;3</title>
<path fill="none" stroke="black" d="M62.0093,-270.902C53.8128,-257.138 41.5713,-236.582 32.0783,-220.641"/>
<polygon fill="black" stroke="black" points="34.9817,-218.676 26.8579,-211.875 28.9674,-222.257 34.9817,-218.676"/>
<text text-anchor="middle" x="52.5" y="-239.8" font-family="Times,serif" font-size="14.00">b</text>
</g>
<!-- 1 -->
<g id="node4" class="node"><title>1</title>
<ellipse fill="#aaff80" stroke="black" cx="101" cy="-196" rx="18" ry="18"/>
<ellipse fill="none" stroke="black" cx="101" cy="-196" rx="22" ry="22"/>
<text text-anchor="middle" x="101" y="-192.3" font-family="Times,serif" font-size="14.00">1</text>
</g>
<!-- 2&#45;&gt;1 -->
<g id="edge4" class="edge"><title>2&#45;&gt;1</title>
<path fill="none" stroke="black" d="M69.7732,-268.89C69.6142,-259.021 70.3642,-246.521 74,-236 75.7375,-230.972 78.3171,-225.999 81.2033,-221.372"/>
<polygon fill="black" stroke="black" points="84.1949,-223.2 86.9905,-212.98 78.4322,-219.226 84.1949,-223.2"/>
<text text-anchor="middle" x="77.5" y="-239.8" font-family="Times,serif" font-size="14.00">a</text>
</g>
<!-- 3&#45;&gt;4 -->
<g id="edge5" class="edge"><title>3&#45;&gt;4</title>
<path fill="none" stroke="black" d="M18,-177.84C18,-165.281 18,-147.979 18,-133.502"/>
<polygon fill="black" stroke="black" points="21.5001,-133.107 18,-123.107 14.5001,-133.107 21.5001,-133.107"/>
<text text-anchor="middle" x="21.5" y="-144.8" font-family="Times,serif" font-size="14.00">b</text>
</g>
<!-- 3&#45;&gt;3 -->
<g id="edge6" class="edge"><title>3&#45;&gt;3</title>
<path fill="none" stroke="black" d="M34.2903,-204.016C44.3892,-205.949 54,-203.277 54,-196 54,-191.338 50.0557,-188.566 44.5656,-187.684"/>
<polygon fill="black" stroke="black" points="44.1839,-184.193 34.2903,-187.984 44.3881,-191.19 44.1839,-184.193"/>
<text text-anchor="middle" x="57.5" y="-192.3" font-family="Times,serif" font-size="14.00">a</text>
</g>
<!-- 1&#45;&gt;2 -->
<g id="edge7" class="edge"><title>1&#45;&gt;2</title>
<path fill="none" stroke="black" d="M94.2721,-216.959C90.0031,-229.624 84.4334,-246.148 79.8132,-259.854"/>
<polygon fill="black" stroke="black" points="76.3801,-259.082 76.5025,-269.676 83.0134,-261.318 76.3801,-259.082"/>
<text text-anchor="middle" x="95.5" y="-239.8" font-family="Times,serif" font-size="14.00">b,a</text>
</g>
<!-- 5&#45;&gt;5 -->
<g id="edge8" class="edge"><title>5&#45;&gt;5</title>
<path fill="none" stroke="black" d="M34.6641,-25.3828C44.625,-27.0234 54,-24.5625 54,-18 54,-13.7959 50.1525,-11.2751 44.7682,-10.4375"/>
<polygon fill="black" stroke="black" points="44.6002,-6.93988 34.6641,-10.6172 44.7247,-13.9388 44.6002,-6.93988"/>
<text text-anchor="middle" x="57.5" y="-14.3" font-family="Times,serif" font-size="14.00">a</text>
</g>
</g>
</svg>
