<?xml version="1.0" encoding="UTF-8" standalone="no"?>
<!DOCTYPE svg PUBLIC "-//W3C//DTD SVG 1.1//EN"
 "http://www.w3.org/Graphics/SVG/1.1/DTD/svg11.dtd">
<!-- Generated by graphviz version 2.38.0 (20140413.2041)
 -->
<!-- Title: %3 Pages: 1 -->
<svg width="255pt" height="614pt"
 viewBox="0.00 0.00 255.00 614.00" xmlns="http://www.w3.org/2000/svg" xmlns:xlink="http://www.w3.org/1999/xlink">
<g id="graph0" class="graph" transform="scale(1 1) rotate(0) translate(4 610)">
<title>%3</title>
<!-- 0 -->
<g id="node1" class="node"><title>0</title>
<ellipse fill="lightblue" stroke="black" cx="22" cy="-394" rx="18" ry="18"/>
<ellipse fill="none" stroke="black" cx="22" cy="-394" rx="22" ry="22"/>
<text text-anchor="middle" x="22" y="-390.3" font-family="Times,serif" font-size="14.00">0</text>
</g>
<!-- 0&#45;&gt;0 -->
<g id="edge1" class="edge"><title>0&#45;&gt;0</title>
<path fill="none" stroke="black" d="M42.5808,-402.37C52.8447,-403.528 62,-400.738 62,-394 62,-389.683 58.2427,-386.987 52.8436,-385.911"/>
<polygon fill="black" stroke="black" points="52.6729,-382.405 42.5808,-385.63 52.4812,-389.402 52.6729,-382.405"/>
<text text-anchor="middle" x="65.5" y="-390.3" font-family="Times,serif" font-size="14.00">b</text>
</g>
<!-- 4 -->
<g id="node5" class="node"><title>4</title>
<ellipse fill="lightblue" stroke="black" cx="67" cy="-299" rx="18" ry="18"/>
<ellipse fill="none" stroke="black" cx="67" cy="-299" rx="22" ry="22"/>
<text text-anchor="middle" x="67" y="-295.3" font-family="Times,serif" font-size="14.00">4</text>
</g>
<!-- 0&#45;&gt;4 -->
<g id="edge2" class="edge"><title>0&#45;&gt;4</title>
<path fill="none" stroke="black" d="M31.324,-373.73C37.6594,-360.637 46.1466,-343.097 53.2535,-328.409"/>
<polygon fill="black" stroke="black" points="56.4828,-329.771 57.6879,-319.245 50.1817,-326.722 56.4828,-329.771"/>
<text text-anchor="middle" x="51.5" y="-342.8" font-family="Times,serif" font-size="14.00">a</text>
</g>
<!-- 1 -->
<g id="node2" class="node"><title>1</title>
<ellipse fill="#aaff80" stroke="black" cx="79" cy="-584" rx="18" ry="18"/>
<ellipse fill="none" stroke="black" cx="79" cy="-584" rx="22" ry="22"/>
<text text-anchor="middle" x="79" y="-580.3" font-family="Times,serif" font-size="14.00">1</text>
</g>
<!-- 1&#45;&gt;4 -->
<g id="edge3" class="edge"><title>1&#45;&gt;4</title>
<path fill="none" stroke="black" d="M79.9187,-561.994C81.3535,-524.006 83.4354,-441.389 78,-372 76.9354,-358.409 74.8165,-343.495 72.7202,-330.784"/>
<polygon fill="black" stroke="black" points="76.1308,-329.964 70.9882,-320.701 69.2318,-331.149 76.1308,-329.964"/>
<text text-anchor="middle" x="84.5" y="-437.8" font-family="Times,serif" font-size="14.00">a</text>
</g>
<!-- 6 -->
<g id="node7" class="node"><title>6</title>
<ellipse fill="lightblue" stroke="black" cx="47" cy="-489" rx="18" ry="18"/>
<ellipse fill="none" stroke="black" cx="47" cy="-489" rx="22" ry="22"/>
<text text-anchor="middle" x="47" y="-485.3" font-family="Times,serif" font-size="14.00">6</text>
</g>
<!-- 1&#45;&gt;6 -->
<g id="edge4" class="edge"><title>1&#45;&gt;6</title>
<path fill="none" stroke="black" d="M72.0565,-562.82C67.7373,-550.268 62.1053,-533.9 57.2752,-519.862"/>
<polygon fill="black" stroke="black" points="60.4932,-518.457 53.93,-510.14 53.8741,-520.735 60.4932,-518.457"/>
<text text-anchor="middle" x="67.5" y="-532.8" font-family="Times,serif" font-size="14.00">b</text>
</g>
<!-- 2 -->
<g id="node3" class="node"><title>2</title>
<ellipse fill="lightblue" stroke="black" cx="147" cy="-394" rx="18" ry="18"/>
<ellipse fill="none" stroke="black" cx="147" cy="-394" rx="22" ry="22"/>
<text text-anchor="middle" x="147" y="-390.3" font-family="Times,serif" font-size="14.00">2</text>
</g>
<!-- 7 -->
<g id="node8" class="node"><title>7</title>
<ellipse fill="lightblue" stroke="black" cx="99" cy="-204" rx="18" ry="18"/>
<ellipse fill="none" stroke="black" cx="99" cy="-204" rx="22" ry="22"/>
<text text-anchor="middle" x="99" y="-200.3" font-family="Times,serif" font-size="14.00">7</text>
</g>
<!-- 2&#45;&gt;7 -->
<g id="edge5" class="edge"><title>2&#45;&gt;7</title>
<path fill="none" stroke="black" d="M141.772,-372.523C133.332,-339.467 116.658,-274.162 106.807,-235.577"/>
<polygon fill="black" stroke="black" points="110.087,-234.275 104.222,-225.452 103.304,-236.007 110.087,-234.275"/>
<text text-anchor="middle" x="131.5" y="-295.3" font-family="Times,serif" font-size="14.00">a</text>
</g>
<!-- 8 -->
<g id="node9" class="node"><title>8</title>
<ellipse fill="lightblue" stroke="black" cx="186" cy="-299" rx="18" ry="18"/>
<text text-anchor="middle" x="186" y="-295.3" font-family="Times,serif" font-size="14.00">8</text>
</g>
<!-- 2&#45;&gt;8 -->
<g id="edge6" class="edge"><title>2&#45;&gt;8</title>
<path fill="none" stroke="black" d="M155.271,-373.277C161.14,-359.281 169.069,-340.375 175.402,-325.273"/>
<polygon fill="black" stroke="black" points="178.656,-326.563 179.296,-315.987 172.201,-323.856 178.656,-326.563"/>
<text text-anchor="middle" x="171.5" y="-342.8" font-family="Times,serif" font-size="14.00">b</text>
</g>
<!-- 3 -->
<g id="node4" class="node"><title>3</title>
<ellipse fill="lightblue" stroke="black" cx="164" cy="-18" rx="18" ry="18"/>
<text text-anchor="middle" x="164" y="-14.3" font-family="Times,serif" font-size="14.00">3</text>
</g>
<!-- 3&#45;&gt;3 -->
<g id="edge7" class="edge"><title>3&#45;&gt;3</title>
<path fill="none" stroke="black" d="M180.664,-25.3828C190.625,-27.0234 200,-24.5625 200,-18 200,-13.7959 196.152,-11.2751 190.768,-10.4375"/>
<polygon fill="black" stroke="black" points="190.6,-6.93988 180.664,-10.6172 190.725,-13.9388 190.6,-6.93988"/>
<text text-anchor="middle" x="208.5" y="-14.3" font-family="Times,serif" font-size="14.00">a,b</text>
</g>
<!-- 4&#45;&gt;3 -->
<g id="edge8" class="edge"><title>4&#45;&gt;3</title>
<path fill="none" stroke="black" d="M63.9722,-277.015C61.2996,-253.427 59.0685,-214.217 68,-182 83.4921,-126.119 123.283,-69.7801 146.484,-40.1991"/>
<polygon fill="black" stroke="black" points="149.328,-42.2467 152.83,-32.2474 143.856,-37.8801 149.328,-42.2467"/>
<text text-anchor="middle" x="82.5" y="-152.8" font-family="Times,serif" font-size="14.00">b</text>
</g>
<!-- 4&#45;&gt;7 -->
<g id="edge9" class="edge"><title>4&#45;&gt;7</title>
<path fill="none" stroke="black" d="M73.9435,-277.82C78.2627,-265.268 83.8947,-248.9 88.7248,-234.862"/>
<polygon fill="black" stroke="black" points="92.1259,-235.735 92.07,-225.14 85.5068,-233.457 92.1259,-235.735"/>
<text text-anchor="middle" x="87.5" y="-247.8" font-family="Times,serif" font-size="14.00">a</text>
</g>
<!-- 5 -->
<g id="node6" class="node"><title>5</title>
<ellipse fill="lightblue" stroke="black" cx="186" cy="-204" rx="18" ry="18"/>
<ellipse fill="none" stroke="black" cx="186" cy="-204" rx="22" ry="22"/>
<text text-anchor="middle" x="186" y="-200.3" font-family="Times,serif" font-size="14.00">5</text>
</g>
<!-- 5&#45;&gt;5 -->
<g id="edge10" class="edge"><title>5&#45;&gt;5</title>
<path fill="none" stroke="black" d="M206.581,-212.37C216.845,-213.528 226,-210.738 226,-204 226,-199.683 222.243,-196.987 216.844,-195.911"/>
<polygon fill="black" stroke="black" points="216.673,-192.405 206.581,-195.63 216.481,-199.402 216.673,-192.405"/>
<text text-anchor="middle" x="229.5" y="-200.3" font-family="Times,serif" font-size="14.00">b</text>
</g>
<!-- 9 -->
<g id="node10" class="node"><title>9</title>
<ellipse fill="lightblue" stroke="black" cx="164" cy="-109" rx="18" ry="18"/>
<ellipse fill="none" stroke="black" cx="164" cy="-109" rx="22" ry="22"/>
<text text-anchor="middle" x="164" y="-105.3" font-family="Times,serif" font-size="14.00">9</text>
</g>
<!-- 5&#45;&gt;9 -->
<g id="edge11" class="edge"><title>5&#45;&gt;9</title>
<path fill="none" stroke="black" d="M181.117,-182.36C178.212,-170.079 174.472,-154.269 171.23,-140.561"/>
<polygon fill="black" stroke="black" points="174.577,-139.508 168.869,-130.582 167.765,-141.119 174.577,-139.508"/>
<text text-anchor="middle" x="179.5" y="-152.8" font-family="Times,serif" font-size="14.00">a</text>
</g>
<!-- 6&#45;&gt;0 -->
<g id="edge12" class="edge"><title>6&#45;&gt;0</title>
<path fill="none" stroke="black" d="M41.4517,-467.36C38.1503,-455.079 33.9003,-439.269 30.2154,-425.561"/>
<polygon fill="black" stroke="black" points="33.5089,-424.331 27.5328,-415.582 26.7489,-426.148 33.5089,-424.331"/>
<text text-anchor="middle" x="39.5" y="-437.8" font-family="Times,serif" font-size="14.00">b</text>
</g>
<!-- 6&#45;&gt;2 -->
<g id="edge13" class="edge"><title>6&#45;&gt;2</title>
<path fill="none" stroke="black" d="M66.4538,-478.065C79.1355,-471.014 95.5747,-460.741 108,-449 116.408,-441.055 124.2,-431.074 130.573,-421.861"/>
<polygon fill="black" stroke="black" points="133.606,-423.622 136.223,-413.356 127.775,-419.749 133.606,-423.622"/>
<text text-anchor="middle" x="124.5" y="-437.8" font-family="Times,serif" font-size="14.00">a</text>
</g>
<!-- 7&#45;&gt;7 -->
<g id="edge14" class="edge"><title>7&#45;&gt;7</title>
<path fill="none" stroke="black" d="M119.581,-212.37C129.845,-213.528 139,-210.738 139,-204 139,-199.683 135.243,-196.987 129.844,-195.911"/>
<polygon fill="black" stroke="black" points="129.673,-192.405 119.581,-195.63 129.481,-199.402 129.673,-192.405"/>
<text text-anchor="middle" x="142.5" y="-200.3" font-family="Times,serif" font-size="14.00">a</text>
</g>
<!-- 7&#45;&gt;9 -->
<g id="edge15" class="edge"><title>7&#45;&gt;9</title>
<path fill="none" stroke="black" d="M111.226,-185.507C121.031,-171.478 134.936,-151.584 146.011,-135.738"/>
<polygon fill="black" stroke="black" points="148.969,-137.616 151.829,-127.414 143.231,-133.606 148.969,-137.616"/>
<text text-anchor="middle" x="138.5" y="-152.8" font-family="Times,serif" font-size="14.00">b</text>
</g>
<!-- 8&#45;&gt;3 -->
<g id="edge16" class="edge"><title>8&#45;&gt;3</title>
<path fill="none" stroke="black" d="M199.233,-286.305C212.96,-273.205 233.572,-250.565 242,-226 248.346,-207.503 244.22,-201.429 242,-182 237.079,-138.941 239.172,-125.868 220,-87 210.924,-68.5995 195.981,-50.8099 183.813,-38.0442"/>
<polygon fill="black" stroke="black" points="186.181,-35.4596 176.673,-30.7844 181.19,-40.3682 186.181,-35.4596"/>
<text text-anchor="middle" x="243.5" y="-152.8" font-family="Times,serif" font-size="14.00">a</text>
</g>
<!-- 8&#45;&gt;5 -->
<g id="edge17" class="edge"><title>8&#45;&gt;5</title>
<path fill="none" stroke="black" d="M186,-280.942C186,-268.537 186,-251.381 186,-236.514"/>
<polygon fill="black" stroke="black" points="189.5,-236.194 186,-226.194 182.5,-236.194 189.5,-236.194"/>
<text text-anchor="middle" x="189.5" y="-247.8" font-family="Times,serif" font-size="14.00">b</text>
</g>
<!-- 9&#45;&gt;3 -->
<g id="edge18" class="edge"><title>9&#45;&gt;3</title>
<path fill="none" stroke="black" d="M164,-86.9082C164,-74.7803 164,-59.4094 164,-46.3598"/>
<polygon fill="black" stroke="black" points="167.5,-46.0663 164,-36.0663 160.5,-46.0663 167.5,-46.0663"/>
<text text-anchor="middle" x="167.5" y="-57.8" font-family="Times,serif" font-size="14.00">b</text>
</g>
<!-- 9&#45;&gt;9 -->
<g id="edge19" class="edge"><title>9&#45;&gt;9</title>
<path fill="none" stroke="black" d="M184.581,-117.37C194.845,-118.528 204,-115.738 204,-109 204,-104.683 200.243,-101.987 194.844,-100.911"/>
<polygon fill="black" stroke="black" points="194.673,-97.405 184.581,-100.63 194.481,-104.402 194.673,-97.405"/>
<text text-anchor="middle" x="207.5" y="-105.3" font-family="Times,serif" font-size="14.00">a</text>
</g>
</g>
</svg>
