<?xml version="1.0" encoding="UTF-8" standalone="no"?>
<!DOCTYPE svg PUBLIC "-//W3C//DTD SVG 1.1//EN"
 "http://www.w3.org/Graphics/SVG/1.1/DTD/svg11.dtd">
<!-- Generated by graphviz version 2.38.0 (20140413.2041)
 -->
<!-- Title: %3 Pages: 1 -->
<svg width="185pt" height="643pt"
 viewBox="0.00 0.00 185.00 643.00" xmlns="http://www.w3.org/2000/svg" xmlns:xlink="http://www.w3.org/1999/xlink">
<g id="graph0" class="graph" transform="scale(1 1) rotate(0) translate(4 639)">
<title>%3</title>
<!-- 0 -->
<g id="node1" class="node"><title>0</title>
<ellipse fill="lightblue" stroke="black" cx="52" cy="-423" rx="18" ry="18"/>
<ellipse fill="none" stroke="black" cx="52" cy="-423" rx="22" ry="22"/>
<text text-anchor="middle" x="52" y="-419.3" font-family="Times,serif" font-size="14.00">0</text>
</g>
<!-- 0&#45;&gt;0 -->
<g id="edge1" class="edge"><title>0&#45;&gt;0</title>
<path fill="none" stroke="black" d="M72.5808,-431.37C82.8447,-432.528 92,-429.738 92,-423 92,-418.683 88.2427,-415.987 82.8436,-414.911"/>
<polygon fill="black" stroke="black" points="82.6729,-411.405 72.5808,-414.63 82.4812,-418.402 82.6729,-411.405"/>
<text text-anchor="middle" x="95.5" y="-419.3" font-family="Times,serif" font-size="14.00">b</text>
</g>
<!-- 3 -->
<g id="node4" class="node"><title>3</title>
<ellipse fill="lightblue" stroke="black" cx="37" cy="-328" rx="18" ry="18"/>
<ellipse fill="none" stroke="black" cx="37" cy="-328" rx="22" ry="22"/>
<text text-anchor="middle" x="37" y="-324.3" font-family="Times,serif" font-size="14.00">3</text>
</g>
<!-- 0&#45;&gt;3 -->
<g id="edge2" class="edge"><title>0&#45;&gt;3</title>
<path fill="none" stroke="black" d="M48.5963,-400.897C46.6592,-388.887 44.1964,-373.617 42.039,-360.242"/>
<polygon fill="black" stroke="black" points="45.438,-359.335 40.3903,-350.02 38.5273,-360.449 45.438,-359.335"/>
<text text-anchor="middle" x="48.5" y="-371.8" font-family="Times,serif" font-size="14.00">a</text>
</g>
<!-- 1 -->
<g id="node2" class="node"><title>1</title>
<ellipse fill="#aaff80" stroke="black" cx="22" cy="-613" rx="18" ry="18"/>
<ellipse fill="none" stroke="black" cx="22" cy="-613" rx="22" ry="22"/>
<text text-anchor="middle" x="22" y="-609.3" font-family="Times,serif" font-size="14.00">1</text>
</g>
<!-- 1&#45;&gt;3 -->
<g id="edge3" class="edge"><title>1&#45;&gt;3</title>
<path fill="none" stroke="black" d="M20.3205,-590.953C17.6348,-552.902 13.4053,-470.186 21,-401 22.5325,-387.039 25.6887,-371.825 28.7961,-358.994"/>
<polygon fill="black" stroke="black" points="32.1932,-359.836 31.2457,-349.284 25.4058,-358.124 32.1932,-359.836"/>
<text text-anchor="middle" x="20.5" y="-466.8" font-family="Times,serif" font-size="14.00">a</text>
</g>
<!-- 5 -->
<g id="node6" class="node"><title>5</title>
<ellipse fill="lightblue" stroke="black" cx="52" cy="-518" rx="18" ry="18"/>
<ellipse fill="none" stroke="black" cx="52" cy="-518" rx="22" ry="22"/>
<text text-anchor="middle" x="52" y="-514.3" font-family="Times,serif" font-size="14.00">5</text>
</g>
<!-- 1&#45;&gt;5 -->
<g id="edge4" class="edge"><title>1&#45;&gt;5</title>
<path fill="none" stroke="black" d="M28.5096,-591.82C32.5587,-579.268 37.8387,-562.9 42.367,-548.862"/>
<polygon fill="black" stroke="black" points="45.764,-549.732 45.5032,-539.14 39.1021,-547.583 45.764,-549.732"/>
<text text-anchor="middle" x="41.5" y="-561.8" font-family="Times,serif" font-size="14.00">b</text>
</g>
<!-- 2 -->
<g id="node3" class="node"><title>2</title>
<ellipse fill="lightblue" stroke="black" cx="74" cy="-18" rx="18" ry="18"/>
<text text-anchor="middle" x="74" y="-14.3" font-family="Times,serif" font-size="14.00">2</text>
</g>
<!-- 2&#45;&gt;2 -->
<g id="edge5" class="edge"><title>2&#45;&gt;2</title>
<path fill="none" stroke="black" d="M90.6641,-25.3828C100.625,-27.0234 110,-24.5625 110,-18 110,-13.7959 106.152,-11.2751 100.768,-10.4375"/>
<polygon fill="black" stroke="black" points="100.6,-6.93988 90.6641,-10.6172 100.725,-13.9388 100.6,-6.93988"/>
<text text-anchor="middle" x="118.5" y="-14.3" font-family="Times,serif" font-size="14.00">a,b</text>
</g>
<!-- 3&#45;&gt;2 -->
<g id="edge6" class="edge"><title>3&#45;&gt;2</title>
<path fill="none" stroke="black" d="M34.7526,-306.105C30.8256,-263.996 24.7588,-166.202 43,-87 46.5503,-71.5849 53.7503,-55.429 60.3184,-42.7345"/>
<polygon fill="black" stroke="black" points="63.4856,-44.235 65.1469,-33.7712 57.3229,-40.9151 63.4856,-44.235"/>
<text text-anchor="middle" x="36.5" y="-167.3" font-family="Times,serif" font-size="14.00">b</text>
</g>
<!-- 6 -->
<g id="node7" class="node"><title>6</title>
<ellipse fill="lightblue" stroke="black" cx="74" cy="-233" rx="18" ry="18"/>
<ellipse fill="none" stroke="black" cx="74" cy="-233" rx="22" ry="22"/>
<text text-anchor="middle" x="74" y="-229.3" font-family="Times,serif" font-size="14.00">6</text>
</g>
<!-- 3&#45;&gt;6 -->
<g id="edge7" class="edge"><title>3&#45;&gt;6</title>
<path fill="none" stroke="black" d="M44.8467,-307.277C49.9485,-294.454 56.6898,-277.509 62.4048,-263.145"/>
<polygon fill="black" stroke="black" points="65.7199,-264.28 66.1646,-253.694 59.2157,-261.692 65.7199,-264.28"/>
<text text-anchor="middle" x="60.5" y="-276.8" font-family="Times,serif" font-size="14.00">a</text>
</g>
<!-- 4 -->
<g id="node5" class="node"><title>4</title>
<ellipse fill="lightblue" stroke="black" cx="155" cy="-171" rx="18" ry="18"/>
<ellipse fill="none" stroke="black" cx="155" cy="-171" rx="22" ry="22"/>
<text text-anchor="middle" x="155" y="-167.3" font-family="Times,serif" font-size="14.00">4</text>
</g>
<!-- 4&#45;&gt;2 -->
<g id="edge8" class="edge"><title>4&#45;&gt;2</title>
<path fill="none" stroke="black" d="M151.163,-149.334C147.393,-131.984 140.639,-106.91 130,-87 120.45,-69.1275 105.784,-51.5395 93.8563,-38.7293"/>
<polygon fill="black" stroke="black" points="96.2959,-36.2164 86.8536,-31.4108 91.2382,-41.0558 96.2959,-36.2164"/>
<text text-anchor="middle" x="154.5" y="-105.3" font-family="Times,serif" font-size="14.00">a,b</text>
</g>
<!-- 5&#45;&gt;0 -->
<g id="edge9" class="edge"><title>5&#45;&gt;0</title>
<path fill="none" stroke="black" d="M52,-495.897C52,-483.887 52,-468.617 52,-455.242"/>
<polygon fill="black" stroke="black" points="55.5001,-455.02 52,-445.02 48.5001,-455.02 55.5001,-455.02"/>
<text text-anchor="middle" x="55.5" y="-466.8" font-family="Times,serif" font-size="14.00">b</text>
</g>
<!-- 7 -->
<g id="node8" class="node"><title>7</title>
<ellipse fill="lightblue" stroke="black" cx="135" cy="-328" rx="18" ry="18"/>
<ellipse fill="none" stroke="black" cx="135" cy="-328" rx="22" ry="22"/>
<text text-anchor="middle" x="135" y="-324.3" font-family="Times,serif" font-size="14.00">7</text>
</g>
<!-- 5&#45;&gt;7 -->
<g id="edge10" class="edge"><title>5&#45;&gt;7</title>
<path fill="none" stroke="black" d="M67.0887,-501.764C79.8417,-488.036 97.6417,-466.728 108,-445 120.944,-417.848 127.896,-384.097 131.486,-360.014"/>
<polygon fill="black" stroke="black" points="134.966,-360.395 132.867,-350.01 128.032,-359.438 134.966,-360.395"/>
<text text-anchor="middle" x="125.5" y="-419.3" font-family="Times,serif" font-size="14.00">a</text>
</g>
<!-- 6&#45;&gt;6 -->
<g id="edge11" class="edge"><title>6&#45;&gt;6</title>
<path fill="none" stroke="black" d="M94.5808,-241.37C104.845,-242.528 114,-239.738 114,-233 114,-228.683 110.243,-225.987 104.844,-224.911"/>
<polygon fill="black" stroke="black" points="104.673,-221.405 94.5808,-224.63 104.481,-228.402 104.673,-221.405"/>
<text text-anchor="middle" x="117.5" y="-229.3" font-family="Times,serif" font-size="14.00">a</text>
</g>
<!-- 8 -->
<g id="node9" class="node"><title>8</title>
<ellipse fill="lightblue" stroke="black" cx="74" cy="-109" rx="18" ry="18"/>
<ellipse fill="none" stroke="black" cx="74" cy="-109" rx="22" ry="22"/>
<text text-anchor="middle" x="74" y="-105.3" font-family="Times,serif" font-size="14.00">8</text>
</g>
<!-- 6&#45;&gt;8 -->
<g id="edge12" class="edge"><title>6&#45;&gt;8</title>
<path fill="none" stroke="black" d="M74,-210.749C74,-191.506 74,-162.915 74,-141.101"/>
<polygon fill="black" stroke="black" points="77.5001,-141.007 74,-131.007 70.5001,-141.007 77.5001,-141.007"/>
<text text-anchor="middle" x="77.5" y="-167.3" font-family="Times,serif" font-size="14.00">b</text>
</g>
<!-- 7&#45;&gt;4 -->
<g id="edge13" class="edge"><title>7&#45;&gt;4</title>
<path fill="none" stroke="black" d="M137.697,-306.096C141.112,-279.633 147.024,-233.813 150.974,-203.204"/>
<polygon fill="black" stroke="black" points="154.473,-203.434 152.282,-193.068 147.531,-202.538 154.473,-203.434"/>
<text text-anchor="middle" x="144.5" y="-276.8" font-family="Times,serif" font-size="14.00">b</text>
</g>
<!-- 7&#45;&gt;6 -->
<g id="edge14" class="edge"><title>7&#45;&gt;6</title>
<path fill="none" stroke="black" d="M123.239,-309.069C114.209,-295.302 101.602,-276.082 91.4052,-260.536"/>
<polygon fill="black" stroke="black" points="94.1366,-258.318 85.7253,-251.876 88.2833,-262.158 94.1366,-258.318"/>
<text text-anchor="middle" x="111.5" y="-276.8" font-family="Times,serif" font-size="14.00">a</text>
</g>
<!-- 8&#45;&gt;2 -->
<g id="edge15" class="edge"><title>8&#45;&gt;2</title>
<path fill="none" stroke="black" d="M74,-86.9082C74,-74.7803 74,-59.4094 74,-46.3598"/>
<polygon fill="black" stroke="black" points="77.5001,-46.0663 74,-36.0663 70.5001,-46.0663 77.5001,-46.0663"/>
<text text-anchor="middle" x="77.5" y="-57.8" font-family="Times,serif" font-size="14.00">b</text>
</g>
<!-- 8&#45;&gt;8 -->
<g id="edge16" class="edge"><title>8&#45;&gt;8</title>
<path fill="none" stroke="black" d="M94.5808,-117.37C104.845,-118.528 114,-115.738 114,-109 114,-104.683 110.243,-101.987 104.844,-100.911"/>
<polygon fill="black" stroke="black" points="104.673,-97.405 94.5808,-100.63 104.481,-104.402 104.673,-97.405"/>
<text text-anchor="middle" x="117.5" y="-105.3" font-family="Times,serif" font-size="14.00">a</text>
</g>
</g>
</svg>
