<?xml version="1.0" encoding="UTF-8" standalone="no"?>
<!DOCTYPE svg PUBLIC "-//W3C//DTD SVG 1.1//EN"
 "http://www.w3.org/Graphics/SVG/1.1/DTD/svg11.dtd">
<!-- Generated by graphviz version 2.38.0 (20140413.2041)
 -->
<!-- Title: %3 Pages: 1 -->
<svg width="87pt" height="511pt"
 viewBox="0.00 0.00 87.00 511.00" xmlns="http://www.w3.org/2000/svg" xmlns:xlink="http://www.w3.org/1999/xlink">
<g id="graph0" class="graph" transform="scale(1 1) rotate(0) translate(4 507)">
<title>%3</title>
<!-- 0 -->
<g id="node1" class="node"><title>0</title>
<ellipse fill="lightblue" stroke="black" cx="59" cy="-485" rx="18" ry="18"/>
<text text-anchor="middle" x="59" y="-481.3" font-family="Times,serif" font-size="14.00">0</text>
</g>
<!-- 2 -->
<g id="node3" class="node"><title>2</title>
<ellipse fill="#aaff80" stroke="black" cx="22" cy="-394" rx="18" ry="18"/>
<ellipse fill="none" stroke="black" cx="22" cy="-394" rx="22" ry="22"/>
<text text-anchor="middle" x="22" y="-390.3" font-family="Times,serif" font-size="14.00">2</text>
</g>
<!-- 0&#45;&gt;2 -->
<g id="edge1" class="edge"><title>0&#45;&gt;2</title>
<path fill="none" stroke="black" d="M52.3851,-468.089C47.3185,-455.901 40.1894,-438.753 34.1099,-424.129"/>
<polygon fill="black" stroke="black" points="37.1776,-422.391 30.1069,-414.5 30.7139,-425.078 37.1776,-422.391"/>
<text text-anchor="middle" x="47.5" y="-437.8" font-family="Times,serif" font-size="14.00">a</text>
</g>
<!-- 1 -->
<g id="node2" class="node"><title>1</title>
<ellipse fill="lightblue" stroke="black" cx="54" cy="-22" rx="18" ry="18"/>
<ellipse fill="none" stroke="black" cx="54" cy="-22" rx="22" ry="22"/>
<text text-anchor="middle" x="54" y="-18.3" font-family="Times,serif" font-size="14.00">1</text>
</g>
<!-- 1&#45;&gt;0 -->
<g id="edge2" class="edge"><title>1&#45;&gt;0</title>
<path fill="none" stroke="black" d="M60.2955,-43.4652C65.4862,-62.1637 72,-90.674 72,-116 72,-395 72,-395 72,-395 72,-416.078 68.3856,-439.673 64.9685,-457.269"/>
<polygon fill="black" stroke="black" points="61.4766,-456.876 62.9004,-467.374 68.3344,-458.279 61.4766,-456.876"/>
<text text-anchor="middle" x="75.5" y="-255.8" font-family="Times,serif" font-size="14.00">a</text>
</g>
<!-- 4 -->
<g id="node5" class="node"><title>4</title>
<ellipse fill="lightblue" stroke="black" cx="22" cy="-303" rx="18" ry="18"/>
<text text-anchor="middle" x="22" y="-299.3" font-family="Times,serif" font-size="14.00">4</text>
</g>
<!-- 2&#45;&gt;4 -->
<g id="edge3" class="edge"><title>2&#45;&gt;4</title>
<path fill="none" stroke="black" d="M22,-371.908C22,-359.78 22,-344.409 22,-331.36"/>
<polygon fill="black" stroke="black" points="25.5001,-331.066 22,-321.066 18.5001,-331.066 25.5001,-331.066"/>
<text text-anchor="middle" x="25.5" y="-342.8" font-family="Times,serif" font-size="14.00">a</text>
</g>
<!-- 3 -->
<g id="node4" class="node"><title>3</title>
<ellipse fill="lightblue" stroke="black" cx="22" cy="-212" rx="18" ry="18"/>
<ellipse fill="none" stroke="black" cx="22" cy="-212" rx="22" ry="22"/>
<text text-anchor="middle" x="22" y="-208.3" font-family="Times,serif" font-size="14.00">3</text>
</g>
<!-- 5 -->
<g id="node6" class="node"><title>5</title>
<ellipse fill="lightblue" stroke="black" cx="22" cy="-117" rx="18" ry="18"/>
<ellipse fill="none" stroke="black" cx="22" cy="-117" rx="22" ry="22"/>
<text text-anchor="middle" x="22" y="-113.3" font-family="Times,serif" font-size="14.00">5</text>
</g>
<!-- 3&#45;&gt;5 -->
<g id="edge4" class="edge"><title>3&#45;&gt;5</title>
<path fill="none" stroke="black" d="M22,-189.897C22,-177.887 22,-162.617 22,-149.242"/>
<polygon fill="black" stroke="black" points="25.5001,-149.02 22,-139.02 18.5001,-149.02 25.5001,-149.02"/>
<text text-anchor="middle" x="25.5" y="-160.8" font-family="Times,serif" font-size="14.00">a</text>
</g>
<!-- 4&#45;&gt;3 -->
<g id="edge5" class="edge"><title>4&#45;&gt;3</title>
<path fill="none" stroke="black" d="M22,-284.84C22,-273.441 22,-258.134 22,-244.578"/>
<polygon fill="black" stroke="black" points="25.5001,-244.19 22,-234.191 18.5001,-244.191 25.5001,-244.19"/>
<text text-anchor="middle" x="25.5" y="-255.8" font-family="Times,serif" font-size="14.00">a</text>
</g>
<!-- 5&#45;&gt;1 -->
<g id="edge6" class="edge"><title>5&#45;&gt;1</title>
<path fill="none" stroke="black" d="M28.9435,-95.8204C33.2627,-83.2679 38.8947,-66.8999 43.7248,-52.8622"/>
<polygon fill="black" stroke="black" points="47.1259,-53.7349 47.07,-43.1402 40.5068,-51.4573 47.1259,-53.7349"/>
<text text-anchor="middle" x="43.5" y="-65.8" font-family="Times,serif" font-size="14.00">a</text>
</g>
</g>
</svg>
