<?xml version="1.0" encoding="UTF-8" standalone="no"?>
<!DOCTYPE svg PUBLIC "-//W3C//DTD SVG 1.1//EN"
 "http://www.w3.org/Graphics/SVG/1.1/DTD/svg11.dtd">
<!-- Generated by graphviz version 2.38.0 (20140413.2041)
 -->
<!-- Title: %3 Pages: 1 -->
<svg width="260pt" height="891pt"
 viewBox="0.00 0.00 260.06 891.00" xmlns="http://www.w3.org/2000/svg" xmlns:xlink="http://www.w3.org/1999/xlink">
<g id="graph0" class="graph" transform="scale(1 1) rotate(0) translate(4 887)">
<title>%3</title>
<!-- 0 -->
<g id="node1" class="node"><title>0</title>
<ellipse fill="lightblue" stroke="black" cx="194.06" cy="-299" rx="18" ry="18"/>
<text text-anchor="middle" x="194.06" y="-295.3" font-family="Times,serif" font-size="14.00">0</text>
</g>
<!-- 6 -->
<g id="node7" class="node"><title>6</title>
<ellipse fill="lightblue" stroke="black" cx="161.06" cy="-204" rx="18" ry="18"/>
<text text-anchor="middle" x="161.06" y="-200.3" font-family="Times,serif" font-size="14.00">6</text>
</g>
<!-- 0&#45;&gt;6 -->
<g id="edge1" class="edge"><title>0&#45;&gt;6</title>
<path fill="none" stroke="black" d="M188.312,-281.801C183.327,-267.751 176.022,-247.165 170.23,-230.842"/>
<polygon fill="black" stroke="black" points="173.496,-229.58 166.853,-221.326 166.899,-231.921 173.496,-229.58"/>
<text text-anchor="middle" x="182.56" y="-247.8" font-family="Times,serif" font-size="14.00">a</text>
</g>
<!-- 12 -->
<g id="node13" class="node"><title>12</title>
<ellipse fill="lightblue" stroke="black" cx="172.06" cy="-18" rx="18" ry="18"/>
<text text-anchor="middle" x="172.06" y="-14.3" font-family="Times,serif" font-size="14.00">12</text>
</g>
<!-- 0&#45;&gt;12 -->
<g id="edge2" class="edge"><title>0&#45;&gt;12</title>
<path fill="none" stroke="black" d="M194.797,-280.973C196.201,-240.994 197.918,-138.143 183.06,-54 182.541,-51.0598 181.843,-48.0229 181.049,-45.0232"/>
<polygon fill="black" stroke="black" points="184.319,-43.7419 178.102,-35.1631 177.613,-45.7466 184.319,-43.7419"/>
<text text-anchor="middle" x="197.56" y="-152.8" font-family="Times,serif" font-size="14.00">b</text>
</g>
<!-- 1 -->
<g id="node2" class="node"><title>1</title>
<ellipse fill="#aaff80" stroke="black" cx="174.06" cy="-861" rx="18" ry="18"/>
<ellipse fill="none" stroke="black" cx="174.06" cy="-861" rx="22" ry="22"/>
<text text-anchor="middle" x="174.06" y="-857.3" font-family="Times,serif" font-size="14.00">1</text>
</g>
<!-- 5 -->
<g id="node6" class="node"><title>5</title>
<ellipse fill="lightblue" stroke="black" cx="123.06" cy="-766" rx="18" ry="18"/>
<ellipse fill="none" stroke="black" cx="123.06" cy="-766" rx="22" ry="22"/>
<text text-anchor="middle" x="123.06" y="-762.3" font-family="Times,serif" font-size="14.00">5</text>
</g>
<!-- 1&#45;&gt;5 -->
<g id="edge3" class="edge"><title>1&#45;&gt;5</title>
<path fill="none" stroke="black" d="M163.739,-841.18C156.412,-827.818 146.455,-809.662 138.227,-794.657"/>
<polygon fill="black" stroke="black" points="141.243,-792.877 133.365,-785.792 135.105,-796.243 141.243,-792.877"/>
<text text-anchor="middle" x="154.56" y="-809.8" font-family="Times,serif" font-size="14.00">b</text>
</g>
<!-- 10 -->
<g id="node11" class="node"><title>10</title>
<ellipse fill="lightblue" stroke="black" cx="154.06" cy="-576" rx="18" ry="18"/>
<ellipse fill="none" stroke="black" cx="154.06" cy="-576" rx="22" ry="22"/>
<text text-anchor="middle" x="154.06" y="-572.3" font-family="Times,serif" font-size="14.00">10</text>
</g>
<!-- 1&#45;&gt;10 -->
<g id="edge4" class="edge"><title>1&#45;&gt;10</title>
<path fill="none" stroke="black" d="M177.155,-839.147C182.232,-801.062 190.67,-717.831 179.06,-649 176.587,-634.34 171.469,-618.678 166.504,-605.719"/>
<polygon fill="black" stroke="black" points="169.741,-604.387 162.784,-596.397 163.24,-606.982 169.741,-604.387"/>
<text text-anchor="middle" x="187.56" y="-714.8" font-family="Times,serif" font-size="14.00">a</text>
</g>
<!-- 2 -->
<g id="node3" class="node"><title>2</title>
<ellipse fill="lightblue" stroke="black" cx="174.06" cy="-485" rx="18" ry="18"/>
<text text-anchor="middle" x="174.06" y="-481.3" font-family="Times,serif" font-size="14.00">2</text>
</g>
<!-- 11 -->
<g id="node12" class="node"><title>11</title>
<ellipse fill="lightblue" stroke="black" cx="174.06" cy="-394" rx="18" ry="18"/>
<text text-anchor="middle" x="174.06" y="-390.3" font-family="Times,serif" font-size="14.00">11</text>
</g>
<!-- 2&#45;&gt;11 -->
<g id="edge5" class="edge"><title>2&#45;&gt;11</title>
<path fill="none" stroke="black" d="M174.06,-466.84C174.06,-454.281 174.06,-436.979 174.06,-422.502"/>
<polygon fill="black" stroke="black" points="177.56,-422.107 174.06,-412.107 170.56,-422.107 177.56,-422.107"/>
<text text-anchor="middle" x="177.56" y="-437.8" font-family="Times,serif" font-size="14.00">b</text>
</g>
<!-- 2&#45;&gt;12 -->
<g id="edge6" class="edge"><title>2&#45;&gt;12</title>
<path fill="none" stroke="black" d="M189.117,-474.532C209.959,-460.125 245.06,-430.578 245.06,-395 245.06,-395 245.06,-395 245.06,-108 245.06,-76.2088 216.871,-49.5608 195.527,-33.9402"/>
<polygon fill="black" stroke="black" points="197.391,-30.9735 187.186,-28.127 193.389,-36.7163 197.391,-30.9735"/>
<text text-anchor="middle" x="248.56" y="-247.8" font-family="Times,serif" font-size="14.00">a</text>
</g>
<!-- 3 -->
<g id="node4" class="node"><title>3</title>
<ellipse fill="lightblue" stroke="black" cx="73.0601" cy="-394" rx="18" ry="18"/>
<ellipse fill="none" stroke="black" cx="73.0601" cy="-394" rx="22" ry="22"/>
<text text-anchor="middle" x="73.0601" y="-390.3" font-family="Times,serif" font-size="14.00">3</text>
</g>
<!-- 4 -->
<g id="node5" class="node"><title>4</title>
<ellipse fill="lightblue" stroke="black" cx="111.06" cy="-299" rx="18" ry="18"/>
<ellipse fill="none" stroke="black" cx="111.06" cy="-299" rx="22" ry="22"/>
<text text-anchor="middle" x="111.06" y="-295.3" font-family="Times,serif" font-size="14.00">4</text>
</g>
<!-- 3&#45;&gt;4 -->
<g id="edge7" class="edge"><title>3&#45;&gt;4</title>
<path fill="none" stroke="black" d="M81.1189,-373.277C86.3585,-360.454 93.282,-343.509 99.1515,-329.145"/>
<polygon fill="black" stroke="black" points="102.47,-330.275 103.013,-319.694 95.9904,-327.628 102.47,-330.275"/>
<text text-anchor="middle" x="97.5601" y="-342.8" font-family="Times,serif" font-size="14.00">a</text>
</g>
<!-- 13 -->
<g id="node14" class="node"><title>13</title>
<ellipse fill="lightblue" stroke="black" cx="34.0601" cy="-299" rx="18" ry="18"/>
<text text-anchor="middle" x="34.0601" y="-295.3" font-family="Times,serif" font-size="14.00">13</text>
</g>
<!-- 3&#45;&gt;13 -->
<g id="edge8" class="edge"><title>3&#45;&gt;13</title>
<path fill="none" stroke="black" d="M64.7892,-373.277C58.9198,-359.281 50.9915,-340.375 44.6582,-325.273"/>
<polygon fill="black" stroke="black" points="47.8594,-323.856 40.7644,-315.987 41.4041,-326.563 47.8594,-323.856"/>
<text text-anchor="middle" x="59.5601" y="-342.8" font-family="Times,serif" font-size="14.00">b</text>
</g>
<!-- 4&#45;&gt;4 -->
<g id="edge9" class="edge"><title>4&#45;&gt;4</title>
<path fill="none" stroke="black" d="M131.641,-307.37C141.905,-308.528 151.06,-305.738 151.06,-299 151.06,-294.683 147.303,-291.987 141.904,-290.911"/>
<polygon fill="black" stroke="black" points="141.733,-287.405 131.641,-290.63 141.541,-294.402 141.733,-287.405"/>
<text text-anchor="middle" x="154.56" y="-295.3" font-family="Times,serif" font-size="14.00">a</text>
</g>
<!-- 8 -->
<g id="node9" class="node"><title>8</title>
<ellipse fill="lightblue" stroke="black" cx="89.0601" cy="-109" rx="18" ry="18"/>
<ellipse fill="none" stroke="black" cx="89.0601" cy="-109" rx="22" ry="22"/>
<text text-anchor="middle" x="89.0601" y="-105.3" font-family="Times,serif" font-size="14.00">8</text>
</g>
<!-- 4&#45;&gt;8 -->
<g id="edge10" class="edge"><title>4&#45;&gt;8</title>
<path fill="none" stroke="black" d="M108.579,-276.799C104.707,-243.708 97.2049,-179.601 92.7134,-141.219"/>
<polygon fill="black" stroke="black" points="96.1706,-140.648 91.5319,-131.123 89.218,-141.462 96.1706,-140.648"/>
<text text-anchor="middle" x="105.56" y="-200.3" font-family="Times,serif" font-size="14.00">b</text>
</g>
<!-- 5&#45;&gt;3 -->
<g id="edge11" class="edge"><title>5&#45;&gt;3</title>
<path fill="none" stroke="black" d="M108.329,-749.248C93.5801,-731.775 73.0601,-702.063 73.0601,-672 73.0601,-672 73.0601,-672 73.0601,-484 73.0601,-464.988 73.0601,-443.691 73.0601,-426.697"/>
<polygon fill="black" stroke="black" points="76.5602,-426.219 73.0601,-416.219 69.5602,-426.219 76.5602,-426.219"/>
<text text-anchor="middle" x="76.5601" y="-572.3" font-family="Times,serif" font-size="14.00">a</text>
</g>
<!-- 9 -->
<g id="node10" class="node"><title>9</title>
<ellipse fill="lightblue" stroke="black" cx="123.06" cy="-671" rx="18" ry="18"/>
<ellipse fill="none" stroke="black" cx="123.06" cy="-671" rx="22" ry="22"/>
<text text-anchor="middle" x="123.06" y="-667.3" font-family="Times,serif" font-size="14.00">9</text>
</g>
<!-- 5&#45;&gt;9 -->
<g id="edge12" class="edge"><title>5&#45;&gt;9</title>
<path fill="none" stroke="black" d="M123.06,-743.897C123.06,-731.887 123.06,-716.617 123.06,-703.242"/>
<polygon fill="black" stroke="black" points="126.56,-703.02 123.06,-693.02 119.56,-703.02 126.56,-703.02"/>
<text text-anchor="middle" x="126.56" y="-714.8" font-family="Times,serif" font-size="14.00">b</text>
</g>
<!-- 6&#45;&gt;8 -->
<g id="edge13" class="edge"><title>6&#45;&gt;8</title>
<path fill="none" stroke="black" d="M152.998,-187.704C146.809,-176.532 137.711,-161.258 128.06,-149 123.336,-143 117.771,-136.954 112.346,-131.472"/>
<polygon fill="black" stroke="black" points="114.723,-128.9 105.129,-124.404 109.825,-133.901 114.723,-128.9"/>
<text text-anchor="middle" x="141.56" y="-152.8" font-family="Times,serif" font-size="14.00">a</text>
</g>
<!-- 6&#45;&gt;12 -->
<g id="edge14" class="edge"><title>6&#45;&gt;12</title>
<path fill="none" stroke="black" d="M162.075,-186.02C163.986,-154.06 168.131,-84.7298 170.434,-46.2007"/>
<polygon fill="black" stroke="black" points="173.928,-46.398 171.031,-36.2069 166.941,-45.9802 173.928,-46.398"/>
<text text-anchor="middle" x="170.56" y="-105.3" font-family="Times,serif" font-size="14.00">b</text>
</g>
<!-- 7 -->
<g id="node8" class="node"><title>7</title>
<ellipse fill="lightblue" stroke="black" cx="34.0601" cy="-204" rx="18" ry="18"/>
<ellipse fill="none" stroke="black" cx="34.0601" cy="-204" rx="22" ry="22"/>
<text text-anchor="middle" x="34.0601" y="-200.3" font-family="Times,serif" font-size="14.00">7</text>
</g>
<!-- 7&#45;&gt;7 -->
<g id="edge15" class="edge"><title>7&#45;&gt;7</title>
<path fill="none" stroke="black" d="M54.6409,-212.37C64.9048,-213.528 74.0601,-210.738 74.0601,-204 74.0601,-199.683 70.3027,-196.987 64.9037,-195.911"/>
<polygon fill="black" stroke="black" points="64.733,-192.405 54.6409,-195.63 64.5413,-199.402 64.733,-192.405"/>
<text text-anchor="middle" x="77.5601" y="-200.3" font-family="Times,serif" font-size="14.00">b</text>
</g>
<!-- 7&#45;&gt;8 -->
<g id="edge16" class="edge"><title>7&#45;&gt;8</title>
<path fill="none" stroke="black" d="M44.9263,-184.626C52.9113,-171.124 63.8933,-152.555 72.9047,-137.317"/>
<polygon fill="black" stroke="black" points="76.1386,-138.725 78.2164,-128.336 70.1134,-135.161 76.1386,-138.725"/>
<text text-anchor="middle" x="68.5601" y="-152.8" font-family="Times,serif" font-size="14.00">a</text>
</g>
<!-- 8&#45;&gt;8 -->
<g id="edge17" class="edge"><title>8&#45;&gt;8</title>
<path fill="none" stroke="black" d="M109.641,-117.37C119.905,-118.528 129.06,-115.738 129.06,-109 129.06,-104.683 125.303,-101.987 119.904,-100.911"/>
<polygon fill="black" stroke="black" points="119.733,-97.405 109.641,-100.63 119.541,-104.402 119.733,-97.405"/>
<text text-anchor="middle" x="132.56" y="-105.3" font-family="Times,serif" font-size="14.00">a</text>
</g>
<!-- 8&#45;&gt;12 -->
<g id="edge18" class="edge"><title>8&#45;&gt;12</title>
<path fill="none" stroke="black" d="M103.899,-92.0886C117.683,-77.3076 138.273,-55.229 153.215,-39.2078"/>
<polygon fill="black" stroke="black" points="155.78,-41.5883 160.041,-31.8879 150.661,-36.8141 155.78,-41.5883"/>
<text text-anchor="middle" x="140.56" y="-57.8" font-family="Times,serif" font-size="14.00">b</text>
</g>
<!-- 9&#45;&gt;9 -->
<g id="edge19" class="edge"><title>9&#45;&gt;9</title>
<path fill="none" stroke="black" d="M143.641,-679.37C153.905,-680.528 163.06,-677.738 163.06,-671 163.06,-666.683 159.303,-663.987 153.904,-662.911"/>
<polygon fill="black" stroke="black" points="153.733,-659.405 143.641,-662.63 153.541,-666.402 153.733,-659.405"/>
<text text-anchor="middle" x="166.56" y="-667.3" font-family="Times,serif" font-size="14.00">b</text>
</g>
<!-- 9&#45;&gt;10 -->
<g id="edge20" class="edge"><title>9&#45;&gt;10</title>
<path fill="none" stroke="black" d="M129.787,-649.82C133.971,-637.268 139.427,-620.9 144.106,-606.862"/>
<polygon fill="black" stroke="black" points="147.505,-607.734 147.347,-597.14 140.864,-605.52 147.505,-607.734"/>
<text text-anchor="middle" x="143.56" y="-619.8" font-family="Times,serif" font-size="14.00">a</text>
</g>
<!-- 10&#45;&gt;2 -->
<g id="edge21" class="edge"><title>10&#45;&gt;2</title>
<path fill="none" stroke="black" d="M158.699,-554.358C161.485,-541.959 165.06,-526.052 168.059,-512.703"/>
<polygon fill="black" stroke="black" points="171.538,-513.186 170.316,-502.662 164.708,-511.651 171.538,-513.186"/>
<text text-anchor="middle" x="168.56" y="-524.8" font-family="Times,serif" font-size="14.00">b</text>
</g>
<!-- 10&#45;&gt;4 -->
<g id="edge22" class="edge"><title>10&#45;&gt;4</title>
<path fill="none" stroke="black" d="M150.757,-553.878C143.219,-505.67 124.72,-387.358 115.895,-330.923"/>
<polygon fill="black" stroke="black" points="119.318,-330.157 114.315,-320.818 112.402,-331.238 119.318,-330.157"/>
<text text-anchor="middle" x="136.56" y="-437.8" font-family="Times,serif" font-size="14.00">a</text>
</g>
<!-- 11&#45;&gt;0 -->
<g id="edge23" class="edge"><title>11&#45;&gt;0</title>
<path fill="none" stroke="black" d="M177.728,-375.942C180.66,-362.308 184.826,-342.938 188.216,-327.173"/>
<polygon fill="black" stroke="black" points="191.734,-327.462 190.415,-316.949 184.891,-325.99 191.734,-327.462"/>
<text text-anchor="middle" x="188.56" y="-342.8" font-family="Times,serif" font-size="14.00">a</text>
</g>
<!-- 11&#45;&gt;11 -->
<g id="edge24" class="edge"><title>11&#45;&gt;11</title>
<path fill="none" stroke="black" d="M190.35,-402.016C200.449,-403.949 210.06,-401.277 210.06,-394 210.06,-389.338 206.116,-386.566 200.626,-385.684"/>
<polygon fill="black" stroke="black" points="200.244,-382.193 190.35,-385.984 200.448,-389.19 200.244,-382.193"/>
<text text-anchor="middle" x="213.56" y="-390.3" font-family="Times,serif" font-size="14.00">b</text>
</g>
<!-- 12&#45;&gt;12 -->
<g id="edge25" class="edge"><title>12&#45;&gt;12</title>
<path fill="none" stroke="black" d="M188.724,-25.3828C198.685,-27.0234 208.06,-24.5625 208.06,-18 208.06,-13.7959 204.213,-11.2751 198.828,-10.4375"/>
<polygon fill="black" stroke="black" points="198.66,-6.93988 188.724,-10.6172 198.785,-13.9388 198.66,-6.93988"/>
<text text-anchor="middle" x="216.56" y="-14.3" font-family="Times,serif" font-size="14.00">a,b</text>
</g>
<!-- 13&#45;&gt;7 -->
<g id="edge26" class="edge"><title>13&#45;&gt;7</title>
<path fill="none" stroke="black" d="M34.0601,-280.942C34.0601,-268.537 34.0601,-251.381 34.0601,-236.514"/>
<polygon fill="black" stroke="black" points="37.5602,-236.194 34.0601,-226.194 30.5602,-236.194 37.5602,-236.194"/>
<text text-anchor="middle" x="37.5601" y="-247.8" font-family="Times,serif" font-size="14.00">b</text>
</g>
<!-- 13&#45;&gt;12 -->
<g id="edge27" class="edge"><title>13&#45;&gt;12</title>
<path fill="none" stroke="black" d="M25.1167,-283.348C12.8221,-261.339 -6.72713,-218.439 3.06008,-182 15.7155,-134.882 23.7876,-121.722 58.0601,-87 83.7851,-60.9373 121.498,-41.0297 146.405,-29.6779"/>
<polygon fill="black" stroke="black" points="147.859,-32.8617 155.588,-25.6152 145.027,-26.4602 147.859,-32.8617"/>
<text text-anchor="middle" x="17.5601" y="-152.8" font-family="Times,serif" font-size="14.00">a</text>
</g>
</g>
</svg>
