<?xml version="1.0" encoding="UTF-8" standalone="no"?>
<!DOCTYPE svg PUBLIC "-//W3C//DTD SVG 1.1//EN"
 "http://www.w3.org/Graphics/SVG/1.1/DTD/svg11.dtd">
<!-- Generated by graphviz version 2.38.0 (20140413.2041)
 -->
<!-- Title: %3 Pages: 1 -->
<svg width="80pt" height="234pt"
 viewBox="0.00 0.00 80.00 234.00" xmlns="http://www.w3.org/2000/svg" xmlns:xlink="http://www.w3.org/1999/xlink">
<g id="graph0" class="graph" transform="scale(1 1) rotate(0) translate(4 230)">
<title>%3</title>
<!-- 0 -->
<g id="node1" class="node"><title>0</title>
<ellipse fill="lightblue" stroke="black" cx="22" cy="-22" rx="18" ry="18"/>
<ellipse fill="none" stroke="black" cx="22" cy="-22" rx="22" ry="22"/>
<text text-anchor="middle" x="22" y="-18.3" font-family="Times,serif" font-size="14.00">0</text>
</g>
<!-- 0&#45;&gt;0 -->
<g id="edge1" class="edge"><title>0&#45;&gt;0</title>
<path fill="none" stroke="black" d="M42.5808,-30.3702C52.8447,-31.5284 62,-28.7383 62,-22 62,-17.6833 58.2427,-14.9869 52.8436,-13.9109"/>
<polygon fill="black" stroke="black" points="52.6729,-10.405 42.5808,-13.6298 52.4812,-17.4024 52.6729,-10.405"/>
<text text-anchor="middle" x="67" y="-18.3" font-family="Times,serif" font-size="14.00">B</text>
</g>
<!-- 1 -->
<g id="node2" class="node"><title>1</title>
<ellipse fill="#aaff80" stroke="black" cx="22" cy="-204" rx="18" ry="18"/>
<ellipse fill="none" stroke="black" cx="22" cy="-204" rx="22" ry="22"/>
<text text-anchor="middle" x="22" y="-200.3" font-family="Times,serif" font-size="14.00">1</text>
</g>
<!-- 2 -->
<g id="node3" class="node"><title>2</title>
<ellipse fill="lightblue" stroke="black" cx="22" cy="-113" rx="18" ry="18"/>
<text text-anchor="middle" x="22" y="-109.3" font-family="Times,serif" font-size="14.00">2</text>
</g>
<!-- 1&#45;&gt;2 -->
<g id="edge2" class="edge"><title>1&#45;&gt;2</title>
<path fill="none" stroke="black" d="M22,-181.908C22,-169.78 22,-154.409 22,-141.36"/>
<polygon fill="black" stroke="black" points="25.5001,-141.066 22,-131.066 18.5001,-141.066 25.5001,-141.066"/>
<text text-anchor="middle" x="27" y="-152.8" font-family="Times,serif" font-size="14.00">B</text>
</g>
<!-- 2&#45;&gt;0 -->
<g id="edge3" class="edge"><title>2&#45;&gt;0</title>
<path fill="none" stroke="black" d="M22,-94.8399C22,-83.4407 22,-68.1336 22,-54.5781"/>
<polygon fill="black" stroke="black" points="25.5001,-54.1905 22,-44.1905 18.5001,-54.1906 25.5001,-54.1905"/>
<text text-anchor="middle" x="27" y="-65.8" font-family="Times,serif" font-size="14.00">B</text>
</g>
</g>
</svg>
