<?xml version="1.0" encoding="UTF-8" standalone="no"?>
<!DOCTYPE svg PUBLIC "-//W3C//DTD SVG 1.1//EN"
 "http://www.w3.org/Graphics/SVG/1.1/DTD/svg11.dtd">
<!-- Generated by graphviz version 2.38.0 (20140413.2041)
 -->
<!-- Title: %3 Pages: 1 -->
<svg width="147pt" height="416pt"
 viewBox="0.00 0.00 147.00 416.00" xmlns="http://www.w3.org/2000/svg" xmlns:xlink="http://www.w3.org/1999/xlink">
<g id="graph0" class="graph" transform="scale(1 1) rotate(0) translate(4 412)">
<title>%3</title>
<!-- 5 -->
<g id="node1" class="node"><title>5</title>
<ellipse fill="lightblue" stroke="black" cx="22" cy="-204" rx="18" ry="18"/>
<ellipse fill="none" stroke="black" cx="22" cy="-204" rx="22" ry="22"/>
<text text-anchor="middle" x="22" y="-200.3" font-family="Times,serif" font-size="14.00">5</text>
</g>
<!-- 5&#45;&gt;5 -->
<g id="edge1" class="edge"><title>5&#45;&gt;5</title>
<path fill="none" stroke="black" d="M42.5808,-212.37C52.8447,-213.528 62,-210.738 62,-204 62,-199.683 58.2427,-196.987 52.8436,-195.911"/>
<polygon fill="black" stroke="black" points="52.6729,-192.405 42.5808,-195.63 52.4812,-199.402 52.6729,-192.405"/>
<text text-anchor="middle" x="65.5" y="-200.3" font-family="Times,serif" font-size="14.00">b</text>
</g>
<!-- 3 -->
<g id="node5" class="node"><title>3</title>
<ellipse fill="lightblue" stroke="black" cx="52" cy="-109" rx="18" ry="18"/>
<ellipse fill="none" stroke="black" cx="52" cy="-109" rx="22" ry="22"/>
<text text-anchor="middle" x="52" y="-105.3" font-family="Times,serif" font-size="14.00">3</text>
</g>
<!-- 5&#45;&gt;3 -->
<g id="edge2" class="edge"><title>5&#45;&gt;3</title>
<path fill="none" stroke="black" d="M20.5408,-181.978C20.486,-171.772 21.4043,-159.48 25,-149 26.7263,-143.969 29.3004,-138.993 32.1846,-134.366"/>
<polygon fill="black" stroke="black" points="35.1762,-136.193 37.9716,-125.974 29.4134,-132.219 35.1762,-136.193"/>
<text text-anchor="middle" x="28.5" y="-152.8" font-family="Times,serif" font-size="14.00">a</text>
</g>
<!-- 1 -->
<g id="node2" class="node"><title>1</title>
<ellipse fill="#aaff80" stroke="black" cx="75" cy="-390" rx="18" ry="18"/>
<text text-anchor="middle" x="75" y="-386.3" font-family="Times,serif" font-size="14.00">1</text>
</g>
<!-- 4 -->
<g id="node3" class="node"><title>4</title>
<ellipse fill="lightblue" stroke="black" cx="45" cy="-299" rx="18" ry="18"/>
<ellipse fill="none" stroke="black" cx="45" cy="-299" rx="22" ry="22"/>
<text text-anchor="middle" x="45" y="-295.3" font-family="Times,serif" font-size="14.00">4</text>
</g>
<!-- 1&#45;&gt;4 -->
<g id="edge3" class="edge"><title>1&#45;&gt;4</title>
<path fill="none" stroke="black" d="M62.6747,-376.852C57.1419,-370.586 51.1586,-362.487 48,-354 45.3431,-346.861 44.0689,-338.824 43.5678,-331.175"/>
<polygon fill="black" stroke="black" points="47.0648,-331.011 43.3065,-321.105 40.0672,-331.193 47.0648,-331.011"/>
<text text-anchor="middle" x="51.5" y="-342.8" font-family="Times,serif" font-size="14.00">b</text>
</g>
<!-- 2 -->
<g id="node4" class="node"><title>2</title>
<ellipse fill="lightblue" stroke="black" cx="86" cy="-18" rx="18" ry="18"/>
<text text-anchor="middle" x="86" y="-14.3" font-family="Times,serif" font-size="14.00">2</text>
</g>
<!-- 1&#45;&gt;2 -->
<g id="edge4" class="edge"><title>1&#45;&gt;2</title>
<path fill="none" stroke="black" d="M83.5166,-373.77C92.3859,-356.454 105,-327.067 105,-300 105,-300 105,-300 105,-108 105,-86.5422 99.6525,-62.8029 94.6313,-45.2422"/>
<polygon fill="black" stroke="black" points="97.8359,-43.7459 91.5979,-35.1822 91.1339,-45.7669 97.8359,-43.7459"/>
<text text-anchor="middle" x="108.5" y="-200.3" font-family="Times,serif" font-size="14.00">a</text>
</g>
<!-- 4&#45;&gt;5 -->
<g id="edge5" class="edge"><title>4&#45;&gt;5</title>
<path fill="none" stroke="black" d="M39.8956,-277.36C36.8583,-265.079 32.9483,-249.269 29.5582,-235.561"/>
<polygon fill="black" stroke="black" points="32.8887,-234.449 27.0902,-225.582 26.0934,-236.13 32.8887,-234.449"/>
<text text-anchor="middle" x="38.5" y="-247.8" font-family="Times,serif" font-size="14.00">a</text>
</g>
<!-- 4&#45;&gt;1 -->
<g id="edge6" class="edge"><title>4&#45;&gt;1</title>
<path fill="none" stroke="black" d="M51.7279,-319.959C55.9969,-332.624 61.5666,-349.148 66.1868,-362.854"/>
<polygon fill="black" stroke="black" points="62.9866,-364.318 69.4975,-372.676 69.6199,-362.082 62.9866,-364.318"/>
<text text-anchor="middle" x="65.5" y="-342.8" font-family="Times,serif" font-size="14.00">b</text>
</g>
<!-- 2&#45;&gt;2 -->
<g id="edge7" class="edge"><title>2&#45;&gt;2</title>
<path fill="none" stroke="black" d="M102.664,-25.3828C112.625,-27.0234 122,-24.5625 122,-18 122,-13.7959 118.152,-11.2751 112.768,-10.4375"/>
<polygon fill="black" stroke="black" points="112.6,-6.93988 102.664,-10.6172 112.725,-13.9388 112.6,-6.93988"/>
<text text-anchor="middle" x="130.5" y="-14.3" font-family="Times,serif" font-size="14.00">a,b</text>
</g>
<!-- 3&#45;&gt;5 -->
<g id="edge8" class="edge"><title>3&#45;&gt;5</title>
<path fill="none" stroke="black" d="M45.5032,-130.14C41.4565,-142.685 36.177,-159.051 31.6472,-173.094"/>
<polygon fill="black" stroke="black" points="28.2487,-172.229 28.5096,-182.82 34.9106,-174.378 28.2487,-172.229"/>
<text text-anchor="middle" x="42.5" y="-152.8" font-family="Times,serif" font-size="14.00">a</text>
</g>
<!-- 3&#45;&gt;2 -->
<g id="edge9" class="edge"><title>3&#45;&gt;2</title>
<path fill="none" stroke="black" d="M59.5457,-88.248C64.4574,-75.3908 70.9131,-58.4922 76.2175,-44.6071"/>
<polygon fill="black" stroke="black" points="79.5387,-45.7207 79.8379,-35.1301 72.9996,-43.2226 79.5387,-45.7207"/>
<text text-anchor="middle" x="75.5" y="-57.8" font-family="Times,serif" font-size="14.00">b</text>
</g>
</g>
</svg>
