<?xml version="1.0" encoding="UTF-8" standalone="no"?>
<!DOCTYPE svg PUBLIC "-//W3C//DTD SVG 1.1//EN"
 "http://www.w3.org/Graphics/SVG/1.1/DTD/svg11.dtd">
<!-- Generated by graphviz version 2.38.0 (20140413.2041)
 -->
<!-- Title: %3 Pages: 1 -->
<svg width="234pt" height="614pt"
 viewBox="0.00 0.00 233.94 614.00" xmlns="http://www.w3.org/2000/svg" xmlns:xlink="http://www.w3.org/1999/xlink">
<g id="graph0" class="graph" transform="scale(1 1) rotate(0) translate(4 610)">
<title>%3</title>
<!-- 0 -->
<g id="node1" class="node"><title>0</title>
<ellipse fill="lightblue" stroke="black" cx="73.9417" cy="-109" rx="18" ry="18"/>
<ellipse fill="none" stroke="black" cx="73.9417" cy="-109" rx="22" ry="22"/>
<text text-anchor="middle" x="73.9417" y="-105.3" font-family="Times,serif" font-size="14.00">0</text>
</g>
<!-- 0&#45;&gt;0 -->
<g id="edge1" class="edge"><title>0&#45;&gt;0</title>
<path fill="none" stroke="black" d="M94.5225,-117.37C104.786,-118.528 113.942,-115.738 113.942,-109 113.942,-104.683 110.184,-101.987 104.785,-100.911"/>
<polygon fill="black" stroke="black" points="104.615,-97.405 94.5225,-100.63 104.423,-104.402 104.615,-97.405"/>
<text text-anchor="middle" x="117.442" y="-105.3" font-family="Times,serif" font-size="14.00">a</text>
</g>
<!-- 3 -->
<g id="node4" class="node"><title>3</title>
<ellipse fill="lightblue" stroke="black" cx="129.942" cy="-18" rx="18" ry="18"/>
<text text-anchor="middle" x="129.942" y="-14.3" font-family="Times,serif" font-size="14.00">3</text>
</g>
<!-- 0&#45;&gt;3 -->
<g id="edge2" class="edge"><title>0&#45;&gt;3</title>
<path fill="none" stroke="black" d="M85.2742,-89.9895C93.9023,-76.277 105.85,-57.2882 115.218,-42.3998"/>
<polygon fill="black" stroke="black" points="118.302,-44.0713 120.665,-33.7433 112.377,-40.3433 118.302,-44.0713"/>
<text text-anchor="middle" x="110.442" y="-57.8" font-family="Times,serif" font-size="14.00">b</text>
</g>
<!-- 1 -->
<g id="node2" class="node"><title>1</title>
<ellipse fill="lightblue" stroke="black" cx="129.942" cy="-489" rx="18" ry="18"/>
<ellipse fill="none" stroke="black" cx="129.942" cy="-489" rx="22" ry="22"/>
<text text-anchor="middle" x="129.942" y="-485.3" font-family="Times,serif" font-size="14.00">1</text>
</g>
<!-- 9 -->
<g id="node10" class="node"><title>9</title>
<ellipse fill="lightblue" stroke="black" cx="67.9417" cy="-394" rx="18" ry="18"/>
<ellipse fill="none" stroke="black" cx="67.9417" cy="-394" rx="22" ry="22"/>
<text text-anchor="middle" x="67.9417" y="-390.3" font-family="Times,serif" font-size="14.00">9</text>
</g>
<!-- 1&#45;&gt;9 -->
<g id="edge3" class="edge"><title>1&#45;&gt;9</title>
<path fill="none" stroke="black" d="M117.988,-470.069C108.81,-456.302 95.9962,-437.082 85.6323,-421.536"/>
<polygon fill="black" stroke="black" points="88.3185,-419.255 79.8593,-412.876 82.4941,-423.138 88.3185,-419.255"/>
<text text-anchor="middle" x="105.442" y="-437.8" font-family="Times,serif" font-size="14.00">a</text>
</g>
<!-- 10 -->
<g id="node11" class="node"><title>10</title>
<ellipse fill="lightblue" stroke="black" cx="129.942" cy="-394" rx="18" ry="18"/>
<ellipse fill="none" stroke="black" cx="129.942" cy="-394" rx="22" ry="22"/>
<text text-anchor="middle" x="129.942" y="-390.3" font-family="Times,serif" font-size="14.00">10</text>
</g>
<!-- 1&#45;&gt;10 -->
<g id="edge4" class="edge"><title>1&#45;&gt;10</title>
<path fill="none" stroke="black" d="M129.942,-466.897C129.942,-454.887 129.942,-439.617 129.942,-426.242"/>
<polygon fill="black" stroke="black" points="133.442,-426.02 129.942,-416.02 126.442,-426.02 133.442,-426.02"/>
<text text-anchor="middle" x="133.442" y="-437.8" font-family="Times,serif" font-size="14.00">b</text>
</g>
<!-- 2 -->
<g id="node3" class="node"><title>2</title>
<ellipse fill="#aaff80" stroke="black" cx="180.942" cy="-584" rx="18" ry="18"/>
<ellipse fill="none" stroke="black" cx="180.942" cy="-584" rx="22" ry="22"/>
<text text-anchor="middle" x="180.942" y="-580.3" font-family="Times,serif" font-size="14.00">2</text>
</g>
<!-- 2&#45;&gt;1 -->
<g id="edge5" class="edge"><title>2&#45;&gt;1</title>
<path fill="none" stroke="black" d="M170.621,-564.18C163.294,-550.818 153.337,-532.662 145.108,-517.657"/>
<polygon fill="black" stroke="black" points="148.124,-515.877 140.247,-508.792 141.987,-519.243 148.124,-515.877"/>
<text text-anchor="middle" x="161.442" y="-532.8" font-family="Times,serif" font-size="14.00">b</text>
</g>
<!-- 8 -->
<g id="node9" class="node"><title>8</title>
<ellipse fill="lightblue" stroke="black" cx="156.942" cy="-299" rx="18" ry="18"/>
<ellipse fill="none" stroke="black" cx="156.942" cy="-299" rx="22" ry="22"/>
<text text-anchor="middle" x="156.942" y="-295.3" font-family="Times,serif" font-size="14.00">8</text>
</g>
<!-- 2&#45;&gt;8 -->
<g id="edge6" class="edge"><title>2&#45;&gt;8</title>
<path fill="none" stroke="black" d="M184.365,-562.088C189.97,-523.907 199.224,-440.528 185.942,-372 183.04,-357.03 177.038,-341.227 171.243,-328.251"/>
<polygon fill="black" stroke="black" points="174.301,-326.528 166.906,-318.941 167.956,-329.484 174.301,-326.528"/>
<text text-anchor="middle" x="195.442" y="-437.8" font-family="Times,serif" font-size="14.00">a</text>
</g>
<!-- 3&#45;&gt;3 -->
<g id="edge7" class="edge"><title>3&#45;&gt;3</title>
<path fill="none" stroke="black" d="M146.606,-25.3828C156.567,-27.0234 165.942,-24.5625 165.942,-18 165.942,-13.7959 162.094,-11.2751 156.71,-10.4375"/>
<polygon fill="black" stroke="black" points="156.542,-6.93988 146.606,-10.6172 156.666,-13.9388 156.542,-6.93988"/>
<text text-anchor="middle" x="174.442" y="-14.3" font-family="Times,serif" font-size="14.00">a,b</text>
</g>
<!-- 4 -->
<g id="node5" class="node"><title>4</title>
<ellipse fill="lightblue" stroke="black" cx="33.9417" cy="-204" rx="18" ry="18"/>
<ellipse fill="none" stroke="black" cx="33.9417" cy="-204" rx="22" ry="22"/>
<text text-anchor="middle" x="33.9417" y="-200.3" font-family="Times,serif" font-size="14.00">4</text>
</g>
<!-- 4&#45;&gt;0 -->
<g id="edge8" class="edge"><title>4&#45;&gt;0</title>
<path fill="none" stroke="black" d="M42.4247,-183.277C47.9773,-170.367 55.3266,-153.28 61.5314,-138.854"/>
<polygon fill="black" stroke="black" points="64.8722,-139.945 65.6081,-129.376 58.4418,-137.179 64.8722,-139.945"/>
<text text-anchor="middle" x="60.4417" y="-152.8" font-family="Times,serif" font-size="14.00">a</text>
</g>
<!-- 4&#45;&gt;4 -->
<g id="edge9" class="edge"><title>4&#45;&gt;4</title>
<path fill="none" stroke="black" d="M54.5225,-212.37C64.7865,-213.528 73.9417,-210.738 73.9417,-204 73.9417,-199.683 70.1844,-196.987 64.7853,-195.911"/>
<polygon fill="black" stroke="black" points="64.6147,-192.405 54.5225,-195.63 64.4229,-199.402 64.6147,-192.405"/>
<text text-anchor="middle" x="77.4417" y="-200.3" font-family="Times,serif" font-size="14.00">b</text>
</g>
<!-- 5 -->
<g id="node6" class="node"><title>5</title>
<ellipse fill="lightblue" stroke="black" cx="33.9417" cy="-299" rx="18" ry="18"/>
<text text-anchor="middle" x="33.9417" y="-295.3" font-family="Times,serif" font-size="14.00">5</text>
</g>
<!-- 5&#45;&gt;3 -->
<g id="edge10" class="edge"><title>5&#45;&gt;3</title>
<path fill="none" stroke="black" d="M25.4086,-283.143C17.8018,-268.981 7.2279,-246.793 2.94173,-226 -1.00627,-206.847 -0.929198,-201.169 2.94173,-182 12.0101,-137.094 15.1094,-123.389 42.9417,-87 60.1569,-64.4925 86.4965,-45.3063 105.685,-33.1097"/>
<polygon fill="black" stroke="black" points="107.783,-35.9275 114.458,-27.6998 104.109,-29.9691 107.783,-35.9275"/>
<text text-anchor="middle" x="14.4417" y="-152.8" font-family="Times,serif" font-size="14.00">a</text>
</g>
<!-- 5&#45;&gt;4 -->
<g id="edge11" class="edge"><title>5&#45;&gt;4</title>
<path fill="none" stroke="black" d="M33.9417,-280.942C33.9417,-268.537 33.9417,-251.381 33.9417,-236.514"/>
<polygon fill="black" stroke="black" points="37.4418,-236.194 33.9417,-226.194 30.4418,-236.194 37.4418,-236.194"/>
<text text-anchor="middle" x="37.4417" y="-247.8" font-family="Times,serif" font-size="14.00">b</text>
</g>
<!-- 6 -->
<g id="node7" class="node"><title>6</title>
<ellipse fill="lightblue" stroke="black" cx="203.942" cy="-204" rx="18" ry="18"/>
<text text-anchor="middle" x="203.942" y="-200.3" font-family="Times,serif" font-size="14.00">6</text>
</g>
<!-- 6&#45;&gt;3 -->
<g id="edge12" class="edge"><title>6&#45;&gt;3</title>
<path fill="none" stroke="black" d="M195.15,-188.202C186.891,-173.9 174.549,-151.453 165.942,-131 153.92,-102.431 143.5,-68.375 137.008,-45.377"/>
<polygon fill="black" stroke="black" points="140.355,-44.3488 134.31,-35.648 133.61,-46.2196 140.355,-44.3488"/>
<text text-anchor="middle" x="169.442" y="-105.3" font-family="Times,serif" font-size="14.00">a</text>
</g>
<!-- 11 -->
<g id="node12" class="node"><title>11</title>
<ellipse fill="lightblue" stroke="black" cx="203.942" cy="-109" rx="18" ry="18"/>
<ellipse fill="none" stroke="black" cx="203.942" cy="-109" rx="22" ry="22"/>
<text text-anchor="middle" x="203.942" y="-105.3" font-family="Times,serif" font-size="14.00">11</text>
</g>
<!-- 6&#45;&gt;11 -->
<g id="edge13" class="edge"><title>6&#45;&gt;11</title>
<path fill="none" stroke="black" d="M203.942,-185.942C203.942,-173.537 203.942,-156.381 203.942,-141.514"/>
<polygon fill="black" stroke="black" points="207.442,-141.194 203.942,-131.194 200.442,-141.194 207.442,-141.194"/>
<text text-anchor="middle" x="207.442" y="-152.8" font-family="Times,serif" font-size="14.00">b</text>
</g>
<!-- 7 -->
<g id="node8" class="node"><title>7</title>
<ellipse fill="lightblue" stroke="black" cx="120.942" cy="-204" rx="18" ry="18"/>
<ellipse fill="none" stroke="black" cx="120.942" cy="-204" rx="22" ry="22"/>
<text text-anchor="middle" x="120.942" y="-200.3" font-family="Times,serif" font-size="14.00">7</text>
</g>
<!-- 7&#45;&gt;0 -->
<g id="edge14" class="edge"><title>7&#45;&gt;0</title>
<path fill="none" stroke="black" d="M111.203,-183.73C104.542,-170.55 95.6036,-152.863 88.1509,-138.116"/>
<polygon fill="black" stroke="black" points="91.1412,-136.273 83.5069,-128.927 84.8937,-139.43 91.1412,-136.273"/>
<text text-anchor="middle" x="103.442" y="-152.8" font-family="Times,serif" font-size="14.00">b</text>
</g>
<!-- 7&#45;&gt;7 -->
<g id="edge15" class="edge"><title>7&#45;&gt;7</title>
<path fill="none" stroke="black" d="M141.523,-212.37C151.786,-213.528 160.942,-210.738 160.942,-204 160.942,-199.683 157.184,-196.987 151.785,-195.911"/>
<polygon fill="black" stroke="black" points="151.615,-192.405 141.523,-195.63 151.423,-199.402 151.615,-192.405"/>
<text text-anchor="middle" x="164.442" y="-200.3" font-family="Times,serif" font-size="14.00">a</text>
</g>
<!-- 8&#45;&gt;6 -->
<g id="edge16" class="edge"><title>8&#45;&gt;6</title>
<path fill="none" stroke="black" d="M166.68,-278.73C173.895,-264.455 183.781,-244.893 191.557,-229.506"/>
<polygon fill="black" stroke="black" points="194.696,-231.053 196.083,-220.55 188.449,-227.896 194.696,-231.053"/>
<text text-anchor="middle" x="186.442" y="-247.8" font-family="Times,serif" font-size="14.00">b</text>
</g>
<!-- 8&#45;&gt;7 -->
<g id="edge17" class="edge"><title>8&#45;&gt;7</title>
<path fill="none" stroke="black" d="M149.307,-278.277C144.343,-265.454 137.784,-248.509 132.224,-234.145"/>
<polygon fill="black" stroke="black" points="135.439,-232.757 128.565,-224.694 128.911,-235.284 135.439,-232.757"/>
<text text-anchor="middle" x="144.442" y="-247.8" font-family="Times,serif" font-size="14.00">a</text>
</g>
<!-- 9&#45;&gt;5 -->
<g id="edge18" class="edge"><title>9&#45;&gt;5</title>
<path fill="none" stroke="black" d="M60.5642,-372.82C55.518,-359.017 48.7851,-340.601 43.353,-325.743"/>
<polygon fill="black" stroke="black" points="46.5577,-324.315 39.8368,-316.125 39.9833,-326.719 46.5577,-324.315"/>
<text text-anchor="middle" x="57.4417" y="-342.8" font-family="Times,serif" font-size="14.00">b</text>
</g>
<!-- 9&#45;&gt;7 -->
<g id="edge19" class="edge"><title>9&#45;&gt;7</title>
<path fill="none" stroke="black" d="M73.7146,-372.523C83.0733,-339.326 101.601,-273.603 112.461,-235.084"/>
<polygon fill="black" stroke="black" points="115.831,-236.026 115.176,-225.452 109.094,-234.127 115.831,-236.026"/>
<text text-anchor="middle" x="103.442" y="-295.3" font-family="Times,serif" font-size="14.00">a</text>
</g>
<!-- 10&#45;&gt;8 -->
<g id="edge20" class="edge"><title>10&#45;&gt;8</title>
<path fill="none" stroke="black" d="M135.934,-372.36C139.559,-359.873 144.244,-343.736 148.269,-329.872"/>
<polygon fill="black" stroke="black" points="151.632,-330.841 151.059,-320.262 144.91,-328.89 151.632,-330.841"/>
<text text-anchor="middle" x="148.442" y="-342.8" font-family="Times,serif" font-size="14.00">a</text>
</g>
<!-- 10&#45;&gt;10 -->
<g id="edge21" class="edge"><title>10&#45;&gt;10</title>
<path fill="none" stroke="black" d="M150.523,-402.37C160.786,-403.528 169.942,-400.738 169.942,-394 169.942,-389.683 166.184,-386.987 160.785,-385.911"/>
<polygon fill="black" stroke="black" points="160.615,-382.405 150.523,-385.63 160.423,-389.402 160.615,-382.405"/>
<text text-anchor="middle" x="173.442" y="-390.3" font-family="Times,serif" font-size="14.00">b</text>
</g>
<!-- 11&#45;&gt;3 -->
<g id="edge22" class="edge"><title>11&#45;&gt;3</title>
<path fill="none" stroke="black" d="M194.288,-89.0238C188.32,-78.1984 180.07,-64.6984 170.942,-54 165.389,-47.4923 158.575,-41.1697 152.107,-35.7297"/>
<polygon fill="black" stroke="black" points="154.202,-32.9221 144.222,-29.3635 149.804,-38.3686 154.202,-32.9221"/>
<text text-anchor="middle" x="189.442" y="-57.8" font-family="Times,serif" font-size="14.00">a,b</text>
</g>
</g>
</svg>
