<?xml version="1.0" encoding="UTF-8" standalone="no"?>
<!DOCTYPE svg PUBLIC "-//W3C//DTD SVG 1.1//EN"
 "http://www.w3.org/Graphics/SVG/1.1/DTD/svg11.dtd">
<!-- Generated by graphviz version 2.38.0 (20140413.2041)
 -->
<!-- Title: %3 Pages: 1 -->
<svg width="122pt" height="313pt"
 viewBox="0.00 0.00 122.00 313.00" xmlns="http://www.w3.org/2000/svg" xmlns:xlink="http://www.w3.org/1999/xlink">
<g id="graph0" class="graph" transform="scale(1 1) rotate(0) translate(4 309)">
<title>%3</title>
<!-- 0 -->
<g id="node1" class="node"><title>0</title>
<ellipse fill="#aaff80" stroke="black" cx="58" cy="-283" rx="18" ry="18"/>
<ellipse fill="none" stroke="black" cx="58" cy="-283" rx="22" ry="22"/>
<text text-anchor="middle" x="58" y="-279.3" font-family="Times,serif" font-size="14.00">0</text>
</g>
<!-- 0&#45;&gt;0 -->
<g id="edge1" class="edge"><title>0&#45;&gt;0</title>
<path fill="none" stroke="black" d="M78.5808,-291.37C88.8447,-292.528 98,-289.738 98,-283 98,-278.683 94.2427,-275.987 88.8436,-274.911"/>
<polygon fill="black" stroke="black" points="88.6729,-271.405 78.5808,-274.63 88.4812,-278.402 88.6729,-271.405"/>
<text text-anchor="middle" x="106" y="-279.3" font-family="Times,serif" font-size="14.00">c,a</text>
</g>
<!-- 1 -->
<g id="node2" class="node"><title>1</title>
<ellipse fill="lightblue" stroke="black" cx="18" cy="-192" rx="18" ry="18"/>
<text text-anchor="middle" x="18" y="-188.3" font-family="Times,serif" font-size="14.00">1</text>
</g>
<!-- 0&#45;&gt;1 -->
<g id="edge2" class="edge"><title>0&#45;&gt;1</title>
<path fill="none" stroke="black" d="M49.3206,-262.688C43.4212,-249.562 35.5624,-232.076 29.1928,-217.904"/>
<polygon fill="black" stroke="black" points="32.3553,-216.402 25.0634,-208.716 25.9705,-219.272 32.3553,-216.402"/>
<text text-anchor="middle" x="44.5" y="-231.8" font-family="Times,serif" font-size="14.00">b</text>
</g>
<!-- 2 -->
<g id="node3" class="node"><title>2</title>
<ellipse fill="lightblue" stroke="black" cx="48" cy="-105" rx="18" ry="18"/>
<text text-anchor="middle" x="48" y="-101.3" font-family="Times,serif" font-size="14.00">2</text>
</g>
<!-- 1&#45;&gt;2 -->
<g id="edge3" class="edge"><title>1&#45;&gt;2</title>
<path fill="none" stroke="black" d="M21.5212,-174.079C23.7782,-164.272 27.0282,-151.772 31,-141 32.2532,-137.601 33.7274,-134.091 35.2749,-130.664"/>
<polygon fill="black" stroke="black" points="38.5517,-131.924 39.7079,-121.393 32.2365,-128.905 38.5517,-131.924"/>
<text text-anchor="middle" x="44.5" y="-144.8" font-family="Times,serif" font-size="14.00">c,a,b</text>
</g>
<!-- 2&#45;&gt;0 -->
<g id="edge4" class="edge"><title>2&#45;&gt;0</title>
<path fill="none" stroke="black" d="M53.638,-122.179C55.4059,-128.032 57.1235,-134.742 58,-141 63.2386,-178.404 62.1626,-221.938 60.4808,-250.627"/>
<polygon fill="black" stroke="black" points="56.9723,-250.646 59.8184,-260.851 63.9576,-251.099 56.9723,-250.646"/>
<text text-anchor="middle" x="64.5" y="-188.3" font-family="Times,serif" font-size="14.00">b</text>
</g>
<!-- 3 -->
<g id="node4" class="node"><title>3</title>
<ellipse fill="lightblue" stroke="black" cx="48" cy="-18" rx="18" ry="18"/>
<text text-anchor="middle" x="48" y="-14.3" font-family="Times,serif" font-size="14.00">3</text>
</g>
<!-- 2&#45;&gt;3 -->
<g id="edge5" class="edge"><title>2&#45;&gt;3</title>
<path fill="none" stroke="black" d="M48,-86.799C48,-75.1626 48,-59.5479 48,-46.2368"/>
<polygon fill="black" stroke="black" points="51.5001,-46.1754 48,-36.1754 44.5001,-46.1755 51.5001,-46.1754"/>
<text text-anchor="middle" x="56" y="-57.8" font-family="Times,serif" font-size="14.00">c,a</text>
</g>
<!-- 3&#45;&gt;3 -->
<g id="edge6" class="edge"><title>3&#45;&gt;3</title>
<path fill="none" stroke="black" d="M64.6641,-25.3828C74.625,-27.0234 84,-24.5625 84,-18 84,-13.7959 80.1525,-11.2751 74.7682,-10.4375"/>
<polygon fill="black" stroke="black" points="74.6002,-6.93988 64.6641,-10.6172 74.7247,-13.9388 74.6002,-6.93988"/>
<text text-anchor="middle" x="97.5" y="-14.3" font-family="Times,serif" font-size="14.00">c,a,b</text>
</g>
</g>
</svg>
