<?xml version="1.0" encoding="UTF-8" standalone="no"?>
<!DOCTYPE svg PUBLIC "-//W3C//DTD SVG 1.1//EN"
 "http://www.w3.org/Graphics/SVG/1.1/DTD/svg11.dtd">
<!-- Generated by graphviz version 2.38.0 (20140413.2041)
 -->
<!-- Title: %3 Pages: 1 -->
<svg width="52pt" height="139pt"
 viewBox="0.00 0.00 52.00 139.00" xmlns="http://www.w3.org/2000/svg" xmlns:xlink="http://www.w3.org/1999/xlink">
<g id="graph0" class="graph" transform="scale(1 1) rotate(0) translate(4 135)">
<title>%3</title>
<!-- 10.b -->
<g id="node1" class="node"><title>10.b</title>
<ellipse fill="lightblue" stroke="black" cx="22" cy="-18" rx="18" ry="18"/>
<text text-anchor="middle" x="22" y="-14.3" font-family="Times,serif" font-size="14.00">10.b</text>
</g>
<!-- 0 -->
<g id="node2" class="node"><title>0</title>
<ellipse fill="#aaff80" stroke="black" cx="22" cy="-109" rx="18" ry="18"/>
<ellipse fill="none" stroke="black" cx="22" cy="-109" rx="22" ry="22"/>
<text text-anchor="middle" x="22" y="-105.3" font-family="Times,serif" font-size="14.00">0</text>
</g>
<!-- 0&#45;&gt;10.b -->
<g id="edge1" class="edge"><title>0&#45;&gt;10.b</title>
<path fill="none" stroke="black" d="M22,-86.9082C22,-74.7803 22,-59.4094 22,-46.3598"/>
<polygon fill="black" stroke="black" points="25.5001,-46.0663 22,-36.0663 18.5001,-46.0663 25.5001,-46.0663"/>
<text text-anchor="middle" x="25.5" y="-57.8" font-family="Times,serif" font-size="14.00">a</text>
</g>
</g>
</svg>
