<?xml version="1.0" encoding="UTF-8" standalone="no"?>
<!DOCTYPE svg PUBLIC "-//W3C//DTD SVG 1.1//EN"
 "http://www.w3.org/Graphics/SVG/1.1/DTD/svg11.dtd">
<!-- Generated by graphviz version 2.38.0 (20140413.2041)
 -->
<!-- Title: %3 Pages: 1 -->
<svg width="369pt" height="872pt"
 viewBox="0.00 0.00 369.00 872.00" xmlns="http://www.w3.org/2000/svg" xmlns:xlink="http://www.w3.org/1999/xlink">
<g id="graph0" class="graph" transform="scale(1 1) rotate(0) translate(4 868)">
<title>%3</title>
<!-- 0 -->
<g id="node1" class="node"><title>0</title>
<ellipse fill="lightblue" stroke="black" cx="165" cy="-846" rx="18" ry="18"/>
<text text-anchor="middle" x="165" y="-842.3" font-family="Times,serif" font-size="14.00">0</text>
</g>
<!-- 2 -->
<g id="node3" class="node"><title>2</title>
<ellipse fill="lightblue" stroke="black" cx="208" cy="-759" rx="18" ry="18"/>
<text text-anchor="middle" x="208" y="-755.3" font-family="Times,serif" font-size="14.00">2</text>
</g>
<!-- 0&#45;&gt;2 -->
<g id="edge1" class="edge"><title>0&#45;&gt;2</title>
<path fill="none" stroke="black" d="M172.887,-829.41C179.251,-816.829 188.319,-798.903 195.646,-784.421"/>
<polygon fill="black" stroke="black" points="198.772,-785.995 200.163,-775.491 192.526,-782.835 198.772,-785.995"/>
<text text-anchor="middle" x="192.5" y="-798.8" font-family="Times,serif" font-size="14.00">b</text>
</g>
<!-- 6 -->
<g id="node7" class="node"><title>6</title>
<ellipse fill="lightblue" stroke="black" cx="112" cy="-18" rx="18" ry="18"/>
<text text-anchor="middle" x="112" y="-14.3" font-family="Times,serif" font-size="14.00">6</text>
</g>
<!-- 0&#45;&gt;6 -->
<g id="edge2" class="edge"><title>0&#45;&gt;6</title>
<path fill="none" stroke="black" d="M147.028,-844.015C104.264,-840.607 0,-825.575 0,-760 0,-760 0,-760 0,-104 0,-61.5264 51.7412,-37.5225 84.8879,-26.5027"/>
<polygon fill="black" stroke="black" points="86.0024,-29.8214 94.5,-23.4936 83.911,-23.1411 86.0024,-29.8214"/>
<text text-anchor="middle" x="8" y="-413.8" font-family="Times,serif" font-size="14.00">c,a</text>
</g>
<!-- 1 -->
<g id="node2" class="node"><title>1</title>
<ellipse fill="lightblue" stroke="black" cx="138" cy="-105" rx="18" ry="18"/>
<text text-anchor="middle" x="138" y="-101.3" font-family="Times,serif" font-size="14.00">1</text>
</g>
<!-- 1&#45;&gt;6 -->
<g id="edge3" class="edge"><title>1&#45;&gt;6</title>
<path fill="none" stroke="black" d="M132.987,-87.6111C129.318,-75.6169 124.264,-59.0927 120.034,-45.2662"/>
<polygon fill="black" stroke="black" points="123.27,-43.8774 116.998,-35.3385 116.576,-45.925 123.27,-43.8774"/>
<text text-anchor="middle" x="134.5" y="-57.8" font-family="Times,serif" font-size="14.00">c,b</text>
</g>
<!-- 10 -->
<g id="node11" class="node"><title>10</title>
<ellipse fill="lightblue" stroke="black" cx="140" cy="-374" rx="18" ry="18"/>
<text text-anchor="middle" x="140" y="-370.3" font-family="Times,serif" font-size="14.00">10</text>
</g>
<!-- 1&#45;&gt;10 -->
<g id="edge4" class="edge"><title>1&#45;&gt;10</title>
<path fill="none" stroke="black" d="M138.13,-123.311C138.469,-168.646 139.387,-291.11 139.797,-345.883"/>
<polygon fill="black" stroke="black" points="136.297,-345.918 139.872,-355.892 143.297,-345.866 136.297,-345.918"/>
<text text-anchor="middle" x="142.5" y="-239.8" font-family="Times,serif" font-size="14.00">a</text>
</g>
<!-- 4 -->
<g id="node5" class="node"><title>4</title>
<ellipse fill="#aaff80" stroke="black" cx="208" cy="-668" rx="18" ry="18"/>
<ellipse fill="none" stroke="black" cx="208" cy="-668" rx="22" ry="22"/>
<text text-anchor="middle" x="208" y="-664.3" font-family="Times,serif" font-size="14.00">4</text>
</g>
<!-- 2&#45;&gt;4 -->
<g id="edge5" class="edge"><title>2&#45;&gt;4</title>
<path fill="none" stroke="black" d="M208,-740.84C208,-729.441 208,-714.134 208,-700.578"/>
<polygon fill="black" stroke="black" points="211.5,-700.19 208,-690.191 204.5,-700.191 211.5,-700.19"/>
<text text-anchor="middle" x="211.5" y="-711.8" font-family="Times,serif" font-size="14.00">b</text>
</g>
<!-- 2&#45;&gt;6 -->
<g id="edge6" class="edge"><title>2&#45;&gt;6</title>
<path fill="none" stroke="black" d="M224.964,-751.929C253.494,-740.503 308,-712.926 308,-669 308,-669 308,-669 308,-104 308,-31.8255 194.751,-20.2622 140.422,-18.8676"/>
<polygon fill="black" stroke="black" points="140.141,-15.3629 130.088,-18.7077 140.032,-22.3621 140.141,-15.3629"/>
<text text-anchor="middle" x="316" y="-370.3" font-family="Times,serif" font-size="14.00">c,a</text>
</g>
<!-- 3 -->
<g id="node4" class="node"><title>3</title>
<ellipse fill="lightblue" stroke="black" cx="186" cy="-287" rx="18" ry="18"/>
<text text-anchor="middle" x="186" y="-283.3" font-family="Times,serif" font-size="14.00">3</text>
</g>
<!-- 3&#45;&gt;6 -->
<g id="edge7" class="edge"><title>3&#45;&gt;6</title>
<path fill="none" stroke="black" d="M200.711,-276.026C216.574,-264.284 240.908,-243.162 251,-218 258.279,-199.85 257.835,-192.322 251,-174 228.038,-112.446 167.614,-60.1642 134.497,-35.0166"/>
<polygon fill="black" stroke="black" points="136.434,-32.0947 126.32,-28.9378 132.257,-37.7126 136.434,-32.0947"/>
<text text-anchor="middle" x="250.5" y="-144.8" font-family="Times,serif" font-size="14.00">a,b</text>
</g>
<!-- 9 -->
<g id="node10" class="node"><title>9</title>
<ellipse fill="lightblue" stroke="black" cx="186" cy="-196" rx="18" ry="18"/>
<ellipse fill="none" stroke="black" cx="186" cy="-196" rx="22" ry="22"/>
<text text-anchor="middle" x="186" y="-192.3" font-family="Times,serif" font-size="14.00">9</text>
</g>
<!-- 3&#45;&gt;9 -->
<g id="edge8" class="edge"><title>3&#45;&gt;9</title>
<path fill="none" stroke="black" d="M186,-268.84C186,-257.441 186,-242.134 186,-228.578"/>
<polygon fill="black" stroke="black" points="189.5,-228.19 186,-218.191 182.5,-228.191 189.5,-228.19"/>
<text text-anchor="middle" x="189.5" y="-239.8" font-family="Times,serif" font-size="14.00">c</text>
</g>
<!-- 4&#45;&gt;4 -->
<g id="edge9" class="edge"><title>4&#45;&gt;4</title>
<path fill="none" stroke="black" d="M228.581,-676.37C238.845,-677.528 248,-674.738 248,-668 248,-663.683 244.243,-660.987 238.844,-659.911"/>
<polygon fill="black" stroke="black" points="238.673,-656.405 228.581,-659.63 238.481,-663.402 238.673,-656.405"/>
<text text-anchor="middle" x="251.5" y="-664.3" font-family="Times,serif" font-size="14.00">c</text>
</g>
<!-- 5 -->
<g id="node6" class="node"><title>5</title>
<ellipse fill="lightblue" stroke="black" cx="233" cy="-573" rx="18" ry="18"/>
<ellipse fill="none" stroke="black" cx="233" cy="-573" rx="22" ry="22"/>
<text text-anchor="middle" x="233" y="-569.3" font-family="Times,serif" font-size="14.00">5</text>
</g>
<!-- 4&#45;&gt;5 -->
<g id="edge10" class="edge"><title>4&#45;&gt;5</title>
<path fill="none" stroke="black" d="M213.548,-646.36C216.85,-634.079 221.1,-618.269 224.785,-604.561"/>
<polygon fill="black" stroke="black" points="228.251,-605.148 227.467,-594.582 221.491,-603.331 228.251,-605.148"/>
<text text-anchor="middle" x="224.5" y="-616.8" font-family="Times,serif" font-size="14.00">a</text>
</g>
<!-- 8 -->
<g id="node9" class="node"><title>8</title>
<ellipse fill="lightblue" stroke="black" cx="140" cy="-515" rx="18" ry="18"/>
<text text-anchor="middle" x="140" y="-511.3" font-family="Times,serif" font-size="14.00">8</text>
</g>
<!-- 4&#45;&gt;8 -->
<g id="edge11" class="edge"><title>4&#45;&gt;8</title>
<path fill="none" stroke="black" d="M199.249,-647.569C187.003,-620.374 164.744,-570.947 151.271,-541.028"/>
<polygon fill="black" stroke="black" points="154.363,-539.371 147.066,-531.69 147.981,-542.246 154.363,-539.371"/>
<text text-anchor="middle" x="192.5" y="-616.8" font-family="Times,serif" font-size="14.00">b</text>
</g>
<!-- 5&#45;&gt;4 -->
<g id="edge12" class="edge"><title>5&#45;&gt;4</title>
<path fill="none" stroke="black" d="M220.879,-591.484C217.017,-597.956 213.182,-605.539 211,-613 208.904,-620.167 207.821,-628.091 207.323,-635.612"/>
<polygon fill="black" stroke="black" points="203.817,-635.737 206.965,-645.854 210.812,-635.982 203.817,-635.737"/>
<text text-anchor="middle" x="214.5" y="-616.8" font-family="Times,serif" font-size="14.00">c</text>
</g>
<!-- 5&#45;&gt;5 -->
<g id="edge13" class="edge"><title>5&#45;&gt;5</title>
<path fill="none" stroke="black" d="M253.581,-581.37C263.845,-582.528 273,-579.738 273,-573 273,-568.683 269.243,-565.987 263.844,-564.911"/>
<polygon fill="black" stroke="black" points="263.673,-561.405 253.581,-564.63 263.481,-568.402 263.673,-561.405"/>
<text text-anchor="middle" x="276.5" y="-569.3" font-family="Times,serif" font-size="14.00">a</text>
</g>
<!-- 7 -->
<g id="node8" class="node"><title>7</title>
<ellipse fill="lightblue" stroke="black" cx="251" cy="-461" rx="18" ry="18"/>
<text text-anchor="middle" x="251" y="-457.3" font-family="Times,serif" font-size="14.00">7</text>
</g>
<!-- 5&#45;&gt;7 -->
<g id="edge14" class="edge"><title>5&#45;&gt;7</title>
<path fill="none" stroke="black" d="M236.428,-551.051C239.32,-533.379 243.477,-507.975 246.611,-488.819"/>
<polygon fill="black" stroke="black" points="250.072,-489.343 248.233,-478.909 243.164,-488.212 250.072,-489.343"/>
<text text-anchor="middle" x="248.5" y="-511.3" font-family="Times,serif" font-size="14.00">b</text>
</g>
<!-- 6&#45;&gt;6 -->
<g id="edge15" class="edge"><title>6&#45;&gt;6</title>
<path fill="none" stroke="black" d="M128.664,-25.3828C138.625,-27.0234 148,-24.5625 148,-18 148,-13.7959 144.152,-11.2751 138.768,-10.4375"/>
<polygon fill="black" stroke="black" points="138.6,-6.93988 128.664,-10.6172 138.725,-13.9388 138.6,-6.93988"/>
<text text-anchor="middle" x="161.5" y="-14.3" font-family="Times,serif" font-size="14.00">c,a,b</text>
</g>
<!-- 7&#45;&gt;0 -->
<g id="edge16" class="edge"><title>7&#45;&gt;0</title>
<path fill="none" stroke="black" d="M267.094,-469.769C296.062,-485.009 354,-521.768 354,-572 354,-760 354,-760 354,-760 354,-829.675 245.843,-842.577 193.166,-844.729"/>
<polygon fill="black" stroke="black" points="193.011,-841.232 183.122,-845.035 193.224,-848.228 193.011,-841.232"/>
<text text-anchor="middle" x="357.5" y="-664.3" font-family="Times,serif" font-size="14.00">b</text>
</g>
<!-- 7&#45;&gt;9 -->
<g id="edge17" class="edge"><title>7&#45;&gt;9</title>
<path fill="none" stroke="black" d="M248.556,-442.917C243.529,-409.242 230.974,-332.08 213,-269 208.89,-254.574 203.186,-238.942 198.08,-225.941"/>
<polygon fill="black" stroke="black" points="201.296,-224.556 194.328,-216.575 194.798,-227.159 201.296,-224.556"/>
<text text-anchor="middle" x="232.5" y="-326.8" font-family="Times,serif" font-size="14.00">c</text>
</g>
<!-- 7&#45;&gt;10 -->
<g id="edge18" class="edge"><title>7&#45;&gt;10</title>
<path fill="none" stroke="black" d="M236.942,-449.235C218.093,-434.801 184.426,-409.02 162.151,-391.963"/>
<polygon fill="black" stroke="black" points="164.012,-388.979 153.944,-385.678 159.756,-394.537 164.012,-388.979"/>
<text text-anchor="middle" x="205.5" y="-413.8" font-family="Times,serif" font-size="14.00">a</text>
</g>
<!-- 8&#45;&gt;0 -->
<g id="edge19" class="edge"><title>8&#45;&gt;0</title>
<path fill="none" stroke="black" d="M140,-533.214C140,-553.754 140,-589.133 140,-619.5 140,-760 140,-760 140,-760 140,-780.763 146.951,-803.263 153.522,-819.894"/>
<polygon fill="black" stroke="black" points="150.418,-821.543 157.499,-829.424 156.878,-818.847 150.418,-821.543"/>
<text text-anchor="middle" x="143.5" y="-711.8" font-family="Times,serif" font-size="14.00">b</text>
</g>
<!-- 8&#45;&gt;6 -->
<g id="edge20" class="edge"><title>8&#45;&gt;6</title>
<path fill="none" stroke="black" d="M123.626,-506.623C96.6948,-493.239 46,-462.236 46,-418.5 46,-418.5 46,-418.5 46,-104 46,-75.0309 70.2122,-49.9716 89.3067,-34.7132"/>
<polygon fill="black" stroke="black" points="91.506,-37.438 97.3525,-28.6023 87.272,-31.8636 91.506,-37.438"/>
<text text-anchor="middle" x="49.5" y="-283.3" font-family="Times,serif" font-size="14.00">c</text>
</g>
<!-- 8&#45;&gt;10 -->
<g id="edge21" class="edge"><title>8&#45;&gt;10</title>
<path fill="none" stroke="black" d="M140,-496.956C140,-473.404 140,-430.639 140,-402.526"/>
<polygon fill="black" stroke="black" points="143.5,-402.184 140,-392.184 136.5,-402.184 143.5,-402.184"/>
<text text-anchor="middle" x="143.5" y="-457.3" font-family="Times,serif" font-size="14.00">a</text>
</g>
<!-- 9&#45;&gt;1 -->
<g id="edge22" class="edge"><title>9&#45;&gt;1</title>
<path fill="none" stroke="black" d="M175.82,-176.125C168.597,-162.731 158.839,-144.638 151.044,-130.186"/>
<polygon fill="black" stroke="black" points="154.079,-128.44 146.251,-121.3 147.918,-131.763 154.079,-128.44"/>
<text text-anchor="middle" x="167.5" y="-144.8" font-family="Times,serif" font-size="14.00">b</text>
</g>
<!-- 9&#45;&gt;9 -->
<g id="edge23" class="edge"><title>9&#45;&gt;9</title>
<path fill="none" stroke="black" d="M206.581,-204.37C216.845,-205.528 226,-202.738 226,-196 226,-191.683 222.243,-188.987 216.844,-187.911"/>
<polygon fill="black" stroke="black" points="216.673,-184.405 206.581,-187.63 216.481,-191.402 216.673,-184.405"/>
<text text-anchor="middle" x="234" y="-192.3" font-family="Times,serif" font-size="14.00">c,a</text>
</g>
<!-- 10&#45;&gt;3 -->
<g id="edge24" class="edge"><title>10&#45;&gt;3</title>
<path fill="none" stroke="black" d="M148.224,-357.804C155.092,-345.112 165.009,-326.787 172.959,-312.097"/>
<polygon fill="black" stroke="black" points="176.166,-313.525 177.847,-303.065 170.01,-310.194 176.166,-313.525"/>
<text text-anchor="middle" x="168.5" y="-326.8" font-family="Times,serif" font-size="14.00">b</text>
</g>
<!-- 10&#45;&gt;6 -->
<g id="edge25" class="edge"><title>10&#45;&gt;6</title>
<path fill="none" stroke="black" d="M127.639,-360.695C113.417,-345.17 92,-316.98 92,-288 92,-288 92,-288 92,-104 92,-83.662 97.4925,-61.2969 102.721,-44.6147"/>
<polygon fill="black" stroke="black" points="106.073,-45.6243 105.891,-35.031 99.4275,-43.4261 106.073,-45.6243"/>
<text text-anchor="middle" x="100" y="-192.3" font-family="Times,serif" font-size="14.00">c,a</text>
</g>
</g>
</svg>
