<?xml version="1.0" encoding="UTF-8" standalone="no"?>
<!DOCTYPE svg PUBLIC "-//W3C//DTD SVG 1.1//EN"
 "http://www.w3.org/Graphics/SVG/1.1/DTD/svg11.dtd">
<!-- Generated by graphviz version 2.38.0 (20140413.2041)
 -->
<!-- Title: %3 Pages: 1 -->
<svg width="160pt" height="487pt"
 viewBox="0.00 0.00 160.00 487.00" xmlns="http://www.w3.org/2000/svg" xmlns:xlink="http://www.w3.org/1999/xlink">
<g id="graph0" class="graph" transform="scale(1 1) rotate(0) translate(4 483)">
<title>%3</title>
<!-- 0 -->
<g id="node1" class="node"><title>0</title>
<ellipse fill="lightblue" stroke="black" cx="46" cy="-461" rx="18" ry="18"/>
<text text-anchor="middle" x="46" y="-457.3" font-family="Times,serif" font-size="14.00">0</text>
</g>
<!-- 2 -->
<g id="node3" class="node"><title>2</title>
<ellipse fill="lightblue" stroke="black" cx="46" cy="-374" rx="18" ry="18"/>
<text text-anchor="middle" x="46" y="-370.3" font-family="Times,serif" font-size="14.00">2</text>
</g>
<!-- 0&#45;&gt;2 -->
<g id="edge1" class="edge"><title>0&#45;&gt;2</title>
<path fill="none" stroke="black" d="M46,-442.799C46,-431.163 46,-415.548 46,-402.237"/>
<polygon fill="black" stroke="black" points="49.5001,-402.175 46,-392.175 42.5001,-402.175 49.5001,-402.175"/>
<text text-anchor="middle" x="49.5" y="-413.8" font-family="Times,serif" font-size="14.00">b</text>
</g>
<!-- 4 -->
<g id="node5" class="node"><title>4</title>
<ellipse fill="lightblue" stroke="black" cx="66" cy="-18" rx="18" ry="18"/>
<text text-anchor="middle" x="66" y="-14.3" font-family="Times,serif" font-size="14.00">4</text>
</g>
<!-- 0&#45;&gt;4 -->
<g id="edge2" class="edge"><title>0&#45;&gt;4</title>
<path fill="none" stroke="black" d="M33.914,-447.325C20.285,-431.648 0,-403.525 0,-375 0,-375 0,-375 0,-104 0,-75.0309 24.2122,-49.9716 43.3067,-34.7132"/>
<polygon fill="black" stroke="black" points="45.506,-37.438 51.3525,-28.6023 41.272,-31.8636 45.506,-37.438"/>
<text text-anchor="middle" x="3.5" y="-231.8" font-family="Times,serif" font-size="14.00">a</text>
</g>
<!-- 1 -->
<g id="node2" class="node"><title>1</title>
<ellipse fill="lightblue" stroke="black" cx="92" cy="-105" rx="18" ry="18"/>
<text text-anchor="middle" x="92" y="-101.3" font-family="Times,serif" font-size="14.00">1</text>
</g>
<!-- 1&#45;&gt;4 -->
<g id="edge3" class="edge"><title>1&#45;&gt;4</title>
<path fill="none" stroke="black" d="M86.9869,-87.6111C83.3181,-75.6169 78.2636,-59.0927 74.0344,-45.2662"/>
<polygon fill="black" stroke="black" points="77.2697,-43.8774 70.9977,-35.3385 70.5759,-45.925 77.2697,-43.8774"/>
<text text-anchor="middle" x="83.5" y="-57.8" font-family="Times,serif" font-size="14.00">a</text>
</g>
<!-- 5 -->
<g id="node6" class="node"><title>5</title>
<ellipse fill="#aaff80" stroke="black" cx="98" cy="-283" rx="18" ry="18"/>
<ellipse fill="none" stroke="black" cx="98" cy="-283" rx="22" ry="22"/>
<text text-anchor="middle" x="98" y="-279.3" font-family="Times,serif" font-size="14.00">5</text>
</g>
<!-- 1&#45;&gt;5 -->
<g id="edge4" class="edge"><title>1&#45;&gt;5</title>
<path fill="none" stroke="black" d="M92.5828,-123.094C93.5862,-152.528 95.6545,-213.197 96.9251,-250.469"/>
<polygon fill="black" stroke="black" points="93.4375,-250.895 97.2763,-260.77 100.433,-250.657 93.4375,-250.895"/>
<text text-anchor="middle" x="98.5" y="-188.3" font-family="Times,serif" font-size="14.00">b</text>
</g>
<!-- 2&#45;&gt;4 -->
<g id="edge5" class="edge"><title>2&#45;&gt;4</title>
<path fill="none" stroke="black" d="M46,-355.938C46,-338.023 46,-309.031 46,-284 46,-284 46,-284 46,-104 46,-83.662 51.4925,-61.2969 56.7209,-44.6147"/>
<polygon fill="black" stroke="black" points="60.0734,-45.6243 59.8907,-35.031 53.4275,-43.4261 60.0734,-45.6243"/>
<text text-anchor="middle" x="49.5" y="-188.3" font-family="Times,serif" font-size="14.00">b</text>
</g>
<!-- 2&#45;&gt;5 -->
<g id="edge6" class="edge"><title>2&#45;&gt;5</title>
<path fill="none" stroke="black" d="M54.8211,-357.902C62.2598,-345.171 73.0944,-326.627 82.0492,-311.3"/>
<polygon fill="black" stroke="black" points="85.3121,-312.654 87.3348,-302.254 79.2681,-309.122 85.3121,-312.654"/>
<text text-anchor="middle" x="78.5" y="-326.8" font-family="Times,serif" font-size="14.00">a</text>
</g>
<!-- 3 -->
<g id="node4" class="node"><title>3</title>
<ellipse fill="lightblue" stroke="black" cx="134" cy="-192" rx="18" ry="18"/>
<text text-anchor="middle" x="134" y="-188.3" font-family="Times,serif" font-size="14.00">3</text>
</g>
<!-- 3&#45;&gt;1 -->
<g id="edge7" class="edge"><title>3&#45;&gt;1</title>
<path fill="none" stroke="black" d="M126.297,-175.41C120.139,-162.949 111.391,-145.244 104.272,-130.835"/>
<polygon fill="black" stroke="black" points="107.222,-128.906 99.6546,-121.491 100.947,-132.007 107.222,-128.906"/>
<text text-anchor="middle" x="118.5" y="-144.8" font-family="Times,serif" font-size="14.00">b</text>
</g>
<!-- 3&#45;&gt;4 -->
<g id="edge8" class="edge"><title>3&#45;&gt;4</title>
<path fill="none" stroke="black" d="M134.18,-173.709C133.81,-152.461 131.224,-115.7 119,-87 111.302,-68.9258 97.5659,-51.5105 86.0068,-38.8294"/>
<polygon fill="black" stroke="black" points="88.2247,-36.0808 78.8105,-31.2203 83.1389,-40.8907 88.2247,-36.0808"/>
<text text-anchor="middle" x="132.5" y="-101.3" font-family="Times,serif" font-size="14.00">a</text>
</g>
<!-- 4&#45;&gt;4 -->
<g id="edge9" class="edge"><title>4&#45;&gt;4</title>
<path fill="none" stroke="black" d="M82.6641,-25.3828C92.625,-27.0234 102,-24.5625 102,-18 102,-13.7959 98.1525,-11.2751 92.7682,-10.4375"/>
<polygon fill="black" stroke="black" points="92.6002,-6.93988 82.6641,-10.6172 92.7247,-13.9388 92.6002,-6.93988"/>
<text text-anchor="middle" x="110.5" y="-14.3" font-family="Times,serif" font-size="14.00">a,b</text>
</g>
<!-- 5&#45;&gt;0 -->
<g id="edge10" class="edge"><title>5&#45;&gt;0</title>
<path fill="none" stroke="black" d="M93.4695,-304.79C91.2581,-314.833 88.5338,-327.053 86,-338 80.4334,-362.05 80.4625,-368.469 73,-392 68.4248,-406.426 62.2597,-422.154 56.9758,-434.847"/>
<polygon fill="black" stroke="black" points="53.6523,-433.719 52.9742,-444.292 60.0978,-436.45 53.6523,-433.719"/>
<text text-anchor="middle" x="85.5" y="-370.3" font-family="Times,serif" font-size="14.00">b</text>
</g>
<!-- 5&#45;&gt;3 -->
<g id="edge11" class="edge"><title>5&#45;&gt;3</title>
<path fill="none" stroke="black" d="M105.99,-262.248C111.224,-249.308 118.113,-232.275 123.75,-218.34"/>
<polygon fill="black" stroke="black" points="127.086,-219.427 127.591,-208.844 120.597,-216.802 127.086,-219.427"/>
<text text-anchor="middle" x="122.5" y="-231.8" font-family="Times,serif" font-size="14.00">a</text>
</g>
</g>
</svg>
