<?xml version="1.0" encoding="UTF-8" standalone="no"?>
<!DOCTYPE svg PUBLIC "-//W3C//DTD SVG 1.1//EN"
 "http://www.w3.org/Graphics/SVG/1.1/DTD/svg11.dtd">
<!-- Generated by graphviz version 2.38.0 (20140413.2041)
 -->
<!-- Title: %3 Pages: 1 -->
<svg width="186pt" height="139pt"
 viewBox="0.00 0.00 186.00 139.00" xmlns="http://www.w3.org/2000/svg" xmlns:xlink="http://www.w3.org/1999/xlink">
<g id="graph0" class="graph" transform="scale(1 1) rotate(0) translate(4 135)">
<title>%3</title>
<!-- 0 -->
<g id="node1" class="node"><title>0</title>
<ellipse fill="#aaff80" stroke="black" cx="91" cy="-113" rx="18" ry="18"/>
<text text-anchor="middle" x="91" y="-109.3" font-family="Times,serif" font-size="14.00">0</text>
</g>
<!-- 0&#45;&gt;0 -->
<g id="edge1" class="edge"><title>0&#45;&gt;0</title>
<path fill="none" stroke="black" d="M107.664,-120.383C117.625,-122.023 127,-119.562 127,-113 127,-108.796 123.152,-106.275 117.768,-105.438"/>
<polygon fill="black" stroke="black" points="117.6,-101.94 107.664,-105.617 117.725,-108.939 117.6,-101.94"/>
<text text-anchor="middle" x="130.5" y="-109.3" font-family="Times,serif" font-size="14.00">b</text>
</g>
<!-- 1 -->
<g id="node2" class="node"><title>1</title>
<ellipse fill="lightblue" stroke="black" cx="18" cy="-22" rx="18" ry="18"/>
<text text-anchor="middle" x="18" y="-18.3" font-family="Times,serif" font-size="14.00">1</text>
</g>
<!-- 0&#45;&gt;1 -->
<g id="edge2" class="edge"><title>0&#45;&gt;1</title>
<path fill="none" stroke="black" d="M79.9129,-98.4828C68.1609,-84.1551 49.4313,-61.3204 35.6468,-44.5146"/>
<polygon fill="black" stroke="black" points="38.0003,-41.865 28.9523,-36.3528 32.588,-46.3043 38.0003,-41.865"/>
<text text-anchor="middle" x="64.5" y="-65.8" font-family="Times,serif" font-size="14.00">c</text>
</g>
<!-- 2 -->
<g id="node3" class="node"><title>2</title>
<ellipse fill="lightblue" stroke="black" cx="121" cy="-22" rx="18" ry="18"/>
<ellipse fill="none" stroke="black" cx="121" cy="-22" rx="22" ry="22"/>
<text text-anchor="middle" x="121" y="-18.3" font-family="Times,serif" font-size="14.00">2</text>
</g>
<!-- 0&#45;&gt;2 -->
<g id="edge3" class="edge"><title>0&#45;&gt;2</title>
<path fill="none" stroke="black" d="M89.7732,-94.8904C89.6142,-85.0206 90.3642,-72.5206 94,-62 95.7375,-56.9724 98.3171,-51.999 101.203,-47.3725"/>
<polygon fill="black" stroke="black" points="104.195,-49.1995 106.99,-38.9802 98.4322,-45.2257 104.195,-49.1995"/>
<text text-anchor="middle" x="97.5" y="-65.8" font-family="Times,serif" font-size="14.00">a</text>
</g>
<!-- 1&#45;&gt;1 -->
<g id="edge4" class="edge"><title>1&#45;&gt;1</title>
<path fill="none" stroke="black" d="M34.2903,-30.0164C44.3892,-31.9495 54,-29.2773 54,-22 54,-17.338 50.0557,-14.5659 44.5656,-13.6838"/>
<polygon fill="black" stroke="black" points="44.1839,-10.1933 34.2903,-13.9836 44.3881,-17.1903 44.1839,-10.1933"/>
<text text-anchor="middle" x="67.5" y="-18.3" font-family="Times,serif" font-size="14.00">a,c,b</text>
</g>
<!-- 2&#45;&gt;0 -->
<g id="edge5" class="edge"><title>2&#45;&gt;0</title>
<path fill="none" stroke="black" d="M114.272,-42.9595C110.003,-55.6242 104.433,-72.1476 99.8132,-85.8541"/>
<polygon fill="black" stroke="black" points="96.3801,-85.0819 96.5025,-95.676 103.013,-87.3179 96.3801,-85.0819"/>
<text text-anchor="middle" x="110.5" y="-65.8" font-family="Times,serif" font-size="14.00">c</text>
</g>
<!-- 2&#45;&gt;2 -->
<g id="edge6" class="edge"><title>2&#45;&gt;2</title>
<path fill="none" stroke="black" d="M141.581,-30.3702C151.845,-31.5284 161,-28.7383 161,-22 161,-17.6833 157.243,-14.9869 151.844,-13.9109"/>
<polygon fill="black" stroke="black" points="151.673,-10.405 141.581,-13.6298 151.481,-17.4024 151.673,-10.405"/>
<text text-anchor="middle" x="169.5" y="-18.3" font-family="Times,serif" font-size="14.00">a,b</text>
</g>
</g>
</svg>
