<?xml version="1.0" encoding="UTF-8" standalone="no"?>
<!DOCTYPE svg PUBLIC "-//W3C//DTD SVG 1.1//EN"
 "http://www.w3.org/Graphics/SVG/1.1/DTD/svg11.dtd">
<!-- Generated by graphviz version 2.38.0 (20140413.2041)
 -->
<!-- Title: %3 Pages: 1 -->
<svg width="995pt" height="4566pt"
 viewBox="0.00 0.00 995.00 4566.00" xmlns="http://www.w3.org/2000/svg" xmlns:xlink="http://www.w3.org/1999/xlink">
<g id="graph0" class="graph" transform="scale(1 1) rotate(0) translate(4 4562)">
<title>%3</title>
<!-- 0 -->
<g id="node1" class="node"><title>0</title>
<ellipse fill="lightblue" stroke="black" cx="862" cy="-4536" rx="18" ry="18"/>
<ellipse fill="none" stroke="black" cx="862" cy="-4536" rx="22" ry="22"/>
<text text-anchor="middle" x="862" y="-4532.3" font-family="Times,serif" font-size="14.00">0</text>
</g>
<!-- 53 -->
<g id="node54" class="node"><title>53</title>
<ellipse fill="lightblue" stroke="black" cx="805" cy="-4441" rx="18" ry="18"/>
<ellipse fill="none" stroke="black" cx="805" cy="-4441" rx="22" ry="22"/>
<text text-anchor="middle" x="805" y="-4437.3" font-family="Times,serif" font-size="14.00">53</text>
</g>
<!-- 0&#45;&gt;53 -->
<g id="edge1" class="edge"><title>0&#45;&gt;53</title>
<path fill="none" stroke="black" d="M850.739,-4516.63C842.385,-4503 830.867,-4484.2 821.479,-4468.89"/>
<polygon fill="black" stroke="black" points="824.448,-4467.03 816.238,-4460.34 818.48,-4470.69 824.448,-4467.03"/>
<text text-anchor="middle" x="839.5" y="-4484.8" font-family="Times,serif" font-size="14.00">b</text>
</g>
<!-- 54 -->
<g id="node55" class="node"><title>54</title>
<ellipse fill="lightblue" stroke="black" cx="743" cy="-647" rx="18" ry="18"/>
<ellipse fill="none" stroke="black" cx="743" cy="-647" rx="22" ry="22"/>
<text text-anchor="middle" x="743" y="-643.3" font-family="Times,serif" font-size="14.00">54</text>
</g>
<!-- 0&#45;&gt;54 -->
<g id="edge2" class="edge"><title>0&#45;&gt;54</title>
<path fill="none" stroke="black" d="M882.759,-4528.03C914.384,-4515.94 971,-4487.9 971,-4442 971,-4442 971,-4442 971,-1825.5 971,-1657.38 957,-1615.62 957,-1447.5 957,-1447.5 957,-1447.5 957,-1160.5 957,-981.581 846.419,-964.678 784,-797 769.096,-756.964 756.871,-709.09 749.758,-678.615"/>
<polygon fill="black" stroke="black" points="753.108,-677.566 747.459,-668.603 746.286,-679.133 753.108,-677.566"/>
<text text-anchor="middle" x="979" y="-2603.8" font-family="Times,serif" font-size="14.00">c,a</text>
</g>
<!-- 1 -->
<g id="node2" class="node"><title>1</title>
<ellipse fill="lightblue" stroke="black" cx="602" cy="-1114" rx="18" ry="18"/>
<ellipse fill="none" stroke="black" cx="602" cy="-1114" rx="22" ry="22"/>
<text text-anchor="middle" x="602" y="-1110.3" font-family="Times,serif" font-size="14.00">1</text>
</g>
<!-- 13 -->
<g id="node14" class="node"><title>13</title>
<ellipse fill="lightblue" stroke="black" cx="748" cy="-924" rx="18" ry="18"/>
<ellipse fill="none" stroke="black" cx="748" cy="-924" rx="22" ry="22"/>
<text text-anchor="middle" x="748" y="-920.3" font-family="Times,serif" font-size="14.00">13</text>
</g>
<!-- 1&#45;&gt;13 -->
<g id="edge3" class="edge"><title>1&#45;&gt;13</title>
<path fill="none" stroke="black" d="M615.214,-1095.98C641.056,-1062.71 698.39,-988.881 728.566,-950.025"/>
<polygon fill="black" stroke="black" points="731.552,-951.886 734.921,-941.841 726.023,-947.593 731.552,-951.886"/>
<text text-anchor="middle" x="699" y="-1015.3" font-family="Times,serif" font-size="14.00">c,a</text>
</g>
<!-- 52 -->
<g id="node53" class="node"><title>52</title>
<ellipse fill="lightblue" stroke="black" cx="602" cy="-1019" rx="18" ry="18"/>
<ellipse fill="none" stroke="black" cx="602" cy="-1019" rx="22" ry="22"/>
<text text-anchor="middle" x="602" y="-1015.3" font-family="Times,serif" font-size="14.00">52</text>
</g>
<!-- 1&#45;&gt;52 -->
<g id="edge4" class="edge"><title>1&#45;&gt;52</title>
<path fill="none" stroke="black" d="M602,-1091.9C602,-1079.89 602,-1064.62 602,-1051.24"/>
<polygon fill="black" stroke="black" points="605.5,-1051.02 602,-1041.02 598.5,-1051.02 605.5,-1051.02"/>
<text text-anchor="middle" x="605.5" y="-1062.8" font-family="Times,serif" font-size="14.00">b</text>
</g>
<!-- 2 -->
<g id="node3" class="node"><title>2</title>
<ellipse fill="lightblue" stroke="black" cx="688" cy="-4156" rx="18" ry="18"/>
<ellipse fill="none" stroke="black" cx="688" cy="-4156" rx="22" ry="22"/>
<text text-anchor="middle" x="688" y="-4152.3" font-family="Times,serif" font-size="14.00">2</text>
</g>
<!-- 59 -->
<g id="node60" class="node"><title>59</title>
<ellipse fill="#aaff80" stroke="black" cx="538" cy="-4040" rx="18" ry="18"/>
<ellipse fill="none" stroke="black" cx="538" cy="-4040" rx="22" ry="22"/>
<text text-anchor="middle" x="538" y="-4036.3" font-family="Times,serif" font-size="14.00">59</text>
</g>
<!-- 2&#45;&gt;59 -->
<g id="edge5" class="edge"><title>2&#45;&gt;59</title>
<path fill="none" stroke="black" d="M670.793,-4141.92C644.486,-4121.93 594.108,-4083.64 563.531,-4060.4"/>
<polygon fill="black" stroke="black" points="565.548,-4057.54 555.468,-4054.28 561.312,-4063.11 565.548,-4057.54"/>
<text text-anchor="middle" x="643" y="-4094.3" font-family="Times,serif" font-size="14.00">c,a</text>
</g>
<!-- 68 -->
<g id="node69" class="node"><title>68</title>
<ellipse fill="lightblue" stroke="black" cx="573" cy="-2254" rx="18" ry="18"/>
<ellipse fill="none" stroke="black" cx="573" cy="-2254" rx="22" ry="22"/>
<text text-anchor="middle" x="573" y="-2250.3" font-family="Times,serif" font-size="14.00">68</text>
</g>
<!-- 2&#45;&gt;68 -->
<g id="edge6" class="edge"><title>2&#45;&gt;68</title>
<path fill="none" stroke="black" d="M693.974,-4134.7C711.408,-4075.45 761,-3906.87 761,-3906.5 761,-3906.5 761,-3906.5 761,-2796.5 761,-2742.33 625.012,-2388.61 584.35,-2284.06"/>
<polygon fill="black" stroke="black" points="587.61,-2282.79 580.72,-2274.74 581.087,-2285.33 587.61,-2282.79"/>
<text text-anchor="middle" x="764.5" y="-3221.3" font-family="Times,serif" font-size="14.00">b</text>
</g>
<!-- 3 -->
<g id="node4" class="node"><title>3</title>
<ellipse fill="lightblue" stroke="black" cx="459" cy="-2064" rx="18" ry="18"/>
<text text-anchor="middle" x="459" y="-2060.3" font-family="Times,serif" font-size="14.00">3</text>
</g>
<!-- 10 -->
<g id="node11" class="node"><title>10</title>
<ellipse fill="lightblue" stroke="black" cx="506" cy="-2444" rx="18" ry="18"/>
<ellipse fill="none" stroke="black" cx="506" cy="-2444" rx="22" ry="22"/>
<text text-anchor="middle" x="506" y="-2440.3" font-family="Times,serif" font-size="14.00">10</text>
</g>
<!-- 3&#45;&gt;10 -->
<g id="edge7" class="edge"><title>3&#45;&gt;10</title>
<path fill="none" stroke="black" d="M460.524,-2082C463.815,-2117.9 472.096,-2204.09 482,-2276 483.107,-2284.03 483.726,-2285.99 485,-2294 487.331,-2308.65 487.875,-2312.32 490,-2327 494.166,-2355.79 498.674,-2388.63 501.839,-2412.01"/>
<polygon fill="black" stroke="black" points="498.386,-2412.59 503.193,-2422.03 505.323,-2411.65 498.386,-2412.59"/>
<text text-anchor="middle" x="495.5" y="-2250.3" font-family="Times,serif" font-size="14.00">c,a,b</text>
</g>
<!-- 4 -->
<g id="node5" class="node"><title>4</title>
<ellipse fill="lightblue" stroke="black" cx="478" cy="-3775" rx="18" ry="18"/>
<text text-anchor="middle" x="478" y="-3771.3" font-family="Times,serif" font-size="14.00">4</text>
</g>
<!-- 41 -->
<g id="node42" class="node"><title>41</title>
<ellipse fill="lightblue" stroke="black" cx="478" cy="-3684" rx="18" ry="18"/>
<ellipse fill="none" stroke="black" cx="478" cy="-3684" rx="22" ry="22"/>
<text text-anchor="middle" x="478" y="-3680.3" font-family="Times,serif" font-size="14.00">41</text>
</g>
<!-- 4&#45;&gt;41 -->
<g id="edge8" class="edge"><title>4&#45;&gt;41</title>
<path fill="none" stroke="black" d="M478,-3756.84C478,-3745.44 478,-3730.13 478,-3716.58"/>
<polygon fill="black" stroke="black" points="481.5,-3716.19 478,-3706.19 474.5,-3716.19 481.5,-3716.19"/>
<text text-anchor="middle" x="491.5" y="-3727.8" font-family="Times,serif" font-size="14.00">c,a,b</text>
</g>
<!-- 5 -->
<g id="node6" class="node"><title>5</title>
<ellipse fill="lightblue" stroke="black" cx="61" cy="-1969" rx="18" ry="18"/>
<ellipse fill="none" stroke="black" cx="61" cy="-1969" rx="22" ry="22"/>
<text text-anchor="middle" x="61" y="-1965.3" font-family="Times,serif" font-size="14.00">5</text>
</g>
<!-- 8 -->
<g id="node9" class="node"><title>8</title>
<ellipse fill="lightblue" stroke="black" cx="481" cy="-924" rx="18" ry="18"/>
<ellipse fill="none" stroke="black" cx="481" cy="-924" rx="22" ry="22"/>
<text text-anchor="middle" x="481" y="-920.3" font-family="Times,serif" font-size="14.00">8</text>
</g>
<!-- 5&#45;&gt;8 -->
<g id="edge9" class="edge"><title>5&#45;&gt;8</title>
<path fill="none" stroke="black" d="M59.5191,-1946.9C58.588,-1932.56 57.4759,-1913.14 57,-1896 56.4574,-1876.45 55.4703,-1871.5 57,-1852 60.3436,-1809.39 64.8313,-1799.14 72,-1757 108.376,-1543.17 95.1455,-1479.87 184,-1282 248.732,-1137.85 221.261,-1064.74 343,-964 373.198,-939.011 418.447,-930.008 448.812,-926.779"/>
<polygon fill="black" stroke="black" points="449.242,-930.254 458.883,-925.861 448.607,-923.283 449.242,-930.254"/>
<text text-anchor="middle" x="133" y="-1442.8" font-family="Times,serif" font-size="14.00">c,a</text>
</g>
<!-- 24 -->
<g id="node25" class="node"><title>24</title>
<ellipse fill="lightblue" stroke="black" cx="88" cy="-1874" rx="18" ry="18"/>
<ellipse fill="none" stroke="black" cx="88" cy="-1874" rx="22" ry="22"/>
<text text-anchor="middle" x="88" y="-1870.3" font-family="Times,serif" font-size="14.00">24</text>
</g>
<!-- 5&#45;&gt;24 -->
<g id="edge10" class="edge"><title>5&#45;&gt;24</title>
<path fill="none" stroke="black" d="M66.9922,-1947.36C70.6176,-1934.87 75.3023,-1918.74 79.3276,-1904.87"/>
<polygon fill="black" stroke="black" points="82.6905,-1905.84 82.1175,-1895.26 75.9681,-1903.89 82.6905,-1905.84"/>
<text text-anchor="middle" x="79.5" y="-1917.8" font-family="Times,serif" font-size="14.00">b</text>
</g>
<!-- 6 -->
<g id="node7" class="node"><title>6</title>
<ellipse fill="lightblue" stroke="black" cx="465" cy="-1399" rx="18" ry="18"/>
<ellipse fill="none" stroke="black" cx="465" cy="-1399" rx="22" ry="22"/>
<text text-anchor="middle" x="465" y="-1395.3" font-family="Times,serif" font-size="14.00">6</text>
</g>
<!-- 55 -->
<g id="node56" class="node"><title>55</title>
<ellipse fill="lightblue" stroke="black" cx="465" cy="-1304" rx="18" ry="18"/>
<ellipse fill="none" stroke="black" cx="465" cy="-1304" rx="22" ry="22"/>
<text text-anchor="middle" x="465" y="-1300.3" font-family="Times,serif" font-size="14.00">55</text>
</g>
<!-- 6&#45;&gt;55 -->
<g id="edge11" class="edge"><title>6&#45;&gt;55</title>
<path fill="none" stroke="black" d="M465,-1376.9C465,-1364.89 465,-1349.62 465,-1336.24"/>
<polygon fill="black" stroke="black" points="468.5,-1336.02 465,-1326.02 461.5,-1336.02 468.5,-1336.02"/>
<text text-anchor="middle" x="473" y="-1347.8" font-family="Times,serif" font-size="14.00">c,a</text>
</g>
<!-- 69 -->
<g id="node70" class="node"><title>69</title>
<ellipse fill="lightblue" stroke="black" cx="215" cy="-1304" rx="18" ry="18"/>
<ellipse fill="none" stroke="black" cx="215" cy="-1304" rx="22" ry="22"/>
<text text-anchor="middle" x="215" y="-1300.3" font-family="Times,serif" font-size="14.00">69</text>
</g>
<!-- 6&#45;&gt;69 -->
<g id="edge12" class="edge"><title>6&#45;&gt;69</title>
<path fill="none" stroke="black" d="M444.541,-1390.39C400.483,-1374 296.457,-1335.3 244.957,-1316.14"/>
<polygon fill="black" stroke="black" points="245.983,-1312.79 235.391,-1312.59 243.543,-1319.35 245.983,-1312.79"/>
<text text-anchor="middle" x="357.5" y="-1347.8" font-family="Times,serif" font-size="14.00">b</text>
</g>
<!-- 7 -->
<g id="node8" class="node"><title>7</title>
<ellipse fill="lightblue" stroke="black" cx="460" cy="-552" rx="18" ry="18"/>
<text text-anchor="middle" x="460" y="-548.3" font-family="Times,serif" font-size="14.00">7</text>
</g>
<!-- 7&#45;&gt;8 -->
<g id="edge13" class="edge"><title>7&#45;&gt;8</title>
<path fill="none" stroke="black" d="M460,-570.141C460,-588.801 460,-619.521 460,-646 460,-834 460,-834 460,-834 460,-854.115 465.144,-876.12 470.34,-893.217"/>
<polygon fill="black" stroke="black" points="467.146,-894.717 473.537,-903.167 473.811,-892.576 467.146,-894.717"/>
<text text-anchor="middle" x="463.5" y="-738.3" font-family="Times,serif" font-size="14.00">b</text>
</g>
<!-- 20 -->
<g id="node21" class="node"><title>20</title>
<ellipse fill="lightblue" stroke="black" cx="670" cy="-279" rx="18" ry="18"/>
<text text-anchor="middle" x="670" y="-275.3" font-family="Times,serif" font-size="14.00">20</text>
</g>
<!-- 7&#45;&gt;20 -->
<g id="edge14" class="edge"><title>7&#45;&gt;20</title>
<path fill="none" stroke="black" d="M470.703,-537.188C504.827,-493.152 611.254,-355.811 652.976,-301.969"/>
<polygon fill="black" stroke="black" points="655.96,-303.832 659.319,-293.784 650.427,-299.544 655.96,-303.832"/>
<text text-anchor="middle" x="582" y="-405.8" font-family="Times,serif" font-size="14.00">c,a</text>
</g>
<!-- 23 -->
<g id="node24" class="node"><title>23</title>
<ellipse fill="lightblue" stroke="black" cx="506" cy="-833" rx="18" ry="18"/>
<text text-anchor="middle" x="506" y="-829.3" font-family="Times,serif" font-size="14.00">23</text>
</g>
<!-- 8&#45;&gt;23 -->
<g id="edge15" class="edge"><title>8&#45;&gt;23</title>
<path fill="none" stroke="black" d="M486.798,-902.358C490.316,-889.836 494.838,-873.737 498.61,-860.307"/>
<polygon fill="black" stroke="black" points="501.985,-861.236 501.32,-850.662 495.246,-859.343 501.985,-861.236"/>
<text text-anchor="middle" x="498.5" y="-872.8" font-family="Times,serif" font-size="14.00">b</text>
</g>
<!-- 78 -->
<g id="node79" class="node"><title>78</title>
<ellipse fill="lightblue" stroke="black" cx="573" cy="-1209" rx="18" ry="18"/>
<ellipse fill="none" stroke="black" cx="573" cy="-1209" rx="22" ry="22"/>
<text text-anchor="middle" x="573" y="-1205.3" font-family="Times,serif" font-size="14.00">78</text>
</g>
<!-- 8&#45;&gt;78 -->
<g id="edge16" class="edge"><title>8&#45;&gt;78</title>
<path fill="none" stroke="black" d="M491.337,-943.613C494.5,-949.932 497.737,-957.133 500,-964 529,-1052.01 497.083,-1085.86 538,-1169 541.005,-1175.11 545.243,-1180.97 549.737,-1186.22"/>
<polygon fill="black" stroke="black" points="547.498,-1188.96 556.867,-1193.9 552.628,-1184.19 547.498,-1188.96"/>
<text text-anchor="middle" x="522" y="-1062.8" font-family="Times,serif" font-size="14.00">c,a</text>
</g>
<!-- 9 -->
<g id="node10" class="node"><title>9</title>
<ellipse fill="lightblue" stroke="black" cx="177" cy="-2159" rx="18" ry="18"/>
<ellipse fill="none" stroke="black" cx="177" cy="-2159" rx="22" ry="22"/>
<text text-anchor="middle" x="177" y="-2155.3" font-family="Times,serif" font-size="14.00">9</text>
</g>
<!-- 38 -->
<g id="node39" class="node"><title>38</title>
<ellipse fill="lightblue" stroke="black" cx="478" cy="-3225" rx="18" ry="18"/>
<ellipse fill="none" stroke="black" cx="478" cy="-3225" rx="22" ry="22"/>
<text text-anchor="middle" x="478" y="-3221.3" font-family="Times,serif" font-size="14.00">38</text>
</g>
<!-- 9&#45;&gt;38 -->
<g id="edge17" class="edge"><title>9&#45;&gt;38</title>
<path fill="none" stroke="black" d="M168.536,-2179.55C161.283,-2198.09 152,-2226.92 152,-2253 152,-2397.5 152,-2397.5 152,-2397.5 152,-2577.98 199.36,-2628.64 309,-2772 334.32,-2805.11 429,-2896.79 429,-2939 429,-3131 429,-3131 429,-3131 429,-3156.72 443.851,-3182.31 457.202,-3200.11"/>
<polygon fill="black" stroke="black" points="454.628,-3202.5 463.563,-3208.2 460.129,-3198.17 454.628,-3202.5"/>
<text text-anchor="middle" x="268" y="-2698.8" font-family="Times,serif" font-size="14.00">c,a</text>
</g>
<!-- 66 -->
<g id="node67" class="node"><title>66</title>
<ellipse fill="lightblue" stroke="black" cx="61" cy="-2064" rx="18" ry="18"/>
<ellipse fill="none" stroke="black" cx="61" cy="-2064" rx="22" ry="22"/>
<text text-anchor="middle" x="61" y="-2060.3" font-family="Times,serif" font-size="14.00">66</text>
</g>
<!-- 9&#45;&gt;66 -->
<g id="edge18" class="edge"><title>9&#45;&gt;66</title>
<path fill="none" stroke="black" d="M159.884,-2144.28C140.325,-2128.6 108.145,-2102.8 85.8313,-2084.91"/>
<polygon fill="black" stroke="black" points="87.8007,-2082 77.8093,-2078.48 83.4221,-2087.46 87.8007,-2082"/>
<text text-anchor="middle" x="128.5" y="-2107.8" font-family="Times,serif" font-size="14.00">b</text>
</g>
<!-- 12 -->
<g id="node13" class="node"><title>12</title>
<ellipse fill="lightblue" stroke="black" cx="459" cy="-2349" rx="18" ry="18"/>
<ellipse fill="none" stroke="black" cx="459" cy="-2349" rx="22" ry="22"/>
<text text-anchor="middle" x="459" y="-2345.3" font-family="Times,serif" font-size="14.00">12</text>
</g>
<!-- 10&#45;&gt;12 -->
<g id="edge19" class="edge"><title>10&#45;&gt;12</title>
<path fill="none" stroke="black" d="M496.262,-2423.73C489.601,-2410.55 480.662,-2392.86 473.209,-2378.12"/>
<polygon fill="black" stroke="black" points="476.199,-2376.27 468.565,-2368.93 469.952,-2379.43 476.199,-2376.27"/>
<text text-anchor="middle" x="488.5" y="-2392.8" font-family="Times,serif" font-size="14.00">b</text>
</g>
<!-- 72 -->
<g id="node73" class="node"><title>72</title>
<ellipse fill="lightblue" stroke="black" cx="749" cy="-552" rx="18" ry="18"/>
<ellipse fill="none" stroke="black" cx="749" cy="-552" rx="22" ry="22"/>
<text text-anchor="middle" x="749" y="-548.3" font-family="Times,serif" font-size="14.00">72</text>
</g>
<!-- 10&#45;&gt;72 -->
<g id="edge20" class="edge"><title>10&#45;&gt;72</title>
<path fill="none" stroke="black" d="M509.963,-2421.98C511.008,-2416.17 512.095,-2409.85 513,-2404 515.499,-2387.86 551,-2128.83 551,-2112.5 551,-2112.5 551,-2112.5 551,-1350.5 551,-1318.91 552.778,-1308.49 570,-1282 574.862,-1274.52 625.756,-1237.37 632,-1231 669.655,-1192.58 680.492,-1182.81 707,-1136 767.018,-1030.01 798,-999.3 798,-877.5 798,-877.5 798,-877.5 798,-646 798,-621.207 795.724,-613.846 784,-592 780.838,-586.108 776.607,-580.385 772.181,-575.218"/>
<polygon fill="black" stroke="black" points="774.535,-572.608 765.191,-567.615 769.382,-577.346 774.535,-572.608"/>
<text text-anchor="middle" x="559" y="-1490.3" font-family="Times,serif" font-size="14.00">c,a</text>
</g>
<!-- 11 -->
<g id="node12" class="node"><title>11</title>
<ellipse fill="lightblue" stroke="black" cx="675" cy="-833" rx="18" ry="18"/>
<text text-anchor="middle" x="675" y="-829.3" font-family="Times,serif" font-size="14.00">11</text>
</g>
<!-- 43 -->
<g id="node44" class="node"><title>43</title>
<ellipse fill="lightblue" stroke="black" cx="663" cy="-742" rx="18" ry="18"/>
<text text-anchor="middle" x="663" y="-738.3" font-family="Times,serif" font-size="14.00">43</text>
</g>
<!-- 11&#45;&gt;43 -->
<g id="edge21" class="edge"><title>11&#45;&gt;43</title>
<path fill="none" stroke="black" d="M672.686,-814.84C670.976,-802.158 668.614,-784.64 666.651,-770.077"/>
<polygon fill="black" stroke="black" points="670.112,-769.55 665.307,-760.107 663.174,-770.485 670.112,-769.55"/>
<text text-anchor="middle" x="683.5" y="-785.8" font-family="Times,serif" font-size="14.00">c,a,b</text>
</g>
<!-- 47 -->
<g id="node48" class="node"><title>47</title>
<ellipse fill="lightblue" stroke="black" cx="352" cy="-3494" rx="18" ry="18"/>
<ellipse fill="none" stroke="black" cx="352" cy="-3494" rx="22" ry="22"/>
<text text-anchor="middle" x="352" y="-3490.3" font-family="Times,serif" font-size="14.00">47</text>
</g>
<!-- 12&#45;&gt;47 -->
<g id="edge22" class="edge"><title>12&#45;&gt;47</title>
<path fill="none" stroke="black" d="M450.726,-2369.5C440.11,-2393.42 420.26,-2434.64 397,-2466 390.261,-2475.09 384.274,-2473.99 379,-2484 363.192,-2514 365,-2525.09 365,-2559 365,-3404 365,-3404 365,-3404 365,-3423.53 361.898,-3445.21 358.725,-3462.29"/>
<polygon fill="black" stroke="black" points="355.258,-3461.78 356.767,-3472.27 362.127,-3463.13 355.258,-3461.78"/>
<text text-anchor="middle" x="373" y="-2936.3" font-family="Times,serif" font-size="14.00">c,a</text>
</g>
<!-- 12&#45;&gt;68 -->
<g id="edge23" class="edge"><title>12&#45;&gt;68</title>
<path fill="none" stroke="black" d="M475.821,-2334.28C494.933,-2318.69 526.307,-2293.09 548.22,-2275.22"/>
<polygon fill="black" stroke="black" points="550.574,-2277.81 556.11,-2268.78 546.149,-2272.39 550.574,-2277.81"/>
<text text-anchor="middle" x="525.5" y="-2297.8" font-family="Times,serif" font-size="14.00">b</text>
</g>
<!-- 13&#45;&gt;11 -->
<g id="edge24" class="edge"><title>13&#45;&gt;11</title>
<path fill="none" stroke="black" d="M734.269,-906.26C722.491,-891.9 705.445,-871.118 692.654,-855.523"/>
<polygon fill="black" stroke="black" points="695.094,-852.98 686.046,-847.467 689.682,-857.419 695.094,-852.98"/>
<text text-anchor="middle" x="718.5" y="-872.8" font-family="Times,serif" font-size="14.00">b</text>
</g>
<!-- 13&#45;&gt;54 -->
<g id="edge25" class="edge"><title>13&#45;&gt;54</title>
<path fill="none" stroke="black" d="M744.094,-902.141C739.644,-877.23 732.647,-834.25 730,-797 727.086,-755.99 732.749,-708.712 737.495,-678.607"/>
<polygon fill="black" stroke="black" points="740.953,-679.148 739.119,-668.713 734.045,-678.014 740.953,-679.148"/>
<text text-anchor="middle" x="738" y="-785.8" font-family="Times,serif" font-size="14.00">c,a</text>
</g>
<!-- 14 -->
<g id="node15" class="node"><title>14</title>
<ellipse fill="lightblue" stroke="black" cx="811" cy="-457" rx="18" ry="18"/>
<ellipse fill="none" stroke="black" cx="811" cy="-457" rx="22" ry="22"/>
<text text-anchor="middle" x="811" y="-453.3" font-family="Times,serif" font-size="14.00">14</text>
</g>
<!-- 14&#45;&gt;14 -->
<g id="edge26" class="edge"><title>14&#45;&gt;14</title>
<path fill="none" stroke="black" d="M831.581,-465.37C841.845,-466.528 851,-463.738 851,-457 851,-452.683 847.243,-449.987 841.844,-448.911"/>
<polygon fill="black" stroke="black" points="841.673,-445.405 831.581,-448.63 841.481,-452.402 841.673,-445.405"/>
<text text-anchor="middle" x="859" y="-453.3" font-family="Times,serif" font-size="14.00">c,a</text>
</g>
<!-- 65 -->
<g id="node66" class="node"><title>65</title>
<ellipse fill="lightblue" stroke="black" cx="846" cy="-366" rx="18" ry="18"/>
<text text-anchor="middle" x="846" y="-362.3" font-family="Times,serif" font-size="14.00">65</text>
</g>
<!-- 14&#45;&gt;65 -->
<g id="edge27" class="edge"><title>14&#45;&gt;65</title>
<path fill="none" stroke="black" d="M818.768,-436.248C823.824,-423.391 830.469,-406.492 835.93,-392.607"/>
<polygon fill="black" stroke="black" points="839.254,-393.717 839.657,-383.13 832.74,-391.155 839.254,-393.717"/>
<text text-anchor="middle" x="834.5" y="-405.8" font-family="Times,serif" font-size="14.00">b</text>
</g>
<!-- 15 -->
<g id="node16" class="node"><title>15</title>
<ellipse fill="lightblue" stroke="black" cx="414" cy="-3589" rx="18" ry="18"/>
<ellipse fill="none" stroke="black" cx="414" cy="-3589" rx="22" ry="22"/>
<text text-anchor="middle" x="414" y="-3585.3" font-family="Times,serif" font-size="14.00">15</text>
</g>
<!-- 15&#45;&gt;47 -->
<g id="edge28" class="edge"><title>15&#45;&gt;47</title>
<path fill="none" stroke="black" d="M402.046,-3570.07C392.868,-3556.3 380.054,-3537.08 369.691,-3521.54"/>
<polygon fill="black" stroke="black" points="372.377,-3519.26 363.918,-3512.88 366.552,-3523.14 372.377,-3519.26"/>
<text text-anchor="middle" x="394" y="-3537.8" font-family="Times,serif" font-size="14.00">c,a</text>
</g>
<!-- 61 -->
<g id="node62" class="node"><title>61</title>
<ellipse fill="lightblue" stroke="black" cx="491" cy="-3949" rx="18" ry="18"/>
<text text-anchor="middle" x="491" y="-3945.3" font-family="Times,serif" font-size="14.00">61</text>
</g>
<!-- 15&#45;&gt;61 -->
<g id="edge29" class="edge"><title>15&#45;&gt;61</title>
<path fill="none" stroke="black" d="M414,-3611.05C414,-3629.9 414,-3658.3 414,-3683 414,-3863 414,-3863 414,-3863 414,-3894.85 444.063,-3920.08 466.62,-3934.54"/>
<polygon fill="black" stroke="black" points="465.055,-3937.68 475.418,-3939.88 468.691,-3931.7 465.055,-3937.68"/>
<text text-anchor="middle" x="417.5" y="-3771.3" font-family="Times,serif" font-size="14.00">b</text>
</g>
<!-- 16 -->
<g id="node17" class="node"><title>16</title>
<ellipse fill="lightblue" stroke="black" cx="464" cy="-1019" rx="18" ry="18"/>
<ellipse fill="none" stroke="black" cx="464" cy="-1019" rx="22" ry="22"/>
<text text-anchor="middle" x="464" y="-1015.3" font-family="Times,serif" font-size="14.00">16</text>
</g>
<!-- 18 -->
<g id="node19" class="node"><title>18</title>
<ellipse fill="lightblue" stroke="black" cx="598" cy="-924" rx="18" ry="18"/>
<text text-anchor="middle" x="598" y="-920.3" font-family="Times,serif" font-size="14.00">18</text>
</g>
<!-- 16&#45;&gt;18 -->
<g id="edge30" class="edge"><title>16&#45;&gt;18</title>
<path fill="none" stroke="black" d="M479.067,-1002.14C490.457,-990.68 506.842,-975.301 523,-964 538.587,-953.098 557.616,-943.238 572.605,-936.16"/>
<polygon fill="black" stroke="black" points="574.177,-939.289 581.796,-931.927 571.249,-932.931 574.177,-939.289"/>
<text text-anchor="middle" x="526.5" y="-967.8" font-family="Times,serif" font-size="14.00">b</text>
</g>
<!-- 16&#45;&gt;55 -->
<g id="edge31" class="edge"><title>16&#45;&gt;55</title>
<path fill="none" stroke="black" d="M464.075,-1041.13C464.249,-1090.49 464.684,-1213.55 464.889,-1271.67"/>
<polygon fill="black" stroke="black" points="461.389,-1271.74 464.925,-1281.73 468.389,-1271.72 461.389,-1271.74"/>
<text text-anchor="middle" x="472" y="-1157.8" font-family="Times,serif" font-size="14.00">c,a</text>
</g>
<!-- 17 -->
<g id="node18" class="node"><title>17</title>
<ellipse fill="lightblue" stroke="black" cx="615" cy="-2502" rx="18" ry="18"/>
<text text-anchor="middle" x="615" y="-2498.3" font-family="Times,serif" font-size="14.00">17</text>
</g>
<!-- 56 -->
<g id="node57" class="node"><title>56</title>
<ellipse fill="lightblue" stroke="black" cx="649" cy="-1399" rx="18" ry="18"/>
<ellipse fill="none" stroke="black" cx="649" cy="-1399" rx="22" ry="22"/>
<text text-anchor="middle" x="649" y="-1395.3" font-family="Times,serif" font-size="14.00">56</text>
</g>
<!-- 17&#45;&gt;56 -->
<g id="edge32" class="edge"><title>17&#45;&gt;56</title>
<path fill="none" stroke="black" d="M621.3,-2485.08C633.898,-2451.76 661,-2372.01 661,-2302.5 661,-2302.5 661,-2302.5 661,-1493 661,-1472.18 658.005,-1448.95 655.007,-1430.91"/>
<polygon fill="black" stroke="black" points="658.436,-1430.2 653.265,-1420.95 651.54,-1431.41 658.436,-1430.2"/>
<text text-anchor="middle" x="674.5" y="-1965.3" font-family="Times,serif" font-size="14.00">c,a,b</text>
</g>
<!-- 46 -->
<g id="node47" class="node"><title>46</title>
<ellipse fill="lightblue" stroke="black" cx="618" cy="-833" rx="18" ry="18"/>
<text text-anchor="middle" x="618" y="-829.3" font-family="Times,serif" font-size="14.00">46</text>
</g>
<!-- 18&#45;&gt;46 -->
<g id="edge33" class="edge"><title>18&#45;&gt;46</title>
<path fill="none" stroke="black" d="M597.734,-905.725C597.947,-895 598.914,-881.019 602,-869 602.891,-865.53 604.111,-861.978 605.483,-858.53"/>
<polygon fill="black" stroke="black" points="608.746,-859.806 609.604,-849.246 602.348,-856.966 608.746,-859.806"/>
<text text-anchor="middle" x="610" y="-872.8" font-family="Times,serif" font-size="14.00">c,a</text>
</g>
<!-- 18&#45;&gt;55 -->
<g id="edge34" class="edge"><title>18&#45;&gt;55</title>
<path fill="none" stroke="black" d="M611.441,-936.075C621.927,-945.06 635.174,-957.297 638,-964 640.59,-970.143 638.106,-972.334 638,-979 636.201,-1092 674.936,-1143.02 604,-1231 576.294,-1265.36 527.791,-1285.11 496.035,-1294.95"/>
<polygon fill="black" stroke="black" points="494.961,-1291.61 486.36,-1297.8 496.942,-1298.33 494.961,-1291.61"/>
<text text-anchor="middle" x="649.5" y="-1110.3" font-family="Times,serif" font-size="14.00">b</text>
</g>
<!-- 19 -->
<g id="node20" class="node"><title>19</title>
<ellipse fill="lightblue" stroke="black" cx="366" cy="-2444" rx="18" ry="18"/>
<ellipse fill="none" stroke="black" cx="366" cy="-2444" rx="22" ry="22"/>
<text text-anchor="middle" x="366" y="-2440.3" font-family="Times,serif" font-size="14.00">19</text>
</g>
<!-- 31 -->
<g id="node32" class="node"><title>31</title>
<ellipse fill="lightblue" stroke="black" cx="386" cy="-742" rx="18" ry="18"/>
<ellipse fill="none" stroke="black" cx="386" cy="-742" rx="22" ry="22"/>
<text text-anchor="middle" x="386" y="-738.3" font-family="Times,serif" font-size="14.00">31</text>
</g>
<!-- 19&#45;&gt;31 -->
<g id="edge35" class="edge"><title>19&#45;&gt;31</title>
<path fill="none" stroke="black" d="M371.401,-2422.61C383.74,-2373.48 412.101,-2244.71 401,-2137 397.649,-2104.49 386,-2097.69 386,-2065 386,-2065 386,-2065 386,-1730.5 386,-1395.87 351.44,-1313.43 340,-979 337.893,-917.402 338.064,-855.579 348,-815 351.988,-798.714 360.439,-782.062 368.361,-768.879"/>
<polygon fill="black" stroke="black" points="371.359,-770.687 373.7,-760.354 365.426,-766.972 371.359,-770.687"/>
<text text-anchor="middle" x="392" y="-1585.3" font-family="Times,serif" font-size="14.00">c,a</text>
</g>
<!-- 71 -->
<g id="node72" class="node"><title>71</title>
<ellipse fill="lightblue" stroke="black" cx="278" cy="-2349" rx="18" ry="18"/>
<ellipse fill="none" stroke="black" cx="278" cy="-2349" rx="22" ry="22"/>
<text text-anchor="middle" x="278" y="-2345.3" font-family="Times,serif" font-size="14.00">71</text>
</g>
<!-- 19&#45;&gt;71 -->
<g id="edge36" class="edge"><title>19&#45;&gt;71</title>
<path fill="none" stroke="black" d="M351.072,-2427.22C336.954,-2412.3 315.608,-2389.75 299.627,-2372.86"/>
<polygon fill="black" stroke="black" points="302.123,-2370.4 292.708,-2365.54 297.038,-2375.21 302.123,-2370.4"/>
<text text-anchor="middle" x="330.5" y="-2392.8" font-family="Times,serif" font-size="14.00">b</text>
</g>
<!-- 34 -->
<g id="node35" class="node"><title>34</title>
<ellipse fill="lightblue" stroke="black" cx="685" cy="-192" rx="18" ry="18"/>
<text text-anchor="middle" x="685" y="-188.3" font-family="Times,serif" font-size="14.00">34</text>
</g>
<!-- 20&#45;&gt;34 -->
<g id="edge37" class="edge"><title>20&#45;&gt;34</title>
<path fill="none" stroke="black" d="M672.964,-261.207C675.039,-249.448 677.856,-233.485 680.243,-219.958"/>
<polygon fill="black" stroke="black" points="683.751,-220.214 682.043,-209.758 676.858,-218.998 683.751,-220.214"/>
<text text-anchor="middle" x="691.5" y="-231.8" font-family="Times,serif" font-size="14.00">c,a,b</text>
</g>
<!-- 21 -->
<g id="node22" class="node"><title>21</title>
<ellipse fill="lightblue" stroke="black" cx="460" cy="-2845" rx="18" ry="18"/>
<ellipse fill="none" stroke="black" cx="460" cy="-2845" rx="22" ry="22"/>
<text text-anchor="middle" x="460" y="-2841.3" font-family="Times,serif" font-size="14.00">21</text>
</g>
<!-- 21&#45;&gt;2 -->
<g id="edge38" class="edge"><title>21&#45;&gt;2</title>
<path fill="none" stroke="black" d="M482.186,-2846.94C531.72,-2850.35 647,-2866.12 647,-2939 647,-3083.5 647,-3083.5 647,-3083.5 647,-3287.31 685,-3336.69 685,-3540.5 685,-4041 685,-4041 685,-4041 685,-4069.03 685.918,-4100.92 686.738,-4123.83"/>
<polygon fill="black" stroke="black" points="683.246,-4124.13 687.116,-4133.99 690.241,-4123.87 683.246,-4124.13"/>
<text text-anchor="middle" x="692" y="-3490.3" font-family="Times,serif" font-size="14.00">c,a</text>
</g>
<!-- 22 -->
<g id="node23" class="node"><title>22</title>
<ellipse fill="lightblue" stroke="black" cx="466" cy="-2750" rx="18" ry="18"/>
<ellipse fill="none" stroke="black" cx="466" cy="-2750" rx="22" ry="22"/>
<text text-anchor="middle" x="466" y="-2746.3" font-family="Times,serif" font-size="14.00">22</text>
</g>
<!-- 21&#45;&gt;22 -->
<g id="edge39" class="edge"><title>21&#45;&gt;22</title>
<path fill="none" stroke="black" d="M461.361,-2822.9C462.136,-2810.89 463.121,-2795.62 463.984,-2782.24"/>
<polygon fill="black" stroke="black" points="467.493,-2782.22 464.644,-2772.02 460.507,-2781.77 467.493,-2782.22"/>
<text text-anchor="middle" x="466.5" y="-2793.8" font-family="Times,serif" font-size="14.00">b</text>
</g>
<!-- 40 -->
<g id="node41" class="node"><title>40</title>
<ellipse fill="lightblue" stroke="black" cx="466" cy="-2655" rx="18" ry="18"/>
<ellipse fill="none" stroke="black" cx="466" cy="-2655" rx="22" ry="22"/>
<text text-anchor="middle" x="466" y="-2651.3" font-family="Times,serif" font-size="14.00">40</text>
</g>
<!-- 22&#45;&gt;40 -->
<g id="edge40" class="edge"><title>22&#45;&gt;40</title>
<path fill="none" stroke="black" d="M466,-2727.9C466,-2715.89 466,-2700.62 466,-2687.24"/>
<polygon fill="black" stroke="black" points="469.5,-2687.02 466,-2677.02 462.5,-2687.02 469.5,-2687.02"/>
<text text-anchor="middle" x="469.5" y="-2698.8" font-family="Times,serif" font-size="14.00">b</text>
</g>
<!-- 45 -->
<g id="node46" class="node"><title>45</title>
<ellipse fill="lightblue" stroke="black" cx="737" cy="-2159" rx="18" ry="18"/>
<ellipse fill="none" stroke="black" cx="737" cy="-2159" rx="22" ry="22"/>
<text text-anchor="middle" x="737" y="-2155.3" font-family="Times,serif" font-size="14.00">45</text>
</g>
<!-- 22&#45;&gt;45 -->
<g id="edge41" class="edge"><title>22&#45;&gt;45</title>
<path fill="none" stroke="black" d="M480.72,-2733.58C513.667,-2698.34 594.203,-2608.16 642,-2520 676.312,-2456.71 660.804,-2410.19 723,-2199 723.935,-2195.83 724.986,-2192.53 726.081,-2189.27"/>
<polygon fill="black" stroke="black" points="729.432,-2190.29 729.427,-2179.69 722.823,-2187.98 729.432,-2190.29"/>
<text text-anchor="middle" x="678" y="-2440.3" font-family="Times,serif" font-size="14.00">c,a</text>
</g>
<!-- 23&#45;&gt;31 -->
<g id="edge42" class="edge"><title>23&#45;&gt;31</title>
<path fill="none" stroke="black" d="M491.763,-821.441C471.993,-806.778 435.9,-780.009 411.439,-761.867"/>
<polygon fill="black" stroke="black" points="413.434,-758.989 403.317,-755.843 409.264,-764.612 413.434,-758.989"/>
<text text-anchor="middle" x="459.5" y="-785.8" font-family="Times,serif" font-size="14.00">b</text>
</g>
<!-- 23&#45;&gt;43 -->
<g id="edge43" class="edge"><title>23&#45;&gt;43</title>
<path fill="none" stroke="black" d="M521.34,-823.304C548.588,-807.858 605.639,-775.516 638.42,-756.934"/>
<polygon fill="black" stroke="black" points="640.392,-759.839 647.365,-751.863 636.94,-753.75 640.392,-759.839"/>
<text text-anchor="middle" x="601" y="-785.8" font-family="Times,serif" font-size="14.00">c,a</text>
</g>
<!-- 60 -->
<g id="node61" class="node"><title>60</title>
<ellipse fill="lightblue" stroke="black" cx="99" cy="-1779" rx="18" ry="18"/>
<text text-anchor="middle" x="99" y="-1775.3" font-family="Times,serif" font-size="14.00">60</text>
</g>
<!-- 24&#45;&gt;60 -->
<g id="edge44" class="edge"><title>24&#45;&gt;60</title>
<path fill="none" stroke="black" d="M89.6533,-1851.94C90.5139,-1841.94 91.6656,-1829.84 93,-1819 93.4713,-1815.17 94.0256,-1811.14 94.6036,-1807.18"/>
<polygon fill="black" stroke="black" points="98.1001,-1807.47 96.148,-1797.05 91.1801,-1806.41 98.1001,-1807.47"/>
<text text-anchor="middle" x="96.5" y="-1822.8" font-family="Times,serif" font-size="14.00">b</text>
</g>
<!-- 73 -->
<g id="node74" class="node"><title>73</title>
<ellipse fill="lightblue" stroke="black" cx="163" cy="-1779" rx="18" ry="18"/>
<ellipse fill="none" stroke="black" cx="163" cy="-1779" rx="22" ry="22"/>
<text text-anchor="middle" x="163" y="-1775.3" font-family="Times,serif" font-size="14.00">73</text>
</g>
<!-- 24&#45;&gt;73 -->
<g id="edge45" class="edge"><title>24&#45;&gt;73</title>
<path fill="none" stroke="black" d="M101.408,-1856.37C112.962,-1842.05 129.806,-1821.16 142.96,-1804.85"/>
<polygon fill="black" stroke="black" points="145.902,-1806.78 149.455,-1796.8 140.453,-1802.38 145.902,-1806.78"/>
<text text-anchor="middle" x="137" y="-1822.8" font-family="Times,serif" font-size="14.00">c,a</text>
</g>
<!-- 25 -->
<g id="node26" class="node"><title>25</title>
<ellipse fill="lightblue" stroke="black" cx="709" cy="-4251" rx="18" ry="18"/>
<ellipse fill="none" stroke="black" cx="709" cy="-4251" rx="22" ry="22"/>
<text text-anchor="middle" x="709" y="-4247.3" font-family="Times,serif" font-size="14.00">25</text>
</g>
<!-- 25&#45;&gt;2 -->
<g id="edge46" class="edge"><title>25&#45;&gt;2</title>
<path fill="none" stroke="black" d="M704.339,-4229.36C701.566,-4217.08 697.996,-4201.27 694.901,-4187.56"/>
<polygon fill="black" stroke="black" points="698.264,-4186.57 692.648,-4177.58 691.436,-4188.11 698.264,-4186.57"/>
<text text-anchor="middle" x="707" y="-4199.8" font-family="Times,serif" font-size="14.00">c,a</text>
</g>
<!-- 51 -->
<g id="node52" class="node"><title>51</title>
<ellipse fill="lightblue" stroke="black" cx="764" cy="-4098" rx="18" ry="18"/>
<text text-anchor="middle" x="764" y="-4094.3" font-family="Times,serif" font-size="14.00">51</text>
</g>
<!-- 25&#45;&gt;51 -->
<g id="edge47" class="edge"><title>25&#45;&gt;51</title>
<path fill="none" stroke="black" d="M716.304,-4229.95C726.132,-4202.97 743.63,-4154.92 754.481,-4125.14"/>
<polygon fill="black" stroke="black" points="757.884,-4126.02 758.018,-4115.42 751.306,-4123.62 757.884,-4126.02"/>
<text text-anchor="middle" x="731.5" y="-4199.8" font-family="Times,serif" font-size="14.00">b</text>
</g>
<!-- 26 -->
<g id="node27" class="node"><title>26</title>
<ellipse fill="lightblue" stroke="black" cx="707" cy="-366" rx="18" ry="18"/>
<text text-anchor="middle" x="707" y="-362.3" font-family="Times,serif" font-size="14.00">26</text>
</g>
<!-- 26&#45;&gt;20 -->
<g id="edge48" class="edge"><title>26&#45;&gt;20</title>
<path fill="none" stroke="black" d="M700.041,-349.012C694.666,-336.665 687.127,-319.347 680.947,-305.148"/>
<polygon fill="black" stroke="black" points="684.129,-303.688 676.928,-295.916 677.71,-306.482 684.129,-303.688"/>
<text text-anchor="middle" x="703.5" y="-318.8" font-family="Times,serif" font-size="14.00">c,a,b</text>
</g>
<!-- 27 -->
<g id="node28" class="node"><title>27</title>
<ellipse fill="lightblue" stroke="black" cx="846" cy="-279" rx="18" ry="18"/>
<text text-anchor="middle" x="846" y="-275.3" font-family="Times,serif" font-size="14.00">27</text>
</g>
<!-- 39 -->
<g id="node40" class="node"><title>39</title>
<ellipse fill="lightblue" stroke="black" cx="750" cy="-192" rx="18" ry="18"/>
<text text-anchor="middle" x="750" y="-188.3" font-family="Times,serif" font-size="14.00">39</text>
</g>
<!-- 27&#45;&gt;39 -->
<g id="edge49" class="edge"><title>27&#45;&gt;39</title>
<path fill="none" stroke="black" d="M832.652,-266.181C816.675,-252.035 789.731,-228.178 770.966,-211.564"/>
<polygon fill="black" stroke="black" points="773.042,-208.727 763.235,-204.719 768.402,-213.968 773.042,-208.727"/>
<text text-anchor="middle" x="816.5" y="-231.8" font-family="Times,serif" font-size="14.00">c,a,b</text>
</g>
<!-- 28 -->
<g id="node29" class="node"><title>28</title>
<ellipse fill="lightblue" stroke="black" cx="601" cy="-1304" rx="18" ry="18"/>
<ellipse fill="none" stroke="black" cx="601" cy="-1304" rx="22" ry="22"/>
<text text-anchor="middle" x="601" y="-1300.3" font-family="Times,serif" font-size="14.00">28</text>
</g>
<!-- 28&#45;&gt;22 -->
<g id="edge50" class="edge"><title>28&#45;&gt;22</title>
<path fill="none" stroke="black" d="M588.356,-1322.24C566.626,-1351.25 519.984,-1410.88 473,-1454 462.913,-1463.26 458.207,-1462.87 448,-1472 405.543,-1509.96 389.76,-1517.27 362,-1567 335.932,-1613.7 330,-1629.52 330,-1683 330,-1827.5 330,-1827.5 330,-1827.5 330,-1974.39 328,-2011.11 328,-2158 328,-2302.5 328,-2302.5 328,-2302.5 328,-2375.23 316.513,-2395.66 335,-2466 361.18,-2565.61 420.792,-2673.46 449.691,-2722.29"/>
<polygon fill="black" stroke="black" points="446.747,-2724.19 454.878,-2730.98 452.757,-2720.6 446.747,-2724.19"/>
<text text-anchor="middle" x="331.5" y="-2012.8" font-family="Times,serif" font-size="14.00">b</text>
</g>
<!-- 42 -->
<g id="node43" class="node"><title>42</title>
<ellipse fill="lightblue" stroke="black" cx="720" cy="-4346" rx="18" ry="18"/>
<ellipse fill="none" stroke="black" cx="720" cy="-4346" rx="22" ry="22"/>
<text text-anchor="middle" x="720" y="-4342.3" font-family="Times,serif" font-size="14.00">42</text>
</g>
<!-- 28&#45;&gt;42 -->
<g id="edge51" class="edge"><title>28&#45;&gt;42</title>
<path fill="none" stroke="black" d="M617.347,-1318.86C620.75,-1321.41 624.4,-1323.92 628,-1326 701.544,-1368.47 805,-1313.07 805,-1398 805,-1542.5 805,-1542.5 805,-1542.5 805,-1680.54 933,-1687.46 933,-1825.5 933,-2255 933,-2255 933,-2255 933,-2410.49 893.473,-2445.62 875,-2600 837.207,-2915.84 843,-2996.9 843,-3315 843,-4204.5 843,-4204.5 843,-4204.5 843,-4234.19 780.045,-4293.31 744.214,-4324.55"/>
<polygon fill="black" stroke="black" points="741.869,-4321.95 736.588,-4331.14 746.444,-4327.25 741.869,-4321.95"/>
<text text-anchor="middle" x="860" y="-2841.3" font-family="Times,serif" font-size="14.00">c,a</text>
</g>
<!-- 29 -->
<g id="node30" class="node"><title>29</title>
<ellipse fill="lightblue" stroke="black" cx="479" cy="-1494" rx="18" ry="18"/>
<ellipse fill="none" stroke="black" cx="479" cy="-1494" rx="22" ry="22"/>
<text text-anchor="middle" x="479" y="-1490.3" font-family="Times,serif" font-size="14.00">29</text>
</g>
<!-- 29&#45;&gt;6 -->
<g id="edge52" class="edge"><title>29&#45;&gt;6</title>
<path fill="none" stroke="black" d="M475.823,-1471.9C474.015,-1459.89 471.717,-1444.62 469.703,-1431.24"/>
<polygon fill="black" stroke="black" points="473.114,-1430.39 468.164,-1421.02 466.192,-1431.43 473.114,-1430.39"/>
<text text-anchor="middle" x="475.5" y="-1442.8" font-family="Times,serif" font-size="14.00">b</text>
</g>
<!-- 29&#45;&gt;56 -->
<g id="edge53" class="edge"><title>29&#45;&gt;56</title>
<path fill="none" stroke="black" d="M498.171,-1482.51C528.094,-1466.14 586.063,-1434.43 620.77,-1415.44"/>
<polygon fill="black" stroke="black" points="622.806,-1418.32 629.899,-1410.45 619.447,-1412.18 622.806,-1418.32"/>
<text text-anchor="middle" x="582" y="-1442.8" font-family="Times,serif" font-size="14.00">c,a</text>
</g>
<!-- 30 -->
<g id="node31" class="node"><title>30</title>
<ellipse fill="lightblue" stroke="black" cx="310" cy="-3035" rx="18" ry="18"/>
<ellipse fill="none" stroke="black" cx="310" cy="-3035" rx="22" ry="22"/>
<text text-anchor="middle" x="310" y="-3031.3" font-family="Times,serif" font-size="14.00">30</text>
</g>
<!-- 48 -->
<g id="node49" class="node"><title>48</title>
<ellipse fill="lightblue" stroke="black" cx="319" cy="-3403" rx="18" ry="18"/>
<text text-anchor="middle" x="319" y="-3399.3" font-family="Times,serif" font-size="14.00">48</text>
</g>
<!-- 30&#45;&gt;48 -->
<g id="edge54" class="edge"><title>30&#45;&gt;48</title>
<path fill="none" stroke="black" d="M310.519,-3057.12C312.06,-3119.77 316.603,-3304.52 318.326,-3374.61"/>
<polygon fill="black" stroke="black" points="314.833,-3374.93 318.578,-3384.84 321.831,-3374.75 314.833,-3374.93"/>
<text text-anchor="middle" x="318.5" y="-3221.3" font-family="Times,serif" font-size="14.00">b</text>
</g>
<!-- 62 -->
<g id="node63" class="node"><title>62</title>
<ellipse fill="lightblue" stroke="black" cx="279" cy="-2940" rx="18" ry="18"/>
<ellipse fill="none" stroke="black" cx="279" cy="-2940" rx="22" ry="22"/>
<text text-anchor="middle" x="279" y="-2936.3" font-family="Times,serif" font-size="14.00">62</text>
</g>
<!-- 30&#45;&gt;62 -->
<g id="edge55" class="edge"><title>30&#45;&gt;62</title>
<path fill="none" stroke="black" d="M303.273,-3013.82C299.089,-3001.27 293.633,-2984.9 288.954,-2970.86"/>
<polygon fill="black" stroke="black" points="292.196,-2969.52 285.713,-2961.14 285.555,-2971.73 292.196,-2969.52"/>
<text text-anchor="middle" x="304" y="-2983.8" font-family="Times,serif" font-size="14.00">c,a</text>
</g>
<!-- 36 -->
<g id="node37" class="node"><title>36</title>
<ellipse fill="lightblue" stroke="black" cx="410" cy="-647" rx="18" ry="18"/>
<ellipse fill="none" stroke="black" cx="410" cy="-647" rx="22" ry="22"/>
<text text-anchor="middle" x="410" y="-643.3" font-family="Times,serif" font-size="14.00">36</text>
</g>
<!-- 31&#45;&gt;36 -->
<g id="edge56" class="edge"><title>31&#45;&gt;36</title>
<path fill="none" stroke="black" d="M394.922,-721.882C397.536,-715.654 400.177,-708.633 402,-702 404.02,-694.649 405.561,-686.587 406.723,-678.985"/>
<polygon fill="black" stroke="black" points="410.2,-679.397 408.084,-669.015 403.264,-678.45 410.2,-679.397"/>
<text text-anchor="middle" x="408.5" y="-690.8" font-family="Times,serif" font-size="14.00">b</text>
</g>
<!-- 31&#45;&gt;54 -->
<g id="edge57" class="edge"><title>31&#45;&gt;54</title>
<path fill="none" stroke="black" d="M405.989,-732.098C415.551,-728.054 427.237,-723.422 438,-720 535.907,-688.873 655.323,-664.492 711.247,-653.84"/>
<polygon fill="black" stroke="black" points="712.068,-657.247 721.246,-651.954 710.771,-650.369 712.068,-657.247"/>
<text text-anchor="middle" x="562" y="-690.8" font-family="Times,serif" font-size="14.00">c,a</text>
</g>
<!-- 32 -->
<g id="node33" class="node"><title>32</title>
<ellipse fill="lightblue" stroke="black" cx="414" cy="-1209" rx="18" ry="18"/>
<ellipse fill="none" stroke="black" cx="414" cy="-1209" rx="22" ry="22"/>
<text text-anchor="middle" x="414" y="-1205.3" font-family="Times,serif" font-size="14.00">32</text>
</g>
<!-- 32&#45;&gt;31 -->
<g id="edge58" class="edge"><title>32&#45;&gt;31</title>
<path fill="none" stroke="black" d="M398.959,-1192.67C383.602,-1175.33 362,-1145.52 362,-1115 362,-1115 362,-1115 362,-832 362,-811.398 368.069,-789.01 374.103,-771.842"/>
<polygon fill="black" stroke="black" points="377.413,-772.984 377.606,-762.39 370.849,-770.551 377.413,-772.984"/>
<text text-anchor="middle" x="370" y="-967.8" font-family="Times,serif" font-size="14.00">c,a</text>
</g>
<!-- 33 -->
<g id="node34" class="node"><title>33</title>
<ellipse fill="lightblue" stroke="black" cx="414" cy="-1114" rx="18" ry="18"/>
<ellipse fill="none" stroke="black" cx="414" cy="-1114" rx="22" ry="22"/>
<text text-anchor="middle" x="414" y="-1110.3" font-family="Times,serif" font-size="14.00">33</text>
</g>
<!-- 32&#45;&gt;33 -->
<g id="edge59" class="edge"><title>32&#45;&gt;33</title>
<path fill="none" stroke="black" d="M414,-1186.9C414,-1174.89 414,-1159.62 414,-1146.24"/>
<polygon fill="black" stroke="black" points="417.5,-1146.02 414,-1136.02 410.5,-1146.02 417.5,-1146.02"/>
<text text-anchor="middle" x="417.5" y="-1157.8" font-family="Times,serif" font-size="14.00">b</text>
</g>
<!-- 33&#45;&gt;8 -->
<g id="edge60" class="edge"><title>33&#45;&gt;8</title>
<path fill="none" stroke="black" d="M410.353,-1092.03C407.128,-1068.12 404.638,-1028.29 417,-997 425.14,-976.395 441.993,-957.836 456.362,-944.722"/>
<polygon fill="black" stroke="black" points="458.8,-947.239 464.017,-938.019 454.188,-941.973 458.8,-947.239"/>
<text text-anchor="middle" x="425" y="-1015.3" font-family="Times,serif" font-size="14.00">c,a</text>
</g>
<!-- 33&#45;&gt;16 -->
<g id="edge61" class="edge"><title>33&#45;&gt;16</title>
<path fill="none" stroke="black" d="M424.118,-1094.18C431.302,-1080.82 441.063,-1062.66 449.131,-1047.66"/>
<polygon fill="black" stroke="black" points="452.244,-1049.26 453.897,-1038.79 446.079,-1045.94 452.244,-1049.26"/>
<text text-anchor="middle" x="444.5" y="-1062.8" font-family="Times,serif" font-size="14.00">b</text>
</g>
<!-- 34&#45;&gt;72 -->
<g id="edge62" class="edge"><title>34&#45;&gt;72</title>
<path fill="none" stroke="black" d="M696.165,-206.56C700.764,-212.762 705.762,-220.41 709,-228 745.556,-313.69 734.928,-342.107 742,-435 744.178,-463.611 746.097,-496.233 747.372,-519.58"/>
<polygon fill="black" stroke="black" points="743.879,-519.809 747.911,-529.607 750.869,-519.433 743.879,-519.809"/>
<text text-anchor="middle" x="742.5" y="-362.3" font-family="Times,serif" font-size="14.00">b</text>
</g>
<!-- 76 -->
<g id="node77" class="node"><title>76</title>
<ellipse fill="lightblue" stroke="black" cx="750" cy="-105" rx="18" ry="18"/>
<text text-anchor="middle" x="750" y="-101.3" font-family="Times,serif" font-size="14.00">76</text>
</g>
<!-- 34&#45;&gt;76 -->
<g id="edge63" class="edge"><title>34&#45;&gt;76</title>
<path fill="none" stroke="black" d="M695.733,-176.964C705.956,-163.596 721.496,-143.275 733.33,-127.799"/>
<polygon fill="black" stroke="black" points="736.172,-129.845 739.466,-119.775 730.611,-125.592 736.172,-129.845"/>
<text text-anchor="middle" x="729" y="-144.8" font-family="Times,serif" font-size="14.00">c,a</text>
</g>
<!-- 35 -->
<g id="node36" class="node"><title>35</title>
<ellipse fill="lightblue" stroke="black" cx="652" cy="-924" rx="18" ry="18"/>
<text text-anchor="middle" x="652" y="-920.3" font-family="Times,serif" font-size="14.00">35</text>
</g>
<!-- 35&#45;&gt;46 -->
<g id="edge64" class="edge"><title>35&#45;&gt;46</title>
<path fill="none" stroke="black" d="M645.764,-906.676C640.732,-893.503 633.561,-874.734 627.768,-859.57"/>
<polygon fill="black" stroke="black" points="631.035,-858.313 624.197,-850.22 624.496,-860.811 631.035,-858.313"/>
<text text-anchor="middle" x="650.5" y="-872.8" font-family="Times,serif" font-size="14.00">c,a,b</text>
</g>
<!-- 36&#45;&gt;7 -->
<g id="edge65" class="edge"><title>36&#45;&gt;7</title>
<path fill="none" stroke="black" d="M420.195,-627.004C425.751,-616.654 432.751,-603.622 439,-592 441.575,-587.212 444.328,-582.095 446.966,-577.196"/>
<polygon fill="black" stroke="black" points="450.159,-578.649 451.818,-568.185 443.995,-575.33 450.159,-578.649"/>
<text text-anchor="middle" x="442.5" y="-595.8" font-family="Times,serif" font-size="14.00">b</text>
</g>
<!-- 36&#45;&gt;31 -->
<g id="edge66" class="edge"><title>36&#45;&gt;31</title>
<path fill="none" stroke="black" d="M395.214,-663.815C389.972,-670.457 384.707,-678.59 382,-687 379.624,-694.383 379.195,-702.615 379.705,-710.383"/>
<polygon fill="black" stroke="black" points="376.257,-711.035 380.887,-720.564 383.21,-710.227 376.257,-711.035"/>
<text text-anchor="middle" x="390" y="-690.8" font-family="Times,serif" font-size="14.00">c,a</text>
</g>
<!-- 37 -->
<g id="node38" class="node"><title>37</title>
<ellipse fill="lightblue" stroke="black" cx="466" cy="-2560" rx="18" ry="18"/>
<ellipse fill="none" stroke="black" cx="466" cy="-2560" rx="22" ry="22"/>
<text text-anchor="middle" x="466" y="-2556.3" font-family="Times,serif" font-size="14.00">37</text>
</g>
<!-- 37&#45;&gt;10 -->
<g id="edge67" class="edge"><title>37&#45;&gt;10</title>
<path fill="none" stroke="black" d="M473.059,-2538.88C479.314,-2521.06 488.528,-2494.79 495.622,-2474.58"/>
<polygon fill="black" stroke="black" points="499.003,-2475.51 499.011,-2464.92 492.398,-2473.19 499.003,-2475.51"/>
<text text-anchor="middle" x="499" y="-2498.3" font-family="Times,serif" font-size="14.00">c,a</text>
</g>
<!-- 37&#45;&gt;19 -->
<g id="edge68" class="edge"><title>37&#45;&gt;19</title>
<path fill="none" stroke="black" d="M445.955,-2550.81C431.879,-2544.21 413.423,-2533.78 401,-2520 389.432,-2507.16 381.01,-2489.84 375.329,-2475.07"/>
<polygon fill="black" stroke="black" points="378.509,-2473.57 371.83,-2465.35 371.922,-2475.94 378.509,-2473.57"/>
<text text-anchor="middle" x="404.5" y="-2498.3" font-family="Times,serif" font-size="14.00">b</text>
</g>
<!-- 38&#45;&gt;41 -->
<g id="edge69" class="edge"><title>38&#45;&gt;41</title>
<path fill="none" stroke="black" d="M478,-3247.22C478,-3265.25 478,-3291.82 478,-3315 478,-3590 478,-3590 478,-3590 478,-3610.55 478,-3633.66 478,-3651.7"/>
<polygon fill="black" stroke="black" points="474.5,-3651.95 478,-3661.95 481.5,-3651.95 474.5,-3651.95"/>
<text text-anchor="middle" x="486" y="-3442.8" font-family="Times,serif" font-size="14.00">c,a</text>
</g>
<!-- 67 -->
<g id="node68" class="node"><title>67</title>
<ellipse fill="lightblue" stroke="black" cx="479" cy="-3130" rx="18" ry="18"/>
<ellipse fill="none" stroke="black" cx="479" cy="-3130" rx="22" ry="22"/>
<text text-anchor="middle" x="479" y="-3126.3" font-family="Times,serif" font-size="14.00">67</text>
</g>
<!-- 38&#45;&gt;67 -->
<g id="edge70" class="edge"><title>38&#45;&gt;67</title>
<path fill="none" stroke="black" d="M478.227,-3202.9C478.356,-3190.89 478.52,-3175.62 478.664,-3162.24"/>
<polygon fill="black" stroke="black" points="482.166,-3162.06 478.774,-3152.02 475.167,-3161.98 482.166,-3162.06"/>
<text text-anchor="middle" x="481.5" y="-3173.8" font-family="Times,serif" font-size="14.00">b</text>
</g>
<!-- 39&#45;&gt;76 -->
<g id="edge71" class="edge"><title>39&#45;&gt;76</title>
<path fill="none" stroke="black" d="M750,-173.799C750,-162.163 750,-146.548 750,-133.237"/>
<polygon fill="black" stroke="black" points="753.5,-133.175 750,-123.175 746.5,-133.175 753.5,-133.175"/>
<text text-anchor="middle" x="763.5" y="-144.8" font-family="Times,serif" font-size="14.00">c,a,b</text>
</g>
<!-- 40&#45;&gt;17 -->
<g id="edge72" class="edge"><title>40&#45;&gt;17</title>
<path fill="none" stroke="black" d="M481.107,-2638.69C508.273,-2611.16 565.338,-2553.33 595.446,-2522.82"/>
<polygon fill="black" stroke="black" points="598.298,-2524.91 602.83,-2515.33 593.315,-2519.99 598.298,-2524.91"/>
<text text-anchor="middle" x="521.5" y="-2603.8" font-family="Times,serif" font-size="14.00">b</text>
</g>
<!-- 40&#45;&gt;37 -->
<g id="edge73" class="edge"><title>40&#45;&gt;37</title>
<path fill="none" stroke="black" d="M466,-2632.9C466,-2620.89 466,-2605.62 466,-2592.24"/>
<polygon fill="black" stroke="black" points="469.5,-2592.02 466,-2582.02 462.5,-2592.02 469.5,-2592.02"/>
<text text-anchor="middle" x="474" y="-2603.8" font-family="Times,serif" font-size="14.00">c,a</text>
</g>
<!-- 41&#45;&gt;14 -->
<g id="edge74" class="edge"><title>41&#45;&gt;14</title>
<path fill="none" stroke="black" d="M490.827,-3665.91C541.238,-3597.02 723,-3331.42 723,-3083.5 723,-3083.5 723,-3083.5 723,-2796.5 723,-2564.88 889,-2534.12 889,-2302.5 889,-2302.5 889,-2302.5 889,-2110.5 889,-1899.86 919,-1848.14 919,-1637.5 919,-1637.5 919,-1637.5 919,-1113 919,-1050.55 920,-1034.95 920,-972.5 920,-972.5 920,-972.5 920,-551 920,-509.407 873.502,-482.473 841.245,-468.793"/>
<polygon fill="black" stroke="black" points="842.342,-465.462 831.759,-464.971 839.726,-471.954 842.342,-465.462"/>
<text text-anchor="middle" x="898" y="-2060.3" font-family="Times,serif" font-size="14.00">c,a</text>
</g>
<!-- 41&#45;&gt;15 -->
<g id="edge75" class="edge"><title>41&#45;&gt;15</title>
<path fill="none" stroke="black" d="M465.962,-3665.51C456.369,-3651.57 442.79,-3631.84 431.92,-3616.04"/>
<polygon fill="black" stroke="black" points="434.754,-3613.98 426.202,-3607.73 428.987,-3617.95 434.754,-3613.98"/>
<text text-anchor="middle" x="452.5" y="-3632.8" font-family="Times,serif" font-size="14.00">b</text>
</g>
<!-- 42&#45;&gt;25 -->
<g id="edge76" class="edge"><title>42&#45;&gt;25</title>
<path fill="none" stroke="black" d="M717.504,-4323.9C716.083,-4311.89 714.277,-4296.62 712.695,-4283.24"/>
<polygon fill="black" stroke="black" points="716.137,-4282.54 711.486,-4273.02 709.185,-4283.36 716.137,-4282.54"/>
<text text-anchor="middle" x="723" y="-4294.8" font-family="Times,serif" font-size="14.00">c,a</text>
</g>
<!-- 58 -->
<g id="node59" class="node"><title>58</title>
<ellipse fill="lightblue" stroke="black" cx="203" cy="-2254" rx="18" ry="18"/>
<ellipse fill="none" stroke="black" cx="203" cy="-2254" rx="22" ry="22"/>
<text text-anchor="middle" x="203" y="-2250.3" font-family="Times,serif" font-size="14.00">58</text>
</g>
<!-- 42&#45;&gt;58 -->
<g id="edge77" class="edge"><title>42&#45;&gt;58</title>
<path fill="none" stroke="black" d="M697.97,-4344.17C585.432,-4339.66 80,-4315.86 80,-4252 80,-4252 80,-4252 80,-2796.5 80,-2697.26 119.096,-2678.56 142,-2582 167.597,-2474.09 189.119,-2344.06 198.274,-2285.82"/>
<polygon fill="black" stroke="black" points="201.753,-2286.23 199.838,-2275.81 194.837,-2285.15 201.753,-2286.23"/>
<text text-anchor="middle" x="83.5" y="-3312.3" font-family="Times,serif" font-size="14.00">b</text>
</g>
<!-- 43&#45;&gt;39 -->
<g id="edge78" class="edge"><title>43&#45;&gt;39</title>
<path fill="none" stroke="black" d="M658.632,-724.182C644.734,-666.852 606.615,-475.57 680,-348 686.13,-337.345 694.03,-340.126 701,-330 724.598,-295.716 738.117,-248.812 744.757,-219.735"/>
<polygon fill="black" stroke="black" points="748.194,-220.401 746.898,-209.886 741.354,-218.914 748.194,-220.401"/>
<text text-anchor="middle" x="654" y="-453.3" font-family="Times,serif" font-size="14.00">c,a</text>
</g>
<!-- 43&#45;&gt;54 -->
<g id="edge79" class="edge"><title>43&#45;&gt;54</title>
<path fill="none" stroke="black" d="M672.221,-726.176C679.476,-714.966 690.142,-699.434 701,-687 706.43,-680.781 712.752,-674.497 718.818,-668.843"/>
<polygon fill="black" stroke="black" points="721.226,-671.384 726.277,-662.07 716.52,-666.201 721.226,-671.384"/>
<text text-anchor="middle" x="704.5" y="-690.8" font-family="Times,serif" font-size="14.00">b</text>
</g>
<!-- 44 -->
<g id="node45" class="node"><title>44</title>
<ellipse fill="lightblue" stroke="black" cx="781" cy="-2064" rx="18" ry="18"/>
<text text-anchor="middle" x="781" y="-2060.3" font-family="Times,serif" font-size="14.00">44</text>
</g>
<!-- 44&#45;&gt;0 -->
<g id="edge80" class="edge"><title>44&#45;&gt;0</title>
<path fill="none" stroke="black" d="M786.209,-2081.45C807.782,-2150.13 889,-2414.44 889,-2501 889,-4442 889,-4442 889,-4442 889,-4464.27 881.77,-4488.4 874.793,-4506.49"/>
<polygon fill="black" stroke="black" points="871.503,-4505.29 870.991,-4515.87 877.99,-4507.92 871.503,-4505.29"/>
<text text-anchor="middle" x="902.5" y="-3312.3" font-family="Times,serif" font-size="14.00">c,a,b</text>
</g>
<!-- 45&#45;&gt;38 -->
<g id="edge81" class="edge"><title>45&#45;&gt;38</title>
<path fill="none" stroke="black" d="M737,-2181.05C737,-2199.9 737,-2228.3 737,-2253 737,-2397.5 737,-2397.5 737,-2397.5 737,-2534.57 685,-2564.43 685,-2701.5 685,-3131 685,-3131 685,-3131 685,-3206.66 568.506,-3221.14 510.301,-3223.65"/>
<polygon fill="black" stroke="black" points="510.029,-3220.16 500.153,-3224 510.265,-3227.16 510.029,-3220.16"/>
<text text-anchor="middle" x="693" y="-2698.8" font-family="Times,serif" font-size="14.00">c,a</text>
</g>
<!-- 45&#45;&gt;44 -->
<g id="edge82" class="edge"><title>45&#45;&gt;44</title>
<path fill="none" stroke="black" d="M746.117,-2138.73C752.807,-2124.59 761.951,-2105.26 769.199,-2089.94"/>
<polygon fill="black" stroke="black" points="772.53,-2091.09 773.643,-2080.55 766.203,-2088.09 772.53,-2091.09"/>
<text text-anchor="middle" x="764.5" y="-2107.8" font-family="Times,serif" font-size="14.00">b</text>
</g>
<!-- 46&#45;&gt;34 -->
<g id="edge83" class="edge"><title>46&#45;&gt;34</title>
<path fill="none" stroke="black" d="M616.281,-814.771C613.188,-782.221 607,-709.443 607,-648 607,-648 607,-648 607,-503.5 607,-394.541 605.604,-363.34 643,-261 649.036,-244.481 659.391,-227.65 668.308,-214.865"/>
<polygon fill="black" stroke="black" points="671.175,-216.874 674.182,-206.715 665.496,-212.782 671.175,-216.874"/>
<text text-anchor="middle" x="615" y="-500.8" font-family="Times,serif" font-size="14.00">c,a</text>
</g>
<!-- 46&#45;&gt;78 -->
<g id="edge84" class="edge"><title>46&#45;&gt;78</title>
<path fill="none" stroke="black" d="M633.161,-843.129C646.013,-851.127 663.114,-862.466 668,-869 715.189,-932.105 722.254,-963.011 711,-1041 704.713,-1084.57 709.249,-1100.67 683,-1136 662.333,-1163.82 627.483,-1183.97 602.546,-1195.76"/>
<polygon fill="black" stroke="black" points="600.85,-1192.68 593.196,-1200.01 603.748,-1199.06 600.85,-1192.68"/>
<text text-anchor="middle" x="718.5" y="-1015.3" font-family="Times,serif" font-size="14.00">b</text>
</g>
<!-- 47&#45;&gt;25 -->
<g id="edge85" class="edge"><title>47&#45;&gt;25</title>
<path fill="none" stroke="black" d="M347.103,-3515.55C343.066,-3534.31 338,-3562.86 338,-3588 338,-4157 338,-4157 338,-4157 338,-4226.55 586.426,-4244.55 676.705,-4248.79"/>
<polygon fill="black" stroke="black" points="676.758,-4252.3 686.903,-4249.25 677.068,-4245.31 676.758,-4252.3"/>
<text text-anchor="middle" x="346" y="-3858.3" font-family="Times,serif" font-size="14.00">c,a</text>
</g>
<!-- 47&#45;&gt;48 -->
<g id="edge86" class="edge"><title>47&#45;&gt;48</title>
<path fill="none" stroke="black" d="M344.676,-3473.25C339.909,-3460.39 333.643,-3443.49 328.495,-3429.61"/>
<polygon fill="black" stroke="black" points="331.739,-3428.29 324.981,-3420.13 325.176,-3430.72 331.739,-3428.29"/>
<text text-anchor="middle" x="340.5" y="-3442.8" font-family="Times,serif" font-size="14.00">b</text>
</g>
<!-- 49 -->
<g id="node50" class="node"><title>49</title>
<ellipse fill="lightblue" stroke="black" cx="264" cy="-3316" rx="18" ry="18"/>
<text text-anchor="middle" x="264" y="-3312.3" font-family="Times,serif" font-size="14.00">49</text>
</g>
<!-- 48&#45;&gt;49 -->
<g id="edge87" class="edge"><title>48&#45;&gt;49</title>
<path fill="none" stroke="black" d="M304.628,-3392.13C296.384,-3385.8 286.427,-3376.93 280,-3367 275.523,-3360.08 272.213,-3351.82 269.803,-3344.02"/>
<polygon fill="black" stroke="black" points="273.132,-3342.92 267.133,-3334.19 266.376,-3344.75 273.132,-3342.92"/>
<text text-anchor="middle" x="293.5" y="-3355.8" font-family="Times,serif" font-size="14.00">c,a,b</text>
</g>
<!-- 49&#45;&gt;4 -->
<g id="edge88" class="edge"><title>49&#45;&gt;4</title>
<path fill="none" stroke="black" d="M264.446,-3334.16C266.061,-3373.82 273.522,-3474.16 308,-3549 347.041,-3633.75 422.174,-3717.02 458.021,-3754.04"/>
<polygon fill="black" stroke="black" points="455.951,-3756.92 465.447,-3761.62 460.953,-3752.03 455.951,-3756.92"/>
<text text-anchor="middle" x="316" y="-3537.8" font-family="Times,serif" font-size="14.00">c,a</text>
</g>
<!-- 49&#45;&gt;38 -->
<g id="edge89" class="edge"><title>49&#45;&gt;38</title>
<path fill="none" stroke="black" d="M280.437,-3308.16C316.454,-3293.19 402.757,-3257.29 448.454,-3238.29"/>
<polygon fill="black" stroke="black" points="449.932,-3241.46 457.821,-3234.39 447.244,-3235 449.932,-3241.46"/>
<text text-anchor="middle" x="386.5" y="-3268.8" font-family="Times,serif" font-size="14.00">b</text>
</g>
<!-- 50 -->
<g id="node51" class="node"><title>50</title>
<ellipse fill="lightblue" stroke="black" cx="505" cy="-2159" rx="18" ry="18"/>
<text text-anchor="middle" x="505" y="-2155.3" font-family="Times,serif" font-size="14.00">50</text>
</g>
<!-- 50&#45;&gt;3 -->
<g id="edge90" class="edge"><title>50&#45;&gt;3</title>
<path fill="none" stroke="black" d="M497.404,-2142.64C490.279,-2128.24 479.505,-2106.46 471.18,-2089.62"/>
<polygon fill="black" stroke="black" points="474.178,-2087.79 466.607,-2080.38 467.904,-2090.9 474.178,-2087.79"/>
<text text-anchor="middle" x="497.5" y="-2107.8" font-family="Times,serif" font-size="14.00">c,a,b</text>
</g>
<!-- 51&#45;&gt;45 -->
<g id="edge91" class="edge"><title>51&#45;&gt;45</title>
<path fill="none" stroke="black" d="M772.473,-4082.1C782.831,-4062.46 799,-4026.5 799,-3993.5 799,-3993.5 799,-3993.5 799,-2701.5 799,-2612.64 775,-2591.86 775,-2503 775,-2503 775,-2503 775,-2253 775,-2229.24 764.236,-2204.42 754.166,-2186.41"/>
<polygon fill="black" stroke="black" points="757.105,-2184.5 749.023,-2177.65 751.068,-2188.05 757.105,-2184.5"/>
<text text-anchor="middle" x="802.5" y="-3173.8" font-family="Times,serif" font-size="14.00">b</text>
</g>
<!-- 63 -->
<g id="node64" class="node"><title>63</title>
<ellipse fill="lightblue" stroke="black" cx="491" cy="-3862" rx="18" ry="18"/>
<text text-anchor="middle" x="491" y="-3858.3" font-family="Times,serif" font-size="14.00">63</text>
</g>
<!-- 51&#45;&gt;63 -->
<g id="edge92" class="edge"><title>51&#45;&gt;63</title>
<path fill="none" stroke="black" d="M753.895,-4082.71C741.843,-4066.18 720.6,-4038.59 699,-4018 637.906,-3959.77 554.795,-3903.73 514.641,-3877.88"/>
<polygon fill="black" stroke="black" points="516.381,-3874.84 506.07,-3872.4 512.611,-3880.74 516.381,-3874.84"/>
<text text-anchor="middle" x="685" y="-3988.8" font-family="Times,serif" font-size="14.00">c,a</text>
</g>
<!-- 52&#45;&gt;8 -->
<g id="edge93" class="edge"><title>52&#45;&gt;8</title>
<path fill="none" stroke="black" d="M584.92,-1004.87C564.382,-989.087 529.732,-962.455 506.138,-944.321"/>
<polygon fill="black" stroke="black" points="508.054,-941.38 497.993,-938.061 503.789,-946.93 508.054,-941.38"/>
<text text-anchor="middle" x="556" y="-967.8" font-family="Times,serif" font-size="14.00">c,a</text>
</g>
<!-- 52&#45;&gt;35 -->
<g id="edge94" class="edge"><title>52&#45;&gt;35</title>
<path fill="none" stroke="black" d="M612.118,-999.18C619.869,-984.763 630.621,-964.765 639.008,-949.166"/>
<polygon fill="black" stroke="black" points="642.224,-950.575 643.876,-940.11 636.058,-947.261 642.224,-950.575"/>
<text text-anchor="middle" x="632.5" y="-967.8" font-family="Times,serif" font-size="14.00">b</text>
</g>
<!-- 53&#45;&gt;42 -->
<g id="edge95" class="edge"><title>53&#45;&gt;42</title>
<path fill="none" stroke="black" d="M790.581,-4424.22C777.148,-4409.53 756.942,-4387.42 741.587,-4370.62"/>
<polygon fill="black" stroke="black" points="743.82,-4367.87 734.49,-4362.85 738.653,-4372.6 743.82,-4367.87"/>
<text text-anchor="middle" x="775" y="-4389.8" font-family="Times,serif" font-size="14.00">c,a</text>
</g>
<!-- 53&#45;&gt;51 -->
<g id="edge96" class="edge"><title>53&#45;&gt;51</title>
<path fill="none" stroke="black" d="M805,-4418.95C805,-4400.1 805,-4371.7 805,-4347 805,-4347 805,-4347 805,-4202.5 805,-4173.3 790.721,-4142.52 779.017,-4122.19"/>
<polygon fill="black" stroke="black" points="781.866,-4120.14 773.716,-4113.37 775.866,-4123.74 781.866,-4120.14"/>
<text text-anchor="middle" x="808.5" y="-4294.8" font-family="Times,serif" font-size="14.00">b</text>
</g>
<!-- 54&#45;&gt;72 -->
<g id="edge97" class="edge"><title>54&#45;&gt;72</title>
<path fill="none" stroke="black" d="M738.844,-625.179C737.405,-615.129 736.491,-602.912 738,-592 738.42,-588.962 739.016,-585.828 739.716,-582.718"/>
<polygon fill="black" stroke="black" points="743.11,-583.574 742.217,-573.017 736.331,-581.827 743.11,-583.574"/>
<text text-anchor="middle" x="746" y="-595.8" font-family="Times,serif" font-size="14.00">c,a</text>
</g>
<!-- 75 -->
<g id="node76" class="node"><title>75</title>
<ellipse fill="lightblue" stroke="black" cx="874" cy="-552" rx="18" ry="18"/>
<text text-anchor="middle" x="874" y="-548.3" font-family="Times,serif" font-size="14.00">75</text>
</g>
<!-- 54&#45;&gt;75 -->
<g id="edge98" class="edge"><title>54&#45;&gt;75</title>
<path fill="none" stroke="black" d="M760.667,-633.458C784.032,-616.87 825.252,-587.607 851.017,-569.316"/>
<polygon fill="black" stroke="black" points="853.303,-571.986 859.431,-563.343 849.251,-566.278 853.303,-571.986"/>
<text text-anchor="middle" x="819.5" y="-595.8" font-family="Times,serif" font-size="14.00">b</text>
</g>
<!-- 55&#45;&gt;32 -->
<g id="edge99" class="edge"><title>55&#45;&gt;32</title>
<path fill="none" stroke="black" d="M454.679,-1284.18C447.352,-1270.82 437.395,-1252.66 429.167,-1237.66"/>
<polygon fill="black" stroke="black" points="432.182,-1235.88 424.305,-1228.79 426.045,-1239.24 432.182,-1235.88"/>
<text text-anchor="middle" x="445.5" y="-1252.8" font-family="Times,serif" font-size="14.00">b</text>
</g>
<!-- 55&#45;&gt;78 -->
<g id="edge100" class="edge"><title>55&#45;&gt;78</title>
<path fill="none" stroke="black" d="M481.403,-1288.88C499.427,-1273.35 528.546,-1248.28 549.107,-1230.57"/>
<polygon fill="black" stroke="black" points="551.503,-1233.13 556.797,-1223.95 546.935,-1227.83 551.503,-1233.13"/>
<text text-anchor="middle" x="533" y="-1252.8" font-family="Times,serif" font-size="14.00">c,a</text>
</g>
<!-- 56&#45;&gt;28 -->
<g id="edge101" class="edge"><title>56&#45;&gt;28</title>
<path fill="none" stroke="black" d="M639.286,-1379.18C632.455,-1365.94 623.196,-1348 615.494,-1333.08"/>
<polygon fill="black" stroke="black" points="618.396,-1331.07 610.699,-1323.79 612.175,-1334.28 618.396,-1331.07"/>
<text text-anchor="middle" x="630.5" y="-1347.8" font-family="Times,serif" font-size="14.00">b</text>
</g>
<!-- 56&#45;&gt;78 -->
<g id="edge102" class="edge"><title>56&#45;&gt;78</title>
<path fill="none" stroke="black" d="M649.245,-1376.96C648.785,-1352.98 645.736,-1313.09 632,-1282 623.593,-1262.97 608.721,-1244.87 596.013,-1231.58"/>
<polygon fill="black" stroke="black" points="598.368,-1228.98 588.846,-1224.34 593.393,-1233.91 598.368,-1228.98"/>
<text text-anchor="middle" x="652" y="-1300.3" font-family="Times,serif" font-size="14.00">c,a</text>
</g>
<!-- 57 -->
<g id="node58" class="node"><title>57</title>
<ellipse fill="lightblue" stroke="black" cx="711" cy="-457" rx="18" ry="18"/>
<ellipse fill="none" stroke="black" cx="711" cy="-457" rx="22" ry="22"/>
<text text-anchor="middle" x="711" y="-453.3" font-family="Times,serif" font-size="14.00">57</text>
</g>
<!-- 57&#45;&gt;13 -->
<g id="edge103" class="edge"><title>57&#45;&gt;13</title>
<path fill="none" stroke="black" d="M727.174,-472.316C742.112,-486.094 764.3,-508.023 780,-530 824.648,-592.501 836,-616.689 836,-693.5 836,-834 836,-834 836,-834 836,-868.254 802.631,-894.07 776.99,-908.851"/>
<polygon fill="black" stroke="black" points="775.057,-905.918 767.969,-913.792 778.42,-912.058 775.057,-905.918"/>
<text text-anchor="middle" x="844" y="-690.8" font-family="Times,serif" font-size="14.00">c,a</text>
</g>
<!-- 57&#45;&gt;26 -->
<g id="edge104" class="edge"><title>57&#45;&gt;26</title>
<path fill="none" stroke="black" d="M710.052,-434.908C709.507,-422.78 708.816,-407.409 708.23,-394.36"/>
<polygon fill="black" stroke="black" points="711.713,-393.899 707.767,-384.066 704.72,-394.213 711.713,-393.899"/>
<text text-anchor="middle" x="712.5" y="-405.8" font-family="Times,serif" font-size="14.00">b</text>
</g>
<!-- 58&#45;&gt;9 -->
<g id="edge105" class="edge"><title>58&#45;&gt;9</title>
<path fill="none" stroke="black" d="M197.23,-2232.36C193.772,-2219.99 189.315,-2204.05 185.464,-2190.28"/>
<polygon fill="black" stroke="black" points="188.728,-2188.95 182.665,-2180.26 181.986,-2190.84 188.728,-2188.95"/>
<text text-anchor="middle" x="199" y="-2202.8" font-family="Times,serif" font-size="14.00">c,a</text>
</g>
<!-- 74 -->
<g id="node75" class="node"><title>74</title>
<ellipse fill="lightblue" stroke="black" cx="374" cy="-2159" rx="18" ry="18"/>
<text text-anchor="middle" x="374" y="-2155.3" font-family="Times,serif" font-size="14.00">74</text>
</g>
<!-- 58&#45;&gt;74 -->
<g id="edge106" class="edge"><title>58&#45;&gt;74</title>
<path fill="none" stroke="black" d="M221.953,-2242.69C253.111,-2225.75 315.125,-2192.02 349.547,-2173.3"/>
<polygon fill="black" stroke="black" points="351.363,-2176.3 358.476,-2168.44 348.019,-2170.15 351.363,-2176.3"/>
<text text-anchor="middle" x="301.5" y="-2202.8" font-family="Times,serif" font-size="14.00">b</text>
</g>
<!-- 59&#45;&gt;59 -->
<g id="edge107" class="edge"><title>59&#45;&gt;59</title>
<path fill="none" stroke="black" d="M558.581,-4048.37C568.845,-4049.53 578,-4046.74 578,-4040 578,-4035.68 574.243,-4032.99 568.844,-4031.91"/>
<polygon fill="black" stroke="black" points="568.673,-4028.41 558.581,-4031.63 568.481,-4035.4 568.673,-4028.41"/>
<text text-anchor="middle" x="586" y="-4036.3" font-family="Times,serif" font-size="14.00">c,a</text>
</g>
<!-- 59&#45;&gt;61 -->
<g id="edge108" class="edge"><title>59&#45;&gt;61</title>
<path fill="none" stroke="black" d="M528.033,-4020.13C520.959,-4006.73 511.405,-3988.64 503.772,-3974.19"/>
<polygon fill="black" stroke="black" points="506.844,-3972.51 499.08,-3965.3 500.654,-3975.78 506.844,-3972.51"/>
<text text-anchor="middle" x="520.5" y="-3988.8" font-family="Times,serif" font-size="14.00">b</text>
</g>
<!-- 60&#45;&gt;9 -->
<g id="edge109" class="edge"><title>60&#45;&gt;9</title>
<path fill="none" stroke="black" d="M114.41,-1788.97C137.142,-1803.48 177,-1834.44 177,-1873 177,-2065 177,-2065 177,-2065 177,-2085.55 177,-2108.66 177,-2126.7"/>
<polygon fill="black" stroke="black" points="173.5,-2126.95 177,-2136.95 180.5,-2126.95 173.5,-2126.95"/>
<text text-anchor="middle" x="180.5" y="-1965.3" font-family="Times,serif" font-size="14.00">b</text>
</g>
<!-- 60&#45;&gt;49 -->
<g id="edge110" class="edge"><title>60&#45;&gt;49</title>
<path fill="none" stroke="black" d="M82.206,-1786.62C53.9609,-1798.98 0,-1828.43 0,-1873 0,-2397.5 0,-2397.5 0,-2397.5 1.42109e-14,-2582.43 118,-2611.57 118,-2796.5 118,-3226 118,-3226 118,-3226 118,-3280.73 193.732,-3302.79 236.109,-3310.85"/>
<polygon fill="black" stroke="black" points="235.642,-3314.32 246.098,-3312.61 236.856,-3307.43 235.642,-3314.32"/>
<text text-anchor="middle" x="59" y="-2556.3" font-family="Times,serif" font-size="14.00">c,a</text>
</g>
<!-- 61&#45;&gt;63 -->
<g id="edge111" class="edge"><title>61&#45;&gt;63</title>
<path fill="none" stroke="black" d="M491,-3930.8C491,-3919.16 491,-3903.55 491,-3890.24"/>
<polygon fill="black" stroke="black" points="494.5,-3890.18 491,-3880.18 487.5,-3890.18 494.5,-3890.18"/>
<text text-anchor="middle" x="504.5" y="-3901.8" font-family="Times,serif" font-size="14.00">c,a,b</text>
</g>
<!-- 62&#45;&gt;21 -->
<g id="edge112" class="edge"><title>62&#45;&gt;21</title>
<path fill="none" stroke="black" d="M298.37,-2929.05C330.35,-2912.62 394.341,-2879.74 431.494,-2860.65"/>
<polygon fill="black" stroke="black" points="433.474,-2863.56 440.769,-2855.88 430.275,-2857.34 433.474,-2863.56"/>
<text text-anchor="middle" x="388" y="-2888.8" font-family="Times,serif" font-size="14.00">c,a</text>
</g>
<!-- 62&#45;&gt;60 -->
<g id="edge113" class="edge"><title>62&#45;&gt;60</title>
<path fill="none" stroke="black" d="M269.193,-2919.92C242.85,-2867.6 170.615,-2716.75 142,-2582 74.5696,-2264.48 166.556,-2173.1 119,-1852 116.698,-1836.46 112.097,-1819.5 107.888,-1805.95"/>
<polygon fill="black" stroke="black" points="111.187,-1804.78 104.79,-1796.34 104.524,-1806.93 111.187,-1804.78"/>
<text text-anchor="middle" x="119.5" y="-2345.3" font-family="Times,serif" font-size="14.00">b</text>
</g>
<!-- 63&#45;&gt;4 -->
<g id="edge114" class="edge"><title>63&#45;&gt;4</title>
<path fill="none" stroke="black" d="M488.369,-3843.8C486.578,-3832.09 484.17,-3816.34 482.125,-3802.97"/>
<polygon fill="black" stroke="black" points="485.554,-3802.24 480.582,-3792.89 478.635,-3803.3 485.554,-3802.24"/>
<text text-anchor="middle" x="498.5" y="-3814.8" font-family="Times,serif" font-size="14.00">c,a,b</text>
</g>
<!-- 64 -->
<g id="node65" class="node"><title>64</title>
<ellipse fill="lightblue" stroke="black" cx="215" cy="-1684" rx="18" ry="18"/>
<ellipse fill="none" stroke="black" cx="215" cy="-1684" rx="22" ry="22"/>
<text text-anchor="middle" x="215" y="-1680.3" font-family="Times,serif" font-size="14.00">64</text>
</g>
<!-- 64&#45;&gt;9 -->
<g id="edge115" class="edge"><title>64&#45;&gt;9</title>
<path fill="none" stroke="black" d="M215,-1706.05C215,-1724.9 215,-1753.3 215,-1778 215,-2065 215,-2065 215,-2065 215,-2088.76 204.236,-2113.58 194.166,-2131.59"/>
<polygon fill="black" stroke="black" points="191.068,-2129.95 189.023,-2140.35 197.105,-2133.5 191.068,-2129.95"/>
<text text-anchor="middle" x="223" y="-1917.8" font-family="Times,serif" font-size="14.00">c,a</text>
</g>
<!-- 77 -->
<g id="node78" class="node"><title>77</title>
<ellipse fill="lightblue" stroke="black" cx="479" cy="-1589" rx="18" ry="18"/>
<ellipse fill="none" stroke="black" cx="479" cy="-1589" rx="22" ry="22"/>
<text text-anchor="middle" x="479" y="-1585.3" font-family="Times,serif" font-size="14.00">77</text>
</g>
<!-- 64&#45;&gt;77 -->
<g id="edge116" class="edge"><title>64&#45;&gt;77</title>
<path fill="none" stroke="black" d="M235.716,-1675.7C282.078,-1659.37 394.378,-1619.81 448.645,-1600.69"/>
<polygon fill="black" stroke="black" points="450.112,-1603.89 458.381,-1597.26 447.786,-1597.29 450.112,-1603.89"/>
<text text-anchor="middle" x="365.5" y="-1632.8" font-family="Times,serif" font-size="14.00">b</text>
</g>
<!-- 65&#45;&gt;27 -->
<g id="edge117" class="edge"><title>65&#45;&gt;27</title>
<path fill="none" stroke="black" d="M846,-347.799C846,-336.163 846,-320.548 846,-307.237"/>
<polygon fill="black" stroke="black" points="849.5,-307.175 846,-297.175 842.5,-307.175 849.5,-307.175"/>
<text text-anchor="middle" x="859.5" y="-318.8" font-family="Times,serif" font-size="14.00">c,a,b</text>
</g>
<!-- 66&#45;&gt;0 -->
<g id="edge118" class="edge"><title>66&#45;&gt;0</title>
<path fill="none" stroke="black" d="M53.2132,-2084.61C46.5408,-2103.19 38,-2132.05 38,-2158 38,-2397.5 38,-2397.5 38,-2397.5 38,-2490.5 28,-2513.5 28,-2606.5 28,-4442 28,-4442 28,-4442 28,-4524.16 675.605,-4533.74 829.482,-4534.85"/>
<polygon fill="black" stroke="black" points="829.67,-4538.35 839.693,-4534.92 829.716,-4531.35 829.67,-4538.35"/>
<text text-anchor="middle" x="36" y="-3312.3" font-family="Times,serif" font-size="14.00">c,a</text>
</g>
<!-- 66&#45;&gt;5 -->
<g id="edge119" class="edge"><title>66&#45;&gt;5</title>
<path fill="none" stroke="black" d="M61,-2041.9C61,-2029.89 61,-2014.62 61,-2001.24"/>
<polygon fill="black" stroke="black" points="64.5001,-2001.02 61,-1991.02 57.5001,-2001.02 64.5001,-2001.02"/>
<text text-anchor="middle" x="64.5" y="-2012.8" font-family="Times,serif" font-size="14.00">b</text>
</g>
<!-- 67&#45;&gt;13 -->
<g id="edge120" class="edge"><title>67&#45;&gt;13</title>
<path fill="none" stroke="black" d="M487.2,-3109.51C512.942,-3048.36 594.508,-2854.85 663,-2695 718.506,-2565.45 746.946,-2538.52 789,-2404 814.697,-2321.81 815.041,-2299.28 827,-2214 839.168,-2127.23 843,-2105.12 843,-2017.5 843,-2017.5 843,-2017.5 843,-1018 843,-980.675 805.089,-953.394 777.165,-938.363"/>
<polygon fill="black" stroke="black" points="778.642,-935.187 768.147,-933.738 775.448,-941.416 778.642,-935.187"/>
<text text-anchor="middle" x="851" y="-2012.8" font-family="Times,serif" font-size="14.00">c,a</text>
</g>
<!-- 67&#45;&gt;30 -->
<g id="edge121" class="edge"><title>67&#45;&gt;30</title>
<path fill="none" stroke="black" d="M459.942,-3118.51C430.195,-3102.14 372.567,-3070.43 338.064,-3051.44"/>
<polygon fill="black" stroke="black" points="339.437,-3048.2 328.988,-3046.45 336.062,-3054.34 339.437,-3048.2"/>
<text text-anchor="middle" x="407.5" y="-3078.8" font-family="Times,serif" font-size="14.00">b</text>
</g>
<!-- 68&#45;&gt;45 -->
<g id="edge122" class="edge"><title>68&#45;&gt;45</title>
<path fill="none" stroke="black" d="M591.813,-2242.33C620.652,-2225.98 675.95,-2194.62 709.354,-2175.68"/>
<polygon fill="black" stroke="black" points="711.182,-2178.66 718.155,-2170.69 707.729,-2172.58 711.182,-2178.66"/>
<text text-anchor="middle" x="672" y="-2202.8" font-family="Times,serif" font-size="14.00">c,a</text>
</g>
<!-- 68&#45;&gt;50 -->
<g id="edge123" class="edge"><title>68&#45;&gt;50</title>
<path fill="none" stroke="black" d="M560.21,-2235.51C549.238,-2220.5 533.36,-2198.79 521.445,-2182.49"/>
<polygon fill="black" stroke="black" points="524.017,-2180.08 515.29,-2174.07 518.367,-2184.21 524.017,-2180.08"/>
<text text-anchor="middle" x="546.5" y="-2202.8" font-family="Times,serif" font-size="14.00">b</text>
</g>
<!-- 69&#45;&gt;64 -->
<g id="edge124" class="edge"><title>69&#45;&gt;64</title>
<path fill="none" stroke="black" d="M215,-1326.05C215,-1344.9 215,-1373.3 215,-1398 215,-1590 215,-1590 215,-1590 215,-1610.55 215,-1633.66 215,-1651.7"/>
<polygon fill="black" stroke="black" points="211.5,-1651.95 215,-1661.95 218.5,-1651.95 211.5,-1651.95"/>
<text text-anchor="middle" x="218.5" y="-1490.3" font-family="Times,serif" font-size="14.00">b</text>
</g>
<!-- 69&#45;&gt;73 -->
<g id="edge125" class="edge"><title>69&#45;&gt;73</title>
<path fill="none" stroke="black" d="M199.386,-1319.86C183.126,-1337 160,-1366.86 160,-1398 160,-1685 160,-1685 160,-1685 160,-1705.56 160.742,-1728.67 161.488,-1746.71"/>
<polygon fill="black" stroke="black" points="158.002,-1747.11 161.934,-1756.95 164.995,-1746.81 158.002,-1747.11"/>
<text text-anchor="middle" x="168" y="-1537.8" font-family="Times,serif" font-size="14.00">c,a</text>
</g>
<!-- 70 -->
<g id="node71" class="node"><title>70</title>
<ellipse fill="lightblue" stroke="black" cx="750" cy="-18" rx="18" ry="18"/>
<text text-anchor="middle" x="750" y="-14.3" font-family="Times,serif" font-size="14.00">70</text>
</g>
<!-- 70&#45;&gt;70 -->
<g id="edge126" class="edge"><title>70&#45;&gt;70</title>
<path fill="none" stroke="black" d="M766.664,-25.3828C776.625,-27.0234 786,-24.5625 786,-18 786,-13.7959 782.152,-11.2751 776.768,-10.4375"/>
<polygon fill="black" stroke="black" points="776.6,-6.93988 766.664,-10.6172 776.725,-13.9388 776.6,-6.93988"/>
<text text-anchor="middle" x="799.5" y="-14.3" font-family="Times,serif" font-size="14.00">c,a,b</text>
</g>
<!-- 71&#45;&gt;58 -->
<g id="edge127" class="edge"><title>71&#45;&gt;58</title>
<path fill="none" stroke="black" d="M259.188,-2337.35C248.32,-2330.42 235.052,-2320.54 226,-2309 220.396,-2301.85 215.907,-2293.14 212.434,-2284.81"/>
<polygon fill="black" stroke="black" points="215.654,-2283.43 208.82,-2275.33 209.113,-2285.93 215.654,-2283.43"/>
<text text-anchor="middle" x="229.5" y="-2297.8" font-family="Times,serif" font-size="14.00">b</text>
</g>
<!-- 71&#45;&gt;62 -->
<g id="edge128" class="edge"><title>71&#45;&gt;62</title>
<path fill="none" stroke="black" d="M278,-2371.05C278,-2389.9 278,-2418.3 278,-2443 278,-2608.5 278,-2608.5 278,-2608.5 278,-2718.42 278.56,-2848.91 278.842,-2907.63"/>
<polygon fill="black" stroke="black" points="275.342,-2907.75 278.891,-2917.73 282.342,-2907.72 275.342,-2907.75"/>
<text text-anchor="middle" x="286" y="-2651.3" font-family="Times,serif" font-size="14.00">c,a</text>
</g>
<!-- 72&#45;&gt;14 -->
<g id="edge129" class="edge"><title>72&#45;&gt;14</title>
<path fill="none" stroke="black" d="M760.954,-533.069C770.132,-519.302 782.946,-500.082 793.309,-484.536"/>
<polygon fill="black" stroke="black" points="796.448,-486.138 799.082,-475.876 790.623,-482.255 796.448,-486.138"/>
<text text-anchor="middle" x="791" y="-500.8" font-family="Times,serif" font-size="14.00">c,a</text>
</g>
<!-- 72&#45;&gt;57 -->
<g id="edge130" class="edge"><title>72&#45;&gt;57</title>
<path fill="none" stroke="black" d="M733.071,-536.558C726.64,-529.77 719.844,-521.16 716,-512 713.045,-504.957 711.46,-496.955 710.675,-489.309"/>
<polygon fill="black" stroke="black" points="714.162,-488.989 710.045,-479.227 707.175,-489.426 714.162,-488.989"/>
<text text-anchor="middle" x="719.5" y="-500.8" font-family="Times,serif" font-size="14.00">b</text>
</g>
<!-- 73&#45;&gt;21 -->
<g id="edge131" class="edge"><title>73&#45;&gt;21</title>
<path fill="none" stroke="black" d="M182.529,-1789.26C208.998,-1803.34 253,-1832.78 253,-1873 253,-2255 253,-2255 253,-2255 253,-2287.11 248.334,-2294.92 247,-2327 242.28,-2440.49 253.493,-2468.9 264,-2582 267.927,-2624.27 254.611,-2639.23 274,-2677 308.504,-2744.21 344.91,-2739.38 401,-2790 412.862,-2800.7 425.981,-2812.7 436.83,-2822.66"/>
<polygon fill="black" stroke="black" points="434.547,-2825.31 444.278,-2829.5 439.284,-2820.16 434.547,-2825.31"/>
<text text-anchor="middle" x="258" y="-2297.8" font-family="Times,serif" font-size="14.00">c,a</text>
</g>
<!-- 73&#45;&gt;64 -->
<g id="edge132" class="edge"><title>73&#45;&gt;64</title>
<path fill="none" stroke="black" d="M173.523,-1759.18C181.043,-1745.73 191.28,-1727.42 199.701,-1712.36"/>
<polygon fill="black" stroke="black" points="202.845,-1713.91 204.67,-1703.47 196.735,-1710.49 202.845,-1713.91"/>
<text text-anchor="middle" x="195.5" y="-1727.8" font-family="Times,serif" font-size="14.00">b</text>
</g>
<!-- 74&#45;&gt;3 -->
<g id="edge133" class="edge"><title>74&#45;&gt;3</title>
<path fill="none" stroke="black" d="M385.819,-2145.07C399.902,-2129.66 423.608,-2103.72 440.212,-2085.56"/>
<polygon fill="black" stroke="black" points="443.119,-2087.56 447.281,-2077.82 437.952,-2082.84 443.119,-2087.56"/>
<text text-anchor="middle" x="429" y="-2107.8" font-family="Times,serif" font-size="14.00">c,a</text>
</g>
<!-- 74&#45;&gt;37 -->
<g id="edge134" class="edge"><title>74&#45;&gt;37</title>
<path fill="none" stroke="black" d="M377.627,-2176.71C385.4,-2212.41 404.315,-2298.78 421,-2371 433.824,-2426.51 449.426,-2491.06 458.484,-2528.26"/>
<polygon fill="black" stroke="black" points="455.197,-2529.55 460.966,-2538.44 461.998,-2527.89 455.197,-2529.55"/>
<text text-anchor="middle" x="424.5" y="-2345.3" font-family="Times,serif" font-size="14.00">b</text>
</g>
<!-- 75&#45;&gt;13 -->
<g id="edge135" class="edge"><title>75&#45;&gt;13</title>
<path fill="none" stroke="black" d="M876.357,-570.103C878.717,-588.731 882,-619.423 882,-646 882,-834 882,-834 882,-834 882,-883.07 818.876,-906.708 779.278,-916.708"/>
<polygon fill="black" stroke="black" points="778.453,-913.306 769.529,-919.017 780.067,-920.118 778.453,-913.306"/>
<text text-anchor="middle" x="885.5" y="-738.3" font-family="Times,serif" font-size="14.00">b</text>
</g>
<!-- 75&#45;&gt;27 -->
<g id="edge136" class="edge"><title>75&#45;&gt;27</title>
<path fill="none" stroke="black" d="M878.261,-534.259C887.513,-494.589 906.346,-392.394 877,-315 874.751,-309.068 870.985,-303.496 866.839,-298.617"/>
<polygon fill="black" stroke="black" points="869.133,-295.949 859.703,-291.119 864.062,-300.775 869.133,-295.949"/>
<text text-anchor="middle" x="900" y="-405.8" font-family="Times,serif" font-size="14.00">c,a</text>
</g>
<!-- 76&#45;&gt;14 -->
<g id="edge137" class="edge"><title>76&#45;&gt;14</title>
<path fill="none" stroke="black" d="M762.617,-117.938C777.429,-133.305 800,-161.552 800,-191 800,-367 800,-367 800,-367 800,-386.468 802.625,-408.153 805.31,-425.243"/>
<polygon fill="black" stroke="black" points="801.877,-425.937 806.966,-435.23 808.783,-424.792 801.877,-425.937"/>
<text text-anchor="middle" x="803.5" y="-275.3" font-family="Times,serif" font-size="14.00">b</text>
</g>
<!-- 76&#45;&gt;70 -->
<g id="edge138" class="edge"><title>76&#45;&gt;70</title>
<path fill="none" stroke="black" d="M750,-86.799C750,-75.1626 750,-59.5479 750,-46.2368"/>
<polygon fill="black" stroke="black" points="753.5,-46.1754 750,-36.1754 746.5,-46.1755 753.5,-46.1754"/>
<text text-anchor="middle" x="758" y="-57.8" font-family="Times,serif" font-size="14.00">c,a</text>
</g>
<!-- 77&#45;&gt;29 -->
<g id="edge139" class="edge"><title>77&#45;&gt;29</title>
<path fill="none" stroke="black" d="M479,-1566.9C479,-1554.89 479,-1539.62 479,-1526.24"/>
<polygon fill="black" stroke="black" points="482.5,-1526.02 479,-1516.02 475.5,-1526.02 482.5,-1526.02"/>
<text text-anchor="middle" x="482.5" y="-1537.8" font-family="Times,serif" font-size="14.00">b</text>
</g>
<!-- 77&#45;&gt;37 -->
<g id="edge140" class="edge"><title>77&#45;&gt;37</title>
<path fill="none" stroke="black" d="M489.945,-1608.16C499.884,-1626.41 513,-1655.67 513,-1683 513,-1922.5 513,-1922.5 513,-1922.5 513,-1958.34 598.892,-2196.52 604,-2232 606.787,-2251.36 607.155,-2256.7 604,-2276 585.276,-2390.53 581.485,-2427.8 511,-2520 505.494,-2527.2 498.481,-2534.05 491.638,-2539.93"/>
<polygon fill="black" stroke="black" points="489.302,-2537.32 483.784,-2546.37 493.738,-2542.74 489.302,-2537.32"/>
<text text-anchor="middle" x="567" y="-2060.3" font-family="Times,serif" font-size="14.00">c,a</text>
</g>
<!-- 78&#45;&gt;1 -->
<g id="edge141" class="edge"><title>78&#45;&gt;1</title>
<path fill="none" stroke="black" d="M579.293,-1187.82C583.207,-1175.27 588.311,-1158.9 592.688,-1144.86"/>
<polygon fill="black" stroke="black" points="596.084,-1145.73 595.72,-1135.14 589.401,-1143.64 596.084,-1145.73"/>
<text text-anchor="middle" x="592.5" y="-1157.8" font-family="Times,serif" font-size="14.00">b</text>
</g>
<!-- 78&#45;&gt;72 -->
<g id="edge142" class="edge"><title>78&#45;&gt;72</title>
<path fill="none" stroke="black" d="M565.773,-1187.98C559.698,-1169.34 552,-1140.66 552,-1115 552,-1115 552,-1115 552,-832 552,-714.889 669.258,-612.415 722.844,-571.7"/>
<polygon fill="black" stroke="black" points="725.252,-574.27 731.17,-565.483 721.063,-568.661 725.252,-574.27"/>
<text text-anchor="middle" x="560" y="-872.8" font-family="Times,serif" font-size="14.00">c,a</text>
</g>
</g>
</svg>
