<?xml version="1.0" encoding="UTF-8" standalone="no"?>
<!DOCTYPE svg PUBLIC "-//W3C//DTD SVG 1.1//EN"
 "http://www.w3.org/Graphics/SVG/1.1/DTD/svg11.dtd">
<!-- Generated by graphviz version 2.38.0 (20140413.2041)
 -->
<!-- Title: %3 Pages: 1 -->
<svg width="128pt" height="313pt"
 viewBox="0.00 0.00 128.00 313.00" xmlns="http://www.w3.org/2000/svg" xmlns:xlink="http://www.w3.org/1999/xlink">
<g id="graph0" class="graph" transform="scale(1 1) rotate(0) translate(4 309)">
<title>%3</title>
<!-- 0 -->
<g id="node1" class="node"><title>0</title>
<ellipse fill="lightblue" stroke="black" cx="18" cy="-200" rx="18" ry="18"/>
<text text-anchor="middle" x="18" y="-196.3" font-family="Times,serif" font-size="14.00">0</text>
</g>
<!-- 0&#45;&gt;0 -->
<g id="edge1" class="edge"><title>0&#45;&gt;0</title>
<path fill="none" stroke="black" d="M34.6641,-207.383C44.625,-209.023 54,-206.562 54,-200 54,-195.796 50.1525,-193.275 44.7682,-192.438"/>
<polygon fill="black" stroke="black" points="44.6002,-188.94 34.6641,-192.617 44.7247,-195.939 44.6002,-188.94"/>
<text text-anchor="middle" x="57.5" y="-196.3" font-family="Times,serif" font-size="14.00">b</text>
</g>
<!-- 1 -->
<g id="node2" class="node"><title>1</title>
<ellipse fill="lightblue" stroke="black" cx="34" cy="-109" rx="18" ry="18"/>
<ellipse fill="none" stroke="black" cx="34" cy="-109" rx="22" ry="22"/>
<text text-anchor="middle" x="34" y="-105.3" font-family="Times,serif" font-size="14.00">1</text>
</g>
<!-- 0&#45;&gt;1 -->
<g id="edge2" class="edge"><title>0&#45;&gt;1</title>
<path fill="none" stroke="black" d="M21.085,-181.84C23.169,-170.247 25.9797,-154.613 28.4468,-140.89"/>
<polygon fill="black" stroke="black" points="31.924,-141.328 30.2487,-130.867 25.0345,-140.089 31.924,-141.328"/>
<text text-anchor="middle" x="29.5" y="-152.8" font-family="Times,serif" font-size="14.00">a</text>
</g>
<!-- 2 -->
<g id="node3" class="node"><title>2</title>
<ellipse fill="lightblue" stroke="black" cx="67" cy="-18" rx="18" ry="18"/>
<text text-anchor="middle" x="67" y="-14.3" font-family="Times,serif" font-size="14.00">2</text>
</g>
<!-- 1&#45;&gt;2 -->
<g id="edge3" class="edge"><title>1&#45;&gt;2</title>
<path fill="none" stroke="black" d="M41.3238,-88.248C46.091,-75.3908 52.3568,-58.4922 57.5052,-44.6071"/>
<polygon fill="black" stroke="black" points="60.8242,-45.7232 61.0192,-35.1301 54.2609,-43.2895 60.8242,-45.7232"/>
<text text-anchor="middle" x="61.5" y="-57.8" font-family="Times,serif" font-size="14.00">a,b</text>
</g>
<!-- 2&#45;&gt;2 -->
<g id="edge4" class="edge"><title>2&#45;&gt;2</title>
<path fill="none" stroke="black" d="M83.6641,-25.3828C93.625,-27.0234 103,-24.5625 103,-18 103,-13.7959 99.1525,-11.2751 93.7682,-10.4375"/>
<polygon fill="black" stroke="black" points="93.6002,-6.93988 83.6641,-10.6172 93.7247,-13.9388 93.6002,-6.93988"/>
<text text-anchor="middle" x="111.5" y="-14.3" font-family="Times,serif" font-size="14.00">a,b</text>
</g>
<!-- 3 -->
<g id="node4" class="node"><title>3</title>
<ellipse fill="#aaff80" stroke="black" cx="66" cy="-287" rx="18" ry="18"/>
<text text-anchor="middle" x="66" y="-283.3" font-family="Times,serif" font-size="14.00">3</text>
</g>
<!-- 3&#45;&gt;0 -->
<g id="edge5" class="edge"><title>3&#45;&gt;0</title>
<path fill="none" stroke="black" d="M57.4186,-270.804C50.2516,-258.112 39.9033,-239.787 31.6079,-225.097"/>
<polygon fill="black" stroke="black" points="34.472,-223.051 26.5071,-216.065 28.3767,-226.493 34.472,-223.051"/>
<text text-anchor="middle" x="47.5" y="-239.8" font-family="Times,serif" font-size="14.00">a</text>
</g>
<!-- 3&#45;&gt;2 -->
<g id="edge6" class="edge"><title>3&#45;&gt;2</title>
<path fill="none" stroke="black" d="M67.1534,-268.961C68.0477,-255.212 69.2562,-235.368 70,-218 72.8343,-151.815 73.111,-135.24 74,-69 74.0895,-62.3339 74.6569,-60.6342 74,-54 73.7289,-51.2617 73.3411,-48.4202 72.8855,-45.5938"/>
<polygon fill="black" stroke="black" points="76.3017,-44.8205 71.0241,-35.6337 69.4208,-46.1065 76.3017,-44.8205"/>
<text text-anchor="middle" x="75.5" y="-152.8" font-family="Times,serif" font-size="14.00">b</text>
</g>
</g>
</svg>
