<?xml version="1.0" encoding="UTF-8" standalone="no"?>
<!DOCTYPE svg PUBLIC "-//W3C//DTD SVG 1.1//EN"
 "http://www.w3.org/Graphics/SVG/1.1/DTD/svg11.dtd">
<!-- Generated by graphviz version 2.38.0 (20140413.2041)
 -->
<!-- Title: %3 Pages: 1 -->
<svg width="354pt" height="188pt"
 viewBox="0.00 0.00 354.00 188.00" xmlns="http://www.w3.org/2000/svg" xmlns:xlink="http://www.w3.org/1999/xlink">
<g id="graph0" class="graph" transform="scale(1 1) rotate(0) translate(4 184)">
<title>%3</title>
<!-- ab -->
<g id="node1" class="node"><title>ab</title>
<ellipse fill="none" stroke="black" cx="64" cy="-162" rx="27" ry="18"/>
<text text-anchor="middle" x="64" y="-158.3" font-family="Times,serif" font-size="14.00">ab</text>
</g>
<!-- e -->
<g id="node3" class="node"><title>e</title>
<ellipse fill="none" stroke="black" cx="27" cy="-90" rx="27" ry="18"/>
<text text-anchor="middle" x="27" y="-86.3" font-family="Times,serif" font-size="14.00">e</text>
</g>
<!-- ab&#45;&gt;e -->
<g id="edge1" class="edge"><title>ab&#45;&gt;e</title>
<path fill="none" stroke="black" d="M55.4185,-144.765C50.9354,-136.283 45.349,-125.714 40.3186,-116.197"/>
<polygon fill="black" stroke="black" points="43.3025,-114.353 35.535,-107.147 37.1138,-117.624 43.3025,-114.353"/>
</g>
<!-- ca -->
<g id="node5" class="node"><title>ca</title>
<ellipse fill="none" stroke="black" cx="164" cy="-18" rx="27" ry="18"/>
<text text-anchor="middle" x="164" y="-14.3" font-family="Times,serif" font-size="14.00" fill="red">ca</text>
</g>
<!-- ab&#45;&gt;ca -->
<g id="edge2" class="edge"><title>ab&#45;&gt;ca</title>
<path fill="none" stroke="black" d="M68.4134,-144.04C73.8935,-125.173 84.5746,-94.4009 101,-72 110.889,-58.5139 124.898,-46.2845 137.195,-36.9799"/>
<polygon fill="black" stroke="black" points="139.344,-39.7447 145.364,-31.0261 135.221,-34.0878 139.344,-39.7447"/>
</g>
<!-- 1 -->
<g id="node2" class="node"><title>1</title>
<ellipse fill="none" stroke="black" cx="155" cy="-162" rx="27" ry="18"/>
<text text-anchor="middle" x="155" y="-158.3" font-family="Times,serif" font-size="14.00" fill="red">1</text>
</g>
<!-- c -->
<g id="node4" class="node"><title>c</title>
<ellipse fill="none" stroke="black" cx="137" cy="-90" rx="27" ry="18"/>
<text text-anchor="middle" x="137" y="-86.3" font-family="Times,serif" font-size="14.00" fill="red">c</text>
</g>
<!-- 1&#45;&gt;c -->
<g id="edge6" class="edge"><title>1&#45;&gt;c</title>
<path fill="none" stroke="black" d="M150.643,-144.055C148.609,-136.145 146.139,-126.54 143.863,-117.688"/>
<polygon fill="black" stroke="black" points="147.197,-116.602 141.317,-107.789 140.418,-118.346 147.197,-116.602"/>
</g>
<!-- 1&#45;&gt;ca -->
<g id="edge5" class="edge"><title>1&#45;&gt;ca</title>
<path fill="none" stroke="black" d="M162.293,-144.179C166.332,-133.937 170.941,-120.464 173,-108 176.416,-87.3169 173.728,-63.7011 170.422,-45.9958"/>
<polygon fill="black" stroke="black" points="173.772,-44.9071 168.334,-35.8145 166.915,-46.3139 173.772,-44.9071"/>
</g>
<!-- e&#45;&gt;ca -->
<g id="edge3" class="edge"><title>e&#45;&gt;ca</title>
<path fill="none" stroke="black" d="M47.8074,-78.3685C70.7408,-66.6507 107.833,-47.6985 133.927,-34.3656"/>
<polygon fill="black" stroke="black" points="135.684,-37.3983 142.997,-29.7315 132.499,-31.1648 135.684,-37.3983"/>
</g>
<!-- c&#45;&gt;ca -->
<g id="edge4" class="edge"><title>c&#45;&gt;ca</title>
<path fill="none" stroke="black" d="M143.399,-72.411C146.514,-64.3352 150.334,-54.4312 153.835,-45.3547"/>
<polygon fill="black" stroke="black" points="157.126,-46.5458 157.46,-35.9562 150.595,-44.0267 157.126,-46.5458"/>
</g>
<!-- b -->
<g id="node6" class="node"><title>b</title>
<ellipse fill="none" stroke="black" cx="247" cy="-90" rx="27" ry="18"/>
<text text-anchor="middle" x="247" y="-86.3" font-family="Times,serif" font-size="14.00">b</text>
</g>
<!-- b&#45;&gt;ca -->
<g id="edge7" class="edge"><title>b&#45;&gt;ca</title>
<path fill="none" stroke="black" d="M230.602,-75.1703C218.359,-64.845 201.448,-50.5825 187.73,-39.0133"/>
<polygon fill="black" stroke="black" points="189.982,-36.3344 180.082,-32.5628 185.47,-41.6854 189.982,-36.3344"/>
</g>
<!-- a -->
<g id="node7" class="node"><title>a</title>
<ellipse fill="none" stroke="black" cx="319" cy="-90" rx="27" ry="18"/>
<text text-anchor="middle" x="319" y="-86.3" font-family="Times,serif" font-size="14.00">a</text>
</g>
<!-- a&#45;&gt;ca -->
<g id="edge8" class="edge"><title>a&#45;&gt;ca</title>
<path fill="none" stroke="black" d="M297.716,-78.8537C292.887,-76.5783 287.775,-74.1903 283,-72 253.37,-58.4077 219.38,-43.3194 195.334,-32.7288"/>
<polygon fill="black" stroke="black" points="196.561,-29.4451 185.998,-28.6231 193.743,-35.8528 196.561,-29.4451"/>
</g>
</g>
</svg>
