<?xml version="1.0" encoding="UTF-8" standalone="no"?>
<!DOCTYPE svg PUBLIC "-//W3C//DTD SVG 1.1//EN"
 "http://www.w3.org/Graphics/SVG/1.1/DTD/svg11.dtd">
<!-- Generated by graphviz version 2.38.0 (20140413.2041)
 -->
<!-- Title: %3 Pages: 1 -->
<svg width="221pt" height="519pt"
 viewBox="0.00 0.00 221.00 519.00" xmlns="http://www.w3.org/2000/svg" xmlns:xlink="http://www.w3.org/1999/xlink">
<g id="graph0" class="graph" transform="scale(1 1) rotate(0) translate(4 515)">
<title>%3</title>
<!-- 0 -->
<g id="node1" class="node"><title>0</title>
<ellipse fill="lightblue" stroke="black" cx="88" cy="-489" rx="18" ry="18"/>
<ellipse fill="none" stroke="black" cx="88" cy="-489" rx="22" ry="22"/>
<text text-anchor="middle" x="88" y="-485.3" font-family="Times,serif" font-size="14.00">0</text>
</g>
<!-- 2 -->
<g id="node3" class="node"><title>2</title>
<ellipse fill="#aaff80" stroke="black" cx="58" cy="-22" rx="18" ry="18"/>
<ellipse fill="none" stroke="black" cx="58" cy="-22" rx="22" ry="22"/>
<text text-anchor="middle" x="58" y="-18.3" font-family="Times,serif" font-size="14.00">2</text>
</g>
<!-- 0&#45;&gt;2 -->
<g id="edge1" class="edge"><title>0&#45;&gt;2</title>
<path fill="none" stroke="black" d="M67.8928,-479.663C54.0368,-473.065 36.0234,-462.685 24,-449 6.66504,-429.27 0,-421.264 0,-395 0,-395 0,-395 0,-112 0,-85.4509 18.3396,-60.618 34.3935,-43.966"/>
<polygon fill="black" stroke="black" points="36.8786,-46.4309 41.5347,-36.914 31.96,-41.4502 36.8786,-46.4309"/>
<text text-anchor="middle" x="3.5" y="-247.8" font-family="Times,serif" font-size="14.00">b</text>
</g>
<!-- 3 -->
<g id="node4" class="node"><title>3</title>
<ellipse fill="lightblue" stroke="black" cx="88" cy="-394" rx="18" ry="18"/>
<ellipse fill="none" stroke="black" cx="88" cy="-394" rx="22" ry="22"/>
<text text-anchor="middle" x="88" y="-390.3" font-family="Times,serif" font-size="14.00">3</text>
</g>
<!-- 0&#45;&gt;3 -->
<g id="edge2" class="edge"><title>0&#45;&gt;3</title>
<path fill="none" stroke="black" d="M88,-466.897C88,-454.887 88,-439.617 88,-426.242"/>
<polygon fill="black" stroke="black" points="91.5001,-426.02 88,-416.02 84.5001,-426.02 91.5001,-426.02"/>
<text text-anchor="middle" x="91.5" y="-437.8" font-family="Times,serif" font-size="14.00">a</text>
</g>
<!-- 1 -->
<g id="node2" class="node"><title>1</title>
<ellipse fill="lightblue" stroke="black" cx="143" cy="-204" rx="18" ry="18"/>
<ellipse fill="none" stroke="black" cx="143" cy="-204" rx="22" ry="22"/>
<text text-anchor="middle" x="143" y="-200.3" font-family="Times,serif" font-size="14.00">1</text>
</g>
<!-- 4 -->
<g id="node5" class="node"><title>4</title>
<ellipse fill="lightblue" stroke="black" cx="149" cy="-113" rx="18" ry="18"/>
<text text-anchor="middle" x="149" y="-109.3" font-family="Times,serif" font-size="14.00">4</text>
</g>
<!-- 1&#45;&gt;4 -->
<g id="edge3" class="edge"><title>1&#45;&gt;4</title>
<path fill="none" stroke="black" d="M144.422,-181.908C145.24,-169.78 146.276,-154.409 147.156,-141.36"/>
<polygon fill="black" stroke="black" points="150.669,-141.279 147.849,-131.066 143.685,-140.808 150.669,-141.279"/>
<text text-anchor="middle" x="149.5" y="-152.8" font-family="Times,serif" font-size="14.00">b</text>
</g>
<!-- 6 -->
<g id="node7" class="node"><title>6</title>
<ellipse fill="lightblue" stroke="black" cx="86" cy="-113" rx="18" ry="18"/>
<text text-anchor="middle" x="86" y="-109.3" font-family="Times,serif" font-size="14.00">6</text>
</g>
<!-- 1&#45;&gt;6 -->
<g id="edge4" class="edge"><title>1&#45;&gt;6</title>
<path fill="none" stroke="black" d="M131.465,-184.99C122.629,-171.193 110.372,-152.055 100.811,-137.126"/>
<polygon fill="black" stroke="black" points="103.602,-134.994 95.2611,-128.46 97.707,-138.769 103.602,-134.994"/>
<text text-anchor="middle" x="120.5" y="-152.8" font-family="Times,serif" font-size="14.00">a</text>
</g>
<!-- 2&#45;&gt;0 -->
<g id="edge5" class="edge"><title>2&#45;&gt;0</title>
<path fill="none" stroke="black" d="M50.8924,-42.8615C45.1439,-60.7121 38,-87.7698 38,-112 38,-395 38,-395 38,-395 38,-420.836 53.1546,-446.412 66.7774,-464.184"/>
<polygon fill="black" stroke="black" points="64.2719,-466.653 73.2688,-472.248 69.7248,-462.264 64.2719,-466.653"/>
<text text-anchor="middle" x="41.5" y="-247.8" font-family="Times,serif" font-size="14.00">a</text>
</g>
<!-- 2&#45;&gt;2 -->
<g id="edge6" class="edge"><title>2&#45;&gt;2</title>
<path fill="none" stroke="black" d="M78.5808,-30.3702C88.8447,-31.5284 98,-28.7383 98,-22 98,-17.6833 94.2427,-14.9869 88.8436,-13.9109"/>
<polygon fill="black" stroke="black" points="88.6729,-10.405 78.5808,-13.6298 88.4812,-17.4024 88.6729,-10.405"/>
<text text-anchor="middle" x="101.5" y="-18.3" font-family="Times,serif" font-size="14.00">b</text>
</g>
<!-- 3&#45;&gt;3 -->
<g id="edge7" class="edge"><title>3&#45;&gt;3</title>
<path fill="none" stroke="black" d="M108.581,-402.37C118.845,-403.528 128,-400.738 128,-394 128,-389.683 124.243,-386.987 118.844,-385.911"/>
<polygon fill="black" stroke="black" points="118.673,-382.405 108.581,-385.63 118.481,-389.402 118.673,-382.405"/>
<text text-anchor="middle" x="131.5" y="-390.3" font-family="Times,serif" font-size="14.00">a</text>
</g>
<!-- 5 -->
<g id="node6" class="node"><title>5</title>
<ellipse fill="lightblue" stroke="black" cx="143" cy="-299" rx="18" ry="18"/>
<ellipse fill="none" stroke="black" cx="143" cy="-299" rx="22" ry="22"/>
<text text-anchor="middle" x="143" y="-295.3" font-family="Times,serif" font-size="14.00">5</text>
</g>
<!-- 3&#45;&gt;5 -->
<g id="edge8" class="edge"><title>3&#45;&gt;5</title>
<path fill="none" stroke="black" d="M98.8662,-374.626C106.851,-361.124 117.833,-342.555 126.845,-327.317"/>
<polygon fill="black" stroke="black" points="130.078,-328.725 132.156,-318.336 124.053,-325.161 130.078,-328.725"/>
<text text-anchor="middle" x="121.5" y="-342.8" font-family="Times,serif" font-size="14.00">b</text>
</g>
<!-- 4&#45;&gt;0 -->
<g id="edge9" class="edge"><title>4&#45;&gt;0</title>
<path fill="none" stroke="black" d="M162.508,-125.448C179.364,-141.091 206,-170.89 206,-203 206,-395 206,-395 206,-395 206,-439.395 153.842,-465.866 118.88,-478.623"/>
<polygon fill="black" stroke="black" points="117.404,-475.43 109.096,-482.004 119.691,-482.046 117.404,-475.43"/>
<text text-anchor="middle" x="209.5" y="-295.3" font-family="Times,serif" font-size="14.00">a</text>
</g>
<!-- 4&#45;&gt;2 -->
<g id="edge10" class="edge"><title>4&#45;&gt;2</title>
<path fill="none" stroke="black" d="M136.347,-99.6249C122.032,-85.6251 98.4306,-62.542 80.8664,-45.3638"/>
<polygon fill="black" stroke="black" points="82.8727,-42.4304 73.2762,-37.9405 77.9782,-47.4348 82.8727,-42.4304"/>
<text text-anchor="middle" x="114.5" y="-65.8" font-family="Times,serif" font-size="14.00">b</text>
</g>
<!-- 5&#45;&gt;0 -->
<g id="edge11" class="edge"><title>5&#45;&gt;0</title>
<path fill="none" stroke="black" d="M147.236,-320.777C151.164,-344.516 154.915,-384.187 144,-416 137.427,-435.157 123.444,-453.144 111.096,-466.348"/>
<polygon fill="black" stroke="black" points="108.557,-463.939 104.083,-473.542 113.569,-468.825 108.557,-463.939"/>
<text text-anchor="middle" x="154.5" y="-390.3" font-family="Times,serif" font-size="14.00">a</text>
</g>
<!-- 5&#45;&gt;1 -->
<g id="edge12" class="edge"><title>5&#45;&gt;1</title>
<path fill="none" stroke="black" d="M143,-276.897C143,-264.887 143,-249.617 143,-236.242"/>
<polygon fill="black" stroke="black" points="146.5,-236.02 143,-226.02 139.5,-236.02 146.5,-236.02"/>
<text text-anchor="middle" x="146.5" y="-247.8" font-family="Times,serif" font-size="14.00">b</text>
</g>
<!-- 6&#45;&gt;2 -->
<g id="edge13" class="edge"><title>6&#45;&gt;2</title>
<path fill="none" stroke="black" d="M80.8644,-95.676C77.1293,-83.8039 71.9643,-67.3865 67.4882,-53.159"/>
<polygon fill="black" stroke="black" points="70.7208,-51.7711 64.381,-43.2825 64.0434,-53.8719 70.7208,-51.7711"/>
<text text-anchor="middle" x="78.5" y="-65.8" font-family="Times,serif" font-size="14.00">b</text>
</g>
<!-- 6&#45;&gt;3 -->
<g id="edge14" class="edge"><title>6&#45;&gt;3</title>
<path fill="none" stroke="black" d="M86.1227,-131.115C86.4502,-176.806 87.349,-302.189 87.773,-361.332"/>
<polygon fill="black" stroke="black" points="84.2747,-361.596 87.8464,-371.571 91.2745,-361.546 84.2747,-361.596"/>
<text text-anchor="middle" x="91.5" y="-247.8" font-family="Times,serif" font-size="14.00">a</text>
</g>
</g>
</svg>
