<?xml version="1.0" encoding="UTF-8" standalone="no"?>
<!DOCTYPE svg PUBLIC "-//W3C//DTD SVG 1.1//EN"
 "http://www.w3.org/Graphics/SVG/1.1/DTD/svg11.dtd">
<!-- Generated by graphviz version 2.38.0 (20140413.2041)
 -->
<!-- Title: %3 Pages: 1 -->
<svg width="122pt" height="313pt"
 viewBox="0.00 0.00 122.00 313.00" xmlns="http://www.w3.org/2000/svg" xmlns:xlink="http://www.w3.org/1999/xlink">
<g id="graph0" class="graph" transform="scale(1 1) rotate(0) translate(4 309)">
<title>%3</title>
<!-- 0 -->
<g id="node1" class="node"><title>0</title>
<ellipse fill="lightblue" stroke="black" cx="45" cy="-18" rx="18" ry="18"/>
<text text-anchor="middle" x="45" y="-14.3" font-family="Times,serif" font-size="14.00">0</text>
</g>
<!-- 0&#45;&gt;0 -->
<g id="edge1" class="edge"><title>0&#45;&gt;0</title>
<path fill="none" stroke="black" d="M61.6641,-25.3828C71.625,-27.0234 81,-24.5625 81,-18 81,-13.7959 77.1525,-11.2751 71.7682,-10.4375"/>
<polygon fill="black" stroke="black" points="71.6002,-6.93988 61.6641,-10.6172 71.7247,-13.9388 71.6002,-6.93988"/>
<text text-anchor="middle" x="89.5" y="-14.3" font-family="Times,serif" font-size="14.00">a,b</text>
</g>
<!-- 1 -->
<g id="node2" class="node"><title>1</title>
<ellipse fill="lightblue" stroke="black" cx="92" cy="-109" rx="18" ry="18"/>
<ellipse fill="none" stroke="black" cx="92" cy="-109" rx="22" ry="22"/>
<text text-anchor="middle" x="92" y="-105.3" font-family="Times,serif" font-size="14.00">1</text>
</g>
<!-- 1&#45;&gt;0 -->
<g id="edge2" class="edge"><title>1&#45;&gt;0</title>
<path fill="none" stroke="black" d="M82.0325,-89.1254C74.9591,-75.7311 65.4045,-57.6383 57.7722,-43.1856"/>
<polygon fill="black" stroke="black" points="60.8443,-41.5079 53.0796,-34.2996 54.6544,-44.7768 60.8443,-41.5079"/>
<text text-anchor="middle" x="79.5" y="-57.8" font-family="Times,serif" font-size="14.00">a,b</text>
</g>
<!-- 2 -->
<g id="node3" class="node"><title>2</title>
<ellipse fill="#aaff80" stroke="black" cx="18" cy="-287" rx="18" ry="18"/>
<text text-anchor="middle" x="18" y="-283.3" font-family="Times,serif" font-size="14.00">2</text>
</g>
<!-- 2&#45;&gt;0 -->
<g id="edge3" class="edge"><title>2&#45;&gt;0</title>
<path fill="none" stroke="black" d="M17.1332,-268.667C16.2996,-247.994 15.4983,-212.411 18,-182 21.9721,-133.714 32.4564,-78.1874 39.1304,-45.995"/>
<polygon fill="black" stroke="black" points="42.5959,-46.5231 41.2328,-36.0163 35.7463,-45.0799 42.5959,-46.5231"/>
<text text-anchor="middle" x="24.5" y="-152.8" font-family="Times,serif" font-size="14.00">b</text>
</g>
<!-- 3 -->
<g id="node4" class="node"><title>3</title>
<ellipse fill="lightblue" stroke="black" cx="45" cy="-200" rx="18" ry="18"/>
<text text-anchor="middle" x="45" y="-196.3" font-family="Times,serif" font-size="14.00">3</text>
</g>
<!-- 2&#45;&gt;3 -->
<g id="edge4" class="edge"><title>2&#45;&gt;3</title>
<path fill="none" stroke="black" d="M23.2059,-269.611C27.0158,-257.617 32.2647,-241.093 36.6566,-227.266"/>
<polygon fill="black" stroke="black" points="40.1184,-227.929 39.8101,-217.339 33.4469,-225.81 40.1184,-227.929"/>
<text text-anchor="middle" x="36.5" y="-239.8" font-family="Times,serif" font-size="14.00">a</text>
</g>
<!-- 3&#45;&gt;0 -->
<g id="edge5" class="edge"><title>3&#45;&gt;0</title>
<path fill="none" stroke="black" d="M45,-181.741C45,-150.427 45,-84.0213 45,-46.434"/>
<polygon fill="black" stroke="black" points="48.5001,-46.2069 45,-36.2069 41.5001,-46.2069 48.5001,-46.2069"/>
<text text-anchor="middle" x="48.5" y="-105.3" font-family="Times,serif" font-size="14.00">a</text>
</g>
<!-- 3&#45;&gt;1 -->
<g id="edge6" class="edge"><title>3&#45;&gt;1</title>
<path fill="none" stroke="black" d="M53.1868,-183.497C59.8515,-170.877 69.4267,-152.745 77.3988,-137.649"/>
<polygon fill="black" stroke="black" points="80.5402,-139.195 82.115,-128.718 74.3503,-135.927 80.5402,-139.195"/>
<text text-anchor="middle" x="74.5" y="-152.8" font-family="Times,serif" font-size="14.00">b</text>
</g>
</g>
</svg>
