<?xml version="1.0" encoding="UTF-8" standalone="no"?>
<!DOCTYPE svg PUBLIC "-//W3C//DTD SVG 1.1//EN"
 "http://www.w3.org/Graphics/SVG/1.1/DTD/svg11.dtd">
<!-- Generated by graphviz version 2.38.0 (20140413.2041)
 -->
<!-- Title: %3 Pages: 1 -->
<svg width="170pt" height="329pt"
 viewBox="0.00 0.00 169.95 329.00" xmlns="http://www.w3.org/2000/svg" xmlns:xlink="http://www.w3.org/1999/xlink">
<g id="graph0" class="graph" transform="scale(1 1) rotate(0) translate(4 325)">
<title>%3</title>
<!-- 0 -->
<g id="node1" class="node"><title>0</title>
<ellipse fill="lightblue" stroke="black" cx="44.9475" cy="-204" rx="18" ry="18"/>
<ellipse fill="none" stroke="black" cx="44.9475" cy="-204" rx="22" ry="22"/>
<text text-anchor="middle" x="44.9475" y="-200.3" font-family="Times,serif" font-size="14.00">0</text>
</g>
<!-- 1 -->
<g id="node2" class="node"><title>1</title>
<ellipse fill="lightblue" stroke="black" cx="80.9475" cy="-18" rx="18" ry="18"/>
<text text-anchor="middle" x="80.9475" y="-14.3" font-family="Times,serif" font-size="14.00">1</text>
</g>
<!-- 0&#45;&gt;1 -->
<g id="edge1" class="edge"><title>0&#45;&gt;1</title>
<path fill="none" stroke="black" d="M31.474,-186.512C14.5705,-163.698 -10.4428,-121.422 4.94749,-87 15.4707,-63.464 38.6124,-44.7017 56.6125,-32.8976"/>
<polygon fill="black" stroke="black" points="58.8347,-35.6363 65.4627,-27.3707 55.1268,-29.699 58.8347,-35.6363"/>
<text text-anchor="middle" x="8.44749" y="-105.3" font-family="Times,serif" font-size="14.00">a</text>
</g>
<!-- 2 -->
<g id="node3" class="node"><title>2</title>
<ellipse fill="lightblue" stroke="black" cx="42.9475" cy="-109" rx="18" ry="18"/>
<ellipse fill="none" stroke="black" cx="42.9475" cy="-109" rx="22" ry="22"/>
<text text-anchor="middle" x="42.9475" y="-105.3" font-family="Times,serif" font-size="14.00">2</text>
</g>
<!-- 0&#45;&gt;2 -->
<g id="edge2" class="edge"><title>0&#45;&gt;2</title>
<path fill="none" stroke="black" d="M41.1182,-182.018C40.2212,-176.203 39.3967,-169.874 38.9475,-164 38.3823,-156.61 38.5447,-148.65 39.0401,-141.171"/>
<polygon fill="black" stroke="black" points="42.5424,-141.296 39.921,-131.03 35.5686,-140.69 42.5424,-141.296"/>
<text text-anchor="middle" x="42.4475" y="-152.8" font-family="Times,serif" font-size="14.00">b</text>
</g>
<!-- 1&#45;&gt;1 -->
<g id="edge3" class="edge"><title>1&#45;&gt;1</title>
<path fill="none" stroke="black" d="M97.6115,-25.3828C107.572,-27.0234 116.947,-24.5625 116.947,-18 116.947,-13.7959 113.1,-11.2751 107.716,-10.4375"/>
<polygon fill="black" stroke="black" points="107.548,-6.93988 97.6115,-10.6172 107.672,-13.9388 107.548,-6.93988"/>
<text text-anchor="middle" x="125.447" y="-14.3" font-family="Times,serif" font-size="14.00">b,a</text>
</g>
<!-- 2&#45;&gt;0 -->
<g id="edge4" class="edge"><title>2&#45;&gt;0</title>
<path fill="none" stroke="black" d="M43.5146,-131.049C43.6639,-136.864 43.8189,-143.177 43.9475,-149 44.1107,-156.391 44.2682,-164.352 44.4081,-171.83"/>
<polygon fill="black" stroke="black" points="40.9112,-172.036 44.5928,-181.971 47.91,-171.909 40.9112,-172.036"/>
<text text-anchor="middle" x="48.4475" y="-152.8" font-family="Times,serif" font-size="14.00">a</text>
</g>
<!-- 2&#45;&gt;1 -->
<g id="edge5" class="edge"><title>2&#45;&gt;1</title>
<path fill="none" stroke="black" d="M51.3809,-88.248C56.9057,-75.3084 64.1782,-58.2754 70.128,-44.3405"/>
<polygon fill="black" stroke="black" points="73.4747,-45.4153 74.1826,-34.8441 67.0369,-42.6665 73.4747,-45.4153"/>
<text text-anchor="middle" x="68.4475" y="-57.8" font-family="Times,serif" font-size="14.00">b</text>
</g>
<!-- 3 -->
<g id="node4" class="node"><title>3</title>
<ellipse fill="lightblue" stroke="black" cx="116.947" cy="-204" rx="18" ry="18"/>
<ellipse fill="none" stroke="black" cx="116.947" cy="-204" rx="22" ry="22"/>
<text text-anchor="middle" x="116.947" y="-200.3" font-family="Times,serif" font-size="14.00">3</text>
</g>
<!-- 3&#45;&gt;1 -->
<g id="edge6" class="edge"><title>3&#45;&gt;1</title>
<path fill="none" stroke="black" d="M112.888,-182.251C106.344,-148.804 93.4661,-82.9842 86.2208,-45.9524"/>
<polygon fill="black" stroke="black" points="89.6064,-45.0281 84.2513,-35.8863 82.7366,-46.3723 89.6064,-45.0281"/>
<text text-anchor="middle" x="105.447" y="-105.3" font-family="Times,serif" font-size="14.00">b</text>
</g>
<!-- 5 -->
<g id="node6" class="node"><title>5</title>
<ellipse fill="lightblue" stroke="black" cx="143.947" cy="-109" rx="18" ry="18"/>
<text text-anchor="middle" x="143.947" y="-105.3" font-family="Times,serif" font-size="14.00">5</text>
</g>
<!-- 3&#45;&gt;5 -->
<g id="edge7" class="edge"><title>3&#45;&gt;5</title>
<path fill="none" stroke="black" d="M122.94,-182.36C126.865,-168.839 132.032,-151.041 136.26,-136.479"/>
<polygon fill="black" stroke="black" points="139.714,-137.136 139.141,-126.556 132.991,-135.184 139.714,-137.136"/>
<text text-anchor="middle" x="135.447" y="-152.8" font-family="Times,serif" font-size="14.00">a</text>
</g>
<!-- 4 -->
<g id="node5" class="node"><title>4</title>
<ellipse fill="#aaff80" stroke="black" cx="85.9475" cy="-299" rx="18" ry="18"/>
<ellipse fill="none" stroke="black" cx="85.9475" cy="-299" rx="22" ry="22"/>
<text text-anchor="middle" x="85.9475" y="-295.3" font-family="Times,serif" font-size="14.00">4</text>
</g>
<!-- 4&#45;&gt;0 -->
<g id="edge8" class="edge"><title>4&#45;&gt;0</title>
<path fill="none" stroke="black" d="M77.2524,-278.277C71.561,-265.367 64.028,-248.28 57.668,-233.854"/>
<polygon fill="black" stroke="black" points="60.726,-232.114 53.4894,-224.376 54.3209,-234.938 60.726,-232.114"/>
<text text-anchor="middle" x="70.4475" y="-247.8" font-family="Times,serif" font-size="14.00">a</text>
</g>
<!-- 4&#45;&gt;3 -->
<g id="edge9" class="edge"><title>4&#45;&gt;3</title>
<path fill="none" stroke="black" d="M92.674,-277.82C96.8582,-265.268 102.314,-248.9 106.993,-234.862"/>
<polygon fill="black" stroke="black" points="110.392,-235.734 110.234,-225.14 103.751,-233.52 110.392,-235.734"/>
<text text-anchor="middle" x="106.447" y="-247.8" font-family="Times,serif" font-size="14.00">b</text>
</g>
<!-- 5&#45;&gt;1 -->
<g id="edge10" class="edge"><title>5&#45;&gt;1</title>
<path fill="none" stroke="black" d="M136.901,-92.1906C131.595,-81.0444 123.747,-66.0215 114.947,-54 110.941,-48.5271 106.116,-43.0541 101.375,-38.1164"/>
<polygon fill="black" stroke="black" points="103.673,-35.4652 94.1242,-30.8747 98.7261,-40.4179 103.673,-35.4652"/>
<text text-anchor="middle" x="127.447" y="-57.8" font-family="Times,serif" font-size="14.00">a</text>
</g>
<!-- 5&#45;&gt;3 -->
<g id="edge11" class="edge"><title>5&#45;&gt;3</title>
<path fill="none" stroke="black" d="M145.578,-126.929C146.077,-137.771 145.705,-152.004 141.947,-164 140.492,-168.648 138.325,-173.28 135.867,-177.642"/>
<polygon fill="black" stroke="black" points="132.886,-175.807 130.542,-186.139 138.818,-179.524 132.886,-175.807"/>
<text text-anchor="middle" x="147.447" y="-152.8" font-family="Times,serif" font-size="14.00">b</text>
</g>
</g>
</svg>
