<?xml version="1.0" encoding="UTF-8" standalone="no"?>
<!DOCTYPE svg PUBLIC "-//W3C//DTD SVG 1.1//EN"
 "http://www.w3.org/Graphics/SVG/1.1/DTD/svg11.dtd">
<!-- Generated by graphviz version 2.38.0 (20140413.2041)
 -->
<!-- Title: %3 Pages: 1 -->
<svg width="385pt" height="620pt"
 viewBox="0.00 0.00 384.65 620.00" xmlns="http://www.w3.org/2000/svg" xmlns:xlink="http://www.w3.org/1999/xlink">
<g id="graph0" class="graph" transform="scale(1 1) rotate(0) translate(4 616)">
<title>%3</title>
<!-- All -->
<g id="node1" class="node"><title>All</title>
<ellipse fill="lightgreen" stroke="black" cx="257.345" cy="-594" rx="27" ry="18"/>
<text text-anchor="middle" x="257.345" y="-590.3" font-family="Times,serif" font-size="14.00">All</text>
</g>
<!-- Msol -->
<g id="node2" class="node"><title>Msol</title>
<ellipse fill="lightgreen" stroke="black" cx="220.345" cy="-522" rx="29.4969" ry="18"/>
<text text-anchor="middle" x="220.345" y="-518.3" font-family="Times,serif" font-size="14.00">Msol</text>
</g>
<!-- All&#45;&gt;Msol -->
<g id="edge1" class="edge"><title>All&#45;&gt;Msol</title>
<path fill="none" stroke="black" d="M248.764,-576.765C244.345,-568.404 238.854,-558.016 233.88,-548.606"/>
<polygon fill="black" stroke="black" points="236.905,-546.839 229.137,-539.633 230.716,-550.11 236.905,-546.839"/>
</g>
<!-- W -->
<g id="node16" class="node"><title>W</title>
<ellipse fill="lightgreen" stroke="black" cx="294.345" cy="-522" rx="27" ry="18"/>
<text text-anchor="middle" x="294.345" y="-518.3" font-family="Times,serif" font-size="14.00">W</text>
</g>
<!-- All&#45;&gt;W -->
<g id="edge21" class="edge"><title>All&#45;&gt;W</title>
<path fill="none" stroke="black" d="M265.927,-576.765C270.41,-568.283 275.996,-557.714 281.027,-548.197"/>
<polygon fill="black" stroke="black" points="284.232,-549.624 285.81,-539.147 278.043,-546.353 284.232,-549.624"/>
</g>
<!-- Ap -->
<g id="node3" class="node"><title>Ap</title>
<ellipse fill="lightgrey" stroke="black" cx="156.345" cy="-450" rx="27" ry="18"/>
<text text-anchor="middle" x="156.345" y="-446.3" font-family="Times,serif" font-size="14.00">Ap</text>
</g>
<!-- Msol&#45;&gt;Ap -->
<g id="edge2" class="edge"><title>Msol&#45;&gt;Ap</title>
<path fill="none" stroke="black" d="M206.458,-505.811C197.787,-496.326 186.469,-483.948 176.784,-473.355"/>
<polygon fill="black" stroke="black" points="179.098,-470.698 169.767,-465.68 173.931,-475.422 179.098,-470.698"/>
</g>
<!-- Gsol -->
<g id="node13" class="node"><title>Gsol</title>
<ellipse fill="lightgrey" stroke="black" cx="331.345" cy="-306" rx="27.0966" ry="18"/>
<text text-anchor="middle" x="331.345" y="-302.3" font-family="Times,serif" font-size="14.00">Gsol</text>
</g>
<!-- Msol&#45;&gt;Gsol -->
<g id="edge15" class="edge"><title>Msol&#45;&gt;Gsol</title>
<path fill="none" stroke="black" d="M243.285,-510.35C271.543,-497.021 316.439,-475.08 321.345,-468 348.979,-428.119 343.79,-368.479 337.548,-334.09"/>
<polygon fill="black" stroke="black" points="340.9,-332.999 335.525,-323.869 334.034,-334.359 340.9,-332.999"/>
</g>
<!-- Com -->
<g id="node15" class="node"><title>Com</title>
<ellipse fill="lightgrey" stroke="black" cx="220.345" cy="-378" rx="28.6953" ry="18"/>
<text text-anchor="middle" x="220.345" y="-374.3" font-family="Times,serif" font-size="14.00">Com</text>
</g>
<!-- Msol&#45;&gt;Com -->
<g id="edge18" class="edge"><title>Msol&#45;&gt;Com</title>
<path fill="none" stroke="black" d="M220.345,-503.871C220.345,-479.67 220.345,-435.211 220.345,-406.393"/>
<polygon fill="black" stroke="black" points="223.846,-406.189 220.345,-396.189 216.846,-406.189 223.846,-406.189"/>
</g>
<!-- DA -->
<g id="node4" class="node"><title>DA</title>
<ellipse fill="lightgrey" stroke="black" cx="146.345" cy="-378" rx="27" ry="18"/>
<text text-anchor="middle" x="146.345" y="-374.3" font-family="Times,serif" font-size="14.00">DA</text>
</g>
<!-- Ap&#45;&gt;DA -->
<g id="edge3" class="edge"><title>Ap&#45;&gt;DA</title>
<path fill="none" stroke="black" d="M153.925,-432.055C152.823,-424.346 151.492,-415.027 150.255,-406.364"/>
<polygon fill="black" stroke="black" points="153.692,-405.68 148.813,-396.275 146.763,-406.67 153.692,-405.68"/>
</g>
<!-- Idempotent -->
<g id="node5" class="node"><title>Idempotent</title>
<ellipse fill="lightgrey" stroke="black" cx="51.3454" cy="-234" rx="51.1914" ry="18"/>
<text text-anchor="middle" x="51.3454" y="-230.3" font-family="Times,serif" font-size="14.00">Idempotent</text>
</g>
<!-- DA&#45;&gt;Idempotent -->
<g id="edge4" class="edge"><title>DA&#45;&gt;Idempotent</title>
<path fill="none" stroke="black" d="M122.973,-368.823C103.369,-360.666 76.3887,-346.13 62.3454,-324 50.7699,-305.758 48.5115,-281.143 48.8705,-262.423"/>
<polygon fill="black" stroke="black" points="52.3785,-262.322 49.3337,-252.175 45.3857,-262.006 52.3785,-262.322"/>
</g>
<!-- R -->
<g id="node8" class="node"><title>R</title>
<ellipse fill="lightgrey" stroke="black" cx="170.345" cy="-306" rx="27" ry="18"/>
<text text-anchor="middle" x="170.345" y="-302.3" font-family="Times,serif" font-size="14.00">R</text>
</g>
<!-- DA&#45;&gt;R -->
<g id="edge7" class="edge"><title>DA&#45;&gt;R</title>
<path fill="none" stroke="black" d="M152.155,-360.055C154.897,-352.059 158.232,-342.331 161.294,-333.4"/>
<polygon fill="black" stroke="black" points="164.657,-334.384 164.589,-323.789 158.035,-332.113 164.657,-334.384"/>
</g>
<!-- L -->
<g id="node12" class="node"><title>L</title>
<ellipse fill="lightgrey" stroke="black" cx="98.3454" cy="-306" rx="27" ry="18"/>
<text text-anchor="middle" x="98.3454" y="-302.3" font-family="Times,serif" font-size="14.00">L</text>
</g>
<!-- DA&#45;&gt;L -->
<g id="edge13" class="edge"><title>DA&#45;&gt;L</title>
<path fill="none" stroke="black" d="M135.454,-361.116C129.378,-352.255 121.685,-341.037 114.882,-331.115"/>
<polygon fill="black" stroke="black" points="117.736,-329.089 109.194,-322.821 111.963,-333.048 117.736,-329.089"/>
</g>
<!-- SemiLattice -->
<g id="node6" class="node"><title>SemiLattice</title>
<ellipse fill="lightgrey" stroke="black" cx="171.345" cy="-90" rx="53.8905" ry="18"/>
<text text-anchor="middle" x="171.345" y="-86.3" font-family="Times,serif" font-size="14.00">SemiLattice</text>
</g>
<!-- Idempotent&#45;&gt;SemiLattice -->
<g id="edge5" class="edge"><title>Idempotent&#45;&gt;SemiLattice</title>
<path fill="none" stroke="black" d="M59.5861,-216.138C69.238,-197.359 86.4607,-166.666 106.345,-144 116.391,-132.55 129.08,-121.608 140.575,-112.67"/>
<polygon fill="black" stroke="black" points="142.817,-115.363 148.679,-106.538 138.593,-109.781 142.817,-115.363"/>
</g>
<!-- Trivial -->
<g id="node7" class="node"><title>Trivial</title>
<ellipse fill="lightgrey" stroke="black" cx="241.345" cy="-18" rx="34.394" ry="18"/>
<text text-anchor="middle" x="241.345" y="-14.3" font-family="Times,serif" font-size="14.00">Trivial</text>
</g>
<!-- SemiLattice&#45;&gt;Trivial -->
<g id="edge6" class="edge"><title>SemiLattice&#45;&gt;Trivial</title>
<path fill="none" stroke="black" d="M187.581,-72.7646C196.941,-63.4047 208.843,-51.5028 219.068,-41.2777"/>
<polygon fill="black" stroke="black" points="221.56,-43.7349 226.156,-34.189 216.611,-38.7852 221.56,-43.7349"/>
</g>
<!-- J -->
<g id="node9" class="node"><title>J</title>
<ellipse fill="lightgrey" stroke="black" cx="155.345" cy="-234" rx="27" ry="18"/>
<text text-anchor="middle" x="155.345" y="-230.3" font-family="Times,serif" font-size="14.00">J</text>
</g>
<!-- R&#45;&gt;J -->
<g id="edge8" class="edge"><title>R&#45;&gt;J</title>
<path fill="none" stroke="black" d="M166.714,-288.055C165.044,-280.261 163.022,-270.822 161.148,-262.079"/>
<polygon fill="black" stroke="black" points="164.565,-261.32 159.047,-252.275 157.72,-262.787 164.565,-261.32"/>
</g>
<!-- ACom -->
<g id="node10" class="node"><title>ACom</title>
<ellipse fill="lightgrey" stroke="black" cx="221.345" cy="-162" rx="34.394" ry="18"/>
<text text-anchor="middle" x="221.345" y="-158.3" font-family="Times,serif" font-size="14.00">ACom</text>
</g>
<!-- J&#45;&gt;ACom -->
<g id="edge9" class="edge"><title>J&#45;&gt;ACom</title>
<path fill="none" stroke="black" d="M169.342,-218.155C178.112,-208.854 189.597,-196.673 199.542,-186.124"/>
<polygon fill="black" stroke="black" points="202.138,-188.474 206.451,-178.797 197.045,-183.672 202.138,-188.474"/>
</g>
<!-- Nil -->
<g id="node11" class="node"><title>Nil</title>
<ellipse fill="lightgrey" stroke="black" cx="142.345" cy="-162" rx="27" ry="18"/>
<text text-anchor="middle" x="142.345" y="-158.3" font-family="Times,serif" font-size="14.00">Nil</text>
</g>
<!-- J&#45;&gt;Nil -->
<g id="edge11" class="edge"><title>J&#45;&gt;Nil</title>
<path fill="none" stroke="black" d="M152.199,-216.055C150.767,-208.346 149.036,-199.027 147.427,-190.364"/>
<polygon fill="black" stroke="black" points="150.821,-189.468 145.554,-180.275 143.939,-190.746 150.821,-189.468"/>
</g>
<!-- ACom&#45;&gt;SemiLattice -->
<g id="edge10" class="edge"><title>ACom&#45;&gt;SemiLattice</title>
<path fill="none" stroke="black" d="M209.749,-144.765C203.653,-136.23 196.047,-125.582 189.216,-116.019"/>
<polygon fill="black" stroke="black" points="191.887,-113.736 183.226,-107.633 186.191,-117.805 191.887,-113.736"/>
</g>
<!-- Nil&#45;&gt;SemiLattice -->
<g id="edge12" class="edge"><title>Nil&#45;&gt;SemiLattice</title>
<path fill="none" stroke="black" d="M149.218,-144.411C152.564,-136.335 156.667,-126.431 160.427,-117.355"/>
<polygon fill="black" stroke="black" points="163.727,-118.534 164.321,-107.956 157.26,-115.855 163.727,-118.534"/>
</g>
<!-- L&#45;&gt;J -->
<g id="edge14" class="edge"><title>L&#45;&gt;J</title>
<path fill="none" stroke="black" d="M110.714,-289.811C118.258,-280.546 128.05,-268.52 136.54,-258.094"/>
<polygon fill="black" stroke="black" points="139.401,-260.124 143.001,-250.159 133.973,-255.704 139.401,-260.124"/>
</g>
<!-- Ab -->
<g id="node14" class="node"><title>Ab</title>
<ellipse fill="lightgrey" stroke="black" cx="283.345" cy="-234" rx="27" ry="18"/>
<text text-anchor="middle" x="283.345" y="-230.3" font-family="Times,serif" font-size="14.00">Ab</text>
</g>
<!-- Gsol&#45;&gt;Ab -->
<g id="edge16" class="edge"><title>Gsol&#45;&gt;Ab</title>
<path fill="none" stroke="black" d="M320.454,-289.116C314.378,-280.255 306.685,-269.037 299.882,-259.115"/>
<polygon fill="black" stroke="black" points="302.736,-257.089 294.194,-250.821 296.963,-261.048 302.736,-257.089"/>
</g>
<!-- Ab&#45;&gt;Trivial -->
<g id="edge17" class="edge"><title>Ab&#45;&gt;Trivial</title>
<path fill="none" stroke="black" d="M279.979,-215.849C272.681,-178.662 255.354,-90.3744 246.6,-45.7715"/>
<polygon fill="black" stroke="black" points="250.03,-45.0741 244.669,-35.9354 243.161,-46.4223 250.03,-45.0741"/>
</g>
<!-- Com&#45;&gt;ACom -->
<g id="edge20" class="edge"><title>Com&#45;&gt;ACom</title>
<path fill="none" stroke="black" d="M220.426,-359.849C220.599,-322.832 221.008,-235.181 221.217,-190.386"/>
<polygon fill="black" stroke="black" points="224.718,-190.249 221.265,-180.232 217.718,-190.216 224.718,-190.249"/>
</g>
<!-- Com&#45;&gt;Ab -->
<g id="edge19" class="edge"><title>Com&#45;&gt;Ab</title>
<path fill="none" stroke="black" d="M227.696,-360.433C238.555,-335.957 258.983,-289.912 271.839,-260.936"/>
<polygon fill="black" stroke="black" points="275.186,-262.022 276.042,-251.462 268.787,-259.183 275.186,-262.022"/>
</g>
<!-- W&#45;&gt;Gsol -->
<g id="edge22" class="edge"><title>W&#45;&gt;Gsol</title>
<path fill="none" stroke="black" d="M316.216,-511.01C332.525,-502.238 353.596,-487.782 363.345,-468 384.565,-424.945 376.222,-406.241 363.345,-360 360.478,-349.702 355.009,-339.407 349.392,-330.666"/>
<polygon fill="black" stroke="black" points="352.124,-328.461 343.589,-322.185 346.347,-332.414 352.124,-328.461"/>
</g>
<!-- DS -->
<g id="node17" class="node"><title>DS</title>
<ellipse fill="lightgreen" stroke="black" cx="285.345" cy="-450" rx="27" ry="18"/>
<text text-anchor="middle" x="285.345" y="-446.3" font-family="Times,serif" font-size="14.00">DS</text>
</g>
<!-- W&#45;&gt;DS -->
<g id="edge23" class="edge"><title>W&#45;&gt;DS</title>
<path fill="none" stroke="black" d="M292.167,-504.055C291.176,-496.346 289.977,-487.027 288.864,-478.364"/>
<polygon fill="black" stroke="black" points="292.313,-477.747 287.567,-468.275 285.37,-478.64 292.313,-477.747"/>
</g>
<!-- DS&#45;&gt;DA -->
<g id="edge26" class="edge"><title>DS&#45;&gt;DA</title>
<path fill="none" stroke="black" d="M264.536,-438.52C241.198,-426.767 203.139,-407.601 176.533,-394.202"/>
<polygon fill="black" stroke="black" points="177.803,-390.923 167.297,-389.551 174.655,-397.175 177.803,-390.923"/>
</g>
<!-- DS&#45;&gt;Com -->
<g id="edge27" class="edge"><title>DS&#45;&gt;Com</title>
<path fill="none" stroke="black" d="M271.561,-434.155C262.684,-424.596 250.983,-411.994 241.006,-401.249"/>
<polygon fill="black" stroke="black" points="243.48,-398.77 234.11,-393.824 238.35,-403.533 243.48,-398.77"/>
</g>
<!-- G -->
<g id="node18" class="node"><title>G</title>
<ellipse fill="lightgrey" stroke="black" cx="294.345" cy="-378" rx="27" ry="18"/>
<text text-anchor="middle" x="294.345" y="-374.3" font-family="Times,serif" font-size="14.00">G</text>
</g>
<!-- DS&#45;&gt;G -->
<g id="edge24" class="edge"><title>DS&#45;&gt;G</title>
<path fill="none" stroke="black" d="M287.524,-432.055C288.515,-424.346 289.713,-415.027 290.827,-406.364"/>
<polygon fill="black" stroke="black" points="294.32,-406.64 292.124,-396.275 287.378,-405.747 294.32,-406.64"/>
</g>
<!-- G&#45;&gt;Gsol -->
<g id="edge25" class="edge"><title>G&#45;&gt;Gsol</title>
<path fill="none" stroke="black" d="M302.927,-360.765C307.41,-352.283 312.996,-341.714 318.027,-332.197"/>
<polygon fill="black" stroke="black" points="321.232,-333.624 322.81,-323.147 315.043,-330.353 321.232,-333.624"/>
</g>
</g>
</svg>
