<?xml version="1.0" encoding="UTF-8" standalone="no"?>
<!DOCTYPE svg PUBLIC "-//W3C//DTD SVG 1.1//EN"
 "http://www.w3.org/Graphics/SVG/1.1/DTD/svg11.dtd">
<!-- Generated by graphviz version 2.38.0 (20140413.2041)
 -->
<!-- Title: %3 Pages: 1 -->
<svg width="80pt" height="153pt"
 viewBox="0.00 0.00 79.90 152.80" xmlns="http://www.w3.org/2000/svg" xmlns:xlink="http://www.w3.org/1999/xlink">
<g id="graph0" class="graph" transform="scale(1 1) rotate(0) translate(4 148.803)">
<title>%3</title>
<!-- state_1 -->
<g id="node1" class="node"><title>state_1</title>
<ellipse fill="#aaff80" stroke="black" cx="25.4507" cy="-123.352" rx="21.4016" ry="21.4016"/>
<text text-anchor="middle" x="25.4507" y="-119.652" font-family="Times,serif" font-size="14.00">state_1</text>
</g>
<!-- state_1&#45;&gt;state_1 -->
<g id="edge1" class="edge"><title>state_1&#45;&gt;state_1</title>
<path fill="none" stroke="black" d="M45.3435,-131.674C55.6295,-132.954 64.9015,-130.18 64.9015,-123.352 64.9015,-118.978 61.0963,-116.268 55.6569,-115.221"/>
<polygon fill="black" stroke="black" points="55.4064,-111.716 45.3435,-115.03 55.2771,-118.715 55.4064,-111.716"/>
<text text-anchor="middle" x="68.4015" y="-119.652" font-family="Times,serif" font-size="14.00">a</text>
</g>
<!-- state_2 -->
<g id="node2" class="node"><title>state_2</title>
<ellipse fill="lightblue" stroke="black" cx="25.4507" cy="-25.4507" rx="21.4093" ry="21.4093"/>
<ellipse fill="none" stroke="black" cx="25.4507" cy="-25.4507" rx="25.4016" ry="25.4016"/>
<text text-anchor="middle" x="25.4507" y="-21.7507" font-family="Times,serif" font-size="14.00">state_2</text>
</g>
<!-- state_1&#45;&gt;state_2 -->
<g id="edge2" class="edge"><title>state_1&#45;&gt;state_2</title>
<path fill="none" stroke="black" d="M25.4507,-101.543C25.4507,-89.6904 25.4507,-74.5387 25.4507,-60.9538"/>
<polygon fill="black" stroke="black" points="28.9508,-60.9513 25.4507,-50.9513 21.9508,-60.9513 28.9508,-60.9513"/>
<text text-anchor="middle" x="28.9507" y="-72.7015" font-family="Times,serif" font-size="14.00">a</text>
</g>
</g>
</svg>
