<?xml version="1.0" encoding="UTF-8" standalone="no"?>
<!DOCTYPE svg PUBLIC "-//W3C//DTD SVG 1.1//EN"
 "http://www.w3.org/Graphics/SVG/1.1/DTD/svg11.dtd">
<!-- Generated by graphviz version 2.38.0 (20140413.2041)
 -->
<!-- Title: %3 Pages: 1 -->
<svg width="537pt" height="1081pt"
 viewBox="0.00 0.00 537.00 1081.00" xmlns="http://www.w3.org/2000/svg" xmlns:xlink="http://www.w3.org/1999/xlink">
<g id="graph0" class="graph" transform="scale(1 1) rotate(0) translate(4 1077)">
<title>%3</title>
<!-- 0 -->
<g id="node1" class="node"><title>0</title>
<ellipse fill="lightblue" stroke="black" cx="226" cy="-766" rx="18" ry="18"/>
<ellipse fill="none" stroke="black" cx="226" cy="-766" rx="22" ry="22"/>
<text text-anchor="middle" x="226" y="-762.3" font-family="Times,serif" font-size="14.00">0</text>
</g>
<!-- 5 -->
<g id="node6" class="node"><title>5</title>
<ellipse fill="lightblue" stroke="black" cx="184" cy="-204" rx="18" ry="18"/>
<ellipse fill="none" stroke="black" cx="184" cy="-204" rx="22" ry="22"/>
<text text-anchor="middle" x="184" y="-200.3" font-family="Times,serif" font-size="14.00">5</text>
</g>
<!-- 0&#45;&gt;5 -->
<g id="edge1" class="edge"><title>0&#45;&gt;5</title>
<path fill="none" stroke="black" d="M233.818,-745.198C240.142,-727.386 248,-700.352 248,-676 248,-676 248,-676 248,-488 248,-379.465 289.38,-339.604 238,-244 232.342,-233.471 222.45,-225.087 212.665,-218.832"/>
<polygon fill="black" stroke="black" points="214.236,-215.696 203.834,-213.685 210.712,-221.744 214.236,-215.696"/>
<text text-anchor="middle" x="251.5" y="-485.3" font-family="Times,serif" font-size="14.00">a</text>
</g>
<!-- 12 -->
<g id="node13" class="node"><title>12</title>
<ellipse fill="lightblue" stroke="black" cx="116" cy="-675" rx="18" ry="18"/>
<text text-anchor="middle" x="116" y="-671.3" font-family="Times,serif" font-size="14.00">12</text>
</g>
<!-- 0&#45;&gt;12 -->
<g id="edge2" class="edge"><title>0&#45;&gt;12</title>
<path fill="none" stroke="black" d="M209.293,-751.483C190.171,-736.011 158.789,-710.62 137.768,-693.612"/>
<polygon fill="black" stroke="black" points="139.704,-690.676 129.728,-687.107 135.301,-696.118 139.704,-690.676"/>
<text text-anchor="middle" x="180.5" y="-714.8" font-family="Times,serif" font-size="14.00">b</text>
</g>
<!-- 1 -->
<g id="node2" class="node"><title>1</title>
<ellipse fill="lightblue" stroke="black" cx="346" cy="-299" rx="18" ry="18"/>
<text text-anchor="middle" x="346" y="-295.3" font-family="Times,serif" font-size="14.00">1</text>
</g>
<!-- 21 -->
<g id="node22" class="node"><title>21</title>
<ellipse fill="lightblue" stroke="black" cx="321" cy="-204" rx="18" ry="18"/>
<text text-anchor="middle" x="321" y="-200.3" font-family="Times,serif" font-size="14.00">21</text>
</g>
<!-- 1&#45;&gt;21 -->
<g id="edge3" class="edge"><title>1&#45;&gt;21</title>
<path fill="none" stroke="black" d="M341.531,-281.373C337.798,-267.487 332.408,-247.438 328.087,-231.365"/>
<polygon fill="black" stroke="black" points="331.407,-230.231 325.431,-221.483 324.647,-232.048 331.407,-230.231"/>
<text text-anchor="middle" x="337.5" y="-247.8" font-family="Times,serif" font-size="14.00">a</text>
</g>
<!-- 23 -->
<g id="node24" class="node"><title>23</title>
<ellipse fill="lightblue" stroke="black" cx="267" cy="-204" rx="18" ry="18"/>
<text text-anchor="middle" x="267" y="-200.3" font-family="Times,serif" font-size="14.00">23</text>
</g>
<!-- 1&#45;&gt;23 -->
<g id="edge4" class="edge"><title>1&#45;&gt;23</title>
<path fill="none" stroke="black" d="M334.681,-284.675C321.658,-269.344 300.106,-243.973 284.825,-225.984"/>
<polygon fill="black" stroke="black" points="287.439,-223.655 278.298,-218.3 282.104,-228.187 287.439,-223.655"/>
<text text-anchor="middle" x="314.5" y="-247.8" font-family="Times,serif" font-size="14.00">b</text>
</g>
<!-- 2 -->
<g id="node3" class="node"><title>2</title>
<ellipse fill="lightblue" stroke="black" cx="143" cy="-489" rx="18" ry="18"/>
<ellipse fill="none" stroke="black" cx="143" cy="-489" rx="22" ry="22"/>
<text text-anchor="middle" x="143" y="-485.3" font-family="Times,serif" font-size="14.00">2</text>
</g>
<!-- 2&#45;&gt;2 -->
<g id="edge5" class="edge"><title>2&#45;&gt;2</title>
<path fill="none" stroke="black" d="M163.581,-497.37C173.845,-498.528 183,-495.738 183,-489 183,-484.683 179.243,-481.987 173.844,-480.911"/>
<polygon fill="black" stroke="black" points="173.673,-477.405 163.581,-480.63 173.481,-484.402 173.673,-477.405"/>
<text text-anchor="middle" x="186.5" y="-485.3" font-family="Times,serif" font-size="14.00">b</text>
</g>
<!-- 15 -->
<g id="node16" class="node"><title>15</title>
<ellipse fill="lightblue" stroke="black" cx="149" cy="-394" rx="18" ry="18"/>
<ellipse fill="none" stroke="black" cx="149" cy="-394" rx="22" ry="22"/>
<text text-anchor="middle" x="149" y="-390.3" font-family="Times,serif" font-size="14.00">15</text>
</g>
<!-- 2&#45;&gt;15 -->
<g id="edge6" class="edge"><title>2&#45;&gt;15</title>
<path fill="none" stroke="black" d="M144.361,-466.897C145.136,-454.887 146.121,-439.617 146.984,-426.242"/>
<polygon fill="black" stroke="black" points="150.493,-426.224 147.644,-416.02 143.507,-425.774 150.493,-426.224"/>
<text text-anchor="middle" x="149.5" y="-437.8" font-family="Times,serif" font-size="14.00">a</text>
</g>
<!-- 3 -->
<g id="node4" class="node"><title>3</title>
<ellipse fill="lightblue" stroke="black" cx="273" cy="-861" rx="18" ry="18"/>
<ellipse fill="none" stroke="black" cx="273" cy="-861" rx="22" ry="22"/>
<text text-anchor="middle" x="273" y="-857.3" font-family="Times,serif" font-size="14.00">3</text>
</g>
<!-- 3&#45;&gt;3 -->
<g id="edge7" class="edge"><title>3&#45;&gt;3</title>
<path fill="none" stroke="black" d="M293.581,-869.37C303.845,-870.528 313,-867.738 313,-861 313,-856.683 309.243,-853.987 303.844,-852.911"/>
<polygon fill="black" stroke="black" points="303.673,-849.405 293.581,-852.63 303.481,-856.402 303.673,-849.405"/>
<text text-anchor="middle" x="316.5" y="-857.3" font-family="Times,serif" font-size="14.00">b</text>
</g>
<!-- 6 -->
<g id="node7" class="node"><title>6</title>
<ellipse fill="lightblue" stroke="black" cx="312" cy="-766" rx="18" ry="18"/>
<ellipse fill="none" stroke="black" cx="312" cy="-766" rx="22" ry="22"/>
<text text-anchor="middle" x="312" y="-762.3" font-family="Times,serif" font-size="14.00">6</text>
</g>
<!-- 3&#45;&gt;6 -->
<g id="edge8" class="edge"><title>3&#45;&gt;6</title>
<path fill="none" stroke="black" d="M281.271,-840.277C286.648,-827.454 293.754,-810.509 299.778,-796.145"/>
<polygon fill="black" stroke="black" points="303.101,-797.27 303.741,-786.694 296.646,-794.563 303.101,-797.27"/>
<text text-anchor="middle" x="297.5" y="-809.8" font-family="Times,serif" font-size="14.00">a</text>
</g>
<!-- 4 -->
<g id="node5" class="node"><title>4</title>
<ellipse fill="lightblue" stroke="black" cx="87" cy="-394" rx="18" ry="18"/>
<ellipse fill="none" stroke="black" cx="87" cy="-394" rx="22" ry="22"/>
<text text-anchor="middle" x="87" y="-390.3" font-family="Times,serif" font-size="14.00">4</text>
</g>
<!-- 9 -->
<g id="node10" class="node"><title>9</title>
<ellipse fill="lightblue" stroke="black" cx="96" cy="-299" rx="18" ry="18"/>
<ellipse fill="none" stroke="black" cx="96" cy="-299" rx="22" ry="22"/>
<text text-anchor="middle" x="96" y="-295.3" font-family="Times,serif" font-size="14.00">9</text>
</g>
<!-- 4&#45;&gt;9 -->
<g id="edge9" class="edge"><title>4&#45;&gt;9</title>
<path fill="none" stroke="black" d="M89.0422,-371.897C90.2045,-359.887 91.6822,-344.617 92.9766,-331.242"/>
<polygon fill="black" stroke="black" points="96.4862,-331.31 93.9658,-321.02 89.5188,-330.636 96.4862,-331.31"/>
<text text-anchor="middle" x="96.5" y="-342.8" font-family="Times,serif" font-size="14.00">a</text>
</g>
<!-- 13 -->
<g id="node14" class="node"><title>13</title>
<ellipse fill="lightblue" stroke="black" cx="265" cy="-18" rx="18" ry="18"/>
<text text-anchor="middle" x="265" y="-14.3" font-family="Times,serif" font-size="14.00">13</text>
</g>
<!-- 4&#45;&gt;13 -->
<g id="edge10" class="edge"><title>4&#45;&gt;13</title>
<path fill="none" stroke="black" d="M74.2521,-375.821C62.2164,-357.868 46,-328.409 46,-300 46,-300 46,-300 46,-108 46,-26.6715 177.227,-17.9239 236.519,-18.1223"/>
<polygon fill="black" stroke="black" points="236.662,-21.6242 246.705,-18.2479 236.749,-14.6247 236.662,-21.6242"/>
<text text-anchor="middle" x="49.5" y="-200.3" font-family="Times,serif" font-size="14.00">b</text>
</g>
<!-- 5&#45;&gt;5 -->
<g id="edge11" class="edge"><title>5&#45;&gt;5</title>
<path fill="none" stroke="black" d="M204.581,-212.37C214.845,-213.528 224,-210.738 224,-204 224,-199.683 220.243,-196.987 214.844,-195.911"/>
<polygon fill="black" stroke="black" points="214.673,-192.405 204.581,-195.63 214.481,-199.402 214.673,-192.405"/>
<text text-anchor="middle" x="227.5" y="-200.3" font-family="Times,serif" font-size="14.00">a</text>
</g>
<!-- 7 -->
<g id="node8" class="node"><title>7</title>
<ellipse fill="lightblue" stroke="black" cx="265" cy="-109" rx="18" ry="18"/>
<ellipse fill="none" stroke="black" cx="265" cy="-109" rx="22" ry="22"/>
<text text-anchor="middle" x="265" y="-105.3" font-family="Times,serif" font-size="14.00">7</text>
</g>
<!-- 5&#45;&gt;7 -->
<g id="edge12" class="edge"><title>5&#45;&gt;7</title>
<path fill="none" stroke="black" d="M200.733,-189.348C209.043,-182.199 218.992,-173.063 227,-164 234.478,-155.537 241.828,-145.591 248.041,-136.556"/>
<polygon fill="black" stroke="black" points="250.948,-138.504 253.617,-128.251 245.137,-134.603 250.948,-138.504"/>
<text text-anchor="middle" x="241.5" y="-152.8" font-family="Times,serif" font-size="14.00">b</text>
</g>
<!-- 6&#45;&gt;5 -->
<g id="edge13" class="edge"><title>6&#45;&gt;5</title>
<path fill="none" stroke="black" d="M304.537,-745.167C298.501,-727.336 291,-700.29 291,-676 291,-676 291,-676 291,-535.5 291,-420.301 303.23,-387.885 272,-277 267.527,-261.119 266.51,-255.82 255,-244 243.441,-232.129 227.484,-222.925 213.625,-216.447"/>
<polygon fill="black" stroke="black" points="215.008,-213.231 204.446,-212.398 212.183,-219.636 215.008,-213.231"/>
<text text-anchor="middle" x="295.5" y="-485.3" font-family="Times,serif" font-size="14.00">a</text>
</g>
<!-- 16 -->
<g id="node17" class="node"><title>16</title>
<ellipse fill="lightblue" stroke="black" cx="430" cy="-675" rx="18" ry="18"/>
<text text-anchor="middle" x="430" y="-671.3" font-family="Times,serif" font-size="14.00">16</text>
</g>
<!-- 6&#45;&gt;16 -->
<g id="edge14" class="edge"><title>6&#45;&gt;16</title>
<path fill="none" stroke="black" d="M329.158,-752.059C349.903,-736.412 384.866,-710.042 407.687,-692.829"/>
<polygon fill="black" stroke="black" points="409.908,-695.538 415.784,-686.722 405.693,-689.95 409.908,-695.538"/>
<text text-anchor="middle" x="384.5" y="-714.8" font-family="Times,serif" font-size="14.00">b</text>
</g>
<!-- 7&#45;&gt;7 -->
<g id="edge15" class="edge"><title>7&#45;&gt;7</title>
<path fill="none" stroke="black" d="M285.581,-117.37C295.845,-118.528 305,-115.738 305,-109 305,-104.683 301.243,-101.987 295.844,-100.911"/>
<polygon fill="black" stroke="black" points="295.673,-97.405 285.581,-100.63 295.481,-104.402 295.673,-97.405"/>
<text text-anchor="middle" x="308.5" y="-105.3" font-family="Times,serif" font-size="14.00">a</text>
</g>
<!-- 7&#45;&gt;13 -->
<g id="edge16" class="edge"><title>7&#45;&gt;13</title>
<path fill="none" stroke="black" d="M265,-86.9082C265,-74.7803 265,-59.4094 265,-46.3598"/>
<polygon fill="black" stroke="black" points="268.5,-46.0663 265,-36.0663 261.5,-46.0663 268.5,-46.0663"/>
<text text-anchor="middle" x="268.5" y="-57.8" font-family="Times,serif" font-size="14.00">b</text>
</g>
<!-- 8 -->
<g id="node9" class="node"><title>8</title>
<ellipse fill="lightblue" stroke="black" cx="430" cy="-584" rx="18" ry="18"/>
<text text-anchor="middle" x="430" y="-580.3" font-family="Times,serif" font-size="14.00">8</text>
</g>
<!-- 11 -->
<g id="node12" class="node"><title>11</title>
<ellipse fill="lightblue" stroke="black" cx="376" cy="-489" rx="18" ry="18"/>
<text text-anchor="middle" x="376" y="-485.3" font-family="Times,serif" font-size="14.00">11</text>
</g>
<!-- 8&#45;&gt;11 -->
<g id="edge17" class="edge"><title>8&#45;&gt;11</title>
<path fill="none" stroke="black" d="M421.324,-568.058C412.822,-553.415 399.729,-530.866 389.797,-513.762"/>
<polygon fill="black" stroke="black" points="392.703,-511.795 384.655,-504.905 386.649,-515.31 392.703,-511.795"/>
<text text-anchor="middle" x="409.5" y="-532.8" font-family="Times,serif" font-size="14.00">b</text>
</g>
<!-- 17 -->
<g id="node18" class="node"><title>17</title>
<ellipse fill="lightblue" stroke="black" cx="455" cy="-394" rx="18" ry="18"/>
<text text-anchor="middle" x="455" y="-390.3" font-family="Times,serif" font-size="14.00">17</text>
</g>
<!-- 8&#45;&gt;17 -->
<g id="edge18" class="edge"><title>8&#45;&gt;17</title>
<path fill="none" stroke="black" d="M432.263,-565.985C436.612,-533.28 446.169,-461.408 451.402,-422.06"/>
<polygon fill="black" stroke="black" points="454.876,-422.486 452.724,-412.112 447.937,-421.564 454.876,-422.486"/>
<text text-anchor="middle" x="448.5" y="-485.3" font-family="Times,serif" font-size="14.00">a</text>
</g>
<!-- 9&#45;&gt;5 -->
<g id="edge19" class="edge"><title>9&#45;&gt;5</title>
<path fill="none" stroke="black" d="M110.928,-282.224C125.046,-267.304 146.392,-244.745 162.373,-227.856"/>
<polygon fill="black" stroke="black" points="164.962,-230.212 169.292,-220.543 159.877,-225.401 164.962,-230.212"/>
<text text-anchor="middle" x="148.5" y="-247.8" font-family="Times,serif" font-size="14.00">a</text>
</g>
<!-- 9&#45;&gt;13 -->
<g id="edge20" class="edge"><title>9&#45;&gt;13</title>
<path fill="none" stroke="black" d="M91.2452,-277.283C81.9398,-230.97 66.8156,-118.102 123,-54 137.813,-37.0991 200.041,-26.8361 237.025,-22.1123"/>
<polygon fill="black" stroke="black" points="237.668,-25.56 247.17,-20.8743 236.82,-18.6115 237.668,-25.56"/>
<text text-anchor="middle" x="88.5" y="-152.8" font-family="Times,serif" font-size="14.00">b</text>
</g>
<!-- 10 -->
<g id="node11" class="node"><title>10</title>
<ellipse fill="lightblue" stroke="black" cx="438" cy="-299" rx="18" ry="18"/>
<text text-anchor="middle" x="438" y="-295.3" font-family="Times,serif" font-size="14.00">10</text>
</g>
<!-- 10&#45;&gt;13 -->
<g id="edge21" class="edge"><title>10&#45;&gt;13</title>
<path fill="none" stroke="black" d="M442.221,-281.263C452.102,-237.767 471.756,-119.976 414,-54 398.322,-36.0902 331.613,-26.1064 292.978,-21.7264"/>
<polygon fill="black" stroke="black" points="293.209,-18.2311 282.891,-20.6377 292.458,-25.1906 293.209,-18.2311"/>
<text text-anchor="middle" x="455.5" y="-152.8" font-family="Times,serif" font-size="14.00">b</text>
</g>
<!-- 10&#45;&gt;21 -->
<g id="edge22" class="edge"><title>10&#45;&gt;21</title>
<path fill="none" stroke="black" d="M424.119,-286.966C404.064,-271.025 366.785,-241.393 342.971,-222.464"/>
<polygon fill="black" stroke="black" points="344.869,-219.502 334.863,-216.019 340.513,-224.982 344.869,-219.502"/>
<text text-anchor="middle" x="389.5" y="-247.8" font-family="Times,serif" font-size="14.00">a</text>
</g>
<!-- 11&#45;&gt;11 -->
<g id="edge23" class="edge"><title>11&#45;&gt;11</title>
<path fill="none" stroke="black" d="M392.29,-497.016C402.389,-498.949 412,-496.277 412,-489 412,-484.338 408.056,-481.566 402.566,-480.684"/>
<polygon fill="black" stroke="black" points="402.184,-477.193 392.29,-480.984 402.388,-484.19 402.184,-477.193"/>
<text text-anchor="middle" x="415.5" y="-485.3" font-family="Times,serif" font-size="14.00">b</text>
</g>
<!-- 24 -->
<g id="node25" class="node"><title>24</title>
<ellipse fill="lightblue" stroke="black" cx="376" cy="-394" rx="18" ry="18"/>
<text text-anchor="middle" x="376" y="-390.3" font-family="Times,serif" font-size="14.00">24</text>
</g>
<!-- 11&#45;&gt;24 -->
<g id="edge24" class="edge"><title>11&#45;&gt;24</title>
<path fill="none" stroke="black" d="M376,-470.942C376,-457.394 376,-438.18 376,-422.469"/>
<polygon fill="black" stroke="black" points="379.5,-422.264 376,-412.264 372.5,-422.264 379.5,-422.264"/>
<text text-anchor="middle" x="379.5" y="-437.8" font-family="Times,serif" font-size="14.00">a</text>
</g>
<!-- 12&#45;&gt;13 -->
<g id="edge25" class="edge"><title>12&#45;&gt;13</title>
<path fill="none" stroke="black" d="M98.6336,-669.459C66.2735,-659.831 0,-634.117 0,-585 0,-585 0,-585 0,-108 0,-72.7794 26.4186,-69.5919 58,-54 116.801,-24.9695 195.198,-19.457 236.601,-18.7444"/>
<polygon fill="black" stroke="black" points="236.805,-22.2428 246.774,-18.655 236.743,-15.2431 236.805,-22.2428"/>
<text text-anchor="middle" x="3.5" y="-342.8" font-family="Times,serif" font-size="14.00">a</text>
</g>
<!-- 14 -->
<g id="node15" class="node"><title>14</title>
<ellipse fill="lightblue" stroke="black" cx="116" cy="-584" rx="18" ry="18"/>
<ellipse fill="none" stroke="black" cx="116" cy="-584" rx="22" ry="22"/>
<text text-anchor="middle" x="116" y="-580.3" font-family="Times,serif" font-size="14.00">14</text>
</g>
<!-- 12&#45;&gt;14 -->
<g id="edge26" class="edge"><title>12&#45;&gt;14</title>
<path fill="none" stroke="black" d="M116,-656.84C116,-645.441 116,-630.134 116,-616.578"/>
<polygon fill="black" stroke="black" points="119.5,-616.19 116,-606.191 112.5,-616.191 119.5,-616.19"/>
<text text-anchor="middle" x="119.5" y="-627.8" font-family="Times,serif" font-size="14.00">b</text>
</g>
<!-- 13&#45;&gt;13 -->
<g id="edge27" class="edge"><title>13&#45;&gt;13</title>
<path fill="none" stroke="black" d="M281.664,-25.3828C291.625,-27.0234 301,-24.5625 301,-18 301,-13.7959 297.152,-11.2751 291.768,-10.4375"/>
<polygon fill="black" stroke="black" points="291.6,-6.93988 281.664,-10.6172 291.725,-13.9388 291.6,-6.93988"/>
<text text-anchor="middle" x="309.5" y="-14.3" font-family="Times,serif" font-size="14.00">a,b</text>
</g>
<!-- 14&#45;&gt;2 -->
<g id="edge28" class="edge"><title>14&#45;&gt;2</title>
<path fill="none" stroke="black" d="M121.992,-562.36C125.618,-549.873 130.302,-533.736 134.328,-519.872"/>
<polygon fill="black" stroke="black" points="137.691,-520.841 137.117,-510.262 130.968,-518.89 137.691,-520.841"/>
<text text-anchor="middle" x="134.5" y="-532.8" font-family="Times,serif" font-size="14.00">b</text>
</g>
<!-- 14&#45;&gt;4 -->
<g id="edge29" class="edge"><title>14&#45;&gt;4</title>
<path fill="none" stroke="black" d="M112.786,-562.162C107.69,-529.13 97.7292,-464.555 91.7899,-426.052"/>
<polygon fill="black" stroke="black" points="95.2124,-425.28 90.2287,-415.931 88.2942,-426.348 95.2124,-425.28"/>
<text text-anchor="middle" x="108.5" y="-485.3" font-family="Times,serif" font-size="14.00">a</text>
</g>
<!-- 15&#45;&gt;13 -->
<g id="edge30" class="edge"><title>15&#45;&gt;13</title>
<path fill="none" stroke="black" d="M144.081,-372.5C132.673,-319.749 109.886,-177.153 172,-87 189.221,-62.0045 218.707,-42.7476 239.864,-31.2093"/>
<polygon fill="black" stroke="black" points="241.694,-34.2018 248.925,-26.4582 238.443,-28.0024 241.694,-34.2018"/>
<text text-anchor="middle" x="138.5" y="-200.3" font-family="Times,serif" font-size="14.00">b</text>
</g>
<!-- 20 -->
<g id="node21" class="node"><title>20</title>
<ellipse fill="lightblue" stroke="black" cx="200" cy="-299" rx="18" ry="18"/>
<ellipse fill="none" stroke="black" cx="200" cy="-299" rx="22" ry="22"/>
<text text-anchor="middle" x="200" y="-295.3" font-family="Times,serif" font-size="14.00">20</text>
</g>
<!-- 15&#45;&gt;20 -->
<g id="edge31" class="edge"><title>15&#45;&gt;20</title>
<path fill="none" stroke="black" d="M159.321,-374.18C166.648,-360.818 176.605,-342.662 184.833,-327.657"/>
<polygon fill="black" stroke="black" points="187.955,-329.243 189.695,-318.792 181.818,-325.877 187.955,-329.243"/>
<text text-anchor="middle" x="180.5" y="-342.8" font-family="Times,serif" font-size="14.00">a</text>
</g>
<!-- 16&#45;&gt;8 -->
<g id="edge32" class="edge"><title>16&#45;&gt;8</title>
<path fill="none" stroke="black" d="M430,-656.84C430,-644.281 430,-626.979 430,-612.502"/>
<polygon fill="black" stroke="black" points="433.5,-612.107 430,-602.107 426.5,-612.107 433.5,-612.107"/>
<text text-anchor="middle" x="433.5" y="-627.8" font-family="Times,serif" font-size="14.00">b</text>
</g>
<!-- 16&#45;&gt;13 -->
<g id="edge33" class="edge"><title>16&#45;&gt;13</title>
<path fill="none" stroke="black" d="M446.448,-667.146C472.91,-654.891 522,-626.557 522,-585 522,-585 522,-585 522,-108 522,-76.4726 503.441,-69.523 476,-54 445.137,-36.5413 342.886,-25.6522 292.942,-21.2474"/>
<polygon fill="black" stroke="black" points="293.104,-17.7486 282.842,-20.3825 292.507,-24.7231 293.104,-17.7486"/>
<text text-anchor="middle" x="525.5" y="-342.8" font-family="Times,serif" font-size="14.00">a</text>
</g>
<!-- 17&#45;&gt;10 -->
<g id="edge34" class="edge"><title>17&#45;&gt;10</title>
<path fill="none" stroke="black" d="M451.882,-375.942C449.39,-362.308 445.849,-342.938 442.967,-327.173"/>
<polygon fill="black" stroke="black" points="446.339,-326.157 441.098,-316.949 439.454,-327.416 446.339,-326.157"/>
<text text-anchor="middle" x="450.5" y="-342.8" font-family="Times,serif" font-size="14.00">a</text>
</g>
<!-- 17&#45;&gt;13 -->
<g id="edge35" class="edge"><title>17&#45;&gt;13</title>
<path fill="none" stroke="black" d="M462.924,-377.66C471.511,-359.586 484,-328.413 484,-300 484,-300 484,-300 484,-108 484,-26.6715 352.773,-17.9239 293.481,-18.1223"/>
<polygon fill="black" stroke="black" points="293.251,-14.6247 283.295,-18.2479 293.338,-21.6242 293.251,-14.6247"/>
<text text-anchor="middle" x="487.5" y="-200.3" font-family="Times,serif" font-size="14.00">b</text>
</g>
<!-- 18 -->
<g id="node19" class="node"><title>18</title>
<ellipse fill="lightblue" stroke="black" cx="273" cy="-956" rx="18" ry="18"/>
<ellipse fill="none" stroke="black" cx="273" cy="-956" rx="22" ry="22"/>
<text text-anchor="middle" x="273" y="-952.3" font-family="Times,serif" font-size="14.00">18</text>
</g>
<!-- 18&#45;&gt;0 -->
<g id="edge36" class="edge"><title>18&#45;&gt;0</title>
<path fill="none" stroke="black" d="M260.974,-937.234C252.129,-923.172 240.694,-902.688 235,-883 226.922,-855.067 225.083,-821.869 225.02,-798.16"/>
<polygon fill="black" stroke="black" points="228.522,-798.015 225.101,-787.987 221.522,-797.959 228.522,-798.015"/>
<text text-anchor="middle" x="238.5" y="-857.3" font-family="Times,serif" font-size="14.00">a</text>
</g>
<!-- 18&#45;&gt;3 -->
<g id="edge37" class="edge"><title>18&#45;&gt;3</title>
<path fill="none" stroke="black" d="M273,-933.897C273,-921.887 273,-906.617 273,-893.242"/>
<polygon fill="black" stroke="black" points="276.5,-893.02 273,-883.02 269.5,-893.02 276.5,-893.02"/>
<text text-anchor="middle" x="276.5" y="-904.8" font-family="Times,serif" font-size="14.00">b</text>
</g>
<!-- 19 -->
<g id="node20" class="node"><title>19</title>
<ellipse fill="lightblue" stroke="black" cx="203" cy="-109" rx="18" ry="18"/>
<ellipse fill="none" stroke="black" cx="203" cy="-109" rx="22" ry="22"/>
<text text-anchor="middle" x="203" y="-105.3" font-family="Times,serif" font-size="14.00">19</text>
</g>
<!-- 19&#45;&gt;13 -->
<g id="edge38" class="edge"><title>19&#45;&gt;13</title>
<path fill="none" stroke="black" d="M215.249,-90.4165C224.984,-76.4417 238.671,-56.7942 249.226,-41.6435"/>
<polygon fill="black" stroke="black" points="252.18,-43.5254 255.025,-33.3195 246.437,-39.5241 252.18,-43.5254"/>
<text text-anchor="middle" x="247.5" y="-57.8" font-family="Times,serif" font-size="14.00">a,b</text>
</g>
<!-- 20&#45;&gt;5 -->
<g id="edge39" class="edge"><title>20&#45;&gt;5</title>
<path fill="none" stroke="black" d="M196.369,-276.897C194.303,-264.887 191.676,-249.617 189.375,-236.242"/>
<polygon fill="black" stroke="black" points="192.761,-235.281 187.616,-226.02 185.863,-236.468 192.761,-235.281"/>
<text text-anchor="middle" x="195.5" y="-247.8" font-family="Times,serif" font-size="14.00">a</text>
</g>
<!-- 20&#45;&gt;23 -->
<g id="edge40" class="edge"><title>20&#45;&gt;23</title>
<path fill="none" stroke="black" d="M212.602,-280.507C223.413,-265.502 239.057,-243.786 250.797,-227.491"/>
<polygon fill="black" stroke="black" points="253.856,-229.232 256.862,-219.073 248.176,-225.14 253.856,-229.232"/>
<text text-anchor="middle" x="240.5" y="-247.8" font-family="Times,serif" font-size="14.00">b</text>
</g>
<!-- 21&#45;&gt;7 -->
<g id="edge41" class="edge"><title>21&#45;&gt;7</title>
<path fill="none" stroke="black" d="M312.003,-188.058C303.759,-174.368 291.355,-153.768 281.359,-137.168"/>
<polygon fill="black" stroke="black" points="284.252,-135.187 276.095,-128.426 278.255,-138.798 284.252,-135.187"/>
<text text-anchor="middle" x="299.5" y="-152.8" font-family="Times,serif" font-size="14.00">b</text>
</g>
<!-- 21&#45;&gt;21 -->
<g id="edge42" class="edge"><title>21&#45;&gt;21</title>
<path fill="none" stroke="black" d="M337.29,-212.016C347.389,-213.949 357,-211.277 357,-204 357,-199.338 353.056,-196.566 347.566,-195.684"/>
<polygon fill="black" stroke="black" points="347.184,-192.193 337.29,-195.984 347.388,-199.19 347.184,-192.193"/>
<text text-anchor="middle" x="360.5" y="-200.3" font-family="Times,serif" font-size="14.00">a</text>
</g>
<!-- 22 -->
<g id="node23" class="node"><title>22</title>
<ellipse fill="#aaff80" stroke="black" cx="324" cy="-1051" rx="18" ry="18"/>
<ellipse fill="none" stroke="black" cx="324" cy="-1051" rx="22" ry="22"/>
<text text-anchor="middle" x="324" y="-1047.3" font-family="Times,serif" font-size="14.00">22</text>
</g>
<!-- 22&#45;&gt;6 -->
<g id="edge43" class="edge"><title>22&#45;&gt;6</title>
<path fill="none" stroke="black" d="M326.431,-1028.95C330.398,-990.885 337.053,-908.153 329,-839 327.371,-825.008 324.017,-809.789 320.715,-796.963"/>
<polygon fill="black" stroke="black" points="324.084,-796.011 318.113,-787.259 317.323,-797.824 324.084,-796.011"/>
<text text-anchor="middle" x="335.5" y="-904.8" font-family="Times,serif" font-size="14.00">a</text>
</g>
<!-- 22&#45;&gt;18 -->
<g id="edge44" class="edge"><title>22&#45;&gt;18</title>
<path fill="none" stroke="black" d="M313.679,-1031.18C306.352,-1017.82 296.395,-999.662 288.167,-984.657"/>
<polygon fill="black" stroke="black" points="291.182,-982.877 283.305,-975.792 285.045,-986.243 291.182,-982.877"/>
<text text-anchor="middle" x="304.5" y="-999.8" font-family="Times,serif" font-size="14.00">b</text>
</g>
<!-- 23&#45;&gt;13 -->
<g id="edge45" class="edge"><title>23&#45;&gt;13</title>
<path fill="none" stroke="black" d="M280.597,-192.18C289.05,-184.912 299.665,-174.729 307,-164 326.63,-135.285 332.746,-119.74 321,-87 314.029,-67.5688 298.84,-49.7232 286.037,-37.1935"/>
<polygon fill="black" stroke="black" points="288.162,-34.3889 278.469,-30.1123 283.38,-39.5003 288.162,-34.3889"/>
<text text-anchor="middle" x="329.5" y="-105.3" font-family="Times,serif" font-size="14.00">b</text>
</g>
<!-- 23&#45;&gt;19 -->
<g id="edge46" class="edge"><title>23&#45;&gt;19</title>
<path fill="none" stroke="black" d="M253.127,-192.145C240.133,-181.875 222.365,-167.52 220,-164 215.298,-157.002 211.839,-148.63 209.317,-140.592"/>
<polygon fill="black" stroke="black" points="212.627,-139.43 206.601,-130.716 205.878,-141.286 212.627,-139.43"/>
<text text-anchor="middle" x="223.5" y="-152.8" font-family="Times,serif" font-size="14.00">a</text>
</g>
<!-- 24&#45;&gt;1 -->
<g id="edge47" class="edge"><title>24&#45;&gt;1</title>
<path fill="none" stroke="black" d="M370.637,-376.373C366.157,-362.487 359.69,-342.438 354.505,-326.365"/>
<polygon fill="black" stroke="black" points="357.718,-324.925 351.317,-316.483 351.056,-327.074 357.718,-324.925"/>
<text text-anchor="middle" x="365.5" y="-342.8" font-family="Times,serif" font-size="14.00">a</text>
</g>
<!-- 24&#45;&gt;13 -->
<g id="edge48" class="edge"><title>24&#45;&gt;13</title>
<path fill="none" stroke="black" d="M379.023,-375.983C383.522,-348.275 390.948,-291.708 386,-244 376.778,-155.083 380.27,-120.022 320,-54 311.587,-44.7843 300.22,-37.0148 290.003,-31.1551"/>
<polygon fill="black" stroke="black" points="291.523,-27.9983 281.061,-26.324 288.195,-34.1569 291.523,-27.9983"/>
<text text-anchor="middle" x="387.5" y="-200.3" font-family="Times,serif" font-size="14.00">b</text>
</g>
</g>
</svg>
