<?xml version="1.0" encoding="UTF-8" standalone="no"?>
<!DOCTYPE svg PUBLIC "-//W3C//DTD SVG 1.1//EN"
 "http://www.w3.org/Graphics/SVG/1.1/DTD/svg11.dtd">
<!-- Generated by graphviz version 2.38.0 (20140413.2041)
 -->
<!-- Title: %3 Pages: 1 -->
<svg width="232pt" height="313pt"
 viewBox="0.00 0.00 232.00 313.00" xmlns="http://www.w3.org/2000/svg" xmlns:xlink="http://www.w3.org/1999/xlink">
<g id="graph0" class="graph" transform="scale(1 1) rotate(0) translate(4 309)">
<title>%3</title>
<!-- 0 -->
<g id="node1" class="node"><title>0</title>
<ellipse fill="lightblue" stroke="black" cx="80" cy="-200" rx="18" ry="18"/>
<text text-anchor="middle" x="80" y="-196.3" font-family="Times,serif" font-size="14.00">0</text>
</g>
<!-- 1 -->
<g id="node2" class="node"><title>1</title>
<ellipse fill="lightblue" stroke="black" cx="22" cy="-109" rx="18" ry="18"/>
<ellipse fill="none" stroke="black" cx="22" cy="-109" rx="22" ry="22"/>
<text text-anchor="middle" x="22" y="-105.3" font-family="Times,serif" font-size="14.00">1</text>
</g>
<!-- 0&#45;&gt;1 -->
<g id="edge1" class="edge"><title>0&#45;&gt;1</title>
<path fill="none" stroke="black" d="M70.4225,-184.303C61.977,-171.344 49.4643,-152.143 39.2743,-136.507"/>
<polygon fill="black" stroke="black" points="41.9834,-134.254 33.5912,-127.787 36.1188,-138.076 41.9834,-134.254"/>
<text text-anchor="middle" x="60.5" y="-152.8" font-family="Times,serif" font-size="14.00">d</text>
</g>
<!-- 3 -->
<g id="node4" class="node"><title>3</title>
<ellipse fill="lightblue" stroke="black" cx="107" cy="-18" rx="18" ry="18"/>
<text text-anchor="middle" x="107" y="-14.3" font-family="Times,serif" font-size="14.00">3</text>
</g>
<!-- 0&#45;&gt;3 -->
<g id="edge2" class="edge"><title>0&#45;&gt;3</title>
<path fill="none" stroke="black" d="M81.7931,-181.874C84.1775,-159.862 88.712,-120.486 94,-87 96.1678,-73.2727 99.0293,-58.0738 101.516,-45.5329"/>
<polygon fill="black" stroke="black" points="104.95,-46.2085 103.493,-35.7144 98.0876,-44.8268 104.95,-46.2085"/>
<text text-anchor="middle" x="107.5" y="-105.3" font-family="Times,serif" font-size="14.00">c,a,b</text>
</g>
<!-- 1&#45;&gt;3 -->
<g id="edge3" class="edge"><title>1&#45;&gt;3</title>
<path fill="none" stroke="black" d="M20.09,-86.9767C20.1789,-76.1643 22.0657,-63.3338 29,-54 40.9481,-37.9176 61.9823,-29.0642 79.1987,-24.2876"/>
<polygon fill="black" stroke="black" points="80.4289,-27.5899 89.3097,-21.8123 78.7643,-20.7907 80.4289,-27.5899"/>
<text text-anchor="middle" x="47.5" y="-57.8" font-family="Times,serif" font-size="14.00">d,c,a,b</text>
</g>
<!-- 2 -->
<g id="node3" class="node"><title>2</title>
<ellipse fill="lightblue" stroke="black" cx="151" cy="-287" rx="18" ry="18"/>
<text text-anchor="middle" x="151" y="-283.3" font-family="Times,serif" font-size="14.00">2</text>
</g>
<!-- 2&#45;&gt;0 -->
<g id="edge4" class="edge"><title>2&#45;&gt;0</title>
<path fill="none" stroke="black" d="M137.653,-274.653C130.297,-268.095 121.221,-259.484 114,-251 107.031,-242.813 100.196,-233.173 94.5036,-224.554"/>
<polygon fill="black" stroke="black" points="97.3823,-222.56 89.027,-216.045 91.4961,-226.348 97.3823,-222.56"/>
<text text-anchor="middle" x="117.5" y="-239.8" font-family="Times,serif" font-size="14.00">c</text>
</g>
<!-- 2&#45;&gt;2 -->
<g id="edge5" class="edge"><title>2&#45;&gt;2</title>
<path fill="none" stroke="black" d="M167.664,-294.383C177.625,-296.023 187,-293.562 187,-287 187,-282.796 183.152,-280.275 177.768,-279.438"/>
<polygon fill="black" stroke="black" points="177.6,-275.94 167.664,-279.617 177.725,-282.939 177.6,-275.94"/>
<text text-anchor="middle" x="190.5" y="-283.3" font-family="Times,serif" font-size="14.00">a</text>
</g>
<!-- 2&#45;&gt;3 -->
<g id="edge6" class="edge"><title>2&#45;&gt;3</title>
<path fill="none" stroke="black" d="M148.738,-268.913C144.102,-234.428 132.952,-154.075 121,-87 118.555,-73.2796 115.463,-58.0814 112.807,-45.5391"/>
<polygon fill="black" stroke="black" points="116.22,-44.7634 110.702,-35.7191 109.375,-46.2306 116.22,-44.7634"/>
<text text-anchor="middle" x="136.5" y="-152.8" font-family="Times,serif" font-size="14.00">d</text>
</g>
<!-- 4 -->
<g id="node5" class="node"><title>4</title>
<ellipse fill="#aaff80" stroke="black" cx="181" cy="-200" rx="18" ry="18"/>
<text text-anchor="middle" x="181" y="-196.3" font-family="Times,serif" font-size="14.00">4</text>
</g>
<!-- 2&#45;&gt;4 -->
<g id="edge7" class="edge"><title>2&#45;&gt;4</title>
<path fill="none" stroke="black" d="M156.784,-269.611C161.059,-257.499 166.964,-240.768 171.873,-226.86"/>
<polygon fill="black" stroke="black" points="175.206,-227.933 175.233,-217.339 168.605,-225.604 175.206,-227.933"/>
<text text-anchor="middle" x="170.5" y="-239.8" font-family="Times,serif" font-size="14.00">b</text>
</g>
<!-- 3&#45;&gt;3 -->
<g id="edge8" class="edge"><title>3&#45;&gt;3</title>
<path fill="none" stroke="black" d="M123.664,-25.3828C133.625,-27.0234 143,-24.5625 143,-18 143,-13.7959 139.152,-11.2751 133.768,-10.4375"/>
<polygon fill="black" stroke="black" points="133.6,-6.93988 123.664,-10.6172 133.725,-13.9388 133.6,-6.93988"/>
<text text-anchor="middle" x="161.5" y="-14.3" font-family="Times,serif" font-size="14.00">d,c,a,b</text>
</g>
<!-- 4&#45;&gt;2 -->
<g id="edge9" class="edge"><title>4&#45;&gt;2</title>
<path fill="none" stroke="black" d="M181.45,-218.162C181.183,-228.049 179.933,-240.549 176,-251 174.22,-255.73 171.633,-260.406 168.791,-264.726"/>
<polygon fill="black" stroke="black" points="165.828,-262.849 162.775,-272.994 171.488,-266.967 165.828,-262.849"/>
<text text-anchor="middle" x="182.5" y="-239.8" font-family="Times,serif" font-size="14.00">a</text>
</g>
<!-- 4&#45;&gt;3 -->
<g id="edge10" class="edge"><title>4&#45;&gt;3</title>
<path fill="none" stroke="black" d="M180.721,-181.593C179.523,-152.946 173.925,-94.9624 149,-54 144.421,-46.4743 137.641,-39.805 130.859,-34.3603"/>
<polygon fill="black" stroke="black" points="132.558,-31.2642 122.432,-28.1464 128.403,-36.8982 132.558,-31.2642"/>
<text text-anchor="middle" x="183.5" y="-105.3" font-family="Times,serif" font-size="14.00">d,c</text>
</g>
<!-- 4&#45;&gt;4 -->
<g id="edge11" class="edge"><title>4&#45;&gt;4</title>
<path fill="none" stroke="black" d="M197.664,-207.383C207.625,-209.023 217,-206.562 217,-200 217,-195.796 213.152,-193.275 207.768,-192.438"/>
<polygon fill="black" stroke="black" points="207.6,-188.94 197.664,-192.617 207.725,-195.939 207.6,-188.94"/>
<text text-anchor="middle" x="220.5" y="-196.3" font-family="Times,serif" font-size="14.00">b</text>
</g>
</g>
</svg>
