<?xml version="1.0" encoding="UTF-8" standalone="no"?>
<!DOCTYPE svg PUBLIC "-//W3C//DTD SVG 1.1//EN"
 "http://www.w3.org/Graphics/SVG/1.1/DTD/svg11.dtd">
<!-- Generated by graphviz version 2.38.0 (20140413.2041)
 -->
<!-- Title: %3 Pages: 1 -->
<svg width="244pt" height="188pt"
 viewBox="0.00 0.00 244.00 188.00" xmlns="http://www.w3.org/2000/svg" xmlns:xlink="http://www.w3.org/1999/xlink">
<g id="graph0" class="graph" transform="scale(1 1) rotate(0) translate(4 184)">
<title>%3</title>
<!-- a -->
<g id="node1" class="node"><title>a</title>
<ellipse fill="none" stroke="black" cx="27" cy="-90" rx="27" ry="18"/>
<text text-anchor="middle" x="27" y="-86.3" font-family="Times,serif" font-size="14.00" fill="red">a</text>
</g>
<!-- ba -->
<g id="node2" class="node"><title>ba</title>
<ellipse fill="none" stroke="black" cx="109" cy="-18" rx="27" ry="18"/>
<text text-anchor="middle" x="109" y="-14.3" font-family="Times,serif" font-size="14.00" fill="red">ba</text>
</g>
<!-- a&#45;&gt;ba -->
<g id="edge1" class="edge"><title>a&#45;&gt;ba</title>
<path fill="none" stroke="black" d="M43.2006,-75.1703C55.1828,-64.9415 71.6915,-50.8487 85.1751,-39.3383"/>
<polygon fill="black" stroke="black" points="87.7789,-41.7175 93.1121,-32.5628 83.234,-36.3935 87.7789,-41.7175"/>
</g>
<!-- ab -->
<g id="node3" class="node"><title>ab</title>
<ellipse fill="none" stroke="black" cx="109" cy="-162" rx="27" ry="18"/>
<text text-anchor="middle" x="109" y="-158.3" font-family="Times,serif" font-size="14.00" fill="red">ab</text>
</g>
<!-- ab&#45;&gt;a -->
<g id="edge3" class="edge"><title>ab&#45;&gt;a</title>
<path fill="none" stroke="black" d="M92.7994,-147.17C80.8172,-136.942 64.3085,-122.849 50.8249,-111.338"/>
<polygon fill="black" stroke="black" points="52.766,-108.394 42.8879,-104.563 48.2211,-113.717 52.766,-108.394"/>
</g>
<!-- ab&#45;&gt;ba -->
<g id="edge4" class="edge"><title>ab&#45;&gt;ba</title>
<path fill="none" stroke="black" d="M105.752,-143.888C103.954,-133.542 101.905,-120.063 101,-108 99.8026,-92.0449 99.8026,-87.9551 101,-72 101.637,-63.5179 102.838,-54.3361 104.121,-46.0356"/>
<polygon fill="black" stroke="black" points="107.584,-46.5472 105.752,-36.1119 100.676,-45.412 107.584,-46.5472"/>
</g>
<!-- 1 -->
<g id="node4" class="node"><title>1</title>
<ellipse fill="none" stroke="black" cx="137" cy="-90" rx="27" ry="18"/>
<text text-anchor="middle" x="137" y="-86.3" font-family="Times,serif" font-size="14.00" fill="red">1</text>
</g>
<!-- ab&#45;&gt;1 -->
<g id="edge2" class="edge"><title>ab&#45;&gt;1</title>
<path fill="none" stroke="black" d="M115.636,-144.411C118.913,-136.216 122.944,-126.14 126.618,-116.955"/>
<polygon fill="black" stroke="black" points="129.948,-118.055 130.412,-107.47 123.448,-115.455 129.948,-118.055"/>
</g>
<!-- b -->
<g id="node5" class="node"><title>b</title>
<ellipse fill="none" stroke="black" cx="209" cy="-90" rx="27" ry="18"/>
<text text-anchor="middle" x="209" y="-86.3" font-family="Times,serif" font-size="14.00" fill="red">b</text>
</g>
<!-- ab&#45;&gt;b -->
<g id="edge5" class="edge"><title>ab&#45;&gt;b</title>
<path fill="none" stroke="black" d="M126.878,-148.485C142.282,-137.702 164.741,-121.981 182.28,-109.704"/>
<polygon fill="black" stroke="black" points="184.754,-112.244 190.94,-103.642 180.74,-106.51 184.754,-112.244"/>
</g>
<!-- 1&#45;&gt;ba -->
<g id="edge6" class="edge"><title>1&#45;&gt;ba</title>
<path fill="none" stroke="black" d="M130.364,-72.411C127.087,-64.2164 123.056,-54.1395 119.382,-44.9548"/>
<polygon fill="black" stroke="black" points="122.552,-43.4548 115.588,-35.4699 116.052,-46.0546 122.552,-43.4548"/>
</g>
<!-- b&#45;&gt;ba -->
<g id="edge7" class="edge"><title>b&#45;&gt;ba</title>
<path fill="none" stroke="black" d="M191.122,-76.4854C175.718,-65.7023 153.259,-49.9813 135.72,-37.7041"/>
<polygon fill="black" stroke="black" points="137.26,-34.5096 127.06,-31.6423 133.246,-40.2442 137.26,-34.5096"/>
</g>
</g>
</svg>
