<?xml version="1.0" encoding="UTF-8" standalone="no"?>
<!DOCTYPE svg PUBLIC "-//W3C//DTD SVG 1.1//EN"
 "http://www.w3.org/Graphics/SVG/1.1/DTD/svg11.dtd">
<!-- Generated by graphviz version 2.38.0 (20140413.2041)
 -->
<!-- Title: %3 Pages: 1 -->
<svg width="394pt" height="843pt"
 viewBox="0.00 0.00 394.00 843.00" xmlns="http://www.w3.org/2000/svg" xmlns:xlink="http://www.w3.org/1999/xlink">
<g id="graph0" class="graph" transform="scale(1 1) rotate(0) translate(4 839)">
<title>%3</title>
<!-- 0 -->
<g id="node1" class="node"><title>0</title>
<ellipse fill="lightblue" stroke="black" cx="62" cy="-548" rx="18" ry="18"/>
<text text-anchor="middle" x="62" y="-544.3" font-family="Times,serif" font-size="14.00">0</text>
</g>
<!-- 10 -->
<g id="node11" class="node"><title>10</title>
<ellipse fill="lightblue" stroke="black" cx="62" cy="-461" rx="18" ry="18"/>
<text text-anchor="middle" x="62" y="-457.3" font-family="Times,serif" font-size="14.00">10</text>
</g>
<!-- 0&#45;&gt;10 -->
<g id="edge1" class="edge"><title>0&#45;&gt;10</title>
<path fill="none" stroke="black" d="M62,-529.799C62,-518.163 62,-502.548 62,-489.237"/>
<polygon fill="black" stroke="black" points="65.5001,-489.175 62,-479.175 58.5001,-489.175 65.5001,-489.175"/>
<text text-anchor="middle" x="65.5" y="-500.8" font-family="Times,serif" font-size="14.00">b</text>
</g>
<!-- 11 -->
<g id="node12" class="node"><title>11</title>
<ellipse fill="lightblue" stroke="black" cx="180" cy="-18" rx="18" ry="18"/>
<text text-anchor="middle" x="180" y="-14.3" font-family="Times,serif" font-size="14.00">11</text>
</g>
<!-- 0&#45;&gt;11 -->
<g id="edge2" class="edge"><title>0&#45;&gt;11</title>
<path fill="none" stroke="black" d="M47.6201,-536.704C29.3047,-522.268 0,-494.147 0,-462 0,-462 0,-462 0,-104 0,-37.6972 101.096,-23.0331 151.759,-19.8473"/>
<polygon fill="black" stroke="black" points="151.946,-23.3424 161.75,-19.3272 151.582,-16.3518 151.946,-23.3424"/>
<text text-anchor="middle" x="8" y="-275.3" font-family="Times,serif" font-size="14.00">c,a</text>
</g>
<!-- 1 -->
<g id="node2" class="node"><title>1</title>
<ellipse fill="lightblue" stroke="black" cx="180" cy="-105" rx="18" ry="18"/>
<text text-anchor="middle" x="180" y="-101.3" font-family="Times,serif" font-size="14.00">1</text>
</g>
<!-- 3 -->
<g id="node4" class="node"><title>3</title>
<ellipse fill="lightblue" stroke="black" cx="108" cy="-370" rx="18" ry="18"/>
<ellipse fill="none" stroke="black" cx="108" cy="-370" rx="22" ry="22"/>
<text text-anchor="middle" x="108" y="-366.3" font-family="Times,serif" font-size="14.00">3</text>
</g>
<!-- 1&#45;&gt;3 -->
<g id="edge3" class="edge"><title>1&#45;&gt;3</title>
<path fill="none" stroke="black" d="M176.793,-122.797C170.234,-156.286 154.27,-233.602 135,-297 130.638,-311.352 124.904,-326.975 119.842,-339.989"/>
<polygon fill="black" stroke="black" points="116.556,-338.782 116.136,-349.369 123.066,-341.354 116.556,-338.782"/>
<text text-anchor="middle" x="156.5" y="-231.8" font-family="Times,serif" font-size="14.00">b</text>
</g>
<!-- 1&#45;&gt;11 -->
<g id="edge4" class="edge"><title>1&#45;&gt;11</title>
<path fill="none" stroke="black" d="M180,-86.799C180,-75.1626 180,-59.5479 180,-46.2368"/>
<polygon fill="black" stroke="black" points="183.5,-46.1754 180,-36.1754 176.5,-46.1755 183.5,-46.1754"/>
<text text-anchor="middle" x="188" y="-57.8" font-family="Times,serif" font-size="14.00">c,a</text>
</g>
<!-- 2 -->
<g id="node3" class="node"><title>2</title>
<ellipse fill="lightblue" stroke="black" cx="331" cy="-817" rx="18" ry="18"/>
<text text-anchor="middle" x="331" y="-813.3" font-family="Times,serif" font-size="14.00">2</text>
</g>
<!-- 9 -->
<g id="node10" class="node"><title>9</title>
<ellipse fill="#aaff80" stroke="black" cx="241" cy="-726" rx="18" ry="18"/>
<ellipse fill="none" stroke="black" cx="241" cy="-726" rx="22" ry="22"/>
<text text-anchor="middle" x="241" y="-722.3" font-family="Times,serif" font-size="14.00">9</text>
</g>
<!-- 2&#45;&gt;9 -->
<g id="edge5" class="edge"><title>2&#45;&gt;9</title>
<path fill="none" stroke="black" d="M318.486,-803.625C304.413,-789.708 281.262,-766.815 263.924,-749.669"/>
<polygon fill="black" stroke="black" points="265.992,-746.792 256.42,-742.249 261.07,-751.769 265.992,-746.792"/>
<text text-anchor="middle" x="297.5" y="-769.8" font-family="Times,serif" font-size="14.00">a</text>
</g>
<!-- 2&#45;&gt;11 -->
<g id="edge6" class="edge"><title>2&#45;&gt;11</title>
<path fill="none" stroke="black" d="M341.183,-801.987C352.439,-785.085 369,-755.393 369,-727 369,-727 369,-727 369,-104 369,-34.3254 260.843,-21.4234 208.166,-19.2714"/>
<polygon fill="black" stroke="black" points="208.224,-15.7717 198.122,-18.9647 208.011,-22.7684 208.224,-15.7717"/>
<text text-anchor="middle" x="377.5" y="-413.8" font-family="Times,serif" font-size="14.00">c,b</text>
</g>
<!-- 3&#45;&gt;3 -->
<g id="edge7" class="edge"><title>3&#45;&gt;3</title>
<path fill="none" stroke="black" d="M128.581,-378.37C138.845,-379.528 148,-376.738 148,-370 148,-365.683 144.243,-362.987 138.844,-361.911"/>
<polygon fill="black" stroke="black" points="138.673,-358.405 128.581,-361.63 138.481,-365.402 138.673,-358.405"/>
<text text-anchor="middle" x="156" y="-366.3" font-family="Times,serif" font-size="14.00">c,a</text>
</g>
<!-- 8 -->
<g id="node9" class="node"><title>8</title>
<ellipse fill="lightblue" stroke="black" cx="108" cy="-279" rx="18" ry="18"/>
<text text-anchor="middle" x="108" y="-275.3" font-family="Times,serif" font-size="14.00">8</text>
</g>
<!-- 3&#45;&gt;8 -->
<g id="edge8" class="edge"><title>3&#45;&gt;8</title>
<path fill="none" stroke="black" d="M108,-347.908C108,-335.78 108,-320.409 108,-307.36"/>
<polygon fill="black" stroke="black" points="111.5,-307.066 108,-297.066 104.5,-307.066 111.5,-307.066"/>
<text text-anchor="middle" x="111.5" y="-318.8" font-family="Times,serif" font-size="14.00">b</text>
</g>
<!-- 4 -->
<g id="node5" class="node"><title>4</title>
<ellipse fill="lightblue" stroke="black" cx="224" cy="-635" rx="18" ry="18"/>
<text text-anchor="middle" x="224" y="-631.3" font-family="Times,serif" font-size="14.00">4</text>
</g>
<!-- 4&#45;&gt;0 -->
<g id="edge9" class="edge"><title>4&#45;&gt;0</title>
<path fill="none" stroke="black" d="M208.467,-625.85C180.356,-611.1 120.825,-579.865 86.9507,-562.091"/>
<polygon fill="black" stroke="black" points="88.2055,-558.797 77.7242,-557.25 84.9532,-564.996 88.2055,-558.797"/>
<text text-anchor="middle" x="155.5" y="-587.8" font-family="Times,serif" font-size="14.00">a</text>
</g>
<!-- 7 -->
<g id="node8" class="node"><title>7</title>
<ellipse fill="lightblue" stroke="black" cx="272" cy="-192" rx="18" ry="18"/>
<text text-anchor="middle" x="272" y="-188.3" font-family="Times,serif" font-size="14.00">7</text>
</g>
<!-- 4&#45;&gt;7 -->
<g id="edge10" class="edge"><title>4&#45;&gt;7</title>
<path fill="none" stroke="black" d="M234.93,-620.486C246.773,-604.444 264,-576.4 264,-549 264,-549 264,-549 264,-278 264,-258.546 266.103,-236.697 268.152,-220.023"/>
<polygon fill="black" stroke="black" points="271.651,-220.257 269.469,-209.89 264.71,-219.355 271.651,-220.257"/>
<text text-anchor="middle" x="267.5" y="-413.8" font-family="Times,serif" font-size="14.00">b</text>
</g>
<!-- 4&#45;&gt;11 -->
<g id="edge11" class="edge"><title>4&#45;&gt;11</title>
<path fill="none" stroke="black" d="M223.034,-616.75C222.157,-599.581 221,-572.478 221,-549 221,-549 221,-549 221,-191 221,-129.4 221.935,-111.562 200,-54 198.528,-50.1375 196.671,-46.1942 194.684,-42.4131"/>
<polygon fill="black" stroke="black" points="197.601,-40.4611 189.626,-33.4863 191.511,-43.9121 197.601,-40.4611"/>
<text text-anchor="middle" x="224.5" y="-318.8" font-family="Times,serif" font-size="14.00">c</text>
</g>
<!-- 5 -->
<g id="node6" class="node"><title>5</title>
<ellipse fill="lightblue" stroke="black" cx="319" cy="-105" rx="18" ry="18"/>
<text text-anchor="middle" x="319" y="-101.3" font-family="Times,serif" font-size="14.00">5</text>
</g>
<!-- 5&#45;&gt;2 -->
<g id="edge12" class="edge"><title>5&#45;&gt;2</title>
<path fill="none" stroke="black" d="M322.797,-122.835C326.312,-139.913 331,-167.155 331,-191 331,-727 331,-727 331,-727 331,-747.729 331,-771.174 331,-788.795"/>
<polygon fill="black" stroke="black" points="327.5,-788.938 331,-798.938 334.5,-788.938 327.5,-788.938"/>
<text text-anchor="middle" x="334.5" y="-457.3" font-family="Times,serif" font-size="14.00">b</text>
</g>
<!-- 5&#45;&gt;11 -->
<g id="edge13" class="edge"><title>5&#45;&gt;11</title>
<path fill="none" stroke="black" d="M313.28,-87.924C308.6,-76.9259 300.954,-62.797 290,-54 266.287,-34.9561 232.033,-26.1912 208.068,-22.2108"/>
<polygon fill="black" stroke="black" points="208.261,-18.7013 197.856,-20.6989 207.235,-25.6258 208.261,-18.7013"/>
<text text-anchor="middle" x="310" y="-57.8" font-family="Times,serif" font-size="14.00">c,a</text>
</g>
<!-- 6 -->
<g id="node7" class="node"><title>6</title>
<ellipse fill="lightblue" stroke="black" cx="128" cy="-192" rx="18" ry="18"/>
<text text-anchor="middle" x="128" y="-188.3" font-family="Times,serif" font-size="14.00">6</text>
</g>
<!-- 6&#45;&gt;1 -->
<g id="edge14" class="edge"><title>6&#45;&gt;1</title>
<path fill="none" stroke="black" d="M137.058,-176.194C144.962,-163.274 156.565,-144.307 165.718,-129.345"/>
<polygon fill="black" stroke="black" points="168.813,-130.993 171.046,-120.636 162.842,-127.34 168.813,-130.993"/>
<text text-anchor="middle" x="160.5" y="-144.8" font-family="Times,serif" font-size="14.00">b</text>
</g>
<!-- 6&#45;&gt;11 -->
<g id="edge15" class="edge"><title>6&#45;&gt;11</title>
<path fill="none" stroke="black" d="M127.044,-173.93C126.411,-152.905 127.102,-116.367 137,-87 142.655,-70.2231 153.251,-53.3896 162.509,-40.6684"/>
<polygon fill="black" stroke="black" points="165.393,-42.6583 168.628,-32.5696 159.807,-38.4386 165.393,-42.6583"/>
<text text-anchor="middle" x="145" y="-101.3" font-family="Times,serif" font-size="14.00">c,a</text>
</g>
<!-- 7&#45;&gt;1 -->
<g id="edge16" class="edge"><title>7&#45;&gt;1</title>
<path fill="none" stroke="black" d="M259.208,-179.181C244.051,-165.178 218.595,-141.658 200.639,-125.068"/>
<polygon fill="black" stroke="black" points="202.7,-122.208 192.98,-117.993 197.95,-127.349 202.7,-122.208"/>
<text text-anchor="middle" x="234.5" y="-144.8" font-family="Times,serif" font-size="14.00">b</text>
</g>
<!-- 7&#45;&gt;5 -->
<g id="edge17" class="edge"><title>7&#45;&gt;5</title>
<path fill="none" stroke="black" d="M280.403,-175.804C287.42,-163.112 297.553,-144.787 305.676,-130.097"/>
<polygon fill="black" stroke="black" points="308.894,-131.51 310.67,-121.065 302.768,-128.122 308.894,-131.51"/>
<text text-anchor="middle" x="301.5" y="-144.8" font-family="Times,serif" font-size="14.00">a</text>
</g>
<!-- 7&#45;&gt;11 -->
<g id="edge18" class="edge"><title>7&#45;&gt;11</title>
<path fill="none" stroke="black" d="M272.175,-173.619C271.601,-145.708 266.843,-90.3488 240,-54 231.521,-42.5181 218.057,-34.1717 206.029,-28.5159"/>
<polygon fill="black" stroke="black" points="207.384,-25.2884 196.815,-24.5483 204.615,-31.7177 207.384,-25.2884"/>
<text text-anchor="middle" x="269.5" y="-101.3" font-family="Times,serif" font-size="14.00">c</text>
</g>
<!-- 8&#45;&gt;6 -->
<g id="edge19" class="edge"><title>8&#45;&gt;6</title>
<path fill="none" stroke="black" d="M111.951,-261.207C114.745,-249.332 118.549,-233.168 121.751,-219.557"/>
<polygon fill="black" stroke="black" points="125.173,-220.294 124.057,-209.758 118.359,-218.691 125.173,-220.294"/>
<text text-anchor="middle" x="122.5" y="-231.8" font-family="Times,serif" font-size="14.00">b</text>
</g>
<!-- 8&#45;&gt;11 -->
<g id="edge20" class="edge"><title>8&#45;&gt;11</title>
<path fill="none" stroke="black" d="M105.76,-260.991C104.07,-247.258 101.894,-227.423 101,-210 98.1445,-154.376 103.573,-138.411 125,-87 131.271,-71.9548 131.195,-67.0209 141,-54 145.816,-47.6045 151.929,-41.4702 157.879,-36.1732"/>
<polygon fill="black" stroke="black" points="160.372,-38.6492 165.754,-29.5231 155.855,-33.3011 160.372,-38.6492"/>
<text text-anchor="middle" x="113" y="-144.8" font-family="Times,serif" font-size="14.00">c,a</text>
</g>
<!-- 9&#45;&gt;4 -->
<g id="edge21" class="edge"><title>9&#45;&gt;4</title>
<path fill="none" stroke="black" d="M236.971,-703.908C234.616,-691.578 231.62,-675.895 229.102,-662.708"/>
<polygon fill="black" stroke="black" points="232.519,-661.945 227.205,-652.779 225.643,-663.259 232.519,-661.945"/>
<text text-anchor="middle" x="236.5" y="-674.8" font-family="Times,serif" font-size="14.00">b</text>
</g>
<!-- 9&#45;&gt;9 -->
<g id="edge22" class="edge"><title>9&#45;&gt;9</title>
<path fill="none" stroke="black" d="M261.581,-734.37C271.845,-735.528 281,-732.738 281,-726 281,-721.683 277.243,-718.987 271.844,-717.911"/>
<polygon fill="black" stroke="black" points="271.673,-714.405 261.581,-717.63 271.481,-721.402 271.673,-714.405"/>
<text text-anchor="middle" x="289" y="-722.3" font-family="Times,serif" font-size="14.00">c,a</text>
</g>
<!-- 10&#45;&gt;3 -->
<g id="edge23" class="edge"><title>10&#45;&gt;3</title>
<path fill="none" stroke="black" d="M70.0126,-444.497C76.4928,-431.959 85.7846,-413.982 93.5563,-398.946"/>
<polygon fill="black" stroke="black" points="96.6778,-400.529 98.1601,-390.038 90.4592,-397.315 96.6778,-400.529"/>
<text text-anchor="middle" x="90.5" y="-413.8" font-family="Times,serif" font-size="14.00">a</text>
</g>
<!-- 10&#45;&gt;11 -->
<g id="edge24" class="edge"><title>10&#45;&gt;11</title>
<path fill="none" stroke="black" d="M56.6968,-443.795C51.3872,-426.108 44,-396.853 44,-371 44,-371 44,-371 44,-104 44,-53.3925 112.556,-31.7993 152.32,-23.5313"/>
<polygon fill="black" stroke="black" points="153.064,-26.9523 162.22,-21.6227 151.739,-20.0789 153.064,-26.9523"/>
<text text-anchor="middle" x="52.5" y="-231.8" font-family="Times,serif" font-size="14.00">c,b</text>
</g>
<!-- 11&#45;&gt;11 -->
<g id="edge25" class="edge"><title>11&#45;&gt;11</title>
<path fill="none" stroke="black" d="M196.664,-25.3828C206.625,-27.0234 216,-24.5625 216,-18 216,-13.7959 212.152,-11.2751 206.768,-10.4375"/>
<polygon fill="black" stroke="black" points="206.6,-6.93988 196.664,-10.6172 206.725,-13.9388 206.6,-6.93988"/>
<text text-anchor="middle" x="229.5" y="-14.3" font-family="Times,serif" font-size="14.00">c,a,b</text>
</g>
</g>
</svg>
