<?xml version="1.0" encoding="UTF-8" standalone="no"?>
<!DOCTYPE svg PUBLIC "-//W3C//DTD SVG 1.1//EN"
 "http://www.w3.org/Graphics/SVG/1.1/DTD/svg11.dtd">
<!-- Generated by graphviz version 2.38.0 (20140413.2041)
 -->
<!-- Title: %3 Pages: 1 -->
<svg width="167pt" height="329pt"
 viewBox="0.00 0.00 167.00 329.00" xmlns="http://www.w3.org/2000/svg" xmlns:xlink="http://www.w3.org/1999/xlink">
<g id="graph0" class="graph" transform="scale(1 1) rotate(0) translate(4 325)">
<title>%3</title>
<!-- 0 -->
<g id="node1" class="node"><title>0</title>
<ellipse fill="#aaff80" stroke="black" cx="135" cy="-299" rx="18" ry="18"/>
<ellipse fill="none" stroke="black" cx="135" cy="-299" rx="22" ry="22"/>
<text text-anchor="middle" x="135" y="-295.3" font-family="Times,serif" font-size="14.00">0</text>
</g>
<!-- 2 -->
<g id="node3" class="node"><title>2</title>
<ellipse fill="lightblue" stroke="black" cx="84" cy="-204" rx="18" ry="18"/>
<ellipse fill="none" stroke="black" cx="84" cy="-204" rx="22" ry="22"/>
<text text-anchor="middle" x="84" y="-200.3" font-family="Times,serif" font-size="14.00">2</text>
</g>
<!-- 0&#45;&gt;2 -->
<g id="edge1" class="edge"><title>0&#45;&gt;2</title>
<path fill="none" stroke="black" d="M124.679,-279.18C117.352,-265.818 107.395,-247.662 99.1666,-232.657"/>
<polygon fill="black" stroke="black" points="102.182,-230.877 94.3053,-223.792 96.0448,-234.243 102.182,-230.877"/>
<text text-anchor="middle" x="115.5" y="-247.8" font-family="Times,serif" font-size="14.00">a</text>
</g>
<!-- 4 -->
<g id="node5" class="node"><title>4</title>
<ellipse fill="lightblue" stroke="black" cx="84" cy="-18" rx="18" ry="18"/>
<text text-anchor="middle" x="84" y="-14.3" font-family="Times,serif" font-size="14.00">4</text>
</g>
<!-- 0&#45;&gt;4 -->
<g id="edge2" class="edge"><title>0&#45;&gt;4</title>
<path fill="none" stroke="black" d="M140.236,-277.448C149.066,-238.798 163.758,-153.22 140,-87 133.029,-67.5688 117.84,-49.7232 105.037,-37.1935"/>
<polygon fill="black" stroke="black" points="107.162,-34.3889 97.4689,-30.1123 102.38,-39.5003 107.162,-34.3889"/>
<text text-anchor="middle" x="155.5" y="-152.8" font-family="Times,serif" font-size="14.00">b</text>
</g>
<!-- 1 -->
<g id="node2" class="node"><title>1</title>
<ellipse fill="lightblue" stroke="black" cx="22" cy="-109" rx="18" ry="18"/>
<ellipse fill="none" stroke="black" cx="22" cy="-109" rx="22" ry="22"/>
<text text-anchor="middle" x="22" y="-105.3" font-family="Times,serif" font-size="14.00">1</text>
</g>
<!-- 1&#45;&gt;4 -->
<g id="edge3" class="edge"><title>1&#45;&gt;4</title>
<path fill="none" stroke="black" d="M34.2492,-90.4165C43.9844,-76.4417 57.6715,-56.7942 68.2259,-41.6435"/>
<polygon fill="black" stroke="black" points="71.1804,-43.5254 74.0246,-33.3195 65.4367,-39.5241 71.1804,-43.5254"/>
<text text-anchor="middle" x="66.5" y="-57.8" font-family="Times,serif" font-size="14.00">b,a</text>
</g>
<!-- 2&#45;&gt;1 -->
<g id="edge4" class="edge"><title>2&#45;&gt;1</title>
<path fill="none" stroke="black" d="M72.0458,-185.069C62.8682,-171.302 50.0545,-152.082 39.6905,-136.536"/>
<polygon fill="black" stroke="black" points="42.3768,-134.255 33.9175,-127.876 36.5524,-138.138 42.3768,-134.255"/>
<text text-anchor="middle" x="59.5" y="-152.8" font-family="Times,serif" font-size="14.00">b</text>
</g>
<!-- 3 -->
<g id="node4" class="node"><title>3</title>
<ellipse fill="lightblue" stroke="black" cx="84" cy="-109" rx="18" ry="18"/>
<ellipse fill="none" stroke="black" cx="84" cy="-109" rx="22" ry="22"/>
<text text-anchor="middle" x="84" y="-105.3" font-family="Times,serif" font-size="14.00">3</text>
</g>
<!-- 2&#45;&gt;3 -->
<g id="edge5" class="edge"><title>2&#45;&gt;3</title>
<path fill="none" stroke="black" d="M84,-181.897C84,-169.887 84,-154.617 84,-141.242"/>
<polygon fill="black" stroke="black" points="87.5001,-141.02 84,-131.02 80.5001,-141.02 87.5001,-141.02"/>
<text text-anchor="middle" x="87.5" y="-152.8" font-family="Times,serif" font-size="14.00">a</text>
</g>
<!-- 3&#45;&gt;3 -->
<g id="edge6" class="edge"><title>3&#45;&gt;3</title>
<path fill="none" stroke="black" d="M104.581,-117.37C114.845,-118.528 124,-115.738 124,-109 124,-104.683 120.243,-101.987 114.844,-100.911"/>
<polygon fill="black" stroke="black" points="114.673,-97.405 104.581,-100.63 114.481,-104.402 114.673,-97.405"/>
<text text-anchor="middle" x="127.5" y="-105.3" font-family="Times,serif" font-size="14.00">a</text>
</g>
<!-- 3&#45;&gt;4 -->
<g id="edge7" class="edge"><title>3&#45;&gt;4</title>
<path fill="none" stroke="black" d="M84,-86.9082C84,-74.7803 84,-59.4094 84,-46.3598"/>
<polygon fill="black" stroke="black" points="87.5001,-46.0663 84,-36.0663 80.5001,-46.0663 87.5001,-46.0663"/>
<text text-anchor="middle" x="87.5" y="-57.8" font-family="Times,serif" font-size="14.00">b</text>
</g>
<!-- 4&#45;&gt;4 -->
<g id="edge8" class="edge"><title>4&#45;&gt;4</title>
<path fill="none" stroke="black" d="M100.664,-25.3828C110.625,-27.0234 120,-24.5625 120,-18 120,-13.7959 116.152,-11.2751 110.768,-10.4375"/>
<polygon fill="black" stroke="black" points="110.6,-6.93988 100.664,-10.6172 110.725,-13.9388 110.6,-6.93988"/>
<text text-anchor="middle" x="128.5" y="-14.3" font-family="Times,serif" font-size="14.00">b,a</text>
</g>
</g>
</svg>
