<?xml version="1.0" encoding="UTF-8" standalone="no"?>
<!DOCTYPE svg PUBLIC "-//W3C//DTD SVG 1.1//EN"
 "http://www.w3.org/Graphics/SVG/1.1/DTD/svg11.dtd">
<!-- Generated by graphviz version 2.38.0 (20140413.2041)
 -->
<!-- Title: %3 Pages: 1 -->
<svg width="532pt" height="188pt"
 viewBox="0.00 0.00 532.00 188.00" xmlns="http://www.w3.org/2000/svg" xmlns:xlink="http://www.w3.org/1999/xlink">
<g id="graph0" class="graph" transform="scale(1 1) rotate(0) translate(4 184)">
<title>%3</title>
<!-- c -->
<g id="node1" class="node"><title>c</title>
<ellipse fill="none" stroke="black" cx="99" cy="-90" rx="27" ry="18"/>
<text text-anchor="middle" x="99" y="-86.3" font-family="Times,serif" font-size="14.00" fill="red">c</text>
</g>
<!-- ca -->
<g id="node2" class="node"><title>ca</title>
<ellipse fill="none" stroke="black" cx="245" cy="-18" rx="27" ry="18"/>
<text text-anchor="middle" x="245" y="-14.3" font-family="Times,serif" font-size="14.00" fill="red">ca</text>
</g>
<!-- c&#45;&gt;ca -->
<g id="edge1" class="edge"><title>c&#45;&gt;ca</title>
<path fill="none" stroke="black" d="M120.23,-78.8214C145.099,-66.8978 186.484,-47.0557 214.717,-33.5192"/>
<polygon fill="black" stroke="black" points="216.241,-36.6702 223.745,-29.1909 213.214,-30.3582 216.241,-36.6702"/>
</g>
<!-- d -->
<g id="node3" class="node"><title>d</title>
<ellipse fill="none" stroke="black" cx="27" cy="-90" rx="27" ry="18"/>
<text text-anchor="middle" x="27" y="-86.3" font-family="Times,serif" font-size="14.00">d</text>
</g>
<!-- d&#45;&gt;ca -->
<g id="edge2" class="edge"><title>d&#45;&gt;ca</title>
<path fill="none" stroke="black" d="M48.08,-78.3664C52.9196,-76.1163 58.088,-73.8617 63,-72 113.07,-53.0234 173.011,-36.7597 210.051,-27.4259"/>
<polygon fill="black" stroke="black" points="211.007,-30.7948 219.864,-24.9805 209.314,-24.0025 211.007,-30.7948"/>
</g>
<!-- 1 -->
<g id="node4" class="node"><title>1</title>
<ellipse fill="none" stroke="black" cx="126" cy="-162" rx="27" ry="18"/>
<text text-anchor="middle" x="126" y="-158.3" font-family="Times,serif" font-size="14.00" fill="red">1</text>
</g>
<!-- 1&#45;&gt;c -->
<g id="edge6" class="edge"><title>1&#45;&gt;c</title>
<path fill="none" stroke="black" d="M119.601,-144.411C116.486,-136.335 112.666,-126.431 109.165,-117.355"/>
<polygon fill="black" stroke="black" points="112.405,-116.027 105.54,-107.956 105.874,-118.546 112.405,-116.027"/>
</g>
<!-- 1&#45;&gt;ca -->
<g id="edge5" class="edge"><title>1&#45;&gt;ca</title>
<path fill="none" stroke="black" d="M132.187,-144.225C139.757,-125.247 153.956,-94.1096 173,-72 185.331,-57.6838 202.216,-44.9984 216.535,-35.6302"/>
<polygon fill="black" stroke="black" points="218.475,-38.5444 225.055,-30.2408 214.733,-32.6285 218.475,-38.5444"/>
</g>
<!-- bd -->
<g id="node5" class="node"><title>bd</title>
<ellipse fill="none" stroke="black" cx="209" cy="-90" rx="27" ry="18"/>
<text text-anchor="middle" x="209" y="-86.3" font-family="Times,serif" font-size="14.00">bd</text>
</g>
<!-- bd&#45;&gt;ca -->
<g id="edge3" class="edge"><title>bd&#45;&gt;ca</title>
<path fill="none" stroke="black" d="M217.35,-72.7646C221.712,-64.2831 227.147,-53.7144 232.041,-44.1974"/>
<polygon fill="black" stroke="black" points="235.235,-45.6409 236.696,-35.1473 229.01,-42.4395 235.235,-45.6409"/>
</g>
<!-- ab -->
<g id="node6" class="node"><title>ab</title>
<ellipse fill="none" stroke="black" cx="281" cy="-90" rx="27" ry="18"/>
<text text-anchor="middle" x="281" y="-86.3" font-family="Times,serif" font-size="14.00">ab</text>
</g>
<!-- ab&#45;&gt;ca -->
<g id="edge4" class="edge"><title>ab&#45;&gt;ca</title>
<path fill="none" stroke="black" d="M272.65,-72.7646C268.288,-64.2831 262.853,-53.7144 257.959,-44.1974"/>
<polygon fill="black" stroke="black" points="260.99,-42.4395 253.304,-35.1473 254.765,-45.6409 260.99,-42.4395"/>
</g>
<!-- abd -->
<g id="node7" class="node"><title>abd</title>
<ellipse fill="none" stroke="black" cx="353" cy="-90" rx="27" ry="18"/>
<text text-anchor="middle" x="353" y="-86.3" font-family="Times,serif" font-size="14.00">abd</text>
</g>
<!-- abd&#45;&gt;ca -->
<g id="edge7" class="edge"><title>abd&#45;&gt;ca</title>
<path fill="none" stroke="black" d="M334.188,-76.8069C316.998,-65.6653 291.382,-49.0622 272.007,-36.5043"/>
<polygon fill="black" stroke="black" points="273.892,-33.5553 263.597,-31.0533 270.084,-39.4294 273.892,-33.5553"/>
</g>
<!-- b -->
<g id="node8" class="node"><title>b</title>
<ellipse fill="none" stroke="black" cx="425" cy="-90" rx="27" ry="18"/>
<text text-anchor="middle" x="425" y="-86.3" font-family="Times,serif" font-size="14.00">b</text>
</g>
<!-- b&#45;&gt;ca -->
<g id="edge8" class="edge"><title>b&#45;&gt;ca</title>
<path fill="none" stroke="black" d="M403.82,-78.6171C398.986,-76.354 393.845,-74.0307 389,-72 351.639,-56.3392 307.852,-40.5823 278.457,-30.3697"/>
<polygon fill="black" stroke="black" points="279.289,-26.9541 268.694,-26.9978 277.003,-33.5706 279.289,-26.9541"/>
</g>
<!-- a -->
<g id="node9" class="node"><title>a</title>
<ellipse fill="none" stroke="black" cx="497" cy="-90" rx="27" ry="18"/>
<text text-anchor="middle" x="497" y="-86.3" font-family="Times,serif" font-size="14.00">a</text>
</g>
<!-- a&#45;&gt;ca -->
<g id="edge9" class="edge"><title>a&#45;&gt;ca</title>
<path fill="none" stroke="black" d="M476.359,-78.3871C471.408,-76.0847 466.081,-73.8025 461,-72 399.142,-50.056 324.198,-33.8861 280.819,-25.4974"/>
<polygon fill="black" stroke="black" points="281.236,-22.0139 270.757,-23.5822 279.927,-28.8905 281.236,-22.0139"/>
</g>
</g>
</svg>
