<?xml version="1.0" encoding="UTF-8" standalone="no"?>
<!DOCTYPE svg PUBLIC "-//W3C//DTD SVG 1.1//EN"
 "http://www.w3.org/Graphics/SVG/1.1/DTD/svg11.dtd">
<!-- Generated by graphviz version 2.38.0 (20140413.2041)
 -->
<!-- Title: %3 Pages: 1 -->
<svg width="386pt" height="495pt"
 viewBox="0.00 0.00 386.00 495.00" xmlns="http://www.w3.org/2000/svg" xmlns:xlink="http://www.w3.org/1999/xlink">
<g id="graph0" class="graph" transform="scale(1 1) rotate(0) translate(4 491)">
<title>%3</title>
<!-- 0 -->
<g id="node1" class="node"><title>0</title>
<ellipse fill="lightblue" stroke="black" cx="61" cy="-382" rx="18" ry="18"/>
<text text-anchor="middle" x="61" y="-378.3" font-family="Times,serif" font-size="14.00">0</text>
</g>
<!-- 3 -->
<g id="node4" class="node"><title>3</title>
<ellipse fill="lightblue" stroke="black" cx="94" cy="-291" rx="18" ry="18"/>
<ellipse fill="none" stroke="black" cx="94" cy="-291" rx="22" ry="22"/>
<text text-anchor="middle" x="94" y="-287.3" font-family="Times,serif" font-size="14.00">3</text>
</g>
<!-- 0&#45;&gt;3 -->
<g id="edge1" class="edge"><title>0&#45;&gt;3</title>
<path fill="none" stroke="black" d="M67.0527,-364.676C71.5277,-352.607 77.7444,-335.841 83.0791,-321.453"/>
<polygon fill="black" stroke="black" points="86.4043,-322.553 86.5993,-311.959 79.841,-320.119 86.4043,-322.553"/>
<text text-anchor="middle" x="82.5" y="-334.8" font-family="Times,serif" font-size="14.00">b</text>
</g>
<!-- 5 -->
<g id="node6" class="node"><title>5</title>
<ellipse fill="lightblue" stroke="black" cx="155" cy="-18" rx="18" ry="18"/>
<text text-anchor="middle" x="155" y="-14.3" font-family="Times,serif" font-size="14.00">5</text>
</g>
<!-- 0&#45;&gt;5 -->
<g id="edge2" class="edge"><title>0&#45;&gt;5</title>
<path fill="none" stroke="black" d="M47.1582,-370.277C29.1606,-355.009 0,-325.156 0,-292 0,-292 0,-292 0,-104 0,-46.7486 82.3036,-27.8002 126.963,-21.7326"/>
<polygon fill="black" stroke="black" points="127.418,-25.2031 136.916,-20.5086 126.564,-18.2554 127.418,-25.2031"/>
<text text-anchor="middle" x="8" y="-192.3" font-family="Times,serif" font-size="14.00">c,a</text>
</g>
<!-- 1 -->
<g id="node2" class="node"><title>1</title>
<ellipse fill="#aaff80" stroke="black" cx="249" cy="-196" rx="18" ry="18"/>
<ellipse fill="none" stroke="black" cx="249" cy="-196" rx="22" ry="22"/>
<text text-anchor="middle" x="249" y="-192.3" font-family="Times,serif" font-size="14.00">1</text>
</g>
<!-- 1&#45;&gt;1 -->
<g id="edge3" class="edge"><title>1&#45;&gt;1</title>
<path fill="none" stroke="black" d="M269.581,-204.37C279.845,-205.528 289,-202.738 289,-196 289,-191.683 285.243,-188.987 279.844,-187.911"/>
<polygon fill="black" stroke="black" points="279.673,-184.405 269.581,-187.63 279.481,-191.402 279.673,-184.405"/>
<text text-anchor="middle" x="297" y="-192.3" font-family="Times,serif" font-size="14.00">c,a</text>
</g>
<!-- 9 -->
<g id="node10" class="node"><title>9</title>
<ellipse fill="lightblue" stroke="black" cx="249" cy="-105" rx="18" ry="18"/>
<text text-anchor="middle" x="249" y="-101.3" font-family="Times,serif" font-size="14.00">9</text>
</g>
<!-- 1&#45;&gt;9 -->
<g id="edge4" class="edge"><title>1&#45;&gt;9</title>
<path fill="none" stroke="black" d="M249,-173.908C249,-161.78 249,-146.409 249,-133.36"/>
<polygon fill="black" stroke="black" points="252.5,-133.066 249,-123.066 245.5,-133.066 252.5,-133.066"/>
<text text-anchor="middle" x="252.5" y="-144.8" font-family="Times,serif" font-size="14.00">b</text>
</g>
<!-- 2 -->
<g id="node3" class="node"><title>2</title>
<ellipse fill="lightblue" stroke="black" cx="302" cy="-469" rx="18" ry="18"/>
<text text-anchor="middle" x="302" y="-465.3" font-family="Times,serif" font-size="14.00">2</text>
</g>
<!-- 2&#45;&gt;0 -->
<g id="edge5" class="edge"><title>2&#45;&gt;0</title>
<path fill="none" stroke="black" d="M285.053,-462.023C243.656,-447.422 137.142,-409.855 87.3676,-392.3"/>
<polygon fill="black" stroke="black" points="88.5227,-388.996 77.9279,-388.97 86.1944,-395.597 88.5227,-388.996"/>
<text text-anchor="middle" x="198.5" y="-421.8" font-family="Times,serif" font-size="14.00">b</text>
</g>
<!-- 4 -->
<g id="node5" class="node"><title>4</title>
<ellipse fill="lightblue" stroke="black" cx="232" cy="-382" rx="18" ry="18"/>
<text text-anchor="middle" x="232" y="-378.3" font-family="Times,serif" font-size="14.00">4</text>
</g>
<!-- 2&#45;&gt;4 -->
<g id="edge6" class="edge"><title>2&#45;&gt;4</title>
<path fill="none" stroke="black" d="M290.753,-454.343C279.666,-440.881 262.559,-420.107 249.658,-404.441"/>
<polygon fill="black" stroke="black" points="252.047,-401.837 242.988,-396.343 246.643,-406.287 252.047,-401.837"/>
<text text-anchor="middle" x="274.5" y="-421.8" font-family="Times,serif" font-size="14.00">a</text>
</g>
<!-- 2&#45;&gt;5 -->
<g id="edge7" class="edge"><title>2&#45;&gt;5</title>
<path fill="none" stroke="black" d="M316.972,-458.79C337.265,-445.024 371,-417.023 371,-383 371,-383 371,-383 371,-104 371,-63.9756 240.955,-34.888 182.676,-23.862"/>
<polygon fill="black" stroke="black" points="183.146,-20.3897 172.676,-22.0148 181.874,-27.2732 183.146,-20.3897"/>
<text text-anchor="middle" x="374.5" y="-239.8" font-family="Times,serif" font-size="14.00">c</text>
</g>
<!-- 3&#45;&gt;3 -->
<g id="edge8" class="edge"><title>3&#45;&gt;3</title>
<path fill="none" stroke="black" d="M114.581,-299.37C124.845,-300.528 134,-297.738 134,-291 134,-286.683 130.243,-283.987 124.844,-282.911"/>
<polygon fill="black" stroke="black" points="124.673,-279.405 114.581,-282.63 124.481,-286.402 124.673,-279.405"/>
<text text-anchor="middle" x="142" y="-287.3" font-family="Times,serif" font-size="14.00">c,a</text>
</g>
<!-- 8 -->
<g id="node9" class="node"><title>8</title>
<ellipse fill="lightblue" stroke="black" cx="94" cy="-196" rx="18" ry="18"/>
<text text-anchor="middle" x="94" y="-192.3" font-family="Times,serif" font-size="14.00">8</text>
</g>
<!-- 3&#45;&gt;8 -->
<g id="edge9" class="edge"><title>3&#45;&gt;8</title>
<path fill="none" stroke="black" d="M94,-268.897C94,-255.743 94,-238.679 94,-224.476"/>
<polygon fill="black" stroke="black" points="97.5001,-224.285 94,-214.285 90.5001,-224.285 97.5001,-224.285"/>
<text text-anchor="middle" x="97.5" y="-239.8" font-family="Times,serif" font-size="14.00">b</text>
</g>
<!-- 4&#45;&gt;5 -->
<g id="edge10" class="edge"><title>4&#45;&gt;5</title>
<path fill="none" stroke="black" d="M224.939,-365.319C219.01,-351.7 210.627,-331.336 205,-313 175.716,-217.578 162.182,-99.1419 157.284,-46.4704"/>
<polygon fill="black" stroke="black" points="160.747,-45.9079 156.367,-36.2611 153.776,-46.534 160.747,-45.9079"/>
<text text-anchor="middle" x="189" y="-192.3" font-family="Times,serif" font-size="14.00">c,a</text>
</g>
<!-- 7 -->
<g id="node8" class="node"><title>7</title>
<ellipse fill="lightblue" stroke="black" cx="232" cy="-291" rx="18" ry="18"/>
<text text-anchor="middle" x="232" y="-287.3" font-family="Times,serif" font-size="14.00">7</text>
</g>
<!-- 4&#45;&gt;7 -->
<g id="edge11" class="edge"><title>4&#45;&gt;7</title>
<path fill="none" stroke="black" d="M232,-363.84C232,-351.281 232,-333.979 232,-319.502"/>
<polygon fill="black" stroke="black" points="235.5,-319.107 232,-309.107 228.5,-319.107 235.5,-319.107"/>
<text text-anchor="middle" x="235.5" y="-334.8" font-family="Times,serif" font-size="14.00">b</text>
</g>
<!-- 5&#45;&gt;5 -->
<g id="edge12" class="edge"><title>5&#45;&gt;5</title>
<path fill="none" stroke="black" d="M171.664,-25.3828C181.625,-27.0234 191,-24.5625 191,-18 191,-13.7959 187.152,-11.2751 181.768,-10.4375"/>
<polygon fill="black" stroke="black" points="181.6,-6.93988 171.664,-10.6172 181.725,-13.9388 181.6,-6.93988"/>
<text text-anchor="middle" x="204.5" y="-14.3" font-family="Times,serif" font-size="14.00">c,a,b</text>
</g>
<!-- 6 -->
<g id="node7" class="node"><title>6</title>
<ellipse fill="lightblue" stroke="black" cx="57" cy="-105" rx="18" ry="18"/>
<text text-anchor="middle" x="57" y="-101.3" font-family="Times,serif" font-size="14.00">6</text>
</g>
<!-- 6&#45;&gt;0 -->
<g id="edge13" class="edge"><title>6&#45;&gt;0</title>
<path fill="none" stroke="black" d="M57.2501,-123.196C57.9235,-169.488 59.7788,-297.043 60.6,-353.499"/>
<polygon fill="black" stroke="black" points="57.1046,-353.85 60.7498,-363.798 64.1039,-353.748 57.1046,-353.85"/>
<text text-anchor="middle" x="62.5" y="-239.8" font-family="Times,serif" font-size="14.00">b</text>
</g>
<!-- 6&#45;&gt;5 -->
<g id="edge14" class="edge"><title>6&#45;&gt;5</title>
<path fill="none" stroke="black" d="M61.7552,-87.427C65.5208,-76.7674 71.7139,-63.2331 81,-54 94.062,-41.0126 112.866,-32.2045 128.249,-26.6728"/>
<polygon fill="black" stroke="black" points="129.39,-29.9822 137.77,-23.4999 127.176,-23.3413 129.39,-29.9822"/>
<text text-anchor="middle" x="89" y="-57.8" font-family="Times,serif" font-size="14.00">c,a</text>
</g>
<!-- 7&#45;&gt;1 -->
<g id="edge15" class="edge"><title>7&#45;&gt;1</title>
<path fill="none" stroke="black" d="M235.118,-272.942C237.423,-260.331 240.626,-242.811 243.374,-227.777"/>
<polygon fill="black" stroke="black" points="246.832,-228.323 245.188,-217.857 239.946,-227.064 246.832,-228.323"/>
<text text-anchor="middle" x="244.5" y="-239.8" font-family="Times,serif" font-size="14.00">a</text>
</g>
<!-- 7&#45;&gt;5 -->
<g id="edge16" class="edge"><title>7&#45;&gt;5</title>
<path fill="none" stroke="black" d="M228.246,-273.202C219.383,-234.246 195.869,-134.893 169,-54 167.948,-50.8325 166.759,-47.5379 165.531,-44.2927"/>
<polygon fill="black" stroke="black" points="168.744,-42.9 161.819,-34.8812 162.232,-45.468 168.744,-42.9"/>
<text text-anchor="middle" x="207.5" y="-144.8" font-family="Times,serif" font-size="14.00">c,b</text>
</g>
<!-- 8&#45;&gt;5 -->
<g id="edge17" class="edge"><title>8&#45;&gt;5</title>
<path fill="none" stroke="black" d="M98.0386,-178.31C103.391,-156.896 113.507,-118.73 125,-87 130.323,-72.305 137.324,-56.2928 143.225,-43.4997"/>
<polygon fill="black" stroke="black" points="146.406,-44.9598 147.476,-34.4192 140.066,-41.9916 146.406,-44.9598"/>
<text text-anchor="middle" x="133" y="-101.3" font-family="Times,serif" font-size="14.00">c,a</text>
</g>
<!-- 8&#45;&gt;6 -->
<g id="edge18" class="edge"><title>8&#45;&gt;6</title>
<path fill="none" stroke="black" d="M87.3851,-179.089C81.8606,-165.8 73.8838,-146.612 67.4894,-131.231"/>
<polygon fill="black" stroke="black" points="70.6283,-129.664 63.5576,-121.774 64.1646,-132.351 70.6283,-129.664"/>
<text text-anchor="middle" x="80.5" y="-144.8" font-family="Times,serif" font-size="14.00">b</text>
</g>
<!-- 9&#45;&gt;2 -->
<g id="edge19" class="edge"><title>9&#45;&gt;2</title>
<path fill="none" stroke="black" d="M264.8,-113.67C289.133,-126.719 333,-155.694 333,-195 333,-383 333,-383 333,-383 333,-404.666 324.001,-427.66 315.7,-444.261"/>
<polygon fill="black" stroke="black" points="312.534,-442.761 310.966,-453.239 318.726,-446.026 312.534,-442.761"/>
<text text-anchor="middle" x="336.5" y="-287.3" font-family="Times,serif" font-size="14.00">b</text>
</g>
<!-- 9&#45;&gt;5 -->
<g id="edge20" class="edge"><title>9&#45;&gt;5</title>
<path fill="none" stroke="black" d="M240.305,-88.7581C233.744,-78.1531 224.009,-64.1512 213,-54 203.236,-44.9975 190.801,-37.1271 179.951,-31.1416"/>
<polygon fill="black" stroke="black" points="181.409,-27.9538 170.931,-26.3859 178.144,-34.1459 181.409,-27.9538"/>
<text text-anchor="middle" x="234" y="-57.8" font-family="Times,serif" font-size="14.00">c,a</text>
</g>
</g>
</svg>
