<?xml version="1.0" encoding="UTF-8" standalone="no"?>
<!DOCTYPE svg PUBLIC "-//W3C//DTD SVG 1.1//EN"
 "http://www.w3.org/Graphics/SVG/1.1/DTD/svg11.dtd">
<!-- Generated by graphviz version 2.38.0 (20140413.2041)
 -->
<!-- Title: %3 Pages: 1 -->
<svg width="166pt" height="337pt"
 viewBox="0.00 0.00 166.00 337.00" xmlns="http://www.w3.org/2000/svg" xmlns:xlink="http://www.w3.org/1999/xlink">
<g id="graph0" class="graph" transform="scale(1 1) rotate(0) translate(4 333)">
<title>%3</title>
<!-- 0 -->
<g id="node1" class="node"><title>0</title>
<ellipse fill="lightblue" stroke="black" cx="96" cy="-307" rx="18" ry="18"/>
<ellipse fill="none" stroke="black" cx="96" cy="-307" rx="22" ry="22"/>
<text text-anchor="middle" x="96" y="-303.3" font-family="Times,serif" font-size="14.00">0</text>
</g>
<!-- 0&#45;&gt;0 -->
<g id="edge1" class="edge"><title>0&#45;&gt;0</title>
<path fill="none" stroke="black" d="M116.581,-315.37C126.845,-316.528 136,-313.738 136,-307 136,-302.683 132.243,-299.987 126.844,-298.911"/>
<polygon fill="black" stroke="black" points="126.673,-295.405 116.581,-298.63 126.481,-302.402 126.673,-295.405"/>
<text text-anchor="middle" x="139.5" y="-303.3" font-family="Times,serif" font-size="14.00">a</text>
</g>
<!-- 4 -->
<g id="node5" class="node"><title>4</title>
<ellipse fill="lightblue" stroke="black" cx="53" cy="-212" rx="18" ry="18"/>
<ellipse fill="none" stroke="black" cx="53" cy="-212" rx="22" ry="22"/>
<text text-anchor="middle" x="53" y="-208.3" font-family="Times,serif" font-size="14.00">4</text>
</g>
<!-- 0&#45;&gt;4 -->
<g id="edge2" class="edge"><title>0&#45;&gt;4</title>
<path fill="none" stroke="black" d="M87.0904,-286.73C81.0366,-273.637 72.9266,-256.097 66.1355,-241.409"/>
<polygon fill="black" stroke="black" points="69.2719,-239.853 61.8982,-232.245 62.9182,-242.791 69.2719,-239.853"/>
<text text-anchor="middle" x="81.5" y="-255.8" font-family="Times,serif" font-size="14.00">b</text>
</g>
<!-- 1 -->
<g id="node2" class="node"><title>1</title>
<ellipse fill="#aaff80" stroke="black" cx="111" cy="-22" rx="18" ry="18"/>
<ellipse fill="none" stroke="black" cx="111" cy="-22" rx="22" ry="22"/>
<text text-anchor="middle" x="111" y="-18.3" font-family="Times,serif" font-size="14.00">1</text>
</g>
<!-- 1&#45;&gt;1 -->
<g id="edge3" class="edge"><title>1&#45;&gt;1</title>
<path fill="none" stroke="black" d="M131.581,-30.3702C141.845,-31.5284 151,-28.7383 151,-22 151,-17.6833 147.243,-14.9869 141.844,-13.9109"/>
<polygon fill="black" stroke="black" points="141.673,-10.405 131.581,-13.6298 141.481,-17.4024 141.673,-10.405"/>
<text text-anchor="middle" x="154.5" y="-18.3" font-family="Times,serif" font-size="14.00">b</text>
</g>
<!-- 3 -->
<g id="node4" class="node"><title>3</title>
<ellipse fill="lightblue" stroke="black" cx="111" cy="-117" rx="18" ry="18"/>
<ellipse fill="none" stroke="black" cx="111" cy="-117" rx="22" ry="22"/>
<text text-anchor="middle" x="111" y="-113.3" font-family="Times,serif" font-size="14.00">3</text>
</g>
<!-- 1&#45;&gt;3 -->
<g id="edge4" class="edge"><title>1&#45;&gt;3</title>
<path fill="none" stroke="black" d="M111,-44.0196C111,-56.014 111,-71.2806 111,-84.6649"/>
<polygon fill="black" stroke="black" points="107.5,-84.8968 111,-94.8969 114.5,-84.8969 107.5,-84.8968"/>
<text text-anchor="middle" x="114.5" y="-65.8" font-family="Times,serif" font-size="14.00">a</text>
</g>
<!-- 2 -->
<g id="node3" class="node"><title>2</title>
<ellipse fill="lightblue" stroke="black" cx="18" cy="-117" rx="18" ry="18"/>
<text text-anchor="middle" x="18" y="-113.3" font-family="Times,serif" font-size="14.00">2</text>
</g>
<!-- 2&#45;&gt;2 -->
<g id="edge5" class="edge"><title>2&#45;&gt;2</title>
<path fill="none" stroke="black" d="M34.2903,-125.016C44.3892,-126.949 54,-124.277 54,-117 54,-112.338 50.0557,-109.566 44.5656,-108.684"/>
<polygon fill="black" stroke="black" points="44.1839,-105.193 34.2903,-108.984 44.3881,-112.19 44.1839,-105.193"/>
<text text-anchor="middle" x="62.5" y="-113.3" font-family="Times,serif" font-size="14.00">a,b</text>
</g>
<!-- 3&#45;&gt;0 -->
<g id="edge6" class="edge"><title>3&#45;&gt;0</title>
<path fill="none" stroke="black" d="M109.315,-139.123C106.678,-172.166 101.564,-236.269 98.4981,-274.691"/>
<polygon fill="black" stroke="black" points="94.9981,-274.553 97.6915,-284.799 101.976,-275.11 94.9981,-274.553"/>
<text text-anchor="middle" x="109.5" y="-208.3" font-family="Times,serif" font-size="14.00">a</text>
</g>
<!-- 3&#45;&gt;1 -->
<g id="edge7" class="edge"><title>3&#45;&gt;1</title>
<path fill="none" stroke="black" d="M103.653,-96.1011C100.746,-85.9488 98.4268,-73.3727 100,-62 100.42,-58.9621 101.016,-55.8279 101.716,-52.7183"/>
<polygon fill="black" stroke="black" points="105.11,-53.5743 104.217,-43.0172 98.3315,-51.8268 105.11,-53.5743"/>
<text text-anchor="middle" x="103.5" y="-65.8" font-family="Times,serif" font-size="14.00">b</text>
</g>
<!-- 4&#45;&gt;2 -->
<g id="edge8" class="edge"><title>4&#45;&gt;2</title>
<path fill="none" stroke="black" d="M45.5774,-191.277C40.3602,-177.414 33.3302,-158.735 27.674,-143.705"/>
<polygon fill="black" stroke="black" points="30.8147,-142.114 24.0167,-133.987 24.2633,-144.579 30.8147,-142.114"/>
<text text-anchor="middle" x="41.5" y="-160.8" font-family="Times,serif" font-size="14.00">b</text>
</g>
<!-- 4&#45;&gt;3 -->
<g id="edge9" class="edge"><title>4&#45;&gt;3</title>
<path fill="none" stroke="black" d="M64.4589,-192.626C73.0141,-178.908 84.8317,-159.96 94.4176,-144.589"/>
<polygon fill="black" stroke="black" points="97.4402,-146.356 99.7622,-136.019 91.5006,-142.652 97.4402,-146.356"/>
<text text-anchor="middle" x="89.5" y="-160.8" font-family="Times,serif" font-size="14.00">a</text>
</g>
</g>
</svg>
