<?xml version="1.0" encoding="UTF-8" standalone="no"?>
<!DOCTYPE svg PUBLIC "-//W3C//DTD SVG 1.1//EN"
 "http://www.w3.org/Graphics/SVG/1.1/DTD/svg11.dtd">
<!-- Generated by graphviz version 2.38.0 (20140413.2041)
 -->
<!-- Title: %3 Pages: 1 -->
<svg width="198pt" height="234pt"
 viewBox="0.00 0.00 198.00 234.00" xmlns="http://www.w3.org/2000/svg" xmlns:xlink="http://www.w3.org/1999/xlink">
<g id="graph0" class="graph" transform="scale(1 1) rotate(0) translate(4 230)">
<title>%3</title>
<!-- 2 -->
<g id="node1" class="node"><title>2</title>
<ellipse fill="lightblue" stroke="black" cx="22" cy="-204" rx="18" ry="18"/>
<ellipse fill="none" stroke="black" cx="22" cy="-204" rx="22" ry="22"/>
<text text-anchor="middle" x="22" y="-200.3" font-family="Times,serif" font-size="14.00">2</text>
</g>
<!-- 4 -->
<g id="node2" class="node"><title>4</title>
<ellipse fill="lightblue" stroke="black" cx="57" cy="-109" rx="18" ry="18"/>
<ellipse fill="none" stroke="black" cx="57" cy="-109" rx="22" ry="22"/>
<text text-anchor="middle" x="57" y="-105.3" font-family="Times,serif" font-size="14.00">4</text>
</g>
<!-- 2&#45;&gt;4 -->
<g id="edge1" class="edge"><title>2&#45;&gt;4</title>
<path fill="none" stroke="black" d="M29.4226,-183.277C34.2159,-170.541 40.5394,-153.738 45.9218,-139.436"/>
<polygon fill="black" stroke="black" points="49.2208,-140.607 49.4674,-130.015 42.6694,-138.141 49.2208,-140.607"/>
<text text-anchor="middle" x="44.5" y="-152.8" font-family="Times,serif" font-size="14.00">b</text>
</g>
<!-- 0 -->
<g id="node5" class="node"><title>0</title>
<ellipse fill="lightblue" stroke="black" cx="88" cy="-18" rx="18" ry="18"/>
<text text-anchor="middle" x="88" y="-14.3" font-family="Times,serif" font-size="14.00">0</text>
</g>
<!-- 2&#45;&gt;0 -->
<g id="edge2" class="edge"><title>2&#45;&gt;0</title>
<path fill="none" stroke="black" d="M16.4594,-182.332C11.1365,-158.348 5.68285,-118.115 19,-87 28.3808,-65.0825 48.5282,-46.5884 64.6429,-34.4464"/>
<polygon fill="black" stroke="black" points="67.0123,-37.0535 73.0867,-28.3729 62.9248,-31.3708 67.0123,-37.0535"/>
<text text-anchor="middle" x="22.5" y="-105.3" font-family="Times,serif" font-size="14.00">a</text>
</g>
<!-- 4&#45;&gt;2 -->
<g id="edge3" class="edge"><title>4&#45;&gt;2</title>
<path fill="none" stroke="black" d="M41.6331,-124.94C35.6759,-131.693 29.4651,-140.139 26,-149 23.2225,-156.103 21.8037,-164.126 21.1613,-171.774"/>
<polygon fill="black" stroke="black" points="17.6611,-171.702 20.712,-181.849 24.6542,-172.014 17.6611,-171.702"/>
<text text-anchor="middle" x="29.5" y="-152.8" font-family="Times,serif" font-size="14.00">a</text>
</g>
<!-- 4&#45;&gt;0 -->
<g id="edge4" class="edge"><title>4&#45;&gt;0</title>
<path fill="none" stroke="black" d="M64.0344,-87.8045C68.4473,-75.1351 74.1809,-58.6743 78.9334,-45.0299"/>
<polygon fill="black" stroke="black" points="82.3542,-45.8492 82.3383,-35.2544 75.7437,-43.5467 82.3542,-45.8492"/>
<text text-anchor="middle" x="78.5" y="-57.8" font-family="Times,serif" font-size="14.00">b</text>
</g>
<!-- 5 -->
<g id="node3" class="node"><title>5</title>
<ellipse fill="lightblue" stroke="black" cx="172" cy="-204" rx="18" ry="18"/>
<text text-anchor="middle" x="172" y="-200.3" font-family="Times,serif" font-size="14.00">5</text>
</g>
<!-- 1 -->
<g id="node4" class="node"><title>1</title>
<ellipse fill="lightblue" stroke="black" cx="130" cy="-109" rx="18" ry="18"/>
<ellipse fill="none" stroke="black" cx="130" cy="-109" rx="22" ry="22"/>
<text text-anchor="middle" x="130" y="-105.3" font-family="Times,serif" font-size="14.00">1</text>
</g>
<!-- 5&#45;&gt;1 -->
<g id="edge5" class="edge"><title>5&#45;&gt;1</title>
<path fill="none" stroke="black" d="M165.816,-186.776C161.594,-175.97 155.744,-161.512 150,-149 148.333,-145.369 146.509,-141.588 144.662,-137.87"/>
<polygon fill="black" stroke="black" points="147.747,-136.214 140.1,-128.88 141.505,-139.382 147.747,-136.214"/>
<text text-anchor="middle" x="159.5" y="-152.8" font-family="Times,serif" font-size="14.00">a</text>
</g>
<!-- 5&#45;&gt;0 -->
<g id="edge6" class="edge"><title>5&#45;&gt;0</title>
<path fill="none" stroke="black" d="M174.033,-185.85C176.043,-162.268 176.853,-119.105 161,-87 149.964,-64.6499 128.266,-45.9387 111.381,-33.8384"/>
<polygon fill="black" stroke="black" points="113.296,-30.9077 103.072,-28.129 109.332,-36.677 113.296,-30.9077"/>
<text text-anchor="middle" x="176.5" y="-105.3" font-family="Times,serif" font-size="14.00">b</text>
</g>
<!-- 1&#45;&gt;5 -->
<g id="edge7" class="edge"><title>1&#45;&gt;5</title>
<path fill="none" stroke="black" d="M134.068,-130.835C136.5,-141.11 140.087,-153.516 145,-164 147.731,-169.828 151.311,-175.733 154.968,-181.124"/>
<polygon fill="black" stroke="black" points="152.382,-183.524 161.056,-189.608 158.069,-179.442 152.382,-183.524"/>
<text text-anchor="middle" x="148.5" y="-152.8" font-family="Times,serif" font-size="14.00">b</text>
</g>
<!-- 1&#45;&gt;0 -->
<g id="edge8" class="edge"><title>1&#45;&gt;0</title>
<path fill="none" stroke="black" d="M120.887,-88.6883C114.692,-75.5622 106.441,-58.0763 99.7525,-43.904"/>
<polygon fill="black" stroke="black" points="102.85,-42.266 95.4166,-34.7161 96.5192,-45.2534 102.85,-42.266"/>
<text text-anchor="middle" x="114.5" y="-57.8" font-family="Times,serif" font-size="14.00">a</text>
</g>
<!-- 0&#45;&gt;0 -->
<g id="edge9" class="edge"><title>0&#45;&gt;0</title>
<path fill="none" stroke="black" d="M104.664,-25.3828C114.625,-27.0234 124,-24.5625 124,-18 124,-13.7959 120.152,-11.2751 114.768,-10.4375"/>
<polygon fill="black" stroke="black" points="114.6,-6.93988 104.664,-10.6172 114.725,-13.9388 114.6,-6.93988"/>
<text text-anchor="middle" x="132.5" y="-14.3" font-family="Times,serif" font-size="14.00">b,a</text>
</g>
<!-- 3 -->
<g id="node6" class="node"><title>3</title>
<ellipse fill="#aaff80" stroke="black" cx="98" cy="-204" rx="18" ry="18"/>
<ellipse fill="none" stroke="black" cx="98" cy="-204" rx="22" ry="22"/>
<text text-anchor="middle" x="98" y="-200.3" font-family="Times,serif" font-size="14.00">3</text>
</g>
<!-- 3&#45;&gt;4 -->
<g id="edge10" class="edge"><title>3&#45;&gt;4</title>
<path fill="none" stroke="black" d="M89.305,-183.277C83.6135,-170.367 76.0805,-153.28 69.7205,-138.854"/>
<polygon fill="black" stroke="black" points="72.7785,-137.114 65.5419,-129.376 66.3734,-139.938 72.7785,-137.114"/>
<text text-anchor="middle" x="82.5" y="-152.8" font-family="Times,serif" font-size="14.00">b</text>
</g>
<!-- 3&#45;&gt;1 -->
<g id="edge11" class="edge"><title>3&#45;&gt;1</title>
<path fill="none" stroke="black" d="M104.081,-182.644C107.198,-172.486 111.143,-160.042 115,-149 116.101,-145.85 117.29,-142.572 118.501,-139.315"/>
<polygon fill="black" stroke="black" points="121.854,-140.344 122.129,-129.752 115.309,-137.86 121.854,-140.344"/>
<text text-anchor="middle" x="118.5" y="-152.8" font-family="Times,serif" font-size="14.00">a</text>
</g>
</g>
</svg>
