<?xml version="1.0" encoding="UTF-8" standalone="no"?>
<!DOCTYPE svg PUBLIC "-//W3C//DTD SVG 1.1//EN"
 "http://www.w3.org/Graphics/SVG/1.1/DTD/svg11.dtd">
<!-- Generated by graphviz version 2.38.0 (20140413.2041)
 -->
<!-- Title: %3 Pages: 1 -->
<svg width="176pt" height="147pt"
 viewBox="0.00 0.00 176.00 147.00" xmlns="http://www.w3.org/2000/svg" xmlns:xlink="http://www.w3.org/1999/xlink">
<g id="graph0" class="graph" transform="scale(1 1) rotate(0) translate(4 143)">
<title>%3</title>
<!-- 0 -->
<g id="node1" class="node"><title>0</title>
<ellipse fill="lightblue" stroke="black" cx="22" cy="-22" rx="18" ry="18"/>
<ellipse fill="none" stroke="black" cx="22" cy="-22" rx="22" ry="22"/>
<text text-anchor="middle" x="22" y="-18.3" font-family="Times,serif" font-size="14.00">0</text>
</g>
<!-- 0&#45;&gt;0 -->
<g id="edge1" class="edge"><title>0&#45;&gt;0</title>
<path fill="none" stroke="black" d="M42.5808,-30.3702C52.8447,-31.5284 62,-28.7383 62,-22 62,-17.6833 58.2427,-14.9869 52.8436,-13.9109"/>
<polygon fill="black" stroke="black" points="52.6729,-10.405 42.5808,-13.6298 52.4812,-17.4024 52.6729,-10.405"/>
<text text-anchor="middle" x="70.5" y="-18.3" font-family="Times,serif" font-size="14.00">b,a</text>
</g>
<!-- 1 -->
<g id="node2" class="node"><title>1</title>
<ellipse fill="lightblue" stroke="black" cx="115" cy="-22" rx="18" ry="18"/>
<text text-anchor="middle" x="115" y="-18.3" font-family="Times,serif" font-size="14.00">1</text>
</g>
<!-- 1&#45;&gt;1 -->
<g id="edge2" class="edge"><title>1&#45;&gt;1</title>
<path fill="none" stroke="black" d="M131.29,-30.0164C141.389,-31.9495 151,-29.2773 151,-22 151,-17.338 147.056,-14.5659 141.566,-13.6838"/>
<polygon fill="black" stroke="black" points="141.184,-10.1933 131.29,-13.9836 141.388,-17.1903 141.184,-10.1933"/>
<text text-anchor="middle" x="159.5" y="-18.3" font-family="Times,serif" font-size="14.00">b,a</text>
</g>
<!-- 2 -->
<g id="node3" class="node"><title>2</title>
<ellipse fill="#aaff80" stroke="black" cx="68" cy="-117" rx="18" ry="18"/>
<ellipse fill="none" stroke="black" cx="68" cy="-117" rx="22" ry="22"/>
<text text-anchor="middle" x="68" y="-113.3" font-family="Times,serif" font-size="14.00">2</text>
</g>
<!-- 2&#45;&gt;0 -->
<g id="edge3" class="edge"><title>2&#45;&gt;0</title>
<path fill="none" stroke="black" d="M58.4688,-96.7303C51.9494,-83.55 43.201,-65.8629 35.9069,-51.1161"/>
<polygon fill="black" stroke="black" points="38.9324,-49.3385 31.3616,-41.9268 32.658,-52.442 38.9324,-49.3385"/>
<text text-anchor="middle" x="51.5" y="-65.8" font-family="Times,serif" font-size="14.00">a</text>
</g>
<!-- 2&#45;&gt;1 -->
<g id="edge4" class="edge"><title>2&#45;&gt;1</title>
<path fill="none" stroke="black" d="M77.7384,-96.7303C84.9528,-82.4551 94.8388,-62.8934 102.615,-47.5063"/>
<polygon fill="black" stroke="black" points="105.755,-49.0534 107.142,-38.5497 99.5072,-45.8961 105.755,-49.0534"/>
<text text-anchor="middle" x="97.5" y="-65.8" font-family="Times,serif" font-size="14.00">b</text>
</g>
</g>
</svg>
