<?xml version="1.0" encoding="UTF-8" standalone="no"?>
<!DOCTYPE svg PUBLIC "-//W3C//DTD SVG 1.1//EN"
 "http://www.w3.org/Graphics/SVG/1.1/DTD/svg11.dtd">
<!-- Generated by graphviz version 2.38.0 (20140413.2041)
 -->
<!-- Title: %3 Pages: 1 -->
<svg width="130pt" height="313pt"
 viewBox="0.00 0.00 130.30 313.00" xmlns="http://www.w3.org/2000/svg" xmlns:xlink="http://www.w3.org/1999/xlink">
<g id="graph0" class="graph" transform="scale(1 1) rotate(0) translate(4 309)">
<title>%3</title>
<!-- 0 -->
<g id="node1" class="node"><title>0</title>
<ellipse fill="lightblue" stroke="black" cx="28.2992" cy="-287" rx="18" ry="18"/>
<text text-anchor="middle" x="28.2992" y="-283.3" font-family="Times,serif" font-size="14.00">0</text>
</g>
<!-- 1 -->
<g id="node2" class="node"><title>1</title>
<ellipse fill="lightblue" stroke="black" cx="40.2992" cy="-18" rx="18" ry="18"/>
<text text-anchor="middle" x="40.2992" y="-14.3" font-family="Times,serif" font-size="14.00">1</text>
</g>
<!-- 0&#45;&gt;1 -->
<g id="edge1" class="edge"><title>0&#45;&gt;1</title>
<path fill="none" stroke="black" d="M22.1813,-270.024C12.7103,-243.435 -3.89774,-188.343 1.29925,-141 5.09955,-106.38 18.8481,-68.4553 28.9494,-44.2285"/>
<polygon fill="black" stroke="black" points="32.2962,-45.3041 33.0156,-34.7338 25.8614,-42.5484 32.2962,-45.3041"/>
<text text-anchor="middle" x="19.2992" y="-144.8" font-family="Times,serif" font-size="14.00">b,f,a,d</text>
</g>
<!-- 3 -->
<g id="node4" class="node"><title>3</title>
<ellipse fill="#aaff80" stroke="black" cx="58.2992" cy="-196" rx="18" ry="18"/>
<ellipse fill="none" stroke="black" cx="58.2992" cy="-196" rx="22" ry="22"/>
<text text-anchor="middle" x="58.2992" y="-192.3" font-family="Times,serif" font-size="14.00">3</text>
</g>
<!-- 0&#45;&gt;3 -->
<g id="edge2" class="edge"><title>0&#45;&gt;3</title>
<path fill="none" stroke="black" d="M27.0724,-268.89C26.9135,-259.021 27.6635,-246.521 31.2992,-236 33.0367,-230.972 35.6163,-225.999 38.5025,-221.372"/>
<polygon fill="black" stroke="black" points="41.4941,-223.2 44.2897,-212.98 35.7314,-219.226 41.4941,-223.2"/>
<text text-anchor="middle" x="34.7992" y="-239.8" font-family="Times,serif" font-size="14.00">e</text>
</g>
<!-- 1&#45;&gt;1 -->
<g id="edge3" class="edge"><title>1&#45;&gt;1</title>
<path fill="none" stroke="black" d="M56.9633,-25.3828C66.9242,-27.0234 76.2992,-24.5625 76.2992,-18 76.2992,-13.7959 72.4517,-11.2751 67.0675,-10.4375"/>
<polygon fill="black" stroke="black" points="66.8995,-6.93988 56.9633,-10.6172 67.024,-13.9388 66.8995,-6.93988"/>
<text text-anchor="middle" x="99.2992" y="-14.3" font-family="Times,serif" font-size="14.00">b,f,e,a,d</text>
</g>
<!-- 2 -->
<g id="node3" class="node"><title>2</title>
<ellipse fill="lightblue" stroke="black" cx="40.2992" cy="-105" rx="18" ry="18"/>
<text text-anchor="middle" x="40.2992" y="-101.3" font-family="Times,serif" font-size="14.00">2</text>
</g>
<!-- 2&#45;&gt;1 -->
<g id="edge4" class="edge"><title>2&#45;&gt;1</title>
<path fill="none" stroke="black" d="M40.2992,-86.799C40.2992,-75.1626 40.2992,-59.5479 40.2992,-46.2368"/>
<polygon fill="black" stroke="black" points="43.7993,-46.1754 40.2992,-36.1754 36.7993,-46.1755 43.7993,-46.1754"/>
<text text-anchor="middle" x="57.7992" y="-57.8" font-family="Times,serif" font-size="14.00">f,e,a,d</text>
</g>
<!-- 2&#45;&gt;3 -->
<g id="edge5" class="edge"><title>2&#45;&gt;3</title>
<path fill="none" stroke="black" d="M44.8985,-122.665C46.4099,-128.445 48.027,-134.984 49.2992,-141 50.8811,-148.48 52.3574,-156.59 53.6384,-164.197"/>
<polygon fill="black" stroke="black" points="50.1971,-164.841 55.2556,-174.15 57.1065,-163.718 50.1971,-164.841"/>
<text text-anchor="middle" x="54.7992" y="-144.8" font-family="Times,serif" font-size="14.00">b</text>
</g>
<!-- 3&#45;&gt;0 -->
<g id="edge6" class="edge"><title>3&#45;&gt;0</title>
<path fill="none" stroke="black" d="M51.5713,-216.959C47.3023,-229.624 41.7326,-246.148 37.1125,-259.854"/>
<polygon fill="black" stroke="black" points="33.6793,-259.082 33.8017,-269.676 40.3126,-261.318 33.6793,-259.082"/>
<text text-anchor="middle" x="47.7992" y="-239.8" font-family="Times,serif" font-size="14.00">d</text>
</g>
<!-- 3&#45;&gt;1 -->
<g id="edge7" class="edge"><title>3&#45;&gt;1</title>
<path fill="none" stroke="black" d="M67.5525,-175.854C79.6955,-147.863 97.4522,-94.6822 79.2992,-54 75.8585,-46.2891 69.7865,-39.5689 63.4433,-34.1346"/>
<polygon fill="black" stroke="black" points="65.4967,-31.2983 55.4412,-27.961 61.2208,-36.8406 65.4967,-31.2983"/>
<text text-anchor="middle" x="94.7992" y="-101.3" font-family="Times,serif" font-size="14.00">b,e</text>
</g>
<!-- 3&#45;&gt;2 -->
<g id="edge8" class="edge"><title>3&#45;&gt;2</title>
<path fill="none" stroke="black" d="M50.1405,-175.456C47.8936,-169.326 45.6934,-162.47 44.2992,-156 42.7283,-148.71 41.7607,-140.701 41.1687,-133.271"/>
<polygon fill="black" stroke="black" points="44.6621,-133.055 40.558,-123.288 37.6752,-133.483 44.6621,-133.055"/>
<text text-anchor="middle" x="47.7992" y="-144.8" font-family="Times,serif" font-size="14.00">a</text>
</g>
<!-- 3&#45;&gt;3 -->
<g id="edge9" class="edge"><title>3&#45;&gt;3</title>
<path fill="none" stroke="black" d="M78.8801,-204.37C89.144,-205.528 98.2992,-202.738 98.2992,-196 98.2992,-191.683 94.5419,-188.987 89.1428,-187.911"/>
<polygon fill="black" stroke="black" points="88.9722,-184.405 78.8801,-187.63 88.7804,-191.402 88.9722,-184.405"/>
<text text-anchor="middle" x="100.799" y="-192.3" font-family="Times,serif" font-size="14.00">f</text>
</g>
</g>
</svg>
