<?xml version="1.0" encoding="UTF-8" standalone="no"?>
<!DOCTYPE svg PUBLIC "-//W3C//DTD SVG 1.1//EN"
 "http://www.w3.org/Graphics/SVG/1.1/DTD/svg11.dtd">
<!-- Generated by graphviz version 2.38.0 (20140413.2041)
 -->
<!-- Title: %3 Pages: 1 -->
<svg width="260pt" height="527pt"
 viewBox="0.00 0.00 260.00 527.00" xmlns="http://www.w3.org/2000/svg" xmlns:xlink="http://www.w3.org/1999/xlink">
<g id="graph0" class="graph" transform="scale(1 1) rotate(0) translate(4 523)">
<title>%3</title>
<!-- 0 -->
<g id="node1" class="node"><title>0</title>
<ellipse fill="lightblue" stroke="black" cx="67" cy="-307" rx="18" ry="18"/>
<ellipse fill="none" stroke="black" cx="67" cy="-307" rx="22" ry="22"/>
<text text-anchor="middle" x="67" y="-303.3" font-family="Times,serif" font-size="14.00">0</text>
</g>
<!-- 0&#45;&gt;0 -->
<g id="edge1" class="edge"><title>0&#45;&gt;0</title>
<path fill="none" stroke="black" d="M87.5808,-315.37C97.8447,-316.528 107,-313.738 107,-307 107,-302.683 103.243,-299.987 97.8436,-298.911"/>
<polygon fill="black" stroke="black" points="97.6729,-295.405 87.5808,-298.63 97.4812,-302.402 97.6729,-295.405"/>
<text text-anchor="middle" x="110.5" y="-303.3" font-family="Times,serif" font-size="14.00">a</text>
</g>
<!-- 3 -->
<g id="node4" class="node"><title>3</title>
<ellipse fill="lightblue" stroke="black" cx="18" cy="-212" rx="18" ry="18"/>
<text text-anchor="middle" x="18" y="-208.3" font-family="Times,serif" font-size="14.00">3</text>
</g>
<!-- 0&#45;&gt;3 -->
<g id="edge2" class="edge"><title>0&#45;&gt;3</title>
<path fill="none" stroke="black" d="M57.0841,-287.18C49.5345,-272.851 39.08,-253.009 30.883,-237.451"/>
<polygon fill="black" stroke="black" points="33.8751,-235.622 26.1171,-228.406 27.6821,-238.885 33.8751,-235.622"/>
<text text-anchor="middle" x="49.5" y="-255.8" font-family="Times,serif" font-size="14.00">b</text>
</g>
<!-- 1 -->
<g id="node2" class="node"><title>1</title>
<ellipse fill="lightblue" stroke="black" cx="124" cy="-497" rx="18" ry="18"/>
<ellipse fill="none" stroke="black" cx="124" cy="-497" rx="22" ry="22"/>
<text text-anchor="middle" x="124" y="-493.3" font-family="Times,serif" font-size="14.00">1</text>
</g>
<!-- 1&#45;&gt;3 -->
<g id="edge3" class="edge"><title>1&#45;&gt;3</title>
<path fill="none" stroke="black" d="M112.153,-478.351C92.9236,-448.807 55.1434,-386.872 36,-329 26.287,-299.637 21.7643,-264.322 19.6916,-240.431"/>
<polygon fill="black" stroke="black" points="23.17,-240.018 18.9018,-230.321 16.1913,-240.563 23.17,-240.018"/>
<text text-anchor="middle" x="51.5" y="-350.8" font-family="Times,serif" font-size="14.00">b</text>
</g>
<!-- 7 -->
<g id="node8" class="node"><title>7</title>
<ellipse fill="lightblue" stroke="black" cx="124" cy="-402" rx="18" ry="18"/>
<ellipse fill="none" stroke="black" cx="124" cy="-402" rx="22" ry="22"/>
<text text-anchor="middle" x="124" y="-398.3" font-family="Times,serif" font-size="14.00">7</text>
</g>
<!-- 1&#45;&gt;7 -->
<g id="edge4" class="edge"><title>1&#45;&gt;7</title>
<path fill="none" stroke="black" d="M124,-474.897C124,-462.887 124,-447.617 124,-434.242"/>
<polygon fill="black" stroke="black" points="127.5,-434.02 124,-424.02 120.5,-434.02 127.5,-434.02"/>
<text text-anchor="middle" x="127.5" y="-445.8" font-family="Times,serif" font-size="14.00">a</text>
</g>
<!-- 2 -->
<g id="node3" class="node"><title>2</title>
<ellipse fill="lightblue" stroke="black" cx="154" cy="-307" rx="18" ry="18"/>
<ellipse fill="none" stroke="black" cx="154" cy="-307" rx="22" ry="22"/>
<text text-anchor="middle" x="154" y="-303.3" font-family="Times,serif" font-size="14.00">2</text>
</g>
<!-- 5 -->
<g id="node6" class="node"><title>5</title>
<ellipse fill="#aaff80" stroke="black" cx="154" cy="-212" rx="18" ry="18"/>
<ellipse fill="none" stroke="black" cx="154" cy="-212" rx="22" ry="22"/>
<text text-anchor="middle" x="154" y="-208.3" font-family="Times,serif" font-size="14.00">5</text>
</g>
<!-- 2&#45;&gt;5 -->
<g id="edge5" class="edge"><title>2&#45;&gt;5</title>
<path fill="none" stroke="black" d="M154,-284.897C154,-272.887 154,-257.617 154,-244.242"/>
<polygon fill="black" stroke="black" points="157.5,-244.02 154,-234.02 150.5,-244.02 157.5,-244.02"/>
<text text-anchor="middle" x="157.5" y="-255.8" font-family="Times,serif" font-size="14.00">b</text>
</g>
<!-- 2&#45;&gt;7 -->
<g id="edge6" class="edge"><title>2&#45;&gt;7</title>
<path fill="none" stroke="black" d="M147.503,-328.14C143.457,-340.685 138.177,-357.051 133.647,-371.094"/>
<polygon fill="black" stroke="black" points="130.249,-370.229 130.51,-380.82 136.911,-372.378 130.249,-370.229"/>
<text text-anchor="middle" x="143.5" y="-350.8" font-family="Times,serif" font-size="14.00">a</text>
</g>
<!-- 3&#45;&gt;3 -->
<g id="edge7" class="edge"><title>3&#45;&gt;3</title>
<path fill="none" stroke="black" d="M34.2903,-220.016C44.3892,-221.949 54,-219.277 54,-212 54,-207.338 50.0557,-204.566 44.5656,-203.684"/>
<polygon fill="black" stroke="black" points="44.1839,-200.193 34.2903,-203.984 44.3881,-207.19 44.1839,-200.193"/>
<text text-anchor="middle" x="62.5" y="-208.3" font-family="Times,serif" font-size="14.00">a,b</text>
</g>
<!-- 4 -->
<g id="node5" class="node"><title>4</title>
<ellipse fill="lightblue" stroke="black" cx="154" cy="-117" rx="18" ry="18"/>
<ellipse fill="none" stroke="black" cx="154" cy="-117" rx="22" ry="22"/>
<text text-anchor="middle" x="154" y="-113.3" font-family="Times,serif" font-size="14.00">4</text>
</g>
<!-- 4&#45;&gt;2 -->
<g id="edge8" class="edge"><title>4&#45;&gt;2</title>
<path fill="none" stroke="black" d="M141.73,-135.362C132.624,-149.368 120.962,-169.97 116,-190 111.298,-208.982 111.298,-215.018 116,-234 120.031,-250.275 128.486,-266.927 136.399,-280.112"/>
<polygon fill="black" stroke="black" points="133.461,-282.014 141.73,-288.638 139.396,-278.304 133.461,-282.014"/>
<text text-anchor="middle" x="119.5" y="-208.3" font-family="Times,serif" font-size="14.00">b</text>
</g>
<!-- 6 -->
<g id="node7" class="node"><title>6</title>
<ellipse fill="lightblue" stroke="black" cx="205" cy="-22" rx="18" ry="18"/>
<ellipse fill="none" stroke="black" cx="205" cy="-22" rx="22" ry="22"/>
<text text-anchor="middle" x="205" y="-18.3" font-family="Times,serif" font-size="14.00">6</text>
</g>
<!-- 4&#45;&gt;6 -->
<g id="edge9" class="edge"><title>4&#45;&gt;6</title>
<path fill="none" stroke="black" d="M164.321,-97.1801C171.648,-83.8182 181.605,-65.662 189.833,-50.6567"/>
<polygon fill="black" stroke="black" points="192.955,-52.243 194.695,-41.7919 186.818,-48.8772 192.955,-52.243"/>
<text text-anchor="middle" x="185.5" y="-65.8" font-family="Times,serif" font-size="14.00">a</text>
</g>
<!-- 5&#45;&gt;4 -->
<g id="edge10" class="edge"><title>5&#45;&gt;4</title>
<path fill="none" stroke="black" d="M154,-189.897C154,-177.887 154,-162.617 154,-149.242"/>
<polygon fill="black" stroke="black" points="157.5,-149.02 154,-139.02 150.5,-149.02 157.5,-149.02"/>
<text text-anchor="middle" x="157.5" y="-160.8" font-family="Times,serif" font-size="14.00">a</text>
</g>
<!-- 5&#45;&gt;5 -->
<g id="edge11" class="edge"><title>5&#45;&gt;5</title>
<path fill="none" stroke="black" d="M174.581,-220.37C184.845,-221.528 194,-218.738 194,-212 194,-207.683 190.243,-204.987 184.844,-203.911"/>
<polygon fill="black" stroke="black" points="184.673,-200.405 174.581,-203.63 184.481,-207.402 184.673,-200.405"/>
<text text-anchor="middle" x="197.5" y="-208.3" font-family="Times,serif" font-size="14.00">b</text>
</g>
<!-- 6&#45;&gt;1 -->
<g id="edge12" class="edge"><title>6&#45;&gt;1</title>
<path fill="none" stroke="black" d="M213.125,-42.5779C220.088,-61.1432 229,-89.9873 229,-116 229,-403 229,-403 229,-403 229,-443.321 185.074,-470.389 154.044,-484.48"/>
<polygon fill="black" stroke="black" points="152.29,-481.425 144.494,-488.6 155.063,-487.852 152.29,-481.425"/>
<text text-anchor="middle" x="232.5" y="-255.8" font-family="Times,serif" font-size="14.00">b</text>
</g>
<!-- 6&#45;&gt;6 -->
<g id="edge13" class="edge"><title>6&#45;&gt;6</title>
<path fill="none" stroke="black" d="M225.581,-30.3702C235.845,-31.5284 245,-28.7383 245,-22 245,-17.6833 241.243,-14.9869 235.844,-13.9109"/>
<polygon fill="black" stroke="black" points="235.673,-10.405 225.581,-13.6298 235.481,-17.4024 235.673,-10.405"/>
<text text-anchor="middle" x="248.5" y="-18.3" font-family="Times,serif" font-size="14.00">a</text>
</g>
<!-- 7&#45;&gt;0 -->
<g id="edge14" class="edge"><title>7&#45;&gt;0</title>
<path fill="none" stroke="black" d="M112.739,-382.626C104.385,-368.997 92.8669,-350.204 83.4791,-334.887"/>
<polygon fill="black" stroke="black" points="86.4477,-333.033 78.238,-326.336 80.4795,-336.691 86.4477,-333.033"/>
<text text-anchor="middle" x="102.5" y="-350.8" font-family="Times,serif" font-size="14.00">a</text>
</g>
<!-- 7&#45;&gt;2 -->
<g id="edge15" class="edge"><title>7&#45;&gt;2</title>
<path fill="none" stroke="black" d="M122.541,-379.978C122.486,-369.772 123.404,-357.48 127,-347 128.726,-341.969 131.3,-336.993 134.185,-332.366"/>
<polygon fill="black" stroke="black" points="137.176,-334.193 139.972,-323.974 131.413,-330.219 137.176,-334.193"/>
<text text-anchor="middle" x="130.5" y="-350.8" font-family="Times,serif" font-size="14.00">b</text>
</g>
</g>
</svg>
