<?xml version="1.0" encoding="UTF-8" standalone="no"?>
<!DOCTYPE svg PUBLIC "-//W3C//DTD SVG 1.1//EN"
 "http://www.w3.org/Graphics/SVG/1.1/DTD/svg11.dtd">
<!-- Generated by graphviz version 2.38.0 (20140413.2041)
 -->
<!-- Title: %3 Pages: 1 -->
<svg width="479pt" height="764pt"
 viewBox="0.00 0.00 479.00 764.00" xmlns="http://www.w3.org/2000/svg" xmlns:xlink="http://www.w3.org/1999/xlink">
<g id="graph0" class="graph" transform="scale(1 1) rotate(0) translate(4 760)">
<title>%3</title>
<!-- 0 -->
<g id="node1" class="node"><title>0</title>
<ellipse fill="lightblue" stroke="black" cx="96" cy="-370" rx="18" ry="18"/>
<ellipse fill="none" stroke="black" cx="96" cy="-370" rx="22" ry="22"/>
<text text-anchor="middle" x="96" y="-366.3" font-family="Times,serif" font-size="14.00">0</text>
</g>
<!-- 0&#45;&gt;0 -->
<g id="edge1" class="edge"><title>0&#45;&gt;0</title>
<path fill="none" stroke="black" d="M116.581,-378.37C126.845,-379.528 136,-376.738 136,-370 136,-365.683 132.243,-362.987 126.844,-361.911"/>
<polygon fill="black" stroke="black" points="126.673,-358.405 116.581,-361.63 126.481,-365.402 126.673,-358.405"/>
<text text-anchor="middle" x="144" y="-366.3" font-family="Times,serif" font-size="14.00">c,a</text>
</g>
<!-- 9 -->
<g id="node10" class="node"><title>9</title>
<ellipse fill="lightblue" stroke="black" cx="87" cy="-279" rx="18" ry="18"/>
<text text-anchor="middle" x="87" y="-275.3" font-family="Times,serif" font-size="14.00">9</text>
</g>
<!-- 0&#45;&gt;9 -->
<g id="edge2" class="edge"><title>0&#45;&gt;9</title>
<path fill="none" stroke="black" d="M93.8671,-347.908C92.6407,-335.78 91.0863,-320.409 89.7667,-307.36"/>
<polygon fill="black" stroke="black" points="93.2142,-306.663 88.7258,-297.066 86.2498,-307.368 93.2142,-306.663"/>
<text text-anchor="middle" x="95.5" y="-318.8" font-family="Times,serif" font-size="14.00">b</text>
</g>
<!-- 1 -->
<g id="node2" class="node"><title>1</title>
<ellipse fill="lightblue" stroke="black" cx="272" cy="-738" rx="18" ry="18"/>
<text text-anchor="middle" x="272" y="-734.3" font-family="Times,serif" font-size="14.00">1</text>
</g>
<!-- 10 -->
<g id="node11" class="node"><title>10</title>
<ellipse fill="lightblue" stroke="black" cx="182" cy="-18" rx="18" ry="18"/>
<text text-anchor="middle" x="182" y="-14.3" font-family="Times,serif" font-size="14.00">10</text>
</g>
<!-- 1&#45;&gt;10 -->
<g id="edge3" class="edge"><title>1&#45;&gt;10</title>
<path fill="none" stroke="black" d="M254.153,-735.336C193.641,-729.21 0,-705.432 0,-652 0,-652 0,-652 0,-104 0,-36.9314 102.717,-22.6614 153.818,-19.712"/>
<polygon fill="black" stroke="black" points="154.059,-23.2047 163.884,-19.2395 153.731,-16.2124 154.059,-23.2047"/>
<text text-anchor="middle" x="8" y="-366.3" font-family="Times,serif" font-size="14.00">c,a</text>
</g>
<!-- 12 -->
<g id="node13" class="node"><title>12</title>
<ellipse fill="lightblue" stroke="black" cx="272" cy="-651" rx="18" ry="18"/>
<text text-anchor="middle" x="272" y="-647.3" font-family="Times,serif" font-size="14.00">12</text>
</g>
<!-- 1&#45;&gt;12 -->
<g id="edge4" class="edge"><title>1&#45;&gt;12</title>
<path fill="none" stroke="black" d="M272,-719.799C272,-708.163 272,-692.548 272,-679.237"/>
<polygon fill="black" stroke="black" points="275.5,-679.175 272,-669.175 268.5,-679.175 275.5,-679.175"/>
<text text-anchor="middle" x="275.5" y="-690.8" font-family="Times,serif" font-size="14.00">b</text>
</g>
<!-- 2 -->
<g id="node3" class="node"><title>2</title>
<ellipse fill="#aaff80" stroke="black" cx="415" cy="-370" rx="18" ry="18"/>
<ellipse fill="none" stroke="black" cx="415" cy="-370" rx="22" ry="22"/>
<text text-anchor="middle" x="415" y="-366.3" font-family="Times,serif" font-size="14.00">2</text>
</g>
<!-- 2&#45;&gt;1 -->
<g id="edge5" class="edge"><title>2&#45;&gt;1</title>
<path fill="none" stroke="black" d="M415.711,-392.051C416.286,-410.898 417,-439.291 417,-464 417,-652 417,-652 417,-652 417,-705.801 341.787,-726.196 299.7,-733.396"/>
<polygon fill="black" stroke="black" points="299.115,-729.945 289.78,-734.955 300.202,-736.86 299.115,-729.945"/>
<text text-anchor="middle" x="420.5" y="-556.3" font-family="Times,serif" font-size="14.00">b</text>
</g>
<!-- 2&#45;&gt;2 -->
<g id="edge6" class="edge"><title>2&#45;&gt;2</title>
<path fill="none" stroke="black" d="M435.581,-378.37C445.845,-379.528 455,-376.738 455,-370 455,-365.683 451.243,-362.987 445.844,-361.911"/>
<polygon fill="black" stroke="black" points="445.673,-358.405 435.581,-361.63 445.481,-365.402 445.673,-358.405"/>
<text text-anchor="middle" x="463" y="-366.3" font-family="Times,serif" font-size="14.00">c,a</text>
</g>
<!-- 3 -->
<g id="node4" class="node"><title>3</title>
<ellipse fill="lightblue" stroke="black" cx="364" cy="-465" rx="18" ry="18"/>
<text text-anchor="middle" x="364" y="-461.3" font-family="Times,serif" font-size="14.00">3</text>
</g>
<!-- 3&#45;&gt;2 -->
<g id="edge7" class="edge"><title>3&#45;&gt;2</title>
<path fill="none" stroke="black" d="M372.422,-448.643C379.848,-435.101 390.85,-415.038 399.811,-398.698"/>
<polygon fill="black" stroke="black" points="403.068,-400.037 404.808,-389.586 396.93,-396.671 403.068,-400.037"/>
<text text-anchor="middle" x="395.5" y="-413.8" font-family="Times,serif" font-size="14.00">a</text>
</g>
<!-- 3&#45;&gt;10 -->
<g id="edge8" class="edge"><title>3&#45;&gt;10</title>
<path fill="none" stroke="black" d="M363.411,-446.862C362.821,-428.204 362,-397.485 362,-371 362,-371 362,-371 362,-104 362,-37.6972 260.904,-23.0331 210.241,-19.8473"/>
<polygon fill="black" stroke="black" points="210.418,-16.3518 200.25,-19.3272 210.054,-23.3424 210.418,-16.3518"/>
<text text-anchor="middle" x="370.5" y="-231.8" font-family="Times,serif" font-size="14.00">c,b</text>
</g>
<!-- 4 -->
<g id="node5" class="node"><title>4</title>
<ellipse fill="lightblue" stroke="black" cx="87" cy="-192" rx="18" ry="18"/>
<text text-anchor="middle" x="87" y="-188.3" font-family="Times,serif" font-size="14.00">4</text>
</g>
<!-- 8 -->
<g id="node9" class="node"><title>8</title>
<ellipse fill="lightblue" stroke="black" cx="136" cy="-105" rx="18" ry="18"/>
<text text-anchor="middle" x="136" y="-101.3" font-family="Times,serif" font-size="14.00">8</text>
</g>
<!-- 4&#45;&gt;8 -->
<g id="edge9" class="edge"><title>4&#45;&gt;8</title>
<path fill="none" stroke="black" d="M95.7602,-175.804C103.077,-163.112 113.64,-144.787 122.109,-130.097"/>
<polygon fill="black" stroke="black" points="125.354,-131.476 127.316,-121.065 119.289,-127.98 125.354,-131.476"/>
<text text-anchor="middle" x="117.5" y="-144.8" font-family="Times,serif" font-size="14.00">b</text>
</g>
<!-- 4&#45;&gt;10 -->
<g id="edge10" class="edge"><title>4&#45;&gt;10</title>
<path fill="none" stroke="black" d="M83.857,-174.007C80.7476,-152.415 78.3303,-114.636 93,-87 106.836,-60.9349 135.544,-41.8765 156.629,-30.6773"/>
<polygon fill="black" stroke="black" points="158.357,-33.7255 165.7,-26.0878 155.197,-27.4795 158.357,-33.7255"/>
<text text-anchor="middle" x="101" y="-101.3" font-family="Times,serif" font-size="14.00">c,a</text>
</g>
<!-- 5 -->
<g id="node6" class="node"><title>5</title>
<ellipse fill="lightblue" stroke="black" cx="210" cy="-560" rx="18" ry="18"/>
<ellipse fill="none" stroke="black" cx="210" cy="-560" rx="22" ry="22"/>
<text text-anchor="middle" x="210" y="-556.3" font-family="Times,serif" font-size="14.00">5</text>
</g>
<!-- 5&#45;&gt;0 -->
<g id="edge11" class="edge"><title>5&#45;&gt;0</title>
<path fill="none" stroke="black" d="M192.728,-545.861C176.355,-532.601 152.083,-510.739 137,-487 120.162,-460.498 109.142,-426.184 102.811,-401.767"/>
<polygon fill="black" stroke="black" points="106.184,-400.825 100.382,-391.961 99.3892,-402.509 106.184,-400.825"/>
<text text-anchor="middle" x="145" y="-461.3" font-family="Times,serif" font-size="14.00">c,a</text>
</g>
<!-- 11 -->
<g id="node12" class="node"><title>11</title>
<ellipse fill="lightblue" stroke="black" cx="184" cy="-465" rx="18" ry="18"/>
<ellipse fill="none" stroke="black" cx="184" cy="-465" rx="22" ry="22"/>
<text text-anchor="middle" x="184" y="-461.3" font-family="Times,serif" font-size="14.00">11</text>
</g>
<!-- 5&#45;&gt;11 -->
<g id="edge12" class="edge"><title>5&#45;&gt;11</title>
<path fill="none" stroke="black" d="M204.23,-538.36C200.772,-525.994 196.315,-510.049 192.464,-496.276"/>
<polygon fill="black" stroke="black" points="195.728,-494.95 189.665,-486.262 188.986,-496.835 195.728,-494.95"/>
<text text-anchor="middle" x="201.5" y="-508.8" font-family="Times,serif" font-size="14.00">b</text>
</g>
<!-- 6 -->
<g id="node7" class="node"><title>6</title>
<ellipse fill="lightblue" stroke="black" cx="188" cy="-370" rx="18" ry="18"/>
<text text-anchor="middle" x="188" y="-366.3" font-family="Times,serif" font-size="14.00">6</text>
</g>
<!-- 6&#45;&gt;10 -->
<g id="edge13" class="edge"><title>6&#45;&gt;10</title>
<path fill="none" stroke="black" d="M195.903,-353.549C207.56,-329.286 228,-280.473 228,-236.5 228,-236.5 228,-236.5 228,-104 228,-79.7093 213.29,-55.7097 200.507,-39.4396"/>
<polygon fill="black" stroke="black" points="203.156,-37.151 194.086,-31.6753 197.762,-41.6121 203.156,-37.151"/>
<text text-anchor="middle" x="236" y="-188.3" font-family="Times,serif" font-size="14.00">c,a</text>
</g>
<!-- 13 -->
<g id="node14" class="node"><title>13</title>
<ellipse fill="lightblue" stroke="black" cx="182" cy="-279" rx="18" ry="18"/>
<text text-anchor="middle" x="182" y="-275.3" font-family="Times,serif" font-size="14.00">13</text>
</g>
<!-- 6&#45;&gt;13 -->
<g id="edge14" class="edge"><title>6&#45;&gt;13</title>
<path fill="none" stroke="black" d="M186.843,-351.84C185.996,-339.281 184.83,-321.979 183.854,-307.502"/>
<polygon fill="black" stroke="black" points="187.318,-306.849 183.153,-297.107 180.334,-307.32 187.318,-306.849"/>
<text text-anchor="middle" x="188.5" y="-318.8" font-family="Times,serif" font-size="14.00">b</text>
</g>
<!-- 7 -->
<g id="node8" class="node"><title>7</title>
<ellipse fill="lightblue" stroke="black" cx="318" cy="-560" rx="18" ry="18"/>
<text text-anchor="middle" x="318" y="-556.3" font-family="Times,serif" font-size="14.00">7</text>
</g>
<!-- 7&#45;&gt;3 -->
<g id="edge15" class="edge"><title>7&#45;&gt;3</title>
<path fill="none" stroke="black" d="M325.596,-543.643C332.721,-529.239 343.495,-507.455 351.82,-490.624"/>
<polygon fill="black" stroke="black" points="355.096,-491.895 356.393,-481.38 348.822,-488.792 355.096,-491.895"/>
<text text-anchor="middle" x="346.5" y="-508.8" font-family="Times,serif" font-size="14.00">b</text>
</g>
<!-- 7&#45;&gt;10 -->
<g id="edge16" class="edge"><title>7&#45;&gt;10</title>
<path fill="none" stroke="black" d="M318,-541.859C318,-523.199 318,-492.479 318,-466 318,-466 318,-466 318,-104 318,-53.3925 249.444,-31.7993 209.68,-23.5313"/>
<polygon fill="black" stroke="black" points="210.261,-20.0789 199.78,-21.6227 208.936,-26.9523 210.261,-20.0789"/>
<text text-anchor="middle" x="326" y="-275.3" font-family="Times,serif" font-size="14.00">c,a</text>
</g>
<!-- 8&#45;&gt;0 -->
<g id="edge17" class="edge"><title>8&#45;&gt;0</title>
<path fill="none" stroke="black" d="M134.792,-122.972C132.244,-156.453 125.582,-233.289 114,-297 111.472,-310.904 107.807,-326.11 104.442,-338.951"/>
<polygon fill="black" stroke="black" points="101.045,-338.106 101.835,-348.671 107.806,-339.919 101.045,-338.106"/>
<text text-anchor="middle" x="127.5" y="-231.8" font-family="Times,serif" font-size="14.00">b</text>
</g>
<!-- 8&#45;&gt;10 -->
<g id="edge18" class="edge"><title>8&#45;&gt;10</title>
<path fill="none" stroke="black" d="M139.615,-87.1044C142.189,-77.0775 146.225,-64.3455 152,-54 154.999,-48.628 158.902,-43.3263 162.896,-38.5369"/>
<polygon fill="black" stroke="black" points="165.533,-40.8386 169.559,-31.0387 160.3,-36.1888 165.533,-40.8386"/>
<text text-anchor="middle" x="160" y="-57.8" font-family="Times,serif" font-size="14.00">c,a</text>
</g>
<!-- 9&#45;&gt;4 -->
<g id="edge19" class="edge"><title>9&#45;&gt;4</title>
<path fill="none" stroke="black" d="M87,-260.799C87,-249.163 87,-233.548 87,-220.237"/>
<polygon fill="black" stroke="black" points="90.5001,-220.175 87,-210.175 83.5001,-220.175 90.5001,-220.175"/>
<text text-anchor="middle" x="90.5" y="-231.8" font-family="Times,serif" font-size="14.00">b</text>
</g>
<!-- 9&#45;&gt;10 -->
<g id="edge20" class="edge"><title>9&#45;&gt;10</title>
<path fill="none" stroke="black" d="M79.0482,-262.84C72.4656,-249.38 63.6271,-228.963 60,-210 49.6209,-155.735 53.1316,-136.336 78,-87 86.163,-70.8057 87.8667,-65.3639 102,-54 117.654,-41.4132 138.535,-32.4796 155.038,-26.7895"/>
<polygon fill="black" stroke="black" points="156.234,-30.0813 164.662,-23.6621 154.07,-23.424 156.234,-30.0813"/>
<text text-anchor="middle" x="65" y="-144.8" font-family="Times,serif" font-size="14.00">c,a</text>
</g>
<!-- 10&#45;&gt;10 -->
<g id="edge21" class="edge"><title>10&#45;&gt;10</title>
<path fill="none" stroke="black" d="M198.664,-25.3828C208.625,-27.0234 218,-24.5625 218,-18 218,-13.7959 214.152,-11.2751 208.768,-10.4375"/>
<polygon fill="black" stroke="black" points="208.6,-6.93988 198.664,-10.6172 208.725,-13.9388 208.6,-6.93988"/>
<text text-anchor="middle" x="231.5" y="-14.3" font-family="Times,serif" font-size="14.00">c,a,b</text>
</g>
<!-- 11&#45;&gt;0 -->
<g id="edge22" class="edge"><title>11&#45;&gt;0</title>
<path fill="none" stroke="black" d="M169.072,-448.224C154.954,-433.304 133.608,-410.745 117.627,-393.856"/>
<polygon fill="black" stroke="black" points="120.123,-391.401 110.708,-386.543 115.038,-396.212 120.123,-391.401"/>
<text text-anchor="middle" x="153" y="-413.8" font-family="Times,serif" font-size="14.00">c,a</text>
</g>
<!-- 11&#45;&gt;6 -->
<g id="edge23" class="edge"><title>11&#45;&gt;6</title>
<path fill="none" stroke="black" d="M184.908,-442.897C185.473,-429.743 186.207,-412.679 186.818,-398.476"/>
<polygon fill="black" stroke="black" points="190.324,-398.426 187.257,-388.285 183.33,-398.125 190.324,-398.426"/>
<text text-anchor="middle" x="189.5" y="-413.8" font-family="Times,serif" font-size="14.00">b</text>
</g>
<!-- 12&#45;&gt;5 -->
<g id="edge24" class="edge"><title>12&#45;&gt;5</title>
<path fill="none" stroke="black" d="M262.039,-635.701C252.912,-622.599 239.179,-602.886 228.112,-586.999"/>
<polygon fill="black" stroke="black" points="230.872,-584.838 222.284,-578.633 225.128,-588.839 230.872,-584.838"/>
<text text-anchor="middle" x="249.5" y="-603.8" font-family="Times,serif" font-size="14.00">b</text>
</g>
<!-- 12&#45;&gt;7 -->
<g id="edge25" class="edge"><title>12&#45;&gt;7</title>
<path fill="none" stroke="black" d="M280.013,-634.497C287.004,-620.97 297.269,-601.11 305.366,-585.443"/>
<polygon fill="black" stroke="black" points="308.597,-586.816 310.079,-576.325 302.378,-583.602 308.597,-586.816"/>
<text text-anchor="middle" x="300.5" y="-603.8" font-family="Times,serif" font-size="14.00">a</text>
</g>
<!-- 12&#45;&gt;10 -->
<g id="edge26" class="edge"><title>12&#45;&gt;10</title>
<path fill="none" stroke="black" d="M272,-632.938C272,-615.023 272,-586.031 272,-561 272,-561 272,-561 272,-104 272,-68.3971 234.314,-43.2789 207.715,-29.9843"/>
<polygon fill="black" stroke="black" points="209.043,-26.7406 198.507,-25.6237 206.047,-33.0671 209.043,-26.7406"/>
<text text-anchor="middle" x="275.5" y="-318.8" font-family="Times,serif" font-size="14.00">c</text>
</g>
<!-- 13&#45;&gt;5 -->
<g id="edge27" class="edge"><title>13&#45;&gt;5</title>
<path fill="none" stroke="black" d="M191.386,-294.403C199.451,-307.698 210.474,-328.305 215,-348 229.421,-410.746 221.691,-486.758 215.423,-528.267"/>
<polygon fill="black" stroke="black" points="211.943,-527.867 213.835,-538.291 218.857,-528.962 211.943,-527.867"/>
<text text-anchor="middle" x="226.5" y="-413.8" font-family="Times,serif" font-size="14.00">b</text>
</g>
<!-- 13&#45;&gt;10 -->
<g id="edge28" class="edge"><title>13&#45;&gt;10</title>
<path fill="none" stroke="black" d="M182,-260.604C182,-216.462 182,-99.8288 182,-46.4152"/>
<polygon fill="black" stroke="black" points="185.5,-46.3201 182,-36.3202 178.5,-46.3202 185.5,-46.3201"/>
<text text-anchor="middle" x="190" y="-144.8" font-family="Times,serif" font-size="14.00">c,a</text>
</g>
</g>
</svg>
