<?xml version="1.0" encoding="UTF-8" standalone="no"?>
<!DOCTYPE svg PUBLIC "-//W3C//DTD SVG 1.1//EN"
 "http://www.w3.org/Graphics/SVG/1.1/DTD/svg11.dtd">
<!-- Generated by graphviz version 2.38.0 (20140413.2041)
 -->
<!-- Title: %3 Pages: 1 -->
<svg width="240pt" height="614pt"
 viewBox="0.00 0.00 240.00 614.00" xmlns="http://www.w3.org/2000/svg" xmlns:xlink="http://www.w3.org/1999/xlink">
<g id="graph0" class="graph" transform="scale(1 1) rotate(0) translate(4 610)">
<title>%3</title>
<!-- 0 -->
<g id="node1" class="node"><title>0</title>
<ellipse fill="lightblue" stroke="black" cx="159" cy="-394" rx="18" ry="18"/>
<ellipse fill="none" stroke="black" cx="159" cy="-394" rx="22" ry="22"/>
<text text-anchor="middle" x="159" y="-390.3" font-family="Times,serif" font-size="14.00">0</text>
</g>
<!-- 0&#45;&gt;0 -->
<g id="edge1" class="edge"><title>0&#45;&gt;0</title>
<path fill="none" stroke="black" d="M179.581,-402.37C189.845,-403.528 199,-400.738 199,-394 199,-389.683 195.243,-386.987 189.844,-385.911"/>
<polygon fill="black" stroke="black" points="189.673,-382.405 179.581,-385.63 189.481,-389.402 189.673,-382.405"/>
<text text-anchor="middle" x="202.5" y="-390.3" font-family="Times,serif" font-size="14.00">b</text>
</g>
<!-- 5 -->
<g id="node6" class="node"><title>5</title>
<ellipse fill="lightblue" stroke="black" cx="207" cy="-299" rx="18" ry="18"/>
<ellipse fill="none" stroke="black" cx="207" cy="-299" rx="22" ry="22"/>
<text text-anchor="middle" x="207" y="-295.3" font-family="Times,serif" font-size="14.00">5</text>
</g>
<!-- 0&#45;&gt;5 -->
<g id="edge2" class="edge"><title>0&#45;&gt;5</title>
<path fill="none" stroke="black" d="M168.714,-374.18C175.545,-360.944 184.804,-343.004 192.506,-328.082"/>
<polygon fill="black" stroke="black" points="195.825,-329.283 197.301,-318.792 189.604,-326.073 195.825,-329.283"/>
<text text-anchor="middle" x="188.5" y="-342.8" font-family="Times,serif" font-size="14.00">a</text>
</g>
<!-- 1 -->
<g id="node2" class="node"><title>1</title>
<ellipse fill="#aaff80" stroke="black" cx="210" cy="-584" rx="18" ry="18"/>
<ellipse fill="none" stroke="black" cx="210" cy="-584" rx="22" ry="22"/>
<text text-anchor="middle" x="210" y="-580.3" font-family="Times,serif" font-size="14.00">1</text>
</g>
<!-- 1&#45;&gt;5 -->
<g id="edge3" class="edge"><title>1&#45;&gt;5</title>
<path fill="none" stroke="black" d="M211.593,-562.019C214.231,-524.071 218.85,-441.514 215,-372 214.256,-358.559 212.735,-343.772 211.218,-331.113"/>
<polygon fill="black" stroke="black" points="214.674,-330.546 209.961,-321.057 207.728,-331.414 214.674,-330.546"/>
<text text-anchor="middle" x="219.5" y="-437.8" font-family="Times,serif" font-size="14.00">a</text>
</g>
<!-- 8 -->
<g id="node9" class="node"><title>8</title>
<ellipse fill="lightblue" stroke="black" cx="159" cy="-489" rx="18" ry="18"/>
<ellipse fill="none" stroke="black" cx="159" cy="-489" rx="22" ry="22"/>
<text text-anchor="middle" x="159" y="-485.3" font-family="Times,serif" font-size="14.00">8</text>
</g>
<!-- 1&#45;&gt;8 -->
<g id="edge4" class="edge"><title>1&#45;&gt;8</title>
<path fill="none" stroke="black" d="M199.679,-564.18C192.352,-550.818 182.395,-532.662 174.167,-517.657"/>
<polygon fill="black" stroke="black" points="177.182,-515.877 169.305,-508.792 171.045,-519.243 177.182,-515.877"/>
<text text-anchor="middle" x="190.5" y="-532.8" font-family="Times,serif" font-size="14.00">b</text>
</g>
<!-- 2 -->
<g id="node3" class="node"><title>2</title>
<ellipse fill="lightblue" stroke="black" cx="110" cy="-18" rx="18" ry="18"/>
<text text-anchor="middle" x="110" y="-14.3" font-family="Times,serif" font-size="14.00">2</text>
</g>
<!-- 2&#45;&gt;2 -->
<g id="edge5" class="edge"><title>2&#45;&gt;2</title>
<path fill="none" stroke="black" d="M126.664,-25.3828C136.625,-27.0234 146,-24.5625 146,-18 146,-13.7959 142.152,-11.2751 136.768,-10.4375"/>
<polygon fill="black" stroke="black" points="136.6,-6.93988 126.664,-10.6172 136.725,-13.9388 136.6,-6.93988"/>
<text text-anchor="middle" x="154.5" y="-14.3" font-family="Times,serif" font-size="14.00">a,b</text>
</g>
<!-- 3 -->
<g id="node4" class="node"><title>3</title>
<ellipse fill="lightblue" stroke="black" cx="139" cy="-109" rx="18" ry="18"/>
<ellipse fill="none" stroke="black" cx="139" cy="-109" rx="22" ry="22"/>
<text text-anchor="middle" x="139" y="-105.3" font-family="Times,serif" font-size="14.00">3</text>
</g>
<!-- 3&#45;&gt;2 -->
<g id="edge6" class="edge"><title>3&#45;&gt;2</title>
<path fill="none" stroke="black" d="M132.419,-87.8045C128.291,-75.1351 122.928,-58.6743 118.482,-45.0299"/>
<polygon fill="black" stroke="black" points="121.722,-43.678 115.296,-35.2544 115.067,-45.8468 121.722,-43.678"/>
<text text-anchor="middle" x="129.5" y="-57.8" font-family="Times,serif" font-size="14.00">b</text>
</g>
<!-- 3&#45;&gt;3 -->
<g id="edge7" class="edge"><title>3&#45;&gt;3</title>
<path fill="none" stroke="black" d="M159.581,-117.37C169.845,-118.528 179,-115.738 179,-109 179,-104.683 175.243,-101.987 169.844,-100.911"/>
<polygon fill="black" stroke="black" points="169.673,-97.405 159.581,-100.63 169.481,-104.402 169.673,-97.405"/>
<text text-anchor="middle" x="182.5" y="-105.3" font-family="Times,serif" font-size="14.00">a</text>
</g>
<!-- 4 -->
<g id="node5" class="node"><title>4</title>
<ellipse fill="lightblue" stroke="black" cx="97" cy="-394" rx="18" ry="18"/>
<ellipse fill="none" stroke="black" cx="97" cy="-394" rx="22" ry="22"/>
<text text-anchor="middle" x="97" y="-390.3" font-family="Times,serif" font-size="14.00">4</text>
</g>
<!-- 9 -->
<g id="node10" class="node"><title>9</title>
<ellipse fill="lightblue" stroke="black" cx="85" cy="-299" rx="18" ry="18"/>
<text text-anchor="middle" x="85" y="-295.3" font-family="Times,serif" font-size="14.00">9</text>
</g>
<!-- 4&#45;&gt;9 -->
<g id="edge8" class="edge"><title>4&#45;&gt;9</title>
<path fill="none" stroke="black" d="M94.277,-371.897C92.5688,-358.658 90.3493,-341.457 88.5097,-327.2"/>
<polygon fill="black" stroke="black" points="91.9426,-326.455 87.1916,-316.985 85.0002,-327.351 91.9426,-326.455"/>
<text text-anchor="middle" x="94.5" y="-342.8" font-family="Times,serif" font-size="14.00">b</text>
</g>
<!-- 10 -->
<g id="node11" class="node"><title>10</title>
<ellipse fill="lightblue" stroke="black" cx="139" cy="-204" rx="18" ry="18"/>
<ellipse fill="none" stroke="black" cx="139" cy="-204" rx="22" ry="22"/>
<text text-anchor="middle" x="139" y="-200.3" font-family="Times,serif" font-size="14.00">10</text>
</g>
<!-- 4&#45;&gt;10 -->
<g id="edge9" class="edge"><title>4&#45;&gt;10</title>
<path fill="none" stroke="black" d="M101.655,-372.162C109.054,-339.043 123.538,-274.213 132.131,-235.746"/>
<polygon fill="black" stroke="black" points="135.623,-236.167 134.388,-225.644 128.792,-234.641 135.623,-236.167"/>
<text text-anchor="middle" x="125.5" y="-295.3" font-family="Times,serif" font-size="14.00">a</text>
</g>
<!-- 5&#45;&gt;2 -->
<g id="edge10" class="edge"><title>5&#45;&gt;2</title>
<path fill="none" stroke="black" d="M211.13,-277.079C217.855,-237.444 227.392,-149.765 195,-87 181.981,-61.7743 154.976,-42.7398 134.88,-31.316"/>
<polygon fill="black" stroke="black" points="136.394,-28.1557 125.934,-26.4667 133.058,-34.3096 136.394,-28.1557"/>
<text text-anchor="middle" x="218.5" y="-152.8" font-family="Times,serif" font-size="14.00">b</text>
</g>
<!-- 5&#45;&gt;10 -->
<g id="edge11" class="edge"><title>5&#45;&gt;10</title>
<path fill="none" stroke="black" d="M194.21,-280.507C183.952,-266.478 169.406,-246.584 157.819,-230.738"/>
<polygon fill="black" stroke="black" points="160.461,-228.421 151.733,-222.414 154.81,-232.552 160.461,-228.421"/>
<text text-anchor="middle" x="180.5" y="-247.8" font-family="Times,serif" font-size="14.00">a</text>
</g>
<!-- 6 -->
<g id="node7" class="node"><title>6</title>
<ellipse fill="lightblue" stroke="black" cx="18" cy="-204" rx="18" ry="18"/>
<text text-anchor="middle" x="18" y="-200.3" font-family="Times,serif" font-size="14.00">6</text>
</g>
<!-- 6&#45;&gt;6 -->
<g id="edge12" class="edge"><title>6&#45;&gt;6</title>
<path fill="none" stroke="black" d="M34.2903,-212.016C44.3892,-213.949 54,-211.277 54,-204 54,-199.338 50.0557,-196.566 44.5656,-195.684"/>
<polygon fill="black" stroke="black" points="44.1839,-192.193 34.2903,-195.984 44.3881,-199.19 44.1839,-192.193"/>
<text text-anchor="middle" x="57.5" y="-200.3" font-family="Times,serif" font-size="14.00">b</text>
</g>
<!-- 7 -->
<g id="node8" class="node"><title>7</title>
<ellipse fill="lightblue" stroke="black" cx="34" cy="-109" rx="18" ry="18"/>
<ellipse fill="none" stroke="black" cx="34" cy="-109" rx="22" ry="22"/>
<text text-anchor="middle" x="34" y="-105.3" font-family="Times,serif" font-size="14.00">7</text>
</g>
<!-- 6&#45;&gt;7 -->
<g id="edge13" class="edge"><title>6&#45;&gt;7</title>
<path fill="none" stroke="black" d="M20.9346,-185.942C23.1043,-173.331 26.1185,-155.811 28.705,-140.777"/>
<polygon fill="black" stroke="black" points="32.1655,-141.305 30.4118,-130.857 25.2669,-140.118 32.1655,-141.305"/>
<text text-anchor="middle" x="30.5" y="-152.8" font-family="Times,serif" font-size="14.00">a</text>
</g>
<!-- 7&#45;&gt;2 -->
<g id="edge14" class="edge"><title>7&#45;&gt;2</title>
<path fill="none" stroke="black" d="M39.945,-87.7671C43.84,-76.9272 49.7552,-63.8224 58,-54 65.5287,-45.0306 75.9161,-37.4175 85.4286,-31.6053"/>
<polygon fill="black" stroke="black" points="87.2251,-34.6098 94.1589,-26.5991 83.7429,-28.5374 87.2251,-34.6098"/>
<text text-anchor="middle" x="66.5" y="-57.8" font-family="Times,serif" font-size="14.00">a,b</text>
</g>
<!-- 8&#45;&gt;0 -->
<g id="edge15" class="edge"><title>8&#45;&gt;0</title>
<path fill="none" stroke="black" d="M159,-466.897C159,-454.887 159,-439.617 159,-426.242"/>
<polygon fill="black" stroke="black" points="162.5,-426.02 159,-416.02 155.5,-426.02 162.5,-426.02"/>
<text text-anchor="middle" x="162.5" y="-437.8" font-family="Times,serif" font-size="14.00">b</text>
</g>
<!-- 8&#45;&gt;4 -->
<g id="edge16" class="edge"><title>8&#45;&gt;4</title>
<path fill="none" stroke="black" d="M147.046,-470.069C137.868,-456.302 125.054,-437.082 114.691,-421.536"/>
<polygon fill="black" stroke="black" points="117.377,-419.255 108.918,-412.876 111.552,-423.138 117.377,-419.255"/>
<text text-anchor="middle" x="134.5" y="-437.8" font-family="Times,serif" font-size="14.00">a</text>
</g>
<!-- 9&#45;&gt;2 -->
<g id="edge17" class="edge"><title>9&#45;&gt;2</title>
<path fill="none" stroke="black" d="M86.5262,-280.967C90.7191,-234.174 102.442,-103.352 107.559,-46.245"/>
<polygon fill="black" stroke="black" points="111.055,-46.4368 108.462,-36.1643 104.083,-45.812 111.055,-46.4368"/>
<text text-anchor="middle" x="101.5" y="-152.8" font-family="Times,serif" font-size="14.00">a</text>
</g>
<!-- 9&#45;&gt;6 -->
<g id="edge18" class="edge"><title>9&#45;&gt;6</title>
<path fill="none" stroke="black" d="M74.8241,-283.875C64.0381,-268.904 46.8479,-245.043 34.1964,-227.482"/>
<polygon fill="black" stroke="black" points="36.7373,-225.021 28.0521,-218.953 31.0577,-229.112 36.7373,-225.021"/>
<text text-anchor="middle" x="59.5" y="-247.8" font-family="Times,serif" font-size="14.00">b</text>
</g>
<!-- 10&#45;&gt;3 -->
<g id="edge19" class="edge"><title>10&#45;&gt;3</title>
<path fill="none" stroke="black" d="M139,-181.897C139,-169.887 139,-154.617 139,-141.242"/>
<polygon fill="black" stroke="black" points="142.5,-141.02 139,-131.02 135.5,-141.02 142.5,-141.02"/>
<text text-anchor="middle" x="142.5" y="-152.8" font-family="Times,serif" font-size="14.00">b</text>
</g>
<!-- 10&#45;&gt;10 -->
<g id="edge20" class="edge"><title>10&#45;&gt;10</title>
<path fill="none" stroke="black" d="M159.581,-212.37C169.845,-213.528 179,-210.738 179,-204 179,-199.683 175.243,-196.987 169.844,-195.911"/>
<polygon fill="black" stroke="black" points="169.673,-192.405 159.581,-195.63 169.481,-199.402 169.673,-192.405"/>
<text text-anchor="middle" x="182.5" y="-200.3" font-family="Times,serif" font-size="14.00">a</text>
</g>
</g>
</svg>
