<?xml version="1.0" encoding="UTF-8" standalone="no"?>
<!DOCTYPE svg PUBLIC "-//W3C//DTD SVG 1.1//EN"
 "http://www.w3.org/Graphics/SVG/1.1/DTD/svg11.dtd">
<!-- Generated by graphviz version 2.38.0 (20140413.2041)
 -->
<!-- Title: %3 Pages: 1 -->
<svg width="79pt" height="226pt"
 viewBox="0.00 0.00 79.00 226.00" xmlns="http://www.w3.org/2000/svg" xmlns:xlink="http://www.w3.org/1999/xlink">
<g id="graph0" class="graph" transform="scale(1 1) rotate(0) translate(4 222)">
<title>%3</title>
<!-- 0 -->
<g id="node1" class="node"><title>0</title>
<ellipse fill="lightblue" stroke="black" cx="31" cy="-200" rx="18" ry="18"/>
<text text-anchor="middle" x="31" y="-196.3" font-family="Times,serif" font-size="14.00">0</text>
</g>
<!-- 1 -->
<g id="node2" class="node"><title>1</title>
<ellipse fill="lightblue" stroke="black" cx="18" cy="-18" rx="18" ry="18"/>
<text text-anchor="middle" x="18" y="-14.3" font-family="Times,serif" font-size="14.00">1</text>
</g>
<!-- 0&#45;&gt;1 -->
<g id="edge1" class="edge"><title>0&#45;&gt;1</title>
<path fill="none" stroke="black" d="M23.8103,-183.469C17.9681,-169.943 10.1917,-149.633 7,-131 2.04503,-102.073 6.69201,-68.5322 11.3788,-45.7512"/>
<polygon fill="black" stroke="black" points="14.838,-46.317 13.5705,-35.7983 8.00175,-44.8115 14.838,-46.317"/>
<text text-anchor="middle" x="10.5" y="-105.3" font-family="Times,serif" font-size="14.00">a</text>
</g>
<!-- 2 -->
<g id="node3" class="node"><title>2</title>
<ellipse fill="#aaff80" stroke="black" cx="45" cy="-109" rx="18" ry="18"/>
<ellipse fill="none" stroke="black" cx="45" cy="-109" rx="22" ry="22"/>
<text text-anchor="middle" x="45" y="-105.3" font-family="Times,serif" font-size="14.00">2</text>
</g>
<!-- 0&#45;&gt;2 -->
<g id="edge2" class="edge"><title>0&#45;&gt;2</title>
<path fill="none" stroke="black" d="M31.1226,-181.772C31.4188,-172.085 32.1741,-159.804 34,-149 34.511,-145.976 35.167,-142.851 35.9038,-139.747"/>
<polygon fill="black" stroke="black" points="39.2945,-140.615 38.4536,-130.054 32.5248,-138.834 39.2945,-140.615"/>
<text text-anchor="middle" x="37.5" y="-152.8" font-family="Times,serif" font-size="14.00">b</text>
</g>
<!-- 1&#45;&gt;1 -->
<g id="edge3" class="edge"><title>1&#45;&gt;1</title>
<path fill="none" stroke="black" d="M34.6641,-25.3828C44.625,-27.0234 54,-24.5625 54,-18 54,-13.7959 50.1525,-11.2751 44.7682,-10.4375"/>
<polygon fill="black" stroke="black" points="44.6002,-6.93988 34.6641,-10.6172 44.7247,-13.9388 44.6002,-6.93988"/>
<text text-anchor="middle" x="62.5" y="-14.3" font-family="Times,serif" font-size="14.00">a,b</text>
</g>
<!-- 2&#45;&gt;0 -->
<g id="edge4" class="edge"><title>2&#45;&gt;0</title>
<path fill="none" stroke="black" d="M43.2179,-131.106C42.2293,-141.113 40.8262,-153.212 39,-164 38.538,-166.729 37.9956,-169.564 37.4146,-172.387"/>
<polygon fill="black" stroke="black" points="33.9548,-171.823 35.2155,-182.343 40.7901,-173.333 33.9548,-171.823"/>
<text text-anchor="middle" x="44.5" y="-152.8" font-family="Times,serif" font-size="14.00">a</text>
</g>
<!-- 2&#45;&gt;1 -->
<g id="edge5" class="edge"><title>2&#45;&gt;1</title>
<path fill="none" stroke="black" d="M38.8733,-87.8045C35.0546,-75.2169 30.1004,-58.8865 25.9769,-45.2943"/>
<polygon fill="black" stroke="black" points="29.2706,-44.0946 23.0182,-35.5414 22.572,-46.1268 29.2706,-44.0946"/>
<text text-anchor="middle" x="36.5" y="-57.8" font-family="Times,serif" font-size="14.00">b</text>
</g>
</g>
</svg>
