<?xml version="1.0" encoding="UTF-8" standalone="no"?>
<!DOCTYPE svg PUBLIC "-//W3C//DTD SVG 1.1//EN"
 "http://www.w3.org/Graphics/SVG/1.1/DTD/svg11.dtd">
<!-- Generated by graphviz version 2.38.0 (20140413.2041)
 -->
<!-- Title: %3 Pages: 1 -->
<svg width="44pt" height="131pt"
 viewBox="0.00 0.00 44.00 131.00" xmlns="http://www.w3.org/2000/svg" xmlns:xlink="http://www.w3.org/1999/xlink">
<g id="graph0" class="graph" transform="scale(1 1) rotate(0) translate(4 127)">
<title>%3</title>
<!-- 10.b -->
<g id="node1" class="node"><title>10.b</title>
<ellipse fill="lightblue" stroke="black" cx="18" cy="-18" rx="18" ry="18"/>
<text text-anchor="middle" x="18" y="-14.3" font-family="Times,serif" font-size="14.00">10.b</text>
</g>
<!-- 0 -->
<g id="node2" class="node"><title>0</title>
<ellipse fill="lightblue" stroke="black" cx="18" cy="-105" rx="18" ry="18"/>
<text text-anchor="middle" x="18" y="-101.3" font-family="Times,serif" font-size="14.00">0</text>
</g>
<!-- 0&#45;&gt;10.b -->
<g id="edge1" class="edge"><title>0&#45;&gt;10.b</title>
<path fill="none" stroke="black" d="M18,-86.799C18,-75.1626 18,-59.5479 18,-46.2368"/>
<polygon fill="black" stroke="black" points="21.5001,-46.1754 18,-36.1754 14.5001,-46.1755 21.5001,-46.1754"/>
<text text-anchor="middle" x="21.5" y="-57.8" font-family="Times,serif" font-size="14.00">a</text>
</g>
</g>
</svg>
