<?xml version="1.0" encoding="UTF-8" standalone="no"?>
<!DOCTYPE svg PUBLIC "-//W3C//DTD SVG 1.1//EN"
 "http://www.w3.org/Graphics/SVG/1.1/DTD/svg11.dtd">
<!-- Generated by graphviz version 2.38.0 (20140413.2041)
 -->
<!-- Title: %3 Pages: 1 -->
<svg width="393pt" height="1081pt"
 viewBox="0.00 0.00 393.00 1081.00" xmlns="http://www.w3.org/2000/svg" xmlns:xlink="http://www.w3.org/1999/xlink">
<g id="graph0" class="graph" transform="scale(1 1) rotate(0) translate(4 1077)">
<title>%3</title>
<!-- 0 -->
<g id="node1" class="node"><title>0</title>
<ellipse fill="#aaff80" stroke="black" cx="150" cy="-1051" rx="18" ry="18"/>
<ellipse fill="none" stroke="black" cx="150" cy="-1051" rx="22" ry="22"/>
<text text-anchor="middle" x="150" y="-1047.3" font-family="Times,serif" font-size="14.00">0</text>
</g>
<!-- 5 -->
<g id="node6" class="node"><title>5</title>
<ellipse fill="lightblue" stroke="black" cx="151" cy="-766" rx="18" ry="18"/>
<ellipse fill="none" stroke="black" cx="151" cy="-766" rx="22" ry="22"/>
<text text-anchor="middle" x="151" y="-762.3" font-family="Times,serif" font-size="14.00">5</text>
</g>
<!-- 0&#45;&gt;5 -->
<g id="edge1" class="edge"><title>0&#45;&gt;5</title>
<path fill="none" stroke="black" d="M149.638,-1028.73C149.047,-990.678 148.036,-908.412 149,-839 149.186,-825.617 149.566,-810.839 149.945,-798.172"/>
<polygon fill="black" stroke="black" points="153.446,-798.209 150.259,-788.105 146.449,-797.991 153.446,-798.209"/>
<text text-anchor="middle" x="151.5" y="-904.8" font-family="Times,serif" font-size="14.00">a</text>
</g>
<!-- 16 -->
<g id="node17" class="node"><title>16</title>
<ellipse fill="lightblue" stroke="black" cx="180" cy="-956" rx="18" ry="18"/>
<ellipse fill="none" stroke="black" cx="180" cy="-956" rx="22" ry="22"/>
<text text-anchor="middle" x="180" y="-952.3" font-family="Times,serif" font-size="14.00">16</text>
</g>
<!-- 0&#45;&gt;16 -->
<g id="edge2" class="edge"><title>0&#45;&gt;16</title>
<path fill="none" stroke="black" d="M156.51,-1029.82C160.559,-1017.27 165.839,-1000.9 170.367,-986.862"/>
<polygon fill="black" stroke="black" points="173.764,-987.732 173.503,-977.14 167.102,-985.583 173.764,-987.732"/>
<text text-anchor="middle" x="169.5" y="-999.8" font-family="Times,serif" font-size="14.00">b</text>
</g>
<!-- 1 -->
<g id="node2" class="node"><title>1</title>
<ellipse fill="lightblue" stroke="black" cx="85" cy="-671" rx="18" ry="18"/>
<text text-anchor="middle" x="85" y="-667.3" font-family="Times,serif" font-size="14.00">1</text>
</g>
<!-- 9 -->
<g id="node10" class="node"><title>9</title>
<ellipse fill="lightblue" stroke="black" cx="85" cy="-580" rx="18" ry="18"/>
<text text-anchor="middle" x="85" y="-576.3" font-family="Times,serif" font-size="14.00">9</text>
</g>
<!-- 1&#45;&gt;9 -->
<g id="edge3" class="edge"><title>1&#45;&gt;9</title>
<path fill="none" stroke="black" d="M85,-652.84C85,-640.281 85,-622.979 85,-608.502"/>
<polygon fill="black" stroke="black" points="88.5001,-608.107 85,-598.107 81.5001,-608.107 88.5001,-608.107"/>
<text text-anchor="middle" x="88.5" y="-619.8" font-family="Times,serif" font-size="14.00">b</text>
</g>
<!-- 17 -->
<g id="node18" class="node"><title>17</title>
<ellipse fill="lightblue" stroke="black" cx="172" cy="-18" rx="18" ry="18"/>
<text text-anchor="middle" x="172" y="-14.3" font-family="Times,serif" font-size="14.00">17</text>
</g>
<!-- 1&#45;&gt;17 -->
<g id="edge4" class="edge"><title>1&#45;&gt;17</title>
<path fill="none" stroke="black" d="M69.0122,-662.381C44.3897,-649.404 0,-620.527 0,-581 0,-581 0,-581 0,-108 0,-44.0777 94.8657,-26.0131 143.691,-20.9487"/>
<polygon fill="black" stroke="black" points="144.281,-24.4094 153.918,-20.0086 143.64,-17.4388 144.281,-24.4094"/>
<text text-anchor="middle" x="3.5" y="-342.8" font-family="Times,serif" font-size="14.00">a</text>
</g>
<!-- 2 -->
<g id="node3" class="node"><title>2</title>
<ellipse fill="lightblue" stroke="black" cx="286" cy="-580" rx="18" ry="18"/>
<text text-anchor="middle" x="286" y="-576.3" font-family="Times,serif" font-size="14.00">2</text>
</g>
<!-- 13 -->
<g id="node14" class="node"><title>13</title>
<ellipse fill="lightblue" stroke="black" cx="286" cy="-489" rx="18" ry="18"/>
<ellipse fill="none" stroke="black" cx="286" cy="-489" rx="22" ry="22"/>
<text text-anchor="middle" x="286" y="-485.3" font-family="Times,serif" font-size="14.00">13</text>
</g>
<!-- 2&#45;&gt;13 -->
<g id="edge5" class="edge"><title>2&#45;&gt;13</title>
<path fill="none" stroke="black" d="M286,-561.84C286,-550.441 286,-535.134 286,-521.578"/>
<polygon fill="black" stroke="black" points="289.5,-521.19 286,-511.191 282.5,-521.191 289.5,-521.19"/>
<text text-anchor="middle" x="289.5" y="-532.8" font-family="Times,serif" font-size="14.00">b</text>
</g>
<!-- 2&#45;&gt;17 -->
<g id="edge6" class="edge"><title>2&#45;&gt;17</title>
<path fill="none" stroke="black" d="M302.448,-572.146C328.91,-559.891 378,-531.557 378,-490 378,-490 378,-490 378,-108 378,-31.5057 256.82,-19.9955 200.345,-18.7849"/>
<polygon fill="black" stroke="black" points="200.322,-15.2845 190.281,-18.6645 200.239,-22.284 200.322,-15.2845"/>
<text text-anchor="middle" x="381.5" y="-295.3" font-family="Times,serif" font-size="14.00">a</text>
</g>
<!-- 3 -->
<g id="node4" class="node"><title>3</title>
<ellipse fill="lightblue" stroke="black" cx="128" cy="-204" rx="18" ry="18"/>
<text text-anchor="middle" x="128" y="-200.3" font-family="Times,serif" font-size="14.00">3</text>
</g>
<!-- 3&#45;&gt;3 -->
<g id="edge7" class="edge"><title>3&#45;&gt;3</title>
<path fill="none" stroke="black" d="M144.29,-212.016C154.389,-213.949 164,-211.277 164,-204 164,-199.338 160.056,-196.566 154.566,-195.684"/>
<polygon fill="black" stroke="black" points="154.184,-192.193 144.29,-195.984 154.388,-199.19 154.184,-192.193"/>
<text text-anchor="middle" x="167.5" y="-200.3" font-family="Times,serif" font-size="14.00">a</text>
</g>
<!-- 11 -->
<g id="node12" class="node"><title>11</title>
<ellipse fill="lightblue" stroke="black" cx="172" cy="-109" rx="18" ry="18"/>
<ellipse fill="none" stroke="black" cx="172" cy="-109" rx="22" ry="22"/>
<text text-anchor="middle" x="172" y="-105.3" font-family="Times,serif" font-size="14.00">11</text>
</g>
<!-- 3&#45;&gt;11 -->
<g id="edge8" class="edge"><title>3&#45;&gt;11</title>
<path fill="none" stroke="black" d="M135.464,-187.224C141.758,-173.92 150.926,-154.543 158.503,-138.527"/>
<polygon fill="black" stroke="black" points="161.863,-139.61 162.976,-129.074 155.535,-136.617 161.863,-139.61"/>
<text text-anchor="middle" x="155.5" y="-152.8" font-family="Times,serif" font-size="14.00">b</text>
</g>
<!-- 4 -->
<g id="node5" class="node"><title>4</title>
<ellipse fill="lightblue" stroke="black" cx="180" cy="-861" rx="18" ry="18"/>
<ellipse fill="none" stroke="black" cx="180" cy="-861" rx="22" ry="22"/>
<text text-anchor="middle" x="180" y="-857.3" font-family="Times,serif" font-size="14.00">4</text>
</g>
<!-- 4&#45;&gt;4 -->
<g id="edge9" class="edge"><title>4&#45;&gt;4</title>
<path fill="none" stroke="black" d="M200.581,-869.37C210.845,-870.528 220,-867.738 220,-861 220,-856.683 216.243,-853.987 210.844,-852.911"/>
<polygon fill="black" stroke="black" points="210.673,-849.405 200.581,-852.63 210.481,-856.402 210.673,-849.405"/>
<text text-anchor="middle" x="223.5" y="-857.3" font-family="Times,serif" font-size="14.00">b</text>
</g>
<!-- 4&#45;&gt;5 -->
<g id="edge10" class="edge"><title>4&#45;&gt;5</title>
<path fill="none" stroke="black" d="M173.707,-839.82C169.793,-827.268 164.689,-810.9 160.312,-796.862"/>
<polygon fill="black" stroke="black" points="163.599,-795.645 157.28,-787.14 156.916,-797.729 163.599,-795.645"/>
<text text-anchor="middle" x="170.5" y="-809.8" font-family="Times,serif" font-size="14.00">a</text>
</g>
<!-- 5&#45;&gt;1 -->
<g id="edge11" class="edge"><title>5&#45;&gt;1</title>
<path fill="none" stroke="black" d="M138.586,-747.507C127.937,-732.502 112.525,-710.786 100.961,-694.491"/>
<polygon fill="black" stroke="black" points="103.629,-692.202 94.987,-686.073 97.9202,-696.253 103.629,-692.202"/>
<text text-anchor="middle" x="124.5" y="-714.8" font-family="Times,serif" font-size="14.00">b</text>
</g>
<!-- 10 -->
<g id="node11" class="node"><title>10</title>
<ellipse fill="lightblue" stroke="black" cx="211" cy="-204" rx="18" ry="18"/>
<ellipse fill="none" stroke="black" cx="211" cy="-204" rx="22" ry="22"/>
<text text-anchor="middle" x="211" y="-200.3" font-family="Times,serif" font-size="14.00">10</text>
</g>
<!-- 5&#45;&gt;10 -->
<g id="edge12" class="edge"><title>5&#45;&gt;10</title>
<path fill="none" stroke="black" d="M162.707,-747.304C173.547,-729.18 188,-699.803 188,-672 188,-672 188,-672 188,-298 188,-276.209 194.024,-252.364 199.906,-234.275"/>
<polygon fill="black" stroke="black" points="203.288,-235.203 203.213,-224.608 196.665,-232.937 203.288,-235.203"/>
<text text-anchor="middle" x="191.5" y="-485.3" font-family="Times,serif" font-size="14.00">a</text>
</g>
<!-- 6 -->
<g id="node7" class="node"><title>6</title>
<ellipse fill="lightblue" stroke="black" cx="66" cy="-394" rx="18" ry="18"/>
<text text-anchor="middle" x="66" y="-390.3" font-family="Times,serif" font-size="14.00">6</text>
</g>
<!-- 12 -->
<g id="node13" class="node"><title>12</title>
<ellipse fill="lightblue" stroke="black" cx="92" cy="-299" rx="18" ry="18"/>
<text text-anchor="middle" x="92" y="-295.3" font-family="Times,serif" font-size="14.00">12</text>
</g>
<!-- 6&#45;&gt;12 -->
<g id="edge13" class="edge"><title>6&#45;&gt;12</title>
<path fill="none" stroke="black" d="M70.6483,-376.373C74.5304,-362.487 80.1357,-342.438 84.6291,-326.365"/>
<polygon fill="black" stroke="black" points="88.0702,-327.056 87.392,-316.483 81.3287,-325.171 88.0702,-327.056"/>
<text text-anchor="middle" x="83.5" y="-342.8" font-family="Times,serif" font-size="14.00">a</text>
</g>
<!-- 6&#45;&gt;17 -->
<g id="edge14" class="edge"><title>6&#45;&gt;17</title>
<path fill="none" stroke="black" d="M60.3223,-376.764C54.4094,-358.38 46,-327.415 46,-300 46,-300 46,-300 46,-108 46,-60.0189 107.71,-35.6062 144.757,-25.2735"/>
<polygon fill="black" stroke="black" points="145.695,-28.646 154.48,-22.7246 143.92,-21.8748 145.695,-28.646"/>
<text text-anchor="middle" x="49.5" y="-200.3" font-family="Times,serif" font-size="14.00">b</text>
</g>
<!-- 7 -->
<g id="node8" class="node"><title>7</title>
<ellipse fill="lightblue" stroke="black" cx="282" cy="-299" rx="18" ry="18"/>
<ellipse fill="none" stroke="black" cx="282" cy="-299" rx="22" ry="22"/>
<text text-anchor="middle" x="282" y="-295.3" font-family="Times,serif" font-size="14.00">7</text>
</g>
<!-- 7&#45;&gt;10 -->
<g id="edge15" class="edge"><title>7&#45;&gt;10</title>
<path fill="none" stroke="black" d="M268.978,-280.942C258.068,-266.653 242.349,-246.062 230.029,-229.925"/>
<polygon fill="black" stroke="black" points="232.79,-227.774 223.94,-221.949 227.226,-232.022 232.79,-227.774"/>
<text text-anchor="middle" x="253.5" y="-247.8" font-family="Times,serif" font-size="14.00">a</text>
</g>
<!-- 7&#45;&gt;17 -->
<g id="edge16" class="edge"><title>7&#45;&gt;17</title>
<path fill="none" stroke="black" d="M280.915,-276.725C279.334,-253.214 275.584,-214.388 267,-182 255.307,-137.881 251.436,-126.165 228,-87 217.595,-69.6115 202.959,-52.0065 191.259,-39.0672"/>
<polygon fill="black" stroke="black" points="193.773,-36.6305 184.418,-31.6573 188.63,-41.379 193.773,-36.6305"/>
<text text-anchor="middle" x="265.5" y="-152.8" font-family="Times,serif" font-size="14.00">b</text>
</g>
<!-- 8 -->
<g id="node9" class="node"><title>8</title>
<ellipse fill="lightblue" stroke="black" cx="255" cy="-671" rx="18" ry="18"/>
<ellipse fill="none" stroke="black" cx="255" cy="-671" rx="22" ry="22"/>
<text text-anchor="middle" x="255" y="-667.3" font-family="Times,serif" font-size="14.00">8</text>
</g>
<!-- 8&#45;&gt;2 -->
<g id="edge17" class="edge"><title>8&#45;&gt;2</title>
<path fill="none" stroke="black" d="M262.034,-649.805C266.447,-637.135 272.181,-620.674 276.933,-607.03"/>
<polygon fill="black" stroke="black" points="280.354,-607.849 280.338,-597.254 273.744,-605.547 280.354,-607.849"/>
<text text-anchor="middle" x="276.5" y="-619.8" font-family="Times,serif" font-size="14.00">b</text>
</g>
<!-- 8&#45;&gt;10 -->
<g id="edge18" class="edge"><title>8&#45;&gt;10</title>
<path fill="none" stroke="black" d="M245.02,-651.134C236.631,-633.502 226,-606.189 226,-581 226,-581 226,-581 226,-298 226,-276.946 222.207,-253.549 218.435,-235.49"/>
<polygon fill="black" stroke="black" points="221.812,-234.547 216.246,-225.532 214.975,-236.05 221.812,-234.547"/>
<text text-anchor="middle" x="229.5" y="-437.8" font-family="Times,serif" font-size="14.00">a</text>
</g>
<!-- 9&#45;&gt;6 -->
<g id="edge19" class="edge"><title>9&#45;&gt;6</title>
<path fill="none" stroke="black" d="M82.1687,-561.995C79.9626,-548.265 76.9556,-528.431 75,-511 71.6172,-480.847 69.1056,-446.142 67.6075,-422.608"/>
<polygon fill="black" stroke="black" points="71.0825,-422.095 66.9725,-412.33 64.0959,-422.526 71.0825,-422.095"/>
<text text-anchor="middle" x="78.5" y="-485.3" font-family="Times,serif" font-size="14.00">a</text>
</g>
<!-- 14 -->
<g id="node15" class="node"><title>14</title>
<ellipse fill="lightblue" stroke="black" cx="109" cy="-489" rx="18" ry="18"/>
<text text-anchor="middle" x="109" y="-485.3" font-family="Times,serif" font-size="14.00">14</text>
</g>
<!-- 9&#45;&gt;14 -->
<g id="edge20" class="edge"><title>9&#45;&gt;14</title>
<path fill="none" stroke="black" d="M89.5142,-562.26C93.0005,-549.331 97.8903,-531.198 101.899,-516.332"/>
<polygon fill="black" stroke="black" points="105.282,-517.232 104.506,-506.665 98.523,-515.409 105.282,-517.232"/>
<text text-anchor="middle" x="101.5" y="-532.8" font-family="Times,serif" font-size="14.00">b</text>
</g>
<!-- 10&#45;&gt;10 -->
<g id="edge21" class="edge"><title>10&#45;&gt;10</title>
<path fill="none" stroke="black" d="M231.581,-212.37C241.845,-213.528 251,-210.738 251,-204 251,-199.683 247.243,-196.987 241.844,-195.911"/>
<polygon fill="black" stroke="black" points="241.673,-192.405 231.581,-195.63 241.481,-199.402 241.673,-192.405"/>
<text text-anchor="middle" x="254.5" y="-200.3" font-family="Times,serif" font-size="14.00">a</text>
</g>
<!-- 10&#45;&gt;11 -->
<g id="edge22" class="edge"><title>10&#45;&gt;11</title>
<path fill="none" stroke="black" d="M202.729,-183.277C197.352,-170.454 190.246,-153.509 184.222,-139.145"/>
<polygon fill="black" stroke="black" points="187.354,-137.563 180.259,-129.694 180.899,-140.27 187.354,-137.563"/>
<text text-anchor="middle" x="196.5" y="-152.8" font-family="Times,serif" font-size="14.00">b</text>
</g>
<!-- 11&#45;&gt;11 -->
<g id="edge23" class="edge"><title>11&#45;&gt;11</title>
<path fill="none" stroke="black" d="M192.581,-117.37C202.845,-118.528 212,-115.738 212,-109 212,-104.683 208.243,-101.987 202.844,-100.911"/>
<polygon fill="black" stroke="black" points="202.673,-97.405 192.581,-100.63 202.481,-104.402 202.673,-97.405"/>
<text text-anchor="middle" x="215.5" y="-105.3" font-family="Times,serif" font-size="14.00">a</text>
</g>
<!-- 11&#45;&gt;17 -->
<g id="edge24" class="edge"><title>11&#45;&gt;17</title>
<path fill="none" stroke="black" d="M172,-86.9082C172,-74.7803 172,-59.4094 172,-46.3598"/>
<polygon fill="black" stroke="black" points="175.5,-46.0663 172,-36.0663 168.5,-46.0663 175.5,-46.0663"/>
<text text-anchor="middle" x="175.5" y="-57.8" font-family="Times,serif" font-size="14.00">b</text>
</g>
<!-- 12&#45;&gt;3 -->
<g id="edge25" class="edge"><title>12&#45;&gt;3</title>
<path fill="none" stroke="black" d="M98.2707,-281.801C103.743,-267.665 111.776,-246.912 118.113,-230.542"/>
<polygon fill="black" stroke="black" points="121.455,-231.603 121.801,-221.014 114.927,-229.076 121.455,-231.603"/>
<text text-anchor="middle" x="115.5" y="-247.8" font-family="Times,serif" font-size="14.00">a</text>
</g>
<!-- 12&#45;&gt;17 -->
<g id="edge26" class="edge"><title>12&#45;&gt;17</title>
<path fill="none" stroke="black" d="M91.6301,-280.827C91.521,-257.946 92.6669,-216.353 101,-182 111.8,-137.479 122.607,-128.958 141,-87 147.309,-72.6068 154.588,-56.6109 160.506,-43.751"/>
<polygon fill="black" stroke="black" points="163.714,-45.1529 164.728,-34.6067 157.359,-42.2186 163.714,-45.1529"/>
<text text-anchor="middle" x="114.5" y="-152.8" font-family="Times,serif" font-size="14.00">b</text>
</g>
<!-- 13&#45;&gt;13 -->
<g id="edge27" class="edge"><title>13&#45;&gt;13</title>
<path fill="none" stroke="black" d="M306.581,-497.37C316.845,-498.528 326,-495.738 326,-489 326,-484.683 322.243,-481.987 316.844,-480.911"/>
<polygon fill="black" stroke="black" points="316.673,-477.405 306.581,-480.63 316.481,-484.402 316.673,-477.405"/>
<text text-anchor="middle" x="329.5" y="-485.3" font-family="Times,serif" font-size="14.00">b</text>
</g>
<!-- 15 -->
<g id="node16" class="node"><title>15</title>
<ellipse fill="lightblue" stroke="black" cx="285" cy="-394" rx="18" ry="18"/>
<ellipse fill="none" stroke="black" cx="285" cy="-394" rx="22" ry="22"/>
<text text-anchor="middle" x="285" y="-390.3" font-family="Times,serif" font-size="14.00">15</text>
</g>
<!-- 13&#45;&gt;15 -->
<g id="edge28" class="edge"><title>13&#45;&gt;15</title>
<path fill="none" stroke="black" d="M285.773,-466.897C285.644,-454.887 285.48,-439.617 285.336,-426.242"/>
<polygon fill="black" stroke="black" points="288.833,-425.981 285.226,-416.02 281.834,-426.057 288.833,-425.981"/>
<text text-anchor="middle" x="288.5" y="-437.8" font-family="Times,serif" font-size="14.00">a</text>
</g>
<!-- 14&#45;&gt;14 -->
<g id="edge29" class="edge"><title>14&#45;&gt;14</title>
<path fill="none" stroke="black" d="M125.29,-497.016C135.389,-498.949 145,-496.277 145,-489 145,-484.338 141.056,-481.566 135.566,-480.684"/>
<polygon fill="black" stroke="black" points="135.184,-477.193 125.29,-480.984 135.388,-484.19 135.184,-477.193"/>
<text text-anchor="middle" x="148.5" y="-485.3" font-family="Times,serif" font-size="14.00">b</text>
</g>
<!-- 14&#45;&gt;15 -->
<g id="edge30" class="edge"><title>14&#45;&gt;15</title>
<path fill="none" stroke="black" d="M125.816,-481.33C137.091,-476.976 152.323,-471.319 166,-467 195.812,-457.586 207.127,-464.976 234,-449 246.245,-441.72 257.418,-430.668 266.165,-420.455"/>
<polygon fill="black" stroke="black" points="269.021,-422.491 272.634,-412.532 263.599,-418.064 269.021,-422.491"/>
<text text-anchor="middle" x="256.5" y="-437.8" font-family="Times,serif" font-size="14.00">a</text>
</g>
<!-- 15&#45;&gt;7 -->
<g id="edge31" class="edge"><title>15&#45;&gt;7</title>
<path fill="none" stroke="black" d="M284.319,-371.897C283.932,-359.887 283.439,-344.617 283.008,-331.242"/>
<polygon fill="black" stroke="black" points="286.499,-330.902 282.678,-321.02 279.502,-331.127 286.499,-330.902"/>
<text text-anchor="middle" x="286.5" y="-342.8" font-family="Times,serif" font-size="14.00">a</text>
</g>
<!-- 15&#45;&gt;17 -->
<g id="edge32" class="edge"><title>15&#45;&gt;17</title>
<path fill="none" stroke="black" d="M299.102,-376.772C312.946,-359.128 332,-329.488 332,-300 332,-300 332,-300 332,-108 332,-48.2848 245.834,-28.2839 199.968,-21.8674"/>
<polygon fill="black" stroke="black" points="200.405,-18.3949 190.043,-20.6029 199.52,-25.3388 200.405,-18.3949"/>
<text text-anchor="middle" x="335.5" y="-200.3" font-family="Times,serif" font-size="14.00">b</text>
</g>
<!-- 16&#45;&gt;4 -->
<g id="edge33" class="edge"><title>16&#45;&gt;4</title>
<path fill="none" stroke="black" d="M180,-933.897C180,-921.887 180,-906.617 180,-893.242"/>
<polygon fill="black" stroke="black" points="183.5,-893.02 180,-883.02 176.5,-893.02 183.5,-893.02"/>
<text text-anchor="middle" x="183.5" y="-904.8" font-family="Times,serif" font-size="14.00">b</text>
</g>
<!-- 16&#45;&gt;8 -->
<g id="edge34" class="edge"><title>16&#45;&gt;8</title>
<path fill="none" stroke="black" d="M195.587,-940.36C208.848,-926.857 227.116,-905.541 236,-883 259.758,-822.719 259.815,-745.484 257.541,-703.175"/>
<polygon fill="black" stroke="black" points="261.019,-702.719 256.908,-692.954 254.033,-703.152 261.019,-702.719"/>
<text text-anchor="middle" x="257.5" y="-809.8" font-family="Times,serif" font-size="14.00">a</text>
</g>
<!-- 17&#45;&gt;17 -->
<g id="edge35" class="edge"><title>17&#45;&gt;17</title>
<path fill="none" stroke="black" d="M188.664,-25.3828C198.625,-27.0234 208,-24.5625 208,-18 208,-13.7959 204.152,-11.2751 198.768,-10.4375"/>
<polygon fill="black" stroke="black" points="198.6,-6.93988 188.664,-10.6172 198.725,-13.9388 198.6,-6.93988"/>
<text text-anchor="middle" x="216.5" y="-14.3" font-family="Times,serif" font-size="14.00">a,b</text>
</g>
</g>
</svg>
