<?xml version="1.0" encoding="UTF-8" standalone="no"?>
<!DOCTYPE svg PUBLIC "-//W3C//DTD SVG 1.1//EN"
 "http://www.w3.org/Graphics/SVG/1.1/DTD/svg11.dtd">
<!-- Generated by graphviz version 2.38.0 (20140413.2041)
 -->
<!-- Title: %3 Pages: 1 -->
<svg width="305pt" height="516pt"
 viewBox="0.00 0.00 305.11 516.00" xmlns="http://www.w3.org/2000/svg" xmlns:xlink="http://www.w3.org/1999/xlink">
<g id="graph0" class="graph" transform="scale(1 1) rotate(0) translate(4 512)">
<title>%3</title>
<!-- 0 -->
<g id="node1" class="node"><title>0</title>
<ellipse fill="lightblue" stroke="black" cx="118.112" cy="-316" rx="18" ry="18"/>
<text text-anchor="middle" x="118.112" y="-312.3" font-family="Times,serif" font-size="14.00">0</text>
</g>
<!-- 3 -->
<g id="node4" class="node"><title>3</title>
<ellipse fill="lightblue" stroke="black" cx="39.1125" cy="-196" rx="18" ry="18"/>
<text text-anchor="middle" x="39.1125" y="-192.3" font-family="Times,serif" font-size="14.00">3</text>
</g>
<!-- 0&#45;&gt;3 -->
<g id="edge1" class="edge"><title>0&#45;&gt;3</title>
<path fill="none" stroke="black" d="M103.044,-305.83C93.702,-299.522 82.0171,-290.421 74.1125,-280 61.2767,-263.078 52.2094,-240.751 46.5248,-223.516"/>
<polygon fill="black" stroke="black" points="49.7326,-222.045 43.4189,-213.537 43.0488,-224.125 49.7326,-222.045"/>
<text text-anchor="middle" x="77.6125" y="-254.3" font-family="Times,serif" font-size="14.00">b</text>
</g>
<!-- 6 -->
<g id="node7" class="node"><title>6</title>
<ellipse fill="lightblue" stroke="black" cx="152.112" cy="-18" rx="18" ry="18"/>
<text text-anchor="middle" x="152.112" y="-14.3" font-family="Times,serif" font-size="14.00">6</text>
</g>
<!-- 0&#45;&gt;6 -->
<g id="edge2" class="edge"><title>0&#45;&gt;6</title>
<path fill="none" stroke="black" d="M120.087,-297.806C125.745,-248.556 142.045,-106.644 148.956,-46.4825"/>
<polygon fill="black" stroke="black" points="152.468,-46.5752 150.132,-36.2411 145.514,-45.7763 152.468,-46.5752"/>
<text text-anchor="middle" x="140.612" y="-144.8" font-family="Times,serif" font-size="14.00">c</text>
</g>
<!-- 7 -->
<g id="node8" class="node"><title>7</title>
<ellipse fill="lightblue" stroke="black" cx="178.112" cy="-196" rx="18" ry="18"/>
<ellipse fill="none" stroke="black" cx="178.112" cy="-196" rx="22" ry="22"/>
<text text-anchor="middle" x="178.112" y="-192.3" font-family="Times,serif" font-size="14.00">7</text>
</g>
<!-- 0&#45;&gt;7 -->
<g id="edge3" class="edge"><title>0&#45;&gt;7</title>
<path fill="none" stroke="black" d="M133.147,-305.757C142.012,-299.542 152.712,-290.567 159.112,-280 168.536,-264.442 173.29,-244.665 175.687,-228.319"/>
<polygon fill="black" stroke="black" points="179.19,-228.506 176.946,-218.151 172.243,-227.645 179.19,-228.506"/>
<text text-anchor="middle" x="177.612" y="-254.3" font-family="Times,serif" font-size="14.00">a</text>
</g>
<!-- 1 -->
<g id="node2" class="node"><title>1</title>
<ellipse fill="#aaff80" stroke="black" cx="252.112" cy="-490" rx="18" ry="18"/>
<text text-anchor="middle" x="252.112" y="-486.3" font-family="Times,serif" font-size="14.00">1</text>
</g>
<!-- 2 -->
<g id="node3" class="node"><title>2</title>
<ellipse fill="lightblue" stroke="black" cx="178.112" cy="-403" rx="18" ry="18"/>
<text text-anchor="middle" x="178.112" y="-399.3" font-family="Times,serif" font-size="14.00">2</text>
</g>
<!-- 1&#45;&gt;2 -->
<g id="edge4" class="edge"><title>1&#45;&gt;2</title>
<path fill="none" stroke="black" d="M240.55,-475.719C228.711,-462.12 210.139,-440.787 196.324,-424.918"/>
<polygon fill="black" stroke="black" points="198.8,-422.432 189.594,-417.188 193.52,-427.028 198.8,-422.432"/>
<text text-anchor="middle" x="222.612" y="-442.8" font-family="Times,serif" font-size="14.00">b</text>
</g>
<!-- 1&#45;&gt;6 -->
<g id="edge5" class="edge"><title>1&#45;&gt;6</title>
<path fill="none" stroke="black" d="M262.698,-475.111C273.941,-458.942 290.112,-430.995 290.112,-404 290.112,-404 290.112,-404 290.112,-104 290.112,-52.7271 220.197,-31.3806 179.895,-23.3349"/>
<polygon fill="black" stroke="black" points="180.34,-19.8581 169.871,-21.4847 179.07,-26.7418 180.34,-19.8581"/>
<text text-anchor="middle" x="293.612" y="-254.3" font-family="Times,serif" font-size="14.00">c</text>
</g>
<!-- 1&#45;&gt;7 -->
<g id="edge6" class="edge"><title>1&#45;&gt;7</title>
<path fill="none" stroke="black" d="M256.047,-472.17C265.095,-429.332 283.301,-314.043 238.112,-236 231.235,-224.123 219.121,-215.234 207.57,-208.966"/>
<polygon fill="black" stroke="black" points="209.052,-205.795 198.538,-204.494 205.946,-212.068 209.052,-205.795"/>
<text text-anchor="middle" x="270.612" y="-355.8" font-family="Times,serif" font-size="14.00">a</text>
</g>
<!-- 2&#45;&gt;0 -->
<g id="edge7" class="edge"><title>2&#45;&gt;0</title>
<path fill="none" stroke="black" d="M168.205,-387.964C158.912,-374.799 144.858,-354.889 133.999,-339.506"/>
<polygon fill="black" stroke="black" points="136.661,-337.208 128.035,-331.057 130.942,-341.245 136.661,-337.208"/>
<text text-anchor="middle" x="154.612" y="-355.8" font-family="Times,serif" font-size="14.00">c</text>
</g>
<!-- 4 -->
<g id="node5" class="node"><title>4</title>
<ellipse fill="lightblue" stroke="black" cx="215.112" cy="-258" rx="18" ry="18"/>
<ellipse fill="none" stroke="black" cx="215.112" cy="-258" rx="22" ry="22"/>
<text text-anchor="middle" x="215.112" y="-254.3" font-family="Times,serif" font-size="14.00">4</text>
</g>
<!-- 2&#45;&gt;4 -->
<g id="edge8" class="edge"><title>2&#45;&gt;4</title>
<path fill="none" stroke="black" d="M182.429,-385.316C188.5,-361.854 199.663,-318.711 207.235,-289.447"/>
<polygon fill="black" stroke="black" points="210.632,-290.287 209.749,-279.729 203.856,-288.533 210.632,-290.287"/>
<text text-anchor="middle" x="193.612" y="-355.8" font-family="Times,serif" font-size="14.00">a</text>
</g>
<!-- 5 -->
<g id="node6" class="node"><title>5</title>
<ellipse fill="lightblue" stroke="black" cx="82.1125" cy="-105" rx="18" ry="18"/>
<text text-anchor="middle" x="82.1125" y="-101.3" font-family="Times,serif" font-size="14.00">5</text>
</g>
<!-- 2&#45;&gt;5 -->
<g id="edge9" class="edge"><title>2&#45;&gt;5</title>
<path fill="none" stroke="black" d="M161.892,-394.672C129.098,-378.923 55.1503,-338.471 21.1125,-280 -2.67409,-239.139 -6.29707,-217.549 12.1125,-174 17.2557,-161.833 42.1025,-139.261 60.7426,-123.472"/>
<polygon fill="black" stroke="black" points="63.0994,-126.064 68.526,-116.964 58.6092,-120.694 63.0994,-126.064"/>
<text text-anchor="middle" x="24.6125" y="-254.3" font-family="Times,serif" font-size="14.00">b</text>
</g>
<!-- 3&#45;&gt;0 -->
<g id="edge10" class="edge"><title>3&#45;&gt;0</title>
<path fill="none" stroke="black" d="M35.182,-213.843C31.9934,-231.817 29.9265,-260.356 43.1125,-280 53.8559,-296.005 73.9362,-304.847 90.6169,-309.639"/>
<polygon fill="black" stroke="black" points="89.8969,-313.067 100.45,-312.126 91.6137,-306.28 89.8969,-313.067"/>
<text text-anchor="middle" x="46.6125" y="-254.3" font-family="Times,serif" font-size="14.00">c</text>
</g>
<!-- 3&#45;&gt;5 -->
<g id="edge11" class="edge"><title>3&#45;&gt;5</title>
<path fill="none" stroke="black" d="M46.6025,-179.497C53.0985,-166.052 62.6168,-146.352 70.1641,-130.73"/>
<polygon fill="black" stroke="black" points="73.3651,-132.15 74.564,-121.624 67.0622,-129.105 73.3651,-132.15"/>
<text text-anchor="middle" x="67.6125" y="-144.8" font-family="Times,serif" font-size="14.00">b</text>
</g>
<!-- 3&#45;&gt;6 -->
<g id="edge12" class="edge"><title>3&#45;&gt;6</title>
<path fill="none" stroke="black" d="M36.7922,-177.873C34.5911,-155.66 33.4961,-116.294 48.1125,-87 63.5023,-56.1557 100.198,-37.3234 125.607,-27.5248"/>
<polygon fill="black" stroke="black" points="126.849,-30.7975 135.052,-24.0932 124.458,-24.2183 126.849,-30.7975"/>
<text text-anchor="middle" x="51.6125" y="-101.3" font-family="Times,serif" font-size="14.00">a</text>
</g>
<!-- 4&#45;&gt;6 -->
<g id="edge13" class="edge"><title>4&#45;&gt;6</title>
<path fill="none" stroke="black" d="M214.539,-235.74C213.854,-218.907 212.359,-194.842 209.112,-174 202.991,-134.697 201.533,-124.445 188.112,-87 182.527,-71.4173 173.914,-54.9868 166.512,-42.1807"/>
<polygon fill="black" stroke="black" points="169.511,-40.3747 161.398,-33.5604 163.491,-43.9466 169.511,-40.3747"/>
<text text-anchor="middle" x="219.612" y="-144.8" font-family="Times,serif" font-size="14.00">c,b,a</text>
</g>
<!-- 5&#45;&gt;0 -->
<g id="edge14" class="edge"><title>5&#45;&gt;0</title>
<path fill="none" stroke="black" d="M83.6293,-122.963C86.6322,-154.278 94.1867,-223.161 107.112,-280 107.775,-282.911 108.563,-285.93 109.409,-288.919"/>
<polygon fill="black" stroke="black" points="106.147,-290.223 112.41,-298.768 112.844,-288.182 106.147,-290.223"/>
<text text-anchor="middle" x="98.6125" y="-192.3" font-family="Times,serif" font-size="14.00">c</text>
</g>
<!-- 5&#45;&gt;6 -->
<g id="edge15" class="edge"><title>5&#45;&gt;6</title>
<path fill="none" stroke="black" d="M84.1803,-86.886C86.1316,-76.535 89.8941,-63.5396 97.1125,-54 104.694,-43.9804 116.043,-36.0689 126.466,-30.3214"/>
<polygon fill="black" stroke="black" points="128.318,-33.3066 135.644,-25.653 125.144,-27.0674 128.318,-33.3066"/>
<text text-anchor="middle" x="105.612" y="-57.8" font-family="Times,serif" font-size="14.00">b,a</text>
</g>
<!-- 6&#45;&gt;6 -->
<g id="edge16" class="edge"><title>6&#45;&gt;6</title>
<path fill="none" stroke="black" d="M168.777,-25.3828C178.737,-27.0234 188.112,-24.5625 188.112,-18 188.112,-13.7959 184.265,-11.2751 178.881,-10.4375"/>
<polygon fill="black" stroke="black" points="178.713,-6.93988 168.777,-10.6172 178.837,-13.9388 178.713,-6.93988"/>
<text text-anchor="middle" x="201.612" y="-14.3" font-family="Times,serif" font-size="14.00">c,b,a</text>
</g>
<!-- 7&#45;&gt;0 -->
<g id="edge17" class="edge"><title>7&#45;&gt;0</title>
<path fill="none" stroke="black" d="M166.403,-214.98C162.331,-221.498 157.851,-228.984 154.112,-236 144.809,-253.458 135.582,-273.78 128.799,-289.441"/>
<polygon fill="black" stroke="black" points="125.433,-288.412 124.719,-298.982 131.869,-291.164 125.433,-288.412"/>
<text text-anchor="middle" x="157.612" y="-254.3" font-family="Times,serif" font-size="14.00">c</text>
</g>
<!-- 7&#45;&gt;6 -->
<g id="edge18" class="edge"><title>7&#45;&gt;6</title>
<path fill="none" stroke="black" d="M175.028,-174.119C170.31,-142.184 161.303,-81.2148 156.097,-45.9725"/>
<polygon fill="black" stroke="black" points="159.536,-45.3029 154.612,-35.9218 152.611,-46.3259 159.536,-45.3029"/>
<text text-anchor="middle" x="175.612" y="-101.3" font-family="Times,serif" font-size="14.00">b,a</text>
</g>
</g>
</svg>
