<?xml version="1.0" encoding="UTF-8" standalone="no"?>
<!DOCTYPE svg PUBLIC "-//W3C//DTD SVG 1.1//EN"
 "http://www.w3.org/Graphics/SVG/1.1/DTD/svg11.dtd">
<!-- Generated by graphviz version 2.38.0 (20140413.2041)
 -->
<!-- Title: %3 Pages: 1 -->
<svg width="313pt" height="424pt"
 viewBox="0.00 0.00 312.89 424.00" xmlns="http://www.w3.org/2000/svg" xmlns:xlink="http://www.w3.org/1999/xlink">
<g id="graph0" class="graph" transform="scale(1 1) rotate(0) translate(4 420)">
<title>%3</title>
<!-- 0 -->
<g id="node1" class="node"><title>0</title>
<ellipse fill="lightblue" stroke="black" cx="112.885" cy="-204" rx="18" ry="18"/>
<ellipse fill="none" stroke="black" cx="112.885" cy="-204" rx="22" ry="22"/>
<text text-anchor="middle" x="112.885" y="-200.3" font-family="Times,serif" font-size="14.00">0</text>
</g>
<!-- 0&#45;&gt;0 -->
<g id="edge1" class="edge"><title>0&#45;&gt;0</title>
<path fill="none" stroke="black" d="M133.466,-212.37C143.73,-213.528 152.885,-210.738 152.885,-204 152.885,-199.683 149.128,-196.987 143.729,-195.911"/>
<polygon fill="black" stroke="black" points="143.558,-192.405 133.466,-195.63 143.366,-199.402 143.558,-192.405"/>
<text text-anchor="middle" x="156.385" y="-200.3" font-family="Times,serif" font-size="14.00">a</text>
</g>
<!-- 2 -->
<g id="node3" class="node"><title>2</title>
<ellipse fill="lightblue" stroke="black" cx="41.8851" cy="-109" rx="18" ry="18"/>
<ellipse fill="none" stroke="black" cx="41.8851" cy="-109" rx="22" ry="22"/>
<text text-anchor="middle" x="41.8851" y="-105.3" font-family="Times,serif" font-size="14.00">2</text>
</g>
<!-- 0&#45;&gt;2 -->
<g id="edge2" class="edge"><title>0&#45;&gt;2</title>
<path fill="none" stroke="black" d="M102.41,-184.399C96.0851,-173.698 87.5851,-160.198 78.8851,-149 74.4993,-143.355 69.4258,-137.597 64.4687,-132.298"/>
<polygon fill="black" stroke="black" points="66.8377,-129.712 57.3829,-124.931 61.7925,-134.565 66.8377,-129.712"/>
<text text-anchor="middle" x="92.3851" y="-152.8" font-family="Times,serif" font-size="14.00">d</text>
</g>
<!-- 6 -->
<g id="node7" class="node"><title>6</title>
<ellipse fill="lightblue" stroke="black" cx="150.885" cy="-18" rx="18" ry="18"/>
<text text-anchor="middle" x="150.885" y="-14.3" font-family="Times,serif" font-size="14.00">6</text>
</g>
<!-- 0&#45;&gt;6 -->
<g id="edge3" class="edge"><title>0&#45;&gt;6</title>
<path fill="none" stroke="black" d="M117.17,-182.251C124.078,-148.804 137.671,-82.9842 145.319,-45.9524"/>
<polygon fill="black" stroke="black" points="148.803,-46.3875 147.398,-35.8863 141.947,-44.9717 148.803,-46.3875"/>
<text text-anchor="middle" x="144.385" y="-105.3" font-family="Times,serif" font-size="14.00">b,c</text>
</g>
<!-- 1 -->
<g id="node2" class="node"><title>1</title>
<ellipse fill="#aaff80" stroke="black" cx="203.885" cy="-394" rx="18" ry="18"/>
<ellipse fill="none" stroke="black" cx="203.885" cy="-394" rx="22" ry="22"/>
<text text-anchor="middle" x="203.885" y="-390.3" font-family="Times,serif" font-size="14.00">1</text>
</g>
<!-- 1&#45;&gt;2 -->
<g id="edge4" class="edge"><title>1&#45;&gt;2</title>
<path fill="none" stroke="black" d="M182.82,-386.209C155.43,-376.288 108.014,-355.201 81.8851,-321 41.3182,-267.901 37.9472,-185.734 39.574,-141.224"/>
<polygon fill="black" stroke="black" points="43.0803,-141.175 40.0603,-131.02 36.0882,-140.842 43.0803,-141.175"/>
<text text-anchor="middle" x="54.3851" y="-247.8" font-family="Times,serif" font-size="14.00">d</text>
</g>
<!-- 4 -->
<g id="node5" class="node"><title>4</title>
<ellipse fill="lightblue" stroke="black" cx="112.885" cy="-299" rx="18" ry="18"/>
<ellipse fill="none" stroke="black" cx="112.885" cy="-299" rx="22" ry="22"/>
<text text-anchor="middle" x="112.885" y="-295.3" font-family="Times,serif" font-size="14.00">4</text>
</g>
<!-- 1&#45;&gt;4 -->
<g id="edge5" class="edge"><title>1&#45;&gt;4</title>
<path fill="none" stroke="black" d="M188.858,-377.643C174.237,-362.7 151.845,-339.816 135.154,-322.758"/>
<polygon fill="black" stroke="black" points="137.43,-320.08 127.934,-315.38 132.426,-324.975 137.43,-320.08"/>
<text text-anchor="middle" x="166.385" y="-342.8" font-family="Times,serif" font-size="14.00">a</text>
</g>
<!-- 1&#45;&gt;6 -->
<g id="edge6" class="edge"><title>1&#45;&gt;6</title>
<path fill="none" stroke="black" d="M222.946,-382.899C247.73,-368.226 287.885,-338.51 287.885,-300 287.885,-300 287.885,-300 287.885,-108 287.885,-56.3179 218.476,-33.1181 178.466,-24.0382"/>
<polygon fill="black" stroke="black" points="179.023,-20.5786 168.515,-21.932 177.574,-27.4269 179.023,-20.5786"/>
<text text-anchor="middle" x="296.385" y="-200.3" font-family="Times,serif" font-size="14.00">b,c</text>
</g>
<!-- 2&#45;&gt;2 -->
<g id="edge7" class="edge"><title>2&#45;&gt;2</title>
<path fill="none" stroke="black" d="M62.4659,-117.37C72.7298,-118.528 81.8851,-115.738 81.8851,-109 81.8851,-104.683 78.1278,-101.987 72.7287,-100.911"/>
<polygon fill="black" stroke="black" points="72.558,-97.405 62.4659,-100.63 72.3663,-104.402 72.558,-97.405"/>
<text text-anchor="middle" x="85.3851" y="-105.3" font-family="Times,serif" font-size="14.00">d</text>
</g>
<!-- 2&#45;&gt;6 -->
<g id="edge8" class="edge"><title>2&#45;&gt;6</title>
<path fill="none" stroke="black" d="M53.0853,-89.8458C60.7327,-78.516 71.6674,-64.1987 83.8851,-54 96.088,-43.8136 111.742,-35.4311 124.85,-29.426"/>
<polygon fill="black" stroke="black" points="126.516,-32.5177 134.279,-25.3067 123.714,-26.1032 126.516,-32.5177"/>
<text text-anchor="middle" x="97.3851" y="-57.8" font-family="Times,serif" font-size="14.00">b,c,a</text>
</g>
<!-- 3 -->
<g id="node4" class="node"><title>3</title>
<ellipse fill="lightblue" stroke="black" cx="241.885" cy="-109" rx="18" ry="18"/>
<text text-anchor="middle" x="241.885" y="-105.3" font-family="Times,serif" font-size="14.00">3</text>
</g>
<!-- 3&#45;&gt;1 -->
<g id="edge9" class="edge"><title>3&#45;&gt;1</title>
<path fill="none" stroke="black" d="M239.591,-127.085C233.369,-173.424 216.104,-302.004 208.082,-361.745"/>
<polygon fill="black" stroke="black" points="204.603,-361.352 206.741,-371.729 211.541,-362.284 204.603,-361.352"/>
<text text-anchor="middle" x="226.385" y="-247.8" font-family="Times,serif" font-size="14.00">d</text>
</g>
<!-- 3&#45;&gt;6 -->
<g id="edge10" class="edge"><title>3&#45;&gt;6</title>
<path fill="none" stroke="black" d="M230.376,-94.7206C220.498,-83.5333 205.707,-67.2756 191.885,-54 185.715,-48.0742 178.724,-41.918 172.285,-36.4513"/>
<polygon fill="black" stroke="black" points="174.444,-33.6944 164.528,-29.965 169.954,-39.0646 174.444,-33.6944"/>
<text text-anchor="middle" x="219.385" y="-57.8" font-family="Times,serif" font-size="14.00">b,c,a</text>
</g>
<!-- 4&#45;&gt;0 -->
<g id="edge11" class="edge"><title>4&#45;&gt;0</title>
<path fill="none" stroke="black" d="M112.885,-276.897C112.885,-264.887 112.885,-249.617 112.885,-236.242"/>
<polygon fill="black" stroke="black" points="116.385,-236.02 112.885,-226.02 109.385,-236.02 116.385,-236.02"/>
<text text-anchor="middle" x="116.385" y="-247.8" font-family="Times,serif" font-size="14.00">a</text>
</g>
<!-- 4&#45;&gt;2 -->
<g id="edge12" class="edge"><title>4&#45;&gt;2</title>
<path fill="none" stroke="black" d="M101.95,-279.858C93.6913,-265.594 82.5134,-245.022 74.8851,-226 63.5479,-197.73 54.4394,-164.131 48.6876,-140.388"/>
<polygon fill="black" stroke="black" points="52.067,-139.47 46.3583,-130.545 45.2551,-141.082 52.067,-139.47"/>
<text text-anchor="middle" x="78.3851" y="-200.3" font-family="Times,serif" font-size="14.00">d</text>
</g>
<!-- 5 -->
<g id="node6" class="node"><title>5</title>
<ellipse fill="lightblue" stroke="black" cx="195.885" cy="-204" rx="18" ry="18"/>
<text text-anchor="middle" x="195.885" y="-200.3" font-family="Times,serif" font-size="14.00">5</text>
</g>
<!-- 4&#45;&gt;5 -->
<g id="edge13" class="edge"><title>4&#45;&gt;5</title>
<path fill="none" stroke="black" d="M127.343,-281.801C141.233,-266.237 162.282,-242.652 177.387,-225.727"/>
<polygon fill="black" stroke="black" points="180.221,-227.808 184.268,-218.017 174.998,-223.147 180.221,-227.808"/>
<text text-anchor="middle" x="162.385" y="-247.8" font-family="Times,serif" font-size="14.00">b</text>
</g>
<!-- 4&#45;&gt;6 -->
<g id="edge14" class="edge"><title>4&#45;&gt;6</title>
<path fill="none" stroke="black" d="M96.665,-284.129C58.7269,-249.951 -29.6168,-159.217 10.8851,-87 33.5459,-46.5946 88.6457,-29.8102 122.572,-23.1307"/>
<polygon fill="black" stroke="black" points="123.55,-26.5111 132.775,-21.2999 122.314,-19.6212 123.55,-26.5111"/>
<text text-anchor="middle" x="11.3851" y="-152.8" font-family="Times,serif" font-size="14.00">c</text>
</g>
<!-- 5&#45;&gt;3 -->
<g id="edge15" class="edge"><title>5&#45;&gt;3</title>
<path fill="none" stroke="black" d="M202.858,-187.285C207.741,-176.446 214.508,-161.751 220.885,-149 223.317,-144.138 226.007,-138.988 228.627,-134.079"/>
<polygon fill="black" stroke="black" points="231.817,-135.537 233.493,-125.076 225.659,-132.209 231.817,-135.537"/>
<text text-anchor="middle" x="224.385" y="-152.8" font-family="Times,serif" font-size="14.00">c</text>
</g>
<!-- 5&#45;&gt;6 -->
<g id="edge16" class="edge"><title>5&#45;&gt;6</title>
<path fill="none" stroke="black" d="M191.812,-186.347C184.001,-154.407 166.854,-84.2947 157.423,-45.7307"/>
<polygon fill="black" stroke="black" points="160.757,-44.6305 154.981,-35.7482 153.957,-46.2935 160.757,-44.6305"/>
<text text-anchor="middle" x="190.885" y="-105.3" font-family="Times,serif" font-size="14.00">d,b,a</text>
</g>
<!-- 6&#45;&gt;6 -->
<g id="edge17" class="edge"><title>6&#45;&gt;6</title>
<path fill="none" stroke="black" d="M167.549,-25.3828C177.51,-27.0234 186.885,-24.5625 186.885,-18 186.885,-13.7959 183.038,-11.2751 177.653,-10.4375"/>
<polygon fill="black" stroke="black" points="177.485,-6.93988 167.549,-10.6172 177.61,-13.9388 177.485,-6.93988"/>
<text text-anchor="middle" x="205.385" y="-14.3" font-family="Times,serif" font-size="14.00">d,b,c,a</text>
</g>
</g>
</svg>
