<?xml version="1.0" encoding="UTF-8" standalone="no"?>
<!DOCTYPE svg PUBLIC "-//W3C//DTD SVG 1.1//EN"
 "http://www.w3.org/Graphics/SVG/1.1/DTD/svg11.dtd">
<!-- Generated by graphviz version 2.38.0 (20140413.2041)
 -->
<!-- Title: %3 Pages: 1 -->
<svg width="252pt" height="574pt"
 viewBox="0.00 0.00 252.00 574.00" xmlns="http://www.w3.org/2000/svg" xmlns:xlink="http://www.w3.org/1999/xlink">
<g id="graph0" class="graph" transform="scale(1 1) rotate(0) translate(4 570)">
<title>%3</title>
<!-- 0 -->
<g id="node1" class="node"><title>0</title>
<ellipse fill="lightblue" stroke="black" cx="38" cy="-548" rx="18" ry="18"/>
<text text-anchor="middle" x="38" y="-544.3" font-family="Times,serif" font-size="14.00">0</text>
</g>
<!-- 3 -->
<g id="node4" class="node"><title>3</title>
<ellipse fill="lightblue" stroke="black" cx="168" cy="-461" rx="18" ry="18"/>
<text text-anchor="middle" x="168" y="-457.3" font-family="Times,serif" font-size="14.00">3</text>
</g>
<!-- 0&#45;&gt;3 -->
<g id="edge1" class="edge"><title>0&#45;&gt;3</title>
<path fill="none" stroke="black" d="M52.6599,-537.415C75.0917,-522.748 118.133,-494.605 144.823,-477.154"/>
<polygon fill="black" stroke="black" points="146.74,-480.083 153.194,-471.681 142.909,-474.224 146.74,-480.083"/>
<text text-anchor="middle" x="114.5" y="-500.8" font-family="Times,serif" font-size="14.00">a</text>
</g>
<!-- 5 -->
<g id="node6" class="node"><title>5</title>
<ellipse fill="lightblue" stroke="black" cx="144" cy="-18" rx="18" ry="18"/>
<text text-anchor="middle" x="144" y="-14.3" font-family="Times,serif" font-size="14.00">5</text>
</g>
<!-- 0&#45;&gt;5 -->
<g id="edge2" class="edge"><title>0&#45;&gt;5</title>
<path fill="none" stroke="black" d="M27.4149,-533.111C16.171,-516.942 0,-488.995 0,-462 0,-462 0,-462 0,-108 0,-53.9485 74.3212,-31.6251 116.177,-23.339"/>
<polygon fill="black" stroke="black" points="116.851,-26.7739 126.053,-21.5241 115.586,-19.8891 116.851,-26.7739"/>
<text text-anchor="middle" x="3.5" y="-283.3" font-family="Times,serif" font-size="14.00">b</text>
</g>
<!-- 1 -->
<g id="node2" class="node"><title>1</title>
<ellipse fill="lightblue" stroke="black" cx="168" cy="-374" rx="18" ry="18"/>
<text text-anchor="middle" x="168" y="-370.3" font-family="Times,serif" font-size="14.00">1</text>
</g>
<!-- 1&#45;&gt;5 -->
<g id="edge3" class="edge"><title>1&#45;&gt;5</title>
<path fill="none" stroke="black" d="M176.966,-358.239C186.122,-341.737 199,-313.918 199,-288 199,-288 199,-288 199,-108 199,-80.6834 180.019,-54.7468 164.358,-37.996"/>
<polygon fill="black" stroke="black" points="166.54,-35.2233 157.034,-30.545 161.548,-40.1303 166.54,-35.2233"/>
<text text-anchor="middle" x="202.5" y="-196.3" font-family="Times,serif" font-size="14.00">b</text>
</g>
<!-- 6 -->
<g id="node7" class="node"><title>6</title>
<ellipse fill="lightblue" stroke="black" cx="143" cy="-287" rx="18" ry="18"/>
<text text-anchor="middle" x="143" y="-283.3" font-family="Times,serif" font-size="14.00">6</text>
</g>
<!-- 1&#45;&gt;6 -->
<g id="edge4" class="edge"><title>1&#45;&gt;6</title>
<path fill="none" stroke="black" d="M163.18,-356.611C159.675,-344.694 154.854,-328.304 150.804,-314.532"/>
<polygon fill="black" stroke="black" points="154.07,-313.235 147.891,-304.629 147.355,-315.21 154.07,-313.235"/>
<text text-anchor="middle" x="160.5" y="-326.8" font-family="Times,serif" font-size="14.00">a</text>
</g>
<!-- 2 -->
<g id="node3" class="node"><title>2</title>
<ellipse fill="lightblue" stroke="black" cx="143" cy="-200" rx="18" ry="18"/>
<text text-anchor="middle" x="143" y="-196.3" font-family="Times,serif" font-size="14.00">2</text>
</g>
<!-- 4 -->
<g id="node5" class="node"><title>4</title>
<ellipse fill="#aaff80" stroke="black" cx="106" cy="-109" rx="18" ry="18"/>
<ellipse fill="none" stroke="black" cx="106" cy="-109" rx="22" ry="22"/>
<text text-anchor="middle" x="106" y="-105.3" font-family="Times,serif" font-size="14.00">4</text>
</g>
<!-- 2&#45;&gt;4 -->
<g id="edge5" class="edge"><title>2&#45;&gt;4</title>
<path fill="none" stroke="black" d="M136.385,-183.089C131.319,-170.901 124.189,-153.753 118.11,-139.129"/>
<polygon fill="black" stroke="black" points="121.178,-137.391 114.107,-129.5 114.714,-140.078 121.178,-137.391"/>
<text text-anchor="middle" x="131.5" y="-152.8" font-family="Times,serif" font-size="14.00">b</text>
</g>
<!-- 2&#45;&gt;5 -->
<g id="edge6" class="edge"><title>2&#45;&gt;5</title>
<path fill="none" stroke="black" d="M143.096,-181.741C143.27,-150.427 143.639,-84.0213 143.848,-46.434"/>
<polygon fill="black" stroke="black" points="147.349,-46.2262 143.904,-36.2069 140.349,-46.1873 147.349,-46.2262"/>
<text text-anchor="middle" x="147.5" y="-105.3" font-family="Times,serif" font-size="14.00">a</text>
</g>
<!-- 3&#45;&gt;1 -->
<g id="edge7" class="edge"><title>3&#45;&gt;1</title>
<path fill="none" stroke="black" d="M168,-442.799C168,-431.163 168,-415.548 168,-402.237"/>
<polygon fill="black" stroke="black" points="171.5,-402.175 168,-392.175 164.5,-402.175 171.5,-402.175"/>
<text text-anchor="middle" x="171.5" y="-413.8" font-family="Times,serif" font-size="14.00">b</text>
</g>
<!-- 3&#45;&gt;5 -->
<g id="edge8" class="edge"><title>3&#45;&gt;5</title>
<path fill="none" stroke="black" d="M182.972,-450.79C203.265,-437.024 237,-409.023 237,-375 237,-375 237,-375 237,-108 237,-70.6168 197.292,-44.088 169.769,-30.1898"/>
<polygon fill="black" stroke="black" points="171.157,-26.9737 160.627,-25.8035 168.128,-33.2849 171.157,-26.9737"/>
<text text-anchor="middle" x="240.5" y="-239.8" font-family="Times,serif" font-size="14.00">a</text>
</g>
<!-- 4&#45;&gt;0 -->
<g id="edge9" class="edge"><title>4&#45;&gt;0</title>
<path fill="none" stroke="black" d="M88.1338,-122.192C67.9866,-137.543 38,-165.943 38,-199 38,-462 38,-462 38,-462 38,-481.247 38,-502.946 38,-519.603"/>
<polygon fill="black" stroke="black" points="34.5001,-519.744 38,-529.744 41.5001,-519.744 34.5001,-519.744"/>
<text text-anchor="middle" x="41.5" y="-326.8" font-family="Times,serif" font-size="14.00">a</text>
</g>
<!-- 4&#45;&gt;5 -->
<g id="edge10" class="edge"><title>4&#45;&gt;5</title>
<path fill="none" stroke="black" d="M114.433,-88.248C119.958,-75.3084 127.231,-58.2754 133.18,-44.3405"/>
<polygon fill="black" stroke="black" points="136.527,-45.4153 137.235,-34.8441 130.089,-42.6665 136.527,-45.4153"/>
<text text-anchor="middle" x="132.5" y="-57.8" font-family="Times,serif" font-size="14.00">b</text>
</g>
<!-- 5&#45;&gt;5 -->
<g id="edge11" class="edge"><title>5&#45;&gt;5</title>
<path fill="none" stroke="black" d="M160.664,-25.3828C170.625,-27.0234 180,-24.5625 180,-18 180,-13.7959 176.152,-11.2751 170.768,-10.4375"/>
<polygon fill="black" stroke="black" points="170.6,-6.93988 160.664,-10.6172 170.725,-13.9388 170.6,-6.93988"/>
<text text-anchor="middle" x="188.5" y="-14.3" font-family="Times,serif" font-size="14.00">b,a</text>
</g>
<!-- 6&#45;&gt;2 -->
<g id="edge12" class="edge"><title>6&#45;&gt;2</title>
<path fill="none" stroke="black" d="M143,-268.799C143,-257.163 143,-241.548 143,-228.237"/>
<polygon fill="black" stroke="black" points="146.5,-228.175 143,-218.175 139.5,-228.175 146.5,-228.175"/>
<text text-anchor="middle" x="146.5" y="-239.8" font-family="Times,serif" font-size="14.00">a</text>
</g>
<!-- 6&#45;&gt;5 -->
<g id="edge13" class="edge"><title>6&#45;&gt;5</title>
<path fill="none" stroke="black" d="M131.784,-272.735C105.911,-240.44 46.3876,-155.37 75,-87 84.2037,-65.0076 104.37,-46.5215 120.537,-34.4016"/>
<polygon fill="black" stroke="black" points="122.914,-37.005 129.012,-28.3414 118.842,-31.3109 122.914,-37.005"/>
<text text-anchor="middle" x="76.5" y="-152.8" font-family="Times,serif" font-size="14.00">b</text>
</g>
</g>
</svg>
