1.c->6;
5.d->6;
0.b->6;
2.b->6;
4.a->0;
6.b->6;
2.a->6;
1.b->6;
5.a->6;
2.c->6;
5.c->3;
1.a->4;
3.b->6;
3.c->6;
0.a->0;
1.d->2;
3.a->6;
6.a->6;
0.c->6;
4.d->2;
6.c->6;
0.d->2;
4.c->6;
4.b->5;
5.b->6;
2.d->2;
6.d->6;
3.d->1;
